0 10
1 20
2 31
3 39
4 47
5 57
6 65
7 74
8 81
9 86
10 90
11 97
12 107
13 115
14 122
15 130
16 137
17 143
18 149
19 155
20 161
21 166
22 172
23 181
24 187
25 196
26 201
27 204
28 208
29 216
30 226
31 234
32 240
33 247
34 253
35 258
36 264
37 266
38 273
39 279
40 285
41 291
42 294
43 298
44 304
45 308
46 312
47 319
48 323
49 327
50 332
51 334
52 338
53 345
54 348
55 352
56 356
57 360
58 364
59 370
60 376
61 385
62 391
63 396
64 398
65 405
66 410
67 412
68 416
69 421
70 423
71 425
72 430
73 433
74 440
75 441
76 444
77 449
78 452
79 455
80 458
81 462
82 465
83 468
84 471
85 473
86 477
87 482
88 487
89 491
90 497
91 500
92 501
93 506
94 511
95 513
96 513
97 515
98 520
99 521
100 526
101 527
102 532
103 535
104 537
105 541
106 542
107 544
108 549
109 553
110 556
111 560
112 563
113 566
114 569
115 571
116 573
117 575
118 579
119 581
120 583
121 588
122 589
123 590
124 591
125 593
126 595
127 597
128 599
129 603
130 606
131 609
132 613
133 616
134 620
135 620
136 625
137 625
138 628
139 630
140 633
141 634
142 637
143 639
144 640
145 645
146 650
147 654
148 655
149 658
150 658
151 660
152 663
153 664
154 665
155 669
156 670
157 674
158 675
159 679
160 682
161 684
162 686
163 692
164 694
165 694
166 695
167 695
168 695
169 699
170 702
171 704
172 704
173 706
174 711
175 711
176 715
177 720
178 723
179 725
180 728
181 730
182 730
183 738
184 740
185 745
186 746
187 747
188 750
189 752
190 757
191 761
192 763
193 767
194 767
195 769
196 771
197 775
198 777
199 778
200 780
201 781
202 784
203 787
204 790
205 791
206 793
207 795
208 797
209 797
210 803
211 805
212 807
213 809
214 813
215 815
216 819
217 819
218 821
219 822
220 822
221 824
222 825
223 826
224 827
225 827
226 828
227 829
228 832
229 834
230 836
231 839
232 839
233 840
234 840
235 841
236 841
237 841
238 843
239 843
240 845
241 847
242 849
243 852
244 852
245 852
246 853
247 855
248 856
249 856
250 857
251 860
252 860
253 862
254 862
255 863
256 867
257 867
258 867
259 870
260 871
261 871
262 871
263 873
264 875
265 876
266 881
267 882
268 882
269 884
270 884
271 884
272 885
273 887
274 892
275 894
276 896
277 898
278 898
279 900
280 901
281 904
282 907
283 909
284 913
285 915
286 916
287 916
288 916
289 919
290 922
291 927
292 928
293 928
294 930
295 934
296 937
297 939
298 939
299 939
300 941
301 943
302 944
303 946
304 949
305 950
306 950
307 952
308 954
309 955
310 956
311 958
312 963
313 965
314 967
315 967
316 967
317 968
318 971
319 973
320 975
321 979
322 979
323 981
324 982
325 982
326 982
327 982
328 983
329 983
330 985
331 988
332 989
333 992
334 992
335 993
336 995
337 997
338 998
339 999
340 1001
341 1003
342 1003
343 1004
344 1005
345 1005
346 1008
347 1009
348 1009
349 1009
350 1012
351 1014
352 1018
353 1022
354 1025
355 1026
356 1027
357 1027
358 1028
359 1031
360 1035
361 1037
362 1039
363 1039
364 1043
365 1045
366 1045
367 1046
368 1046
369 1046
370 1049
371 1049
372 1049
373 1053
374 1056
375 1056
376 1057
377 1058
378 1059
379 1059
380 1061
381 1064
382 1065
383 1068
384 1068
385 1069
386 1070
387 1073
388 1073
389 1074
390 1075
391 1077
392 1078
393 1078
394 1081
395 1084
396 1086
397 1087
398 1087
399 1087
400 1087
401 1087
402 1090
403 1090
404 1091
405 1093
406 1093
407 1094
408 1096
409 1097
410 1098
411 1100
412 1101
413 1101
414 1101
415 1103
416 1103
417 1104
418 1109
419 1110
420 1110
421 1112
422 1113
423 1114
424 1115
425 1116
426 1117
427 1117
428 1117
429 1117
430 1119
431 1120
432 1120
433 1120
434 1124
435 1125
436 1127
437 1128
438 1131
439 1133
440 1133
441 1136
442 1136
443 1138
444 1140
445 1140
446 1140
447 1140
448 1141
449 1141
450 1141
451 1144
452 1144
453 1145
454 1145
455 1146
456 1149
457 1151
458 1151
459 1152
460 1154
461 1154
462 1157
463 1159
464 1162
465 1164
466 1164
467 1165
468 1166
469 1167
470 1169
471 1171
472 1171
473 1172
474 1173
475 1174
476 1178
477 1179
478 1179
479 1179
480 1181
481 1181
482 1182
483 1184
484 1184
485 1186
486 1188
487 1190
488 1190
489 1192
490 1192
491 1192
492 1194
493 1194
494 1195
495 1197
496 1197
497 1200
498 1201
499 1202
500 1203
501 1203
502 1203
503 1204
504 1204
505 1205
506 1206
507 1207
508 1207
509 1207
510 1209
511 1210
512 1210
513 1210
514 1212
515 1212
516 1213
517 1213
518 1214
519 1214
520 1215
521 1216
522 1216
523 1217
524 1218
525 1218
526 1218
527 1218
528 1218
529 1219
530 1222
531 1222
532 1224
533 1224
534 1225
535 1228
536 1230
537 1230
538 1230
539 1230
540 1233
541 1235
542 1236
543 1239
544 1242
545 1242
546 1242
547 1243
548 1245
549 1247
550 1253
551 1253
552 1254
553 1254
554 1256
555 1256
556 1259
557 1260
558 1261
559 1261
560 1261
561 1263
562 1263
563 1265
564 1265
565 1265
566 1265
567 1265
568 1266
569 1266
570 1271
571 1275
572 1275
573 1278
574 1278
575 1278
576 1278
577 1278
578 1279
579 1279
580 1281
581 1283
582 1286
583 1286
584 1287
585 1287
586 1287
587 1288
588 1290
589 1290
590 1294
591 1294
592 1294
593 1296
594 1298
595 1298
596 1298
597 1299
598 1299
599 1299
600 1299
601 1299
602 1299
603 1300
604 1301
605 1302
606 1302
607 1302
608 1306
609 1306
610 1306
611 1306
612 1306
613 1306
614 1308
615 1308
616 1309
617 1309
618 1309
619 1309
620 1311
621 1312
622 1312
623 1312
624 1312
625 1312
626 1313
627 1313
628 1314
629 1314
630 1314
631 1317
632 1317
633 1317
634 1318
635 1320
636 1320
637 1321
638 1321
639 1321
640 1321
641 1321
642 1321
643 1321
644 1323
645 1324
646 1325
647 1326
648 1326
649 1326
650 1327
651 1329
652 1330
653 1330
654 1334
655 1334
656 1334
657 1334
658 1335
659 1338
660 1338
661 1340
662 1342
663 1343
664 1344
665 1345
666 1346
667 1346
668 1346
669 1346
670 1347
671 1347
672 1348
673 1349
674 1349
675 1349
676 1350
677 1350
678 1350
679 1351
680 1354
681 1354
682 1355
683 1355
684 1355
685 1355
686 1355
687 1355
688 1355
689 1355
690 1355
691 1355
692 1355
693 1356
694 1356
695 1356
696 1357
697 1357
698 1359
699 1359
700 1361
701 1362
702 1362
703 1362
704 1362
705 1363
706 1363
707 1364
708 1368
709 1368
710 1371
711 1372
712 1374
713 1374
714 1375
715 1375
716 1375
717 1375
718 1375
719 1375
720 1375
721 1375
722 1376
723 1376
724 1376
725 1377
726 1379
727 1379
728 1381
729 1382
730 1382
731 1385
732 1385
733 1385
734 1385
735 1385
736 1385
737 1385
738 1386
739 1387
740 1387
741 1387
742 1387
743 1388
744 1388
745 1388
746 1388
747 1388
748 1389
749 1390
750 1390
751 1391
752 1391
753 1391
754 1392
755 1392
756 1393
757 1393
758 1393
759 1393
760 1393
761 1393
762 1394
763 1397
764 1397
765 1399
766 1400
767 1400
768 1401
769 1402
770 1402
771 1403
772 1403
773 1403
774 1403
775 1404
776 1404
777 1404
778 1404
779 1404
780 1404
781 1404
782 1404
783 1404
784 1404
785 1404
786 1405
787 1406
788 1406
789 1406
790 1406
791 1407
792 1407
793 1407
794 1407
795 1407
796 1407
797 1407
798 1407
799 1409
800 1411
801 1413
802 1415
803 1416
804 1416
805 1416
806 1418
807 1418
808 1419
809 1419
810 1419
811 1421
812 1421
813 1421
814 1421
815 1422
816 1423
817 1423
818 1423
819 1423
820 1425
821 1425
822 1425
823 1426
824 1427
825 1428
826 1428
827 1429
828 1429
829 1432
830 1432
831 1432
832 1432
833 1432
834 1433
835 1433
836 1433
837 1433
838 1433
839 1433
840 1434
841 1434
842 1436
843 1437
844 1437
845 1437
846 1438
847 1438
848 1438
849 1438
850 1438
851 1438
852 1438
853 1440
854 1440
855 1440
856 1441
857 1441
858 1441
859 1443
860 1444
861 1444
862 1445
863 1445
864 1446
865 1446
866 1446
867 1446
868 1446
869 1446
870 1447
871 1451
872 1451
873 1451
874 1452
875 1455
876 1457
877 1457
878 1460
879 1460
880 1463
881 1464
882 1467
883 1468
884 1469
885 1471
886 1471
887 1471
888 1471
889 1471
890 1471
891 1471
892 1471
893 1473
894 1473
895 1473
896 1473
897 1475
898 1476
899 1476
900 1477
901 1477
902 1477
903 1477
904 1477
905 1478
906 1480
907 1482
908 1482
909 1482
910 1483
911 1485
912 1485
913 1485
914 1487
915 1488
916 1488
917 1491
918 1491
919 1494
920 1494
921 1494
922 1495
923 1496
924 1496
925 1499
926 1499
927 1500
928 1501
929 1501
930 1501
931 1502
932 1502
933 1504
934 1504
935 1504
936 1504
937 1504
938 1505
939 1505
940 1505
941 1505
942 1506
943 1506
944 1506
945 1509
946 1510
947 1510
948 1512
949 1512
950 1516
951 1517
952 1517
953 1517
954 1517
955 1517
956 1517
957 1517
958 1517
959 1517
960 1518
961 1518
962 1518
963 1520
964 1520
965 1520
966 1520
967 1520
968 1520
969 1521
970 1521
971 1524
972 1524
973 1524
974 1524
975 1524
976 1524
977 1524
978 1524
979 1524
980 1525
981 1525
982 1525
983 1525
984 1525
985 1525
986 1525
987 1525
988 1525
989 1525
990 1527
991 1527
992 1527
993 1527
994 1528
995 1528
996 1528
997 1530
998 1531
999 1531
