0 21
1 37
2 53
3 71
4 87
5 101
6 116
7 126
8 137
9 145
10 155
11 167
12 176
13 187
14 193
15 201
16 213
17 224
18 228
19 238
20 245
21 256
22 259
23 266
24 278
25 279
26 284
27 292
28 300
29 312
30 314
31 320
32 323
33 331
34 336
35 338
36 342
37 345
38 354
39 357
40 360
41 363
42 363
43 368
44 369
45 374
46 380
47 382
48 384
49 387
50 393
51 403
52 410
53 412
54 415
55 420
56 424
57 427
58 429
59 437
60 438
61 448
62 450
63 452
64 452
65 454
66 459
67 462
68 465
69 466
70 468
71 477
72 479
73 485
74 488
75 489
76 492
77 493
78 493
79 494
80 499
81 503
82 505
83 505
84 505
85 508
86 510
87 511
88 513
89 516
90 519
91 523
92 524
93 524
94 527
95 527
96 528
97 530
98 530
99 533
100 533
101 540
102 542
103 544
104 546
105 548
106 551
107 553
108 553
109 559
110 562
111 562
112 564
113 565
114 565
115 566
116 566
117 568
118 568
119 568
120 569
121 576
122 580
123 580
124 581
125 582
126 589
127 589
128 594
129 596
130 598
131 601
132 601
133 603
134 603
135 603
136 603
137 605
138 605
139 605
140 606
141 608
142 609
143 610
144 611
145 612
146 612
147 615
148 616
149 617
150 618
151 619
152 619
153 619
154 619
155 620
156 623
157 624
158 624
159 625
160 631
161 631
162 634
163 637
164 637
165 637
166 644
167 645
168 645
169 645
170 647
171 649
172 649
173 649
174 650
175 650
176 650
177 650
178 651
179 653
180 653
181 654
182 654
183 660
184 663
185 663
186 663
187 667
188 667
189 670
190 671
191 673
192 681
193 681
194 684
195 685
196 685
197 685
198 685
199 686
200 686
201 688
202 688
203 688
204 688
205 689
206 691
207 692
208 692
209 692
210 692
211 694
212 697
213 701
214 701
215 701
216 702
217 706
218 706
219 706
220 707
221 707
222 707
223 707
224 707
225 708
226 708
227 709
228 709
229 709
230 709
231 709
232 709
233 709
234 709
235 709
236 713
237 713
238 713
239 713
240 713
241 713
242 714
243 714
244 714
245 714
246 714
247 715
248 715
249 715
250 717
251 718
252 718
253 720
254 720
255 722
256 725
257 726
258 726
259 729
260 729
261 732
262 732
263 732
264 732
265 732
266 732
267 734
268 734
269 734
270 734
271 734
272 734
273 734
274 734
275 736
276 737
277 737
278 741
279 741
280 744
281 745
282 745
283 746
284 746
285 746
286 746
287 746
288 746
289 746
290 746
291 746
292 746
293 748
294 748
295 753
296 753
297 754
298 754
299 756
300 756
301 756
302 756
303 757
304 757
305 757
306 758
307 758
308 758
309 758
310 758
311 758
312 758
313 758
314 758
315 758
316 758
317 758
318 758
319 758
320 758
321 759
322 759
323 759
324 759
325 759
326 759
327 759
328 762
329 762
330 762
331 762
332 764
333 764
334 764
335 766
336 766
337 769
338 769
339 769
340 769
341 769
342 769
343 770
344 770
345 770
346 770
347 772
348 772
349 773
350 773
351 773
352 773
353 773
354 773
355 773
356 773
357 774
358 774
359 774
360 774
361 774
362 774
363 774
364 774
365 774
366 774
367 775
368 775
369 775
370 775
371 775
372 775
373 775
374 780
375 780
376 783
377 783
378 783
379 783
380 783
381 783
382 783
383 783
384 783
385 783
386 783
387 784
388 784
389 784
390 784
391 784
392 784
393 784
394 784
395 784
396 784
397 784
398 784
399 785
400 786
401 788
402 788
403 788
404 788
405 788
406 788
407 788
408 788
409 788
410 788
411 790
412 791
413 791
414 791
415 791
416 793
417 794
418 794
419 794
420 795
421 795
422 795
423 795
424 795
425 795
426 795
427 795
428 795
429 795
430 795
431 795
432 795
433 795
434 795
435 795
436 795
437 795
438 796
439 796
440 796
441 797
442 797
443 800
444 801
445 802
446 802
447 804
448 804
449 806
450 806
451 806
452 808
453 808
454 810
455 810
456 810
457 810
458 810
459 810
460 810
461 810
462 812
463 812
464 812
465 812
466 812
467 812
468 812
469 812
470 812
471 812
472 812
473 812
474 812
475 820
476 820
477 820
478 823
479 823
480 823
481 823
482 823
483 823
484 824
485 824
486 824
487 825
488 825
489 825
490 825
491 825
492 825
493 828
494 831
495 831
496 831
497 831
498 831
499 831
500 831
501 831
502 831
503 833
504 833
505 833
506 833
507 833
508 834
509 834
510 834
511 834
512 834
513 834
514 834
515 834
516 834
517 834
518 834
519 834
520 834
521 834
522 834
523 834
524 834
525 838
526 838
527 838
528 838
529 838
530 839
531 839
532 839
533 839
534 839
535 839
536 839
537 839
538 839
539 839
540 839
541 839
542 842
543 842
544 842
545 842
546 842
547 842
548 842
549 842
550 842
551 842
552 842
553 842
554 842
555 842
556 842
557 842
558 842
559 843
560 844
561 844
562 849
563 849
564 849
565 849
566 849
567 849
568 849
569 849
570 849
571 849
572 849
573 851
574 851
575 851
576 851
577 851
578 851
579 851
580 851
581 851
582 852
583 852
584 852
585 852
586 852
587 852
588 852
589 854
590 854
591 854
592 854
593 854
594 854
595 854
596 854
597 854
598 854
599 854
600 854
601 854
602 854
603 854
604 854
605 854
606 854
607 854
608 854
609 854
610 854
611 855
612 855
613 855
614 855
615 855
616 855
617 855
618 855
619 855
620 855
621 855
622 855
623 855
624 856
625 856
626 856
627 856
628 856
629 856
630 856
631 857
632 857
633 857
634 857
635 857
636 857
637 857
638 857
639 861
640 861
641 861
642 861
643 861
644 864
645 864
646 864
647 864
648 864
649 864
650 864
651 864
652 864
653 865
654 865
655 865
656 865
657 865
658 865
659 865
660 865
661 865
662 866
663 866
664 866
665 866
666 867
667 867
668 868
669 868
670 868
671 868
672 868
673 868
674 868
675 868
676 868
677 868
678 868
679 868
680 868
681 868
682 868
683 868
684 870
685 870
686 870
687 870
688 870
689 870
690 870
691 870
692 870
693 870
694 870
695 870
696 870
697 870
698 870
699 870
700 871
701 871
702 871
703 871
704 871
705 871
706 871
707 871
708 871
709 871
710 871
711 871
712 871
713 871
714 871
715 871
716 871
717 871
718 871
719 871
720 871
721 871
722 872
723 872
724 872
725 872
726 872
727 872
728 872
729 872
730 872
731 872
732 873
733 873
734 873
735 873
736 873
737 873
738 873
739 873
740 873
741 873
742 873
743 873
744 873
745 873
746 874
747 874
748 879
749 879
750 879
751 879
752 879
753 879
754 879
755 879
756 879
757 879
758 879
759 879
760 879
761 879
762 879
763 879
764 879
765 879
766 879
767 879
768 879
769 879
770 879
771 879
772 879
773 879
774 879
775 879
776 879
777 879
778 879
779 879
780 879
781 879
782 879
783 879
784 879
785 879
786 879
787 879
788 879
789 879
790 879
791 879
792 879
793 879
794 879
795 879
796 879
797 879
798 879
799 879
800 879
801 879
802 879
803 879
804 879
805 879
806 879
807 879
808 879
809 879
810 879
811 879
812 879
813 879
814 879
815 879
816 880
817 880
818 880
819 880
820 880
821 882
822 882
823 882
824 882
825 882
826 882
827 882
828 882
829 882
830 882
831 882
832 882
833 882
834 882
835 882
836 882
837 882
838 882
839 882
840 882
841 882
842 882
843 882
844 882
845 882
846 882
847 882
848 882
849 882
850 882
851 882
852 882
853 882
854 882
855 882
856 882
857 882
858 882
859 883
860 883
861 883
862 883
863 883
864 883
865 883
866 883
867 886
868 886
869 886
870 886
871 887
872 890
873 890
874 890
875 890
876 890
877 890
878 890
879 890
880 896
881 896
882 896
883 896
884 896
885 896
886 896
887 896
888 896
889 896
890 896
891 898
892 898
893 898
894 899
895 899
896 899
897 899
898 899
899 899
900 899
901 899
902 899
903 899
904 899
905 900
906 900
907 900
908 900
909 900
910 900
911 900
912 900
913 900
914 900
915 900
916 900
917 901
918 901
919 901
920 901
921 901
922 901
923 901
924 901
925 901
926 901
927 901
928 901
929 901
930 901
931 901
932 901
933 901
934 901
935 902
936 902
937 902
938 902
939 904
940 904
941 904
942 904
943 904
944 905
945 905
946 905
947 905
948 905
949 905
950 905
951 905
952 905
953 905
954 905
955 905
956 905
957 905
958 905
959 905
960 905
961 905
962 906
963 906
964 906
965 907
966 907
967 907
968 907
969 907
970 907
971 907
972 907
973 907
974 909
975 909
976 909
977 910
978 910
979 910
980 910
981 910
982 911
983 911
984 911
985 911
986 911
987 911
988 911
989 911
990 911
991 911
992 911
993 911
994 911
995 911
996 911
997 911
998 911
999 911
