0 1.064352
1 2.046832
2 2.947437
3 4.093663
4 4.748649
5 5.403635
6 6.058621
7 7.204847
8 7.859833
9 8.187326
10 8.842312
11 9.661045
12 10.152284
13 10.561651
14 11.216637
15 11.707876
16 12.526609
17 12.854102
18 13.427215
19 14.082201
20 14.491567
21 15.719666
22 16.374652
23 16.702145
24 17.357131
25 17.930244
26 18.093991
27 18.748977
28 19.076470
29 19.649582
30 20.058949
31 21.041428
32 21.696414
33 22.351400
34 22.924513
35 23.743245
36 24.561978
37 25.053218
38 25.708204
39 26.117570
40 26.363190
41 26.936303
42 27.591289
43 28.000655
44 28.573768
45 29.310627
46 29.638120
47 30.374980
48 31.275585
49 31.521205
50 32.258065
51 32.749304
52 33.404290
53 34.141150
54 34.550516
55 34.632389
56 35.369248
57 35.696741
58 35.860488
59 36.515474
60 36.679221
61 37.170460
62 37.743573
63 38.234813
64 38.562306
65 38.726052
66 39.053545
67 39.626658
68 39.872278
69 40.363517
70 40.609137
71 41.018503
72 41.591616
73 41.919109
74 42.164729
75 42.574095
76 42.983462
77 43.392828
78 43.474701
79 43.556574
80 43.965941
81 44.293434
82 44.948420
83 45.275913
84 45.439659
85 45.685279
86 46.176519
87 46.422139
88 46.913378
89 47.077125
90 47.568364
91 47.732111
92 48.141477
93 48.550843
94 48.960210
95 49.123956
96 49.533322
97 50.106435
98 50.433928
99 50.597675
100 50.925168
101 51.170788
102 51.416407
103 51.580154
104 52.235140
105 52.480760
106 52.644506
107 52.890126
108 53.217619
109 53.463239
110 54.036352
111 54.527591
112 54.773211
113 54.936958
114 55.264451
115 55.264451
116 55.591944
117 56.001310
118 56.410676
119 56.738169
120 57.065662
121 57.311282
122 57.884395
123 58.130015
124 58.539381
125 59.112494
126 59.276240
127 59.767480
128 59.931226
129 60.258720
130 60.504339
131 60.668086
132 60.913706
133 61.323072
134 61.732438
135 61.978058
136 62.633044
137 62.796791
138 62.960537
139 63.124284
140 63.288030
141 63.369903
142 63.779270
143 64.024889
144 64.270509
145 64.598002
146 64.679876
147 65.007369
148 65.252988
149 65.416735
150 65.744228
151 65.907974
152 66.071721
153 66.481087
154 66.808580
155 67.545440
156 67.791059
157 68.036679
158 68.282299
159 68.527919
160 68.691665
161 68.773539
162 68.937285
163 69.264778
164 69.428525
165 69.756018
166 69.919764
167 70.001637
168 70.247257
169 70.574750
170 70.902243
171 71.311610
172 71.475356
173 71.802849
174 71.966596
175 72.212215
176 72.294089
177 72.457835
178 72.703455
179 72.949075
180 73.440314
181 73.604061
182 73.767807
183 73.849681
184 74.259047
185 74.340920
186 74.668413
187 74.914033
188 74.995906
189 75.159653
190 75.405273
191 75.814639
192 75.978385
193 76.060259
194 76.142132
195 76.387752
196 76.387752
197 76.878991
198 77.288358
199 77.615851
200 77.697724
201 78.107090
202 78.270837
203 78.434583
204 78.516457
205 78.680203
206 78.762076
207 79.171443
208 79.335189
209 79.417062
210 79.580809
211 80.072048
212 80.563288
213 80.808908
214 81.300147
215 81.463894
216 81.545767
217 81.627640
218 81.791387
219 81.873260
220 81.873260
221 82.118880
222 82.364500
223 82.364500
224 82.610120
225 82.610120
226 82.691993
227 82.691993
228 82.855739
229 82.855739
230 82.937613
231 83.019486
232 83.101359
233 83.428852
234 83.510725
235 83.756345
236 84.083838
237 84.411331
238 84.411331
239 84.411331
240 84.738824
241 84.984444
242 85.311937
243 85.393810
244 85.475684
245 85.557557
246 85.639430
247 85.639430
248 85.721303
249 85.721303
250 85.803177
251 85.966923
252 86.376290
253 86.540036
254 86.785656
255 87.113149
256 87.358769
257 87.686262
258 87.931881
259 88.095628
260 88.095628
261 88.177501
262 88.504994
263 88.586868
264 88.668741
265 88.668741
266 88.668741
267 88.914361
268 89.078107
269 89.405600
270 89.733093
271 89.896840
272 90.142459
273 90.224333
274 90.388079
275 90.633699
276 90.633699
277 90.961192
278 91.043065
279 91.043065
280 91.206812
281 91.452432
282 91.534305
283 91.698051
284 91.943671
285 91.943671
286 92.025544
287 92.107418
288 92.107418
289 92.189291
290 92.516784
291 92.598657
292 92.680531
293 92.762404
294 92.926150
295 93.008024
296 93.008024
297 93.253643
298 93.335517
299 93.499263
300 93.581136
301 93.663010
302 93.908629
303 93.990503
304 94.072376
305 94.317996
306 94.563616
307 94.727362
308 95.136728
309 95.546095
310 95.791714
311 95.873588
312 96.037334
313 96.119207
314 96.119207
315 96.119207
316 96.282954
317 96.282954
318 96.364827
319 96.364827
320 96.364827
321 96.364827
322 96.528574
323 96.610447
324 96.774194
325 96.774194
326 96.774194
327 97.183560
328 97.429180
329 97.429180
330 97.511053
331 97.511053
332 97.756673
333 97.756673
334 97.756673
335 97.756673
336 97.838546
337 98.084166
338 98.084166
339 98.166039
340 98.329785
341 98.657279
342 98.739152
343 98.739152
344 98.739152
345 98.739152
346 98.984772
347 98.984772
348 98.984772
349 99.148518
350 99.230391
351 99.230391
352 99.476011
353 99.639758
354 99.721631
355 99.885377
356 99.967251
357 100.049124
358 100.049124
359 100.130997
360 100.212870
361 100.294744
362 100.376617
363 100.540364
364 100.622237
365 100.622237
366 100.704110
367 100.785983
368 100.867857
369 101.440969
370 101.604716
371 101.686589
372 101.850336
373 102.014082
374 102.014082
375 102.177829
376 102.505322
377 102.832815
378 102.832815
379 103.078435
380 103.078435
381 103.160308
382 103.242181
383 103.405928
384 103.569674
385 103.569674
386 103.651547
387 103.733421
388 103.733421
389 103.979040
390 103.979040
391 104.142787
392 104.224660
393 104.306533
394 104.306533
395 104.388407
396 104.470280
397 104.552153
398 104.797773
399 104.961520
400 105.125266
401 105.452759
402 105.616506
403 105.698379
404 105.698379
405 105.698379
406 105.943999
407 106.025872
408 106.025872
409 106.025872
410 106.107745
411 106.189618
412 106.189618
413 106.189618
414 106.189618
415 106.189618
416 106.271492
417 106.517112
418 106.680858
419 106.844605
420 106.926478
421 107.090224
422 107.335844
423 107.335844
424 107.499591
425 107.663337
426 107.908957
427 107.990830
428 107.990830
429 107.990830
430 107.990830
431 108.072703
432 108.072703
433 108.154577
434 108.154577
435 108.318323
436 108.482070
437 108.482070
438 108.645816
439 109.055183
440 109.382676
441 109.382676
442 109.628295
443 109.792042
444 109.873915
445 110.037662
446 110.037662
447 110.119535
448 110.447028
449 110.610775
450 110.856394
451 110.938268
452 110.938268
453 110.938268
454 111.020141
455 111.020141
456 111.020141
457 111.347634
458 111.347634
459 111.347634
460 111.429507
461 111.429507
462 111.511380
463 111.675127
464 111.838873
465 111.920747
466 111.920747
467 111.920747
468 112.166366
469 112.330113
470 112.330113
471 112.575733
472 112.821353
473 112.821353
474 112.903226
475 112.903226
476 113.066972
477 113.066972
478 113.066972
479 113.148846
480 113.148846
481 113.148846
482 113.148846
483 113.148846
484 113.230719
485 113.394465
486 113.394465
487 113.558212
488 113.640085
489 113.721958
490 113.721958
491 113.803832
492 113.967578
493 114.131325
494 114.540691
495 114.540691
496 114.540691
497 114.540691
498 114.540691
499 114.704438
500 114.704438
501 114.704438
502 114.786311
503 114.868184
504 115.359424
505 115.441297
506 115.768790
507 115.768790
508 115.850663
509 115.850663
510 116.341903
511 116.423776
512 116.587523
513 116.587523
514 116.669396
515 116.669396
516 116.751269
517 116.751269
518 116.915016
519 116.996889
520 117.078762
521 117.078762
522 117.078762
523 117.160635
524 117.160635
525 117.160635
526 117.324382
527 117.324382
528 117.324382
529 117.324382
530 117.406255
531 117.570002
532 117.570002
533 117.651875
534 117.733748
535 117.733748
536 117.733748
537 117.815621
538 117.815621
539 117.815621
540 117.897495
541 117.897495
542 117.897495
543 117.897495
544 117.897495
545 117.897495
546 117.897495
547 117.897495
548 118.143114
549 118.143114
550 118.143114
551 118.552481
552 118.634354
553 118.634354
554 118.634354
555 118.798101
556 118.961847
557 118.961847
558 119.125594
559 119.289340
560 119.371213
561 119.371213
562 119.616833
563 119.616833
564 119.616833
565 119.698706
566 119.698706
567 119.698706
568 119.698706
569 119.780580
570 119.780580
571 119.780580
572 119.780580
573 119.862453
574 119.862453
575 119.862453
576 119.944326
577 119.944326
578 119.944326
579 120.108073
580 120.189946
581 120.271819
582 120.353692
583 120.435566
584 120.517439
585 120.517439
586 120.517439
587 120.599312
588 120.599312
589 120.681186
590 120.763059
591 120.763059
592 120.844932
593 120.844932
594 120.844932
595 120.926805
596 120.926805
597 120.926805
598 120.926805
599 121.008679
600 121.008679
601 121.008679
602 121.008679
603 121.008679
604 121.008679
605 121.090552
606 121.090552
607 121.090552
608 121.090552
609 121.090552
610 121.090552
611 121.090552
612 121.090552
613 121.090552
614 121.090552
615 121.090552
616 121.090552
617 121.090552
618 121.254298
619 121.499918
620 121.499918
621 121.499918
622 121.663665
623 121.663665
624 121.663665
625 121.909284
626 121.991158
627 121.991158
628 121.991158
629 121.991158
630 121.991158
631 122.073031
632 122.154904
633 122.318651
634 122.318651
635 122.318651
636 122.318651
637 122.318651
638 122.318651
639 122.318651
640 122.318651
641 122.400524
642 122.482397
643 122.482397
644 122.482397
645 122.482397
646 122.482397
647 122.646144
648 122.646144
649 122.728017
650 122.728017
651 122.728017
652 122.728017
653 122.728017
654 122.891764
655 122.891764
656 122.891764
657 122.891764
658 123.137383
659 123.219257
660 123.219257
661 123.219257
662 123.219257
663 123.219257
664 123.219257
665 123.710496
666 123.874243
667 123.956116
668 123.956116
669 123.956116
670 124.037989
671 124.037989
672 124.037989
673 124.037989
674 124.037989
675 124.119862
676 124.119862
677 124.119862
678 124.119862
679 124.283609
680 124.447355
681 124.447355
682 124.447355
683 124.529229
684 124.529229
685 124.529229
686 124.529229
687 124.529229
688 124.611102
689 124.692975
690 124.774849
691 124.774849
692 124.856722
693 124.856722
694 125.102342
695 125.184215
696 125.266088
697 125.266088
698 125.266088
699 125.266088
700 125.347961
701 125.347961
702 125.347961
703 125.429835
704 125.429835
705 125.429835
706 125.429835
707 125.429835
708 125.511708
709 125.511708
710 125.593581
711 125.675454
712 125.675454
713 125.675454
714 125.675454
715 125.757328
716 126.002947
717 126.084821
718 126.084821
719 126.166694
720 126.166694
721 126.166694
722 126.166694
723 126.166694
724 126.166694
725 126.248567
726 126.330440
727 126.330440
728 126.330440
729 126.330440
730 126.330440
731 126.576060
732 126.576060
733 126.657934
734 126.657934
735 126.657934
736 126.821680
737 126.821680
738 126.903553
739 126.903553
740 126.903553
741 127.067300
742 127.231046
743 127.476666
744 127.476666
745 127.476666
746 127.476666
747 127.476666
748 127.640413
749 127.640413
750 127.640413
751 127.640413
752 127.640413
753 127.640413
754 127.640413
755 127.640413
756 127.886032
757 127.886032
758 127.886032
759 127.886032
760 128.049779
761 128.049779
762 128.295399
763 128.295399
764 128.295399
765 128.459145
766 128.459145
767 128.622892
768 128.786638
769 128.868512
770 128.868512
771 128.868512
772 128.868512
773 128.868512
774 128.950385
775 128.950385
776 128.950385
777 128.950385
778 128.950385
779 129.032258
780 129.032258
781 129.032258
782 129.114131
783 129.114131
784 129.277878
785 129.277878
786 129.277878
787 129.359751
788 129.359751
789 129.359751
790 129.359751
791 129.441624
792 129.523498
793 129.523498
794 129.687244
795 129.687244
796 129.687244
797 129.687244
798 129.769117
799 130.014737
800 130.014737
801 130.096610
802 130.096610
803 130.260357
804 130.260357
805 130.342230
806 130.342230
807 130.751597
808 130.751597
809 130.751597
810 130.751597
811 130.751597
812 130.751597
813 130.915343
814 130.915343
815 130.915343
816 130.915343
817 130.915343
818 130.915343
819 130.915343
820 130.915343
821 130.915343
822 131.160963
823 131.160963
824 131.242836
825 131.242836
826 131.488456
827 131.488456
828 131.570329
829 131.570329
830 131.734076
831 131.897822
832 131.897822
833 131.897822
834 131.897822
835 132.061569
836 132.061569
837 132.143442
838 132.143442
839 132.143442
840 132.143442
841 132.225315
842 132.225315
843 132.225315
844 132.225315
845 132.225315
846 132.225315
847 132.225315
848 132.470935
849 132.634682
850 132.634682
851 132.634682
852 132.634682
853 132.634682
854 132.634682
855 132.634682
856 132.634682
857 132.634682
858 132.716555
859 132.716555
860 132.716555
861 132.880301
862 132.880301
863 132.880301
864 132.962175
865 132.962175
866 133.125921
867 133.289668
868 133.289668
869 133.289668
870 133.371541
871 133.617161
872 133.617161
873 133.617161
874 133.617161
875 133.699034
876 133.699034
877 133.699034
878 133.780907
879 133.780907
880 133.780907
881 133.780907
882 133.862780
883 133.862780
884 133.862780
885 133.862780
886 133.862780
887 134.108400
888 134.108400
889 134.190273
890 134.190273
891 134.190273
892 134.272147
893 134.272147
894 134.272147
895 134.272147
896 134.272147
897 134.272147
898 134.272147
899 134.517766
900 134.681513
901 134.681513
902 134.681513
903 134.681513
904 134.845260
905 134.845260
906 134.845260
907 134.845260
908 134.845260
909 134.927133
910 135.172753
911 135.172753
912 135.336499
913 135.418372
914 135.418372
915 135.418372
916 135.418372
917 135.418372
918 135.418372
919 135.418372
920 135.500246
921 135.582119
922 135.582119
923 135.582119
924 135.582119
925 135.582119
926 135.663992
927 135.745865
928 135.745865
929 135.745865
930 135.745865
931 135.827739
932 135.827739
933 135.827739
934 136.237105
935 136.237105
936 136.237105
937 136.318978
938 136.400851
939 136.400851
940 136.482725
941 136.564598
942 136.564598
943 136.564598
944 136.564598
945 137.055838
946 137.137711
947 137.137711
948 137.137711
949 137.137711
950 137.137711
951 137.137711
952 137.137711
953 137.137711
954 137.137711
955 137.383331
956 137.465204
957 137.547077
958 137.547077
959 137.792697
960 137.792697
961 137.792697
962 137.792697
963 137.792697
964 137.792697
965 137.874570
966 137.874570
967 137.874570
968 137.956443
969 137.956443
970 137.956443
971 137.956443
972 137.956443
973 137.956443
974 137.956443
975 137.956443
976 138.038317
977 138.038317
978 138.038317
979 138.202063
980 138.283936
981 138.283936
982 138.365810
983 138.529556
984 138.693303
985 138.857049
986 138.857049
987 138.857049
988 138.857049
989 139.020796
990 139.102669
991 139.102669
992 139.102669
993 139.102669
994 139.102669
995 139.102669
996 139.102669
997 139.266416
998 139.266416
999 139.266416
