0: 1177
1: 39
2: 67
3: 82
4: 98
5: 53
6: 34
7: 69
8: 130
9: 118
10: 57
11: 92
12: 54
13: 105
14: 60
15: 37
16: 37
17: 18
18: 12
19: 8
20: 13
21: 5
22: 2
23: 12
24: 14
25: 3
26: 23
27: 11
28: 7
29: 5
30: 5
31: 8
32: 19
33: 7
34: 1
35: 11
36: 12
37: 27
38: 15
39: 30
40: 17
41: 31
42: 8
43: 19
44: 3
45: 12
46: 8
47: 8
48: 5
49: 11
50: 16
51: 4
52: 9
53: 5
54: 5
55: 14
56: 12
57: 3
58: 7
59: 18
60: 8
61: 5
62: 5
63: 8
64: 19
65: 12
66: 5
67: 13
68: 15
69: 31
70: 24
71: 11
72: 8
73: 8
74: 9
75: 11
76: 8
77: 30
78: 6
79: 14
80: 16
81: 12
82: 5
83: 8
84: 12
85: 7
86: 28
87: 23
88: 9
89: 10
90: 1
91: 3
92: 12
93: 7
94: 11
95: 9
96: 21
97: 19
98: 20
99: 4
100: 8
101: 13
102: 5
103: 10
104: 8
105: 15
106: 14
107: 8
108: 13
109: 5
110: 17
111: 12
112: 15
113: 10
114: 15
115: 18
116: 23
117: 5
118: 31
119: 6
120: 10
121: 6
122: 12
123: 26
124: 14
125: 26
126: 5
127: 7
128: 8
129: 9
130: 14
131: 3
132: 8
133: 5
134: 10
135: 6
136: 6
137: 9
138: 10
139: 11
140: 6
141: 4
142: 6
143: 2
144: 8
145: 7
146: 3
147: 2
148: 2
149: 4
150: 1
151: 7
152: 6
153: 4
154: 21
155: 3
156: 4
157: 2
158: 9
159: 3
160: 2
161: 2
162: 5
163: 1
164: 2
165: 3
166: 3
167: 2
168: 2
169: 1
170: 8
171: 5
172: 8
173: 1
174: 3
175: 1
176: 7
177: 7
178: 2
179: 2
180: 1
181: 1
182: 1
183: 2
184: 4
185: 2
186: 3
187: 2
188: 9
189: 8
190: 4
191: 11
192: 1
193: 1
194: 3
195: 8
196: 10
197: 8
198: 7
199: 2
200: 4
201: 8
202: 11
203: 6
204: 4
205: 7
206: 11
207: 7
208: 7
209: 8
210: 9
211: 7
212: 3
213: 4
214: 1
215: 14
216: 7
217: 5
218: 3
219: 5
220: 12
221: 16
222: 8
223: 9
224: 8
225: 4
226: 11
227: 11
228: 5
229: 2
230: 2
231: 1
232: 1
233: 3
234: 1
235: 1
236: 10
237: 2
238: 5
239: 2
240: 2
241: 3
242: 7
243: 4
244: 1
245: 2
246: 2
247: 6
248: 3
249: 5
250: 3
251: 2
252: 3
253: 3
254: 2
255: 2
256: 1
257: 9
258: 13
259: 2
260: 1
261: 2
262: 4
263: 3
264: 7
265: 4
266: 5
267: 4
268: 4
269: 12
270: 4
271: 4
272: 4
273: 2
274: 8
275: 6
276: 4
277: 6
278: 4
279: 10
280: 8
281: 3
282: 1
283: 5
284: 5
285: 5
286: 2
287: 3
288: 2
289: 3
290: 1
291: 2
292: 4
293: 4
294: 9
295: 11
296: 8
297: 1
298: 1
299: 1
300: 3
301: 6
302: 2
303: 2
304: 1
305: 1
306: 4
307: 4
308: 6
309: 1
310: 3
311: 1
312: 1
313: 2
314: 3
315: 10
316: 24
317: 3
318: 9
319: 11
320: 13
321: 9
322: 10
323: 5
324: 10
325: 6
326: 3
327: 8
328: 9
329: 7
330: 11
331: 8
332: 11
333: 15
334: 5
335: 6
336: 5
337: 12
338: 7
339: 1
340: 1
341: 2
342: 2
343: 3
344: 3
345: 4
346: 4
347: 16
348: 15
349: 1
350: 5
351: 6
352: 15
353: 8
354: 14
355: 3
356: 2
357: 11
358: 10
359: 10
360: 4
361: 5
362: 3
363: 2
364: 4
365: 5
366: 6
367: 2
368: 1
369: 3
370: 6
371: 8
372: 6
373: 5
374: 5
375: 5
376: 5
377: 3
378: 2
379: 1
380: 2
381: 2
382: 3
383: 1
384: 1
385: 2
386: 4
387: 2
388: 5
389: 4
390: 2
391: 2
392: 7
393: 4
394: 3
395: 1
396: 2
397: 2
398: 1
399: 4
400: 10
401: 3
402: 4
403: 2
404: 6
405: 1
406: 8
407: 3
408: 2
409: 3
410: 1
411: 3
412: 2
413: 2
414: 4
415: 2
416: 11
417: 6
418: 4
419: 3
420: 1
421: 3
422: 2
423: 4
424: 1
425: 3
426: 1
427: 3
428: 3
429: 3
430: 1
431: 1
432: 1
433: 1
434: 3
435: 1
436: 1
437: 2
438: 2
439: 1
440: 4
441: 4
442: 2
443: 1
444: 2
445: 2
446: 2
447: 1
448: 4
449: 1
450: 5
451: 1
452: 1
453: 4
454: 3
455: 2
456: 1
457: 2
458: 2
459: 1
460: 1
461: 4
462: 2
463: 1
464: 3
465: 5
466: 2
467: 3
468: 3
469: 2
470: 3
471: 1
472: 3
473: 4
474: 1
475: 4
476: 4
477: 1
478: 7
479: 13
480: 6
481: 4
482: 3
483: 7
484: 5
485: 6
486: 4
487: 6
488: 12
489: 6
490: 3
491: 4
492: 4
493: 2
494: 2
495: 16
496: 8
497: 7
498: 11
499: 3
500: 1
501: 1
502: 4
503: 2
504: 2
505: 3
506: 4
507: 3
508: 2
509: 3
510: 1
511: 7
512: 8
513: 7
514: 4
515: 5
516: 14
517: 4
518: 10
519: 10
520: 4
521: 2
522: 9
523: 3
524: 7
525: 4
526: 10
527: 6
528: 4
529: 10
530: 2
531: 6
532: 1
533: 1
534: 2
535: 5
536: 5
537: 1
538: 13
539: 5
540: 6
541: 1
542: 8
543: 3
544: 3
545: 15
546: 9
547: 1
548: 1
549: 2
550: 1
551: 10
552: 5
553: 1
554: 1
555: 1
556: 1
557: 3
558: 1
559: 1
560: 3
561: 1
562: 2
563: 2
564: 1
565: 4
566: 7
567: 2
568: 3
569: 3
570: 2
571: 3
572: 4
573: 1
574: 3
575: 2
576: 3
577: 4
578: 5
579: 1
580: 1
581: 1
582: 1
583: 2
584: 2
585: 2
586: 3
587: 2
588: 6
589: 2
590: 1
591: 6
592: 3
593: 2
594: 1
595: 4
596: 1
597: 1
598: 4
599: 3
600: 1
601: 2
602: 3
603: 1
604: 2
605: 2
606: 2
607: 8
608: 1
609: 1
610: 2
611: 1
612: 1
613: 1
614: 3
615: 3
616: 6
617: 1
618: 8
619: 8
620: 7
621: 7
622: 8
623: 8
624: 9
625: 7
626: 5
627: 7
628: 4
629: 3
630: 5
631: 14
632: 10
633: 9
634: 7
635: 5
636: 5
637: 9
638: 2
639: 11
640: 2
641: 3
642: 9
643: 6
644: 2
645: 2
646: 4
647: 2
648: 3
649: 2
650: 3
651: 4
652: 13
653: 6
654: 4
655: 5
656: 2
657: 2
658: 2
659: 19
660: 7
661: 21
662: 8
663: 12
664: 8
665: 9
666: 1
667: 8
668: 3
669: 11
670: 2
671: 3
672: 4
673: 3
674: 10
675: 4
676: 5
677: 6
678: 2
679: 3
680: 4
681: 4
682: 2
683: 3
684: 6
685: 7
686: 4
687: 1
688: 16
689: 14
690: 6
691: 8
692: 2
693: 2
694: 2
695: 2
696: 7
697: 5
698: 5
699: 2
700: 2
701: 4
702: 4
703: 1
704: 4
705: 2
706: 2
707: 1
708: 1
709: 5
710: 4
711: 1
712: 3
713: 1
714: 1
715: 6
716: 3
717: 5
718: 3
719: 1
720: 4
721: 5
722: 6
723: 2
724: 1
725: 10
726: 1
727: 1
728: 6
729: 1
730: 2
731: 2
732: 4
733: 3
734: 2
735: 5
736: 1
737: 1
738: 2
739: 1
740: 2
741: 1
742: 5
743: 1
744: 4
745: 4
746: 2
747: 1
748: 4
749: 1
750: 1
751: 1
752: 1
753: 3
754: 2
755: 1
756: 1
757: 2
758: 1
759: 3
760: 1
761: 2
762: 2
763: 1
764: 1
765: 3
766: 2
767: 1
768: 1
769: 1
770: 1
771: 4
772: 2
773: 2
774: 2
775: 1
776: 1
777: 1
778: 2
779: 2
780: 2
781: 3
782: 1
783: 1
784: 1
785: 2
786: 1
787: 1
788: 1
789: 1
790: 1
791: 1
792: 1
793: 4
794: 4
795: 5
796: 4
797: 5
798: 7
799: 3
800: 10
801: 6
802: 4
803: 5
804: 3
805: 3
806: 2
807: 4
808: 3
809: 5
810: 3
811: 2
812: 1
813: 5
814: 3
815: 8
816: 10
817: 5
818: 3
819: 5
820: 2
821: 6
822: 3
823: 6
824: 4
825: 4
826: 11
827: 7
828: 7
829: 11
830: 8
831: 3
832: 13
833: 9
834: 8
835: 1
836: 4
837: 2
838: 5
839: 2
840: 4
841: 1
842: 2
843: 6
844: 1
845: 3
846: 1
847: 7
848: 3
849: 1
850: 6
851: 6
852: 4
853: 2
854: 5
855: 3
856: 1
857: 2
858: 3
859: 6
860: 5
861: 3
862: 6
863: 3
864: 3
865: 9
866: 3
867: 4
868: 1
869: 4
870: 5
871: 3
872: 10
873: 1
874: 29
875: 13
876: 7
877: 12
878: 6
879: 9
880: 5
881: 2
882: 9
883: 6
884: 6
885: 6
886: 15
887: 5
888: 4
889: 2
890: 9
891: 9
892: 8
893: 3
894: 3
895: 5
896: 2
897: 2
898: 2
899: 4
900: 1
901: 2
902: 1
903: 2
904: 1
905: 1
906: 1
907: 2
908: 1
909: 1
910: 1
911: 1
912: 4
913: 2
914: 3
915: 8
916: 2
917: 1
918: 2
919: 1
920: 3
921: 4
922: 3
923: 4
924: 3
925: 5
926: 3
927: 2
928: 6
929: 3
930: 6
931: 2
932: 3
933: 1
934: 1
935: 4
936: 1
937: 1
938: 2
939: 1
940: 1
941: 1
942: 1
943: 1
944: 1
945: 4
946: 12
947: 8
948: 15
949: 9
950: 4
951: 11
952: 10
953: 2
954: 3
955: 1
956: 6
957: 7
958: 1
959: 9
960: 15
961: 14
962: 13
963: 6
964: 11
965: 8
966: 1
967: 1
968: 3
969: 4
970: 2
971: 1
972: 4
973: 15
974: 3
975: 10
976: 5
977: 8
978: 1
979: 4
980: 19
981: 8
982: 5
983: 12
984: 1
985: 2
986: 4
987: 1
988: 3
989: 11
990: 1
991: 3
992: 1
993: 3
994: 1
995: 33
996: 7
997: 9
998: 4
999: 2
1000: 3
1001: 2
1002: 11
1003: 11
1004: 5
1005: 4
1006: 9
1007: 4
1008: 5
1009: 8
1010: 8
1011: 2
1012: 10
1013: 2
1014: 3
1015: 4
1016: 36
1017: 1
1018: 9
1019: 4
1020: 1
1021: 3
1022: 1
1023: 1
1024: 2
1025: 1
1026: 1
1027: 1
1028: 3
1029: 4
1030: 2
1031: 5
1032: 3
1033: 1
1034: 1
1035: 2
1036: 5
1037: 2
1038: 1
1039: 1
1040: 2
1041: 2
1042: 7
1043: 1
1044: 1
1045: 5
1046: 4
1047: 2
1048: 1
1049: 3
1050: 1
1051: 1
1052: 2
1053: 1
1054: 1
1055: 1
1056: 1
1057: 1
1058: 1
1059: 1
1060: 2
1061: 1
1062: 1
1063: 1
1064: 2
1065: 1
1066: 2
1067: 2
1068: 2
1069: 1
1070: 2
1071: 1
1072: 4
1073: 2
1074: 5
1075: 2
1076: 1
1077: 1
1078: 1
1079: 1
1080: 1
1081: 3
1082: 1
1083: 1
1084: 1
1085: 1
1086: 2
1087: 1
1088: 1
1089: 1
1090: 1
1091: 1
1092: 1
1093: 1
1094: 2
1095: 8
1096: 2
1097: 4
1098: 2
1099: 7
1100: 4
1101: 7
1102: 11
1103: 3
1104: 4
1105: 3
1106: 2
1107: 7
1108: 3
1109: 6
1110: 2
1111: 2
1112: 3
1113: 1
1114: 12
1115: 17
1116: 4
1117: 5
1118: 8
1119: 5
1120: 6
1121: 6
1122: 3
1123: 12
1124: 4
1125: 4
1126: 9
1127: 6
1128: 6
1129: 4
1130: 1
1131: 3
1132: 2
1133: 5
1134: 9
1135: 10
1136: 9
1137: 4
1138: 17
1139: 8
1140: 17
1141: 5
1142: 6
1143: 13
1144: 3
1145: 4
1146: 11
1147: 4
1148: 5
1149: 2
1150: 7
1151: 2
1152: 2
1153: 1
1154: 3
1155: 2
1156: 2
1157: 9
1158: 5
1159: 3
1160: 1
1161: 2
1162: 1
1163: 5
1164: 2
1165: 33
1166: 43
1167: 36
1168: 37
1169: 6
1170: 11
1171: 6
1172: 7
1173: 5
1174: 22
1175: 8
1176: 22
1177: 2
1178: 9
1179: 8
1180: 4
1181: 6
1182: 18
1183: 6
1184: 18
1185: 6
1186: 6
1187: 1
1188: 1
1189: 8
1190: 1
1191: 9
1192: 37
1193: 8
1194: 2
1195: 10
1196: 2
1197: 9
1198: 6
1199: 13
1200: 3
1201: 4
1202: 15
1203: 4
1204: 13
1205: 3
1206: 2
1207: 1
1208: 1
1209: 1
1210: 1
1211: 2
1212: 1
1213: 2
1214: 1
1215: 1
1216: 1
1217: 5
1218: 2
1219: 1
1220: 1
1221: 1
1222: 1
1223: 1
1224: 2
1225: 2
1226: 1
1227: 3
1228: 1
1229: 1
1230: 1
1231: 1
1232: 1
1233: 1
1234: 1
1235: 1
1236: 4
1237: 4
1238: 19
1239: 7
1240: 5
1241: 15
1242: 6
1243: 15
1244: 9
1245: 1
1246: 4
1247: 2
1248: 1
1249: 16
1250: 7
1251: 1
1252: 4
1253: 4
1254: 8
1255: 2
1256: 6
1257: 1
1258: 2
1259: 1
1260: 1
1261: 1
1262: 1
1263: 5
1264: 27
1265: 4
1266: 38
1267: 17
1268: 35
1269: 12
1270: 32
1271: 15
1272: 8
1273: 2
1274: 5
1275: 2
1276: 4
1277: 8
1278: 15
1279: 12
1280: 2
1281: 4
1282: 5
1283: 1
1284: 3
1285: 3
1286: 1
1287: 1
1288: 1
1289: 2
1290: 1
1291: 1
1292: 5
1293: 1
1294: 1
1295: 4
1296: 8
1297: 1
1298: 4
1299: 2
1300: 5
1301: 4
1302: 1
1303: 1
1304: 1
1305: 3
1306: 1
1307: 1
1308: 1
1309: 2
1310: 1
1311: 1
1312: 1
1313: 1
1314: 1
1315: 1
1316: 1
1317: 1
1318: 2
1319: 1
1320: 3
1321: 2
1322: 1
1323: 4
1324: 1
1325: 2
1326: 3
1327: 1
1328: 1
1329: 2
1330: 1
1331: 9
1332: 6
1333: 3
1334: 1
1335: 7
1336: 1
1337: 2
1338: 9
1339: 15
1340: 9
1341: 2
1342: 2
1343: 9
1344: 2
1345: 1
1346: 3
1347: 3
1348: 2
1349: 1
1350: 4
1351: 2
1352: 1
1353: 1
1354: 11
1355: 16
1356: 4
1357: 7
1358: 2
1359: 3
1360: 9
1361: 6
1362: 3
1363: 3
1364: 1
1365: 14
1366: 6
1367: 1
1368: 2
1369: 2
1370: 5
1371: 8
1372: 3
1373: 1
1374: 3
1375: 1
1376: 9
1377: 9
1378: 14
1379: 36
1380: 11
1381: 16
1382: 28
1383: 37
1384: 27
1385: 10
1386: 9
1387: 15
1388: 6
1389: 16
1390: 54
1391: 39
1392: 13
1393: 25
1394: 7
1395: 7
1396: 2
1397: 2
1398: 5
1399: 4
1400: 1
1401: 2
1402: 56
1403: 41
1404: 33
1405: 16
1406: 12
1407: 1
1408: 4
1409: 5
1410: 8
1411: 4
1412: 2
1413: 1
1414: 1
1415: 4
1416: 1
1417: 2
1418: 1
1419: 1
1420: 2
1421: 3
1422: 1
1423: 1
1424: 7
1425: 1
1426: 1
1427: 5
1428: 1
1429: 1
1430: 2
1431: 2
1432: 1
1433: 5
1434: 1
1435: 18
1436: 5
1437: 1
1438: 2
1439: 6
1440: 10
1441: 1
1442: 1
1443: 1
1444: 2
1445: 11
1446: 8
1447: 4
1448: 1
1449: 1
1450: 1
1451: 1
1452: 2
1453: 2
1454: 1
1455: 8
1456: 1
1457: 1
1458: 1
1459: 2
1460: 1
1461: 2
1462: 1
1463: 1
1464: 1
1465: 1
1466: 1
1467: 1
1468: 1
1469: 1
1470: 2
1471: 2
1472: 2
1473: 1
1474: 1
1475: 2
1476: 1
1477: 3
1478: 2
1479: 2
1480: 1
1481: 1
1482: 1
1483: 1
1484: 1
1485: 2
1486: 3
1487: 2
1488: 5
1489: 1
1490: 2
1491: 2
1492: 3
1493: 3
1494: 1
1495: 2
1496: 2
1497: 6
1498: 3
1499: 2
1500: 7
1501: 4
1502: 3
1503: 1
1504: 12
1505: 5
1506: 8
1507: 2
1508: 6
1509: 6
1510: 2
1511: 1
1512: 3
1513: 2
1514: 1
1515: 33
1516: 12
1517: 2
1518: 6
1519: 2
1520: 9
1521: 8
1522: 5
1523: 17
1524: 3
1525: 9
1526: 9
1527: 3
1528: 1
1529: 1
1530: 1
1531: 1
1532: 2
1533: 1
1534: 1
1535: 2
1536: 1
1537: 1
1538: 3
1539: 1
1540: 1
1541: 1
1542: 2
1543: 1
1544: 1
1545: 1
1546: 1
1547: 1
1548: 1
1549: 1
1550: 2
1551: 1
1552: 1
1553: 1
1554: 1
1555: 1
1556: 1
1557: 1
1558: 2
1559: 1
1560: 1
1561: 1
1562: 3
1563: 1
1564: 1
1565: 2
1566: 3
1567: 4
1568: 1
1569: 1
1570: 2
1571: 1
1572: 3
1573: 1
1574: 1
1575: 1
1576: 2
1577: 1
1578: 1
1579: 1
1580: 1
1581: 1
1582: 2
1583: 1
1584: 1
1585: 1
1586: 1
1587: 1
1588: 1
1589: 1
1590: 2
1591: 1
1592: 1
1593: 2
1594: 1
1595: 1
1596: 1
1597: 2
1598: 1
1599: 1
1600: 1
1601: 1
1602: 1
1603: 1
1604: 1
1605: 1
1606: 1
1607: 1
1608: 1
1609: 2
1610: 1
1611: 1
1612: 1
