0: 108.154878
1: 7.570841
2: 5.948518
3: 11.356262
4: 9.409474
5: 3.028337
6: 5.515899
7: 13.411205
8: 12.545966
9: 8.760545
10: 5.840363
11: 11.788882
12: 6.164828
13: 1.946788
14: 8.544235
15: 3.677266
16: 0.973394
17: 3.244646
18: 1.297859
19: 0.432620
20: 0.757084
21: 1.406013
22: 1.514168
23: 3.893576
24: 1.946788
25: 0.540774
26: 0.540774
27: 0.108155
28: 0.648929
29: 1.730478
30: 0.757084
31: 2.920182
32: 1.081549
33: 2.163098
34: 5.948518
35: 0.432620
36: 0.973394
37: 0.757084
38: 2.487562
39: 1.406013
40: 0.648929
41: 1.730478
42: 0.865239
43: 0.973394
44: 1.730478
45: 0.648929
46: 0.540774
47: 1.406013
48: 0.757084
49: 0.973394
50: 0.648929
51: 0.540774
52: 1.189704
53: 1.406013
54: 1.946788
55: 0.432620
56: 0.648929
57: 2.703872
58: 3.677266
59: 1.189704
60: 0.432620
61: 0.973394
62: 0.865239
63: 0.865239
64: 2.163098
65: 2.379407
66: 0.540774
67: 1.514168
68: 1.189704
69: 0.432620
70: 0.973394
71: 0.865239
72: 0.216310
73: 2.920182
74: 1.730478
75: 0.540774
76: 0.432620
77: 0.540774
78: 0.973394
79: 0.865239
80: 0.757084
81: 0.865239
82: 1.406013
83: 4.326195
84: 2.487562
85: 0.648929
86: 0.973394
87: 0.324465
88: 0.540774
89: 0.324465
90: 1.622323
91: 1.297859
92: 0.973394
93: 0.540774
94: 2.054943
95: 0.432620
96: 3.028337
97: 0.865239
98: 3.893576
99: 1.514168
100: 0.973394
101: 3.785421
102: 1.838633
103: 0.324465
104: 1.406013
105: 3.569111
106: 0.865239
107: 1.514168
108: 0.432620
109: 1.730478
110: 2.812027
111: 1.081549
112: 3.136491
113: 1.189704
114: 1.189704
115: 0.648929
116: 1.297859
117: 0.432620
118: 0.216310
119: 0.540774
120: 0.432620
121: 0.540774
122: 0.865239
123: 0.540774
124: 0.973394
125: 1.081549
126: 0.973394
127: 0.108155
128: 0.324465
129: 0.540774
130: 0.865239
131: 0.324465
132: 0.540774
133: 0.108155
134: 0.108155
135: 0.108155
136: 0.108155
137: 0.432620
138: 0.216310
139: 0.108155
140: 0.324465
141: 0.108155
142: 0.108155
143: 0.108155
144: 0.108155
145: 0.324465
146: 1.081549
147: 0.108155
148: 0.540774
149: 0.324465
150: 0.108155
151: 0.324465
152: 0.108155
153: 0.108155
154: 0.324465
155: 0.216310
156: 0.108155
157: 0.432620
158: 0.432620
159: 0.216310
160: 0.648929
161: 0.324465
162: 0.108155
163: 0.108155
164: 0.216310
165: 0.216310
166: 0.108155
167: 1.189704
168: 0.648929
169: 0.108155
170: 0.216310
171: 0.216310
172: 0.108155
173: 0.108155
174: 0.540774
175: 0.324465
176: 0.216310
177: 0.108155
178: 0.216310
179: 0.324465
180: 0.108155
181: 4.434350
182: 0.757084
183: 0.540774
184: 0.108155
185: 0.108155
186: 0.216310
187: 1.946788
188: 1.081549
189: 0.108155
190: 0.216310
191: 0.216310
192: 0.432620
193: 1.081549
194: 0.216310
195: 1.622323
196: 0.973394
197: 0.648929
198: 1.081549
199: 1.189704
200: 0.540774
201: 0.540774
202: 0.757084
203: 0.216310
204: 1.297859
205: 0.324465
206: 1.297859
207: 1.297859
208: 0.432620
209: 0.216310
210: 0.324465
211: 0.540774
212: 0.216310
213: 0.757084
214: 1.406013
215: 0.540774
216: 1.189704
217: 0.540774
218: 0.108155
219: 1.730478
220: 0.865239
221: 1.081549
222: 0.973394
223: 0.108155
224: 0.324465
225: 0.216310
226: 0.324465
227: 0.757084
228: 0.648929
229: 0.324465
230: 0.108155
231: 0.108155
232: 0.216310
233: 0.216310
234: 0.108155
235: 0.108155
236: 0.324465
237: 0.540774
238: 0.432620
239: 0.216310
240: 0.216310
241: 0.108155
242: 0.108155
243: 0.108155
244: 0.540774
245: 0.216310
246: 0.648929
247: 0.432620
248: 0.216310
249: 0.324465
250: 0.216310
251: 0.108155
252: 0.108155
253: 0.108155
254: 1.081549
255: 0.540774
256: 0.540774
257: 0.108155
258: 0.324465
259: 0.108155
260: 0.108155
261: 0.216310
262: 0.757084
263: 0.648929
264: 0.216310
265: 0.108155
266: 0.432620
267: 0.216310
268: 0.648929
269: 0.757084
270: 0.108155
271: 0.108155
272: 0.216310
273: 0.216310
274: 0.216310
275: 0.865239
276: 0.216310
277: 0.432620
278: 0.432620
279: 1.297859
280: 0.108155
281: 0.216310
282: 0.216310
283: 0.432620
284: 0.324465
285: 0.108155
286: 0.540774
287: 0.216310
288: 0.216310
289: 0.108155
290: 0.108155
291: 0.108155
292: 0.108155
293: 0.108155
294: 1.297859
295: 0.324465
296: 0.216310
297: 0.648929
298: 0.216310
299: 0.108155
300: 0.216310
301: 0.324465
302: 0.108155
303: 0.108155
304: 0.432620
305: 0.108155
306: 0.216310
307: 0.108155
308: 1.081549
309: 0.216310
310: 0.108155
311: 0.216310
312: 0.324465
313: 0.216310
314: 0.108155
315: 0.432620
316: 0.324465
317: 0.108155
318: 0.108155
319: 0.216310
320: 0.757084
321: 1.081549
322: 0.865239
323: 1.297859
324: 0.216310
325: 0.865239
326: 0.432620
327: 0.757084
328: 0.432620
329: 0.324465
330: 0.973394
331: 2.703872
332: 2.595717
333: 1.406013
334: 0.648929
335: 0.648929
336: 0.648929
337: 0.973394
338: 1.081549
339: 0.324465
340: 0.216310
341: 0.865239
342: 0.540774
343: 0.540774
344: 0.324465
345: 0.540774
346: 0.108155
347: 0.108155
348: 0.324465
349: 0.324465
350: 0.540774
351: 0.865239
352: 0.540774
353: 0.216310
354: 0.324465
355: 0.216310
356: 0.108155
357: 0.216310
358: 0.865239
359: 1.406013
360: 0.648929
361: 1.081549
362: 0.324465
363: 0.216310
364: 0.757084
365: 1.189704
366: 0.324465
367: 1.730478
368: 0.216310
369: 0.108155
370: 0.324465
371: 0.540774
372: 0.324465
373: 0.432620
374: 0.216310
375: 0.216310
376: 0.108155
377: 0.324465
378: 0.973394
379: 0.108155
380: 0.540774
381: 0.324465
382: 0.324465
383: 0.108155
384: 0.973394
385: 0.540774
386: 0.324465
387: 0.108155
388: 0.216310
389: 0.216310
390: 0.324465
391: 0.216310
392: 0.108155
393: 0.108155
394: 0.108155
395: 0.108155
396: 0.432620
397: 0.540774
398: 0.540774
399: 0.216310
400: 0.324465
401: 0.648929
402: 0.648929
403: 0.216310
404: 0.540774
405: 0.216310
406: 0.216310
407: 0.324465
408: 0.324465
409: 0.108155
410: 0.108155
411: 0.216310
412: 0.108155
413: 0.108155
414: 0.108155
415: 0.865239
416: 0.216310
417: 0.324465
418: 0.973394
419: 0.648929
420: 0.540774
421: 0.108155
422: 0.108155
423: 0.108155
424: 0.108155
425: 0.324465
426: 0.108155
427: 0.432620
428: 0.108155
429: 0.108155
430: 0.108155
431: 0.865239
432: 0.108155
433: 0.108155
434: 0.216310
435: 0.108155
436: 0.216310
437: 0.108155
438: 0.648929
439: 0.432620
440: 0.108155
441: 0.108155
442: 0.216310
443: 0.216310
444: 0.108155
445: 0.108155
446: 0.216310
447: 0.216310
448: 0.432620
449: 0.216310
450: 0.108155
451: 0.108155
452: 0.324465
453: 0.108155
454: 0.108155
455: 0.108155
456: 0.108155
457: 0.216310
458: 0.324465
459: 0.432620
460: 0.216310
461: 0.108155
462: 0.108155
463: 0.108155
464: 0.216310
465: 0.108155
466: 0.108155
467: 0.108155
468: 0.324465
469: 0.324465
470: 0.324465
471: 0.108155
472: 1.189704
473: 0.324465
474: 0.216310
475: 0.108155
476: 0.108155
477: 0.108155
478: 0.216310
479: 0.324465
480: 0.648929
481: 0.108155
482: 0.648929
483: 0.324465
484: 0.108155
485: 0.216310
486: 0.216310
487: 0.216310
488: 0.216310
489: 0.216310
490: 0.108155
491: 0.108155
492: 0.216310
493: 0.108155
494: 0.432620
495: 0.540774
496: 0.216310
497: 1.081549
498: 0.757084
499: 0.324465
500: 0.648929
501: 0.324465
502: 0.216310
503: 0.865239
504: 1.297859
505: 0.432620
506: 0.216310
507: 0.648929
508: 0.324465
509: 0.540774
510: 0.973394
511: 0.865239
512: 0.973394
513: 0.648929
514: 0.432620
515: 0.432620
516: 0.540774
517: 0.324465
518: 0.540774
519: 0.216310
520: 0.108155
521: 0.108155
522: 0.540774
523: 0.540774
524: 0.540774
525: 0.324465
526: 0.648929
527: 0.216310
528: 0.108155
529: 0.757084
530: 0.216310
531: 0.216310
532: 0.324465
533: 0.757084
534: 0.108155
535: 0.108155
536: 0.540774
537: 0.324465
538: 0.216310
539: 0.432620
540: 0.432620
541: 0.432620
542: 0.865239
543: 0.757084
544: 0.865239
545: 0.540774
546: 0.432620
547: 0.432620
548: 0.216310
549: 0.216310
550: 0.216310
551: 1.406013
552: 0.757084
553: 0.973394
554: 1.189704
555: 0.540774
556: 0.432620
557: 0.865239
558: 0.540774
559: 0.432620
560: 0.757084
561: 0.324465
562: 0.432620
563: 0.865239
564: 0.648929
565: 0.216310
566: 0.432620
567: 0.108155
568: 0.324465
569: 0.216310
570: 0.324465
571: 1.189704
572: 0.216310
573: 0.324465
574: 0.216310
575: 0.432620
576: 0.108155
577: 0.432620
578: 0.432620
579: 0.324465
580: 0.216310
581: 1.297859
582: 1.622323
583: 0.216310
584: 0.324465
585: 0.757084
586: 0.216310
587: 0.216310
588: 0.216310
589: 1.406013
590: 1.406013
591: 1.514168
592: 0.648929
593: 0.648929
594: 0.324465
595: 0.648929
596: 0.108155
597: 1.081549
598: 0.216310
599: 0.432620
600: 0.108155
601: 0.432620
602: 0.108155
603: 0.108155
604: 0.216310
605: 0.540774
606: 0.540774
607: 0.216310
608: 0.324465
609: 0.324465
610: 0.216310
611: 0.216310
612: 0.648929
613: 0.108155
614: 0.324465
615: 0.108155
616: 0.108155
617: 0.216310
618: 0.108155
619: 0.108155
620: 0.108155
621: 0.216310
622: 0.108155
623: 0.108155
624: 0.108155
625: 0.108155
626: 0.324465
627: 0.108155
628: 0.648929
629: 0.108155
630: 0.216310
631: 0.216310
632: 0.757084
633: 0.432620
634: 0.216310
635: 0.324465
636: 0.432620
637: 0.216310
638: 0.324465
639: 0.216310
640: 0.108155
641: 0.324465
642: 0.324465
643: 0.324465
644: 0.216310
645: 0.432620
646: 0.216310
647: 0.108155
648: 0.108155
649: 0.108155
650: 0.108155
651: 0.216310
652: 0.432620
653: 0.108155
654: 0.216310
655: 0.216310
656: 0.324465
657: 0.108155
658: 0.216310
659: 0.432620
660: 0.648929
661: 0.432620
662: 0.432620
663: 0.865239
664: 0.648929
665: 0.108155
666: 0.216310
667: 0.648929
668: 1.406013
669: 0.757084
670: 0.865239
671: 0.540774
672: 0.973394
673: 0.216310
674: 0.648929
675: 0.432620
676: 0.324465
677: 0.324465
678: 0.324465
679: 1.189704
680: 0.432620
681: 0.540774
682: 0.540774
683: 0.648929
684: 0.216310
685: 0.324465
686: 0.108155
687: 0.432620
688: 1.297859
689: 0.865239
690: 0.216310
691: 1.297859
692: 0.432620
693: 0.432620
694: 0.324465
695: 0.324465
696: 0.216310
697: 0.216310
698: 0.324465
699: 0.324465
700: 0.108155
701: 0.108155
702: 0.108155
703: 0.648929
704: 0.108155
705: 0.648929
706: 1.730478
707: 1.514168
708: 1.406013
709: 0.432620
710: 0.540774
711: 0.432620
712: 0.324465
713: 0.865239
714: 0.216310
715: 0.324465
716: 0.216310
717: 0.432620
718: 0.324465
719: 0.432620
720: 0.757084
721: 0.324465
722: 0.432620
723: 0.108155
724: 0.108155
725: 0.216310
726: 0.108155
727: 0.216310
728: 0.432620
729: 0.216310
730: 0.108155
731: 1.514168
732: 1.622323
733: 0.648929
734: 0.865239
735: 0.324465
736: 0.432620
737: 1.081549
738: 0.216310
739: 0.324465
740: 1.081549
741: 0.648929
742: 0.648929
743: 0.540774
744: 0.108155
745: 0.216310
746: 0.216310
747: 0.216310
748: 0.216310
749: 0.216310
750: 0.108155
751: 0.108155
752: 0.108155
753: 0.108155
754: 0.216310
755: 0.216310
756: 0.648929
757: 0.216310
758: 0.108155
759: 0.108155
760: 0.540774
761: 0.108155
762: 0.108155
763: 0.108155
764: 0.108155
765: 0.108155
766: 0.108155
767: 0.324465
768: 0.324465
769: 0.324465
770: 0.216310
771: 0.108155
772: 0.108155
773: 0.432620
774: 0.108155
775: 0.108155
776: 0.324465
777: 0.648929
778: 0.108155
779: 0.108155
780: 0.108155
781: 0.757084
782: 0.216310
783: 0.216310
784: 0.216310
785: 0.108155
786: 0.216310
787: 0.108155
788: 0.108155
789: 0.432620
790: 0.540774
791: 0.108155
792: 0.108155
793: 0.648929
794: 0.216310
795: 0.216310
796: 0.108155
797: 0.108155
798: 0.108155
799: 0.108155
800: 0.108155
801: 0.108155
802: 0.108155
803: 0.108155
804: 0.216310
805: 0.108155
806: 0.216310
807: 0.108155
808: 0.108155
809: 0.108155
810: 0.108155
811: 0.108155
812: 0.108155
813: 0.432620
814: 0.216310
815: 0.108155
816: 0.108155
817: 0.216310
818: 0.108155
819: 0.216310
820: 0.216310
821: 0.108155
822: 0.216310
823: 0.108155
824: 0.108155
825: 0.216310
826: 0.324465
827: 0.108155
828: 0.324465
829: 0.108155
830: 0.108155
831: 0.324465
832: 0.108155
833: 0.108155
834: 0.108155
835: 0.108155
836: 0.108155
837: 0.216310
838: 0.324465
839: 0.324465
840: 0.216310
841: 0.108155
842: 0.108155
843: 0.108155
844: 0.432620
845: 0.108155
846: 0.108155
847: 0.432620
848: 0.324465
849: 0.432620
850: 0.540774
851: 0.432620
852: 0.432620
853: 0.324465
854: 0.216310
855: 0.108155
856: 1.514168
857: 1.406013
858: 0.865239
859: 0.540774
860: 0.540774
861: 0.648929
862: 0.216310
863: 0.540774
864: 0.432620
865: 0.324465
866: 0.648929
867: 0.540774
868: 0.324465
869: 0.757084
870: 0.540774
871: 0.540774
872: 0.324465
873: 0.216310
874: 0.324465
875: 0.324465
876: 0.540774
877: 0.973394
878: 0.216310
879: 1.622323
880: 0.324465
881: 0.648929
882: 0.648929
883: 0.865239
884: 0.432620
885: 0.432620
886: 0.432620
887: 0.108155
888: 0.216310
889: 0.108155
890: 0.324465
891: 0.216310
892: 0.324465
893: 0.432620
894: 0.108155
895: 0.540774
896: 0.648929
897: 1.622323
898: 0.865239
899: 0.432620
900: 0.216310
901: 0.324465
902: 0.540774
903: 0.324465
904: 0.108155
905: 0.216310
906: 0.432620
907: 0.757084
908: 0.648929
909: 0.757084
910: 0.865239
911: 0.432620
912: 0.108155
913: 0.216310
914: 0.108155
915: 0.108155
916: 0.108155
917: 0.108155
918: 0.540774
919: 0.757084
920: 0.432620
921: 0.865239
922: 0.540774
923: 0.108155
924: 0.324465
925: 0.865239
926: 0.648929
927: 0.324465
928: 0.324465
929: 0.216310
930: 0.216310
931: 0.216310
932: 0.216310
933: 0.648929
934: 0.324465
935: 0.216310
936: 0.216310
937: 0.757084
938: 3.677266
939: 2.487562
940: 2.163098
941: 2.163098
942: 0.648929
943: 1.406013
944: 0.648929
945: 1.297859
946: 1.406013
947: 0.216310
948: 1.946788
949: 1.514168
950: 0.648929
951: 0.432620
952: 0.757084
953: 0.432620
954: 0.757084
955: 0.648929
956: 0.108155
957: 0.216310
958: 0.432620
959: 2.271252
960: 0.540774
961: 0.757084
962: 0.216310
963: 0.108155
964: 0.216310
965: 0.216310
966: 0.216310
967: 1.406013
968: 1.297859
969: 1.622323
970: 0.648929
971: 0.324465
972: 0.540774
973: 0.216310
974: 1.514168
975: 0.757084
976: 1.406013
977: 0.324465
978: 0.865239
979: 0.108155
980: 0.432620
981: 0.108155
982: 0.324465
983: 0.108155
984: 0.108155
985: 0.108155
986: 0.108155
987: 0.108155
988: 0.216310
989: 0.216310
990: 0.324465
991: 0.108155
992: 0.324465
993: 0.216310
994: 0.108155
995: 0.324465
996: 0.324465
997: 0.324465
998: 0.108155
999: 0.108155
1000: 0.216310
1001: 0.216310
1002: 0.216310
1003: 0.108155
1004: 0.216310
1005: 0.324465
1006: 0.108155
1007: 0.108155
1008: 0.108155
1009: 0.324465
1010: 0.108155
1011: 0.865239
1012: 0.108155
1013: 0.540774
1014: 0.108155
1015: 0.865239
1016: 0.324465
1017: 0.540774
1018: 0.108155
1019: 0.432620
1020: 0.216310
1021: 0.108155
1022: 0.108155
1023: 0.324465
1024: 0.108155
1025: 0.216310
1026: 0.216310
1027: 0.108155
1028: 0.108155
1029: 0.108155
1030: 0.108155
1031: 1.189704
1032: 0.540774
1033: 0.540774
1034: 0.108155
1035: 0.324465
1036: 0.757084
1037: 1.189704
1038: 0.648929
1039: 0.432620
1040: 0.216310
1041: 0.432620
1042: 1.514168
1043: 1.081549
1044: 1.730478
1045: 0.432620
1046: 0.432620
1047: 0.540774
1048: 0.108155
1049: 0.324465
1050: 0.865239
1051: 0.216310
1052: 0.648929
1053: 0.432620
1054: 0.216310
1055: 1.081549
1056: 0.865239
1057: 0.757084
1058: 1.297859
1059: 0.973394
1060: 0.540774
1061: 0.540774
1062: 1.514168
1063: 0.216310
1064: 0.108155
1065: 0.108155
1066: 0.216310
1067: 0.108155
1068: 0.216310
1069: 0.757084
1070: 0.324465
1071: 0.108155
1072: 0.216310
1073: 0.216310
1074: 0.108155
1075: 2.054943
1076: 0.432620
1077: 1.838633
1078: 0.540774
1079: 0.324465
1080: 0.648929
1081: 0.973394
1082: 1.622323
1083: 0.216310
1084: 0.324465
1085: 0.108155
1086: 3.677266
1087: 0.865239
1088: 0.324465
1089: 0.108155
1090: 0.540774
1091: 0.324465
1092: 0.216310
1093: 0.432620
1094: 0.216310
1095: 0.324465
1096: 0.108155
1097: 0.324465
1098: 0.108155
1099: 0.108155
1100: 0.108155
1101: 0.108155
1102: 0.108155
1103: 0.324465
1104: 0.108155
1105: 0.108155
1106: 0.324465
1107: 0.108155
1108: 0.108155
1109: 0.108155
1110: 0.324465
1111: 0.108155
1112: 0.108155
1113: 0.108155
1114: 0.216310
1115: 0.216310
1116: 0.108155
1117: 0.108155
1118: 0.108155
1119: 0.216310
1120: 0.108155
1121: 0.108155
1122: 0.324465
1123: 0.108155
1124: 0.108155
1125: 0.108155
1126: 0.108155
1127: 0.108155
1128: 0.108155
1129: 0.108155
1130: 0.108155
1131: 0.108155
1132: 0.108155
1133: 0.108155
1134: 0.108155
1135: 0.108155
1136: 0.108155
1137: 0.216310
1138: 0.108155
1139: 0.108155
1140: 0.216310
1141: 0.324465
1142: 0.108155
1143: 0.108155
1144: 0.216310
1145: 0.108155
1146: 0.108155
1147: 0.108155
1148: 0.216310
1149: 0.432620
1150: 0.432620
1151: 0.216310
1152: 0.216310
1153: 0.108155
1154: 0.540774
1155: 0.324465
1156: 0.648929
1157: 0.432620
1158: 0.432620
1159: 0.216310
1160: 0.324465
1161: 0.108155
1162: 0.432620
1163: 0.108155
1164: 0.108155
1165: 1.514168
1166: 0.432620
1167: 0.540774
1168: 0.648929
1169: 0.648929
1170: 0.648929
1171: 0.108155
1172: 1.514168
1173: 0.540774
1174: 0.432620
1175: 0.324465
1176: 0.216310
1177: 0.216310
1178: 0.324465
1179: 0.216310
1180: 0.540774
1181: 0.324465
1182: 0.324465
1183: 0.757084
1184: 0.108155
1185: 0.108155
1186: 1.406013
1187: 0.540774
1188: 1.297859
1189: 0.648929
1190: 0.648929
1191: 0.432620
1192: 1.297859
1193: 0.432620
1194: 0.540774
1195: 0.216310
1196: 0.108155
1197: 0.216310
1198: 0.108155
1199: 0.108155
1200: 0.108155
1201: 0.216310
1202: 0.216310
1203: 0.432620
1204: 0.108155
1205: 0.216310
1206: 0.648929
1207: 0.324465
1208: 0.108155
1209: 0.108155
1210: 0.108155
1211: 0.108155
1212: 1.514168
1213: 4.109885
1214: 1.514168
1215: 1.946788
1216: 1.946788
1217: 1.081549
1218: 4.218040
1219: 1.838633
1220: 1.297859
1221: 0.973394
1222: 1.514168
1223: 1.081549
1224: 1.189704
1225: 0.540774
1226: 0.216310
1227: 0.540774
1228: 0.973394
1229: 1.406013
1230: 0.108155
1231: 5.299589
1232: 0.973394
1233: 0.324465
1234: 2.487562
1235: 0.757084
1236: 0.108155
1237: 1.622323
1238: 1.081549
1239: 0.865239
1240: 0.540774
1241: 0.108155
1242: 0.108155
1243: 0.108155
1244: 5.624054
1245: 1.730478
1246: 0.432620
1247: 0.540774
1248: 1.189704
1249: 0.324465
1250: 0.108155
1251: 0.432620
1252: 0.108155
1253: 0.108155
1254: 0.108155
1255: 1.622323
1256: 0.648929
1257: 0.757084
1258: 0.216310
1259: 0.216310
1260: 0.108155
1261: 0.108155
1262: 0.216310
1263: 0.108155
1264: 0.108155
1265: 0.216310
1266: 0.324465
1267: 0.216310
1268: 0.108155
1269: 0.108155
1270: 0.324465
1271: 0.324465
1272: 0.324465
1273: 0.216310
1274: 0.108155
1275: 0.540774
1276: 0.216310
1277: 0.216310
1278: 0.216310
1279: 0.540774
1280: 1.406013
1281: 0.108155
1282: 0.216310
1283: 0.216310
1284: 1.189704
1285: 1.297859
1286: 0.865239
1287: 1.514168
1288: 0.757084
1289: 0.432620
1290: 0.216310
1291: 0.973394
1292: 0.108155
1293: 0.216310
1294: 0.216310
1295: 0.973394
1296: 0.648929
1297: 0.108155
1298: 0.324465
1299: 1.730478
1300: 0.324465
1301: 0.432620
1302: 0.216310
1303: 0.216310
1304: 0.108155
1305: 2.054943
1306: 2.054943
1307: 0.540774
1308: 0.432620
1309: 1.946788
1310: 1.622323
1311: 0.108155
1312: 0.757084
1313: 0.108155
1314: 0.865239
1315: 0.324465
1316: 0.324465
1317: 0.108155
1318: 0.324465
1319: 0.324465
1320: 0.108155
1321: 1.406013
1322: 0.540774
1323: 0.108155
1324: 0.216310
1325: 0.108155
1326: 0.216310
1327: 0.324465
1328: 0.108155
1329: 0.108155
1330: 0.324465
1331: 0.108155
1332: 0.324465
1333: 0.216310
1334: 0.108155
1335: 0.216310
1336: 0.108155
1337: 0.216310
1338: 0.108155
1339: 0.108155
1340: 0.108155
1341: 0.108155
1342: 0.324465
1343: 0.108155
1344: 0.108155
1345: 0.108155
1346: 0.108155
1347: 0.108155
1348: 0.108155
1349: 0.108155
1350: 0.216310
1351: 0.108155
1352: 0.216310
1353: 0.108155
1354: 0.108155
1355: 0.108155
1356: 0.108155
1357: 0.324465
1358: 0.540774
1359: 0.540774
1360: 0.108155
1361: 0.216310
1362: 0.216310
1363: 0.432620
1364: 0.324465
1365: 1.081549
1366: 0.432620
1367: 0.865239
1368: 0.216310
1369: 0.216310
1370: 0.216310
1371: 0.973394
1372: 0.216310
1373: 0.324465
1374: 0.108155
1375: 0.108155
1376: 1.514168
1377: 0.648929
1378: 1.081549
1379: 0.432620
1380: 0.540774
1381: 0.216310
1382: 0.108155
1383: 0.324465
1384: 0.108155
1385: 0.108155
1386: 0.108155
1387: 0.108155
1388: 0.216310
1389: 1.189704
1390: 0.540774
1391: 2.271252
1392: 3.785421
1393: 1.189704
1394: 0.432620
1395: 1.622323
1396: 1.189704
1397: 0.324465
1398: 4.975124
1399: 1.514168
1400: 3.893576
1401: 1.514168
1402: 0.648929
1403: 0.865239
1404: 0.216310
1405: 0.108155
1406: 0.432620
1407: 5.299589
1408: 1.730478
1409: 4.001730
1410: 1.081549
1411: 0.324465
1412: 1.297859
1413: 0.324465
1414: 0.108155
1415: 0.540774
1416: 0.216310
1417: 0.216310
1418: 0.216310
1419: 0.108155
1420: 0.108155
1421: 0.108155
1422: 0.216310
1423: 0.108155
1424: 0.540774
1425: 0.108155
1426: 0.108155
1427: 0.108155
1428: 1.514168
1429: 0.648929
1430: 0.108155
1431: 0.216310
1432: 0.757084
1433: 0.324465
1434: 1.622323
1435: 0.540774
1436: 0.108155
1437: 3.893576
1438: 1.189704
1439: 0.540774
1440: 0.216310
1441: 0.540774
1442: 0.216310
1443: 0.108155
1444: 0.108155
1445: 0.108155
1446: 0.108155
1447: 0.108155
1448: 0.108155
1449: 0.108155
1450: 0.108155
1451: 0.108155
1452: 0.216310
1453: 0.108155
1454: 0.108155
1455: 0.108155
1456: 0.108155
1457: 0.865239
1458: 0.540774
1459: 0.216310
1460: 0.108155
1461: 0.540774
1462: 0.757084
1463: 0.108155
1464: 0.216310
1465: 0.108155
1466: 0.108155
1467: 1.297859
1468: 0.108155
1469: 0.108155
1470: 0.108155
1471: 0.108155
1472: 0.108155
1473: 0.108155
1474: 0.108155
1475: 0.108155
1476: 0.216310
1477: 0.108155
1478: 0.108155
1479: 0.216310
1480: 0.108155
1481: 0.108155
1482: 0.108155
1483: 0.216310
1484: 0.108155
1485: 0.108155
