0: 1000
1: 257
2: 245
3: 255
4: 248
5: 286
6: 347
7: 243
8: 291
9: 45
10: 63
11: 68
12: 130
13: 34
14: 42
15: 40
16: 67
17: 71
18: 86
19: 42
20: 120
21: 60
22: 111
23: 64
24: 27
25: 75
26: 30
27: 78
28: 62
29: 14
30: 67
31: 44
32: 48
33: 37
34: 37
35: 124
36: 55
37: 93
38: 71
39: 11
40: 37
41: 21
42: 41
43: 33
44: 42
45: 21
46: 64
47: 38
48: 44
49: 19
50: 46
51: 74
52: 51
53: 84
54: 19
55: 43
56: 27
57: 23
58: 39
59: 57
60: 39
61: 51
62: 30
63: 28
64: 17
65: 84
66: 50
67: 53
68: 30
69: 52
70: 37
71: 43
72: 7
73: 14
74: 15
75: 34
76: 47
77: 23
78: 32
79: 15
80: 17
81: 22
82: 55
83: 43
84: 47
85: 60
86: 69
87: 59
88: 75
89: 18
90: 23
91: 20
92: 23
93: 20
94: 11
95: 6
96: 13
97: 20
98: 17
99: 18
100: 12
101: 18
102: 31
103: 45
104: 51
105: 9
106: 43
107: 45
108: 20
109: 23
110: 33
111: 27
112: 33
113: 41
114: 17
115: 5
116: 3
117: 9
118: 10
119: 31
120: 16
121: 26
122: 27
123: 23
124: 16
125: 15
126: 29
127: 36
128: 43
129: 75
130: 72
131: 13
132: 26
133: 20
134: 32
135: 61
136: 97
137: 20
138: 6
139: 8
140: 30
141: 27
142: 33
143: 53
144: 61
145: 5
146: 13
147: 19
148: 61
149: 77
150: 32
151: 37
152: 25
153: 15
154: 8
155: 9
156: 9
157: 22
158: 6
159: 16
160: 33
161: 18
162: 21
163: 13
164: 21
165: 14
166: 24
167: 18
168: 15
169: 27
170: 39
171: 19
172: 15
173: 21
174: 27
175: 38
176: 27
177: 5
178: 9
179: 7
180: 10
181: 12
182: 19
183: 31
184: 14
185: 14
186: 28
187: 25
188: 38
189: 58
190: 9
191: 14
192: 18
193: 21
194: 24
195: 29
196: 7
197: 10
198: 3
199: 11
200: 33
201: 48
202: 14
203: 34
204: 28
205: 13
206: 6
207: 29
208: 31
209: 43
210: 46
211: 40
212: 4
213: 8
214: 19
215: 36
216: 23
217: 53
218: 29
219: 7
220: 17
221: 23
222: 3
223: 10
224: 7
225: 10
226: 24
227: 22
228: 23
229: 3
230: 18
231: 19
232: 36
233: 30
234: 25
235: 23
236: 33
237: 33
238: 51
239: 41
240: 39
241: 34
242: 29
243: 55
244: 8
245: 13
246: 27
247: 7
248: 5
249: 8
250: 14
251: 9
252: 11
253: 7
254: 20
255: 11
256: 22
257: 17
258: 23
259: 16
260: 20
261: 20
262: 14
263: 17
264: 21
265: 13
266: 27
267: 23
268: 39
269: 32
270: 49
271: 35
272: 32
273: 2
274: 16
275: 51
276: 39
277: 15
278: 1
279: 12
280: 5
281: 4
282: 4
283: 3
284: 8
285: 3
286: 8
287: 12
288: 10
289: 28
290: 13
291: 10
292: 12
293: 14
294: 15
295: 16
296: 11
297: 12
298: 23
299: 19
300: 28
301: 30
302: 25
303: 6
304: 9
305: 12
306: 16
307: 24
308: 19
309: 25
310: 14
311: 7
312: 29
313: 43
314: 4
315: 3
316: 7
317: 7
318: 16
319: 2
320: 18
321: 23
322: 27
323: 22
324: 47
325: 11
326: 22
327: 9
328: 11
329: 20
330: 32
331: 16
332: 32
333: 8
334: 12
335: 7
336: 6
337: 26
338: 7
339: 19
340: 27
341: 17
342: 13
343: 20
344: 41
345: 8
346: 3
347: 53
348: 28
349: 39
350: 16
351: 26
352: 17
353: 33
354: 27
355: 39
356: 10
357: 19
358: 7
359: 18
360: 16
361: 31
362: 30
363: 37
364: 25
365: 23
366: 2
367: 16
368: 20
369: 12
370: 17
371: 2
372: 18
373: 10
374: 16
375: 1
376: 9
377: 6
378: 21
379: 12
380: 29
381: 26
382: 20
383: 29
384: 10
385: 21
386: 25
387: 34
388: 12
389: 25
390: 19
391: 23
392: 32
393: 15
394: 13
395: 7
396: 3
397: 12
398: 11
399: 32
400: 8
401: 3
402: 4
403: 7
404: 16
405: 8
406: 16
407: 7
408: 15
409: 14
410: 13
411: 16
412: 7
413: 19
414: 12
415: 25
416: 3
417: 13
418: 6
419: 40
420: 14
421: 9
422: 4
423: 9
424: 22
425: 12
426: 8
427: 4
428: 11
429: 19
430: 27
431: 26
432: 22
433: 11
434: 12
435: 27
436: 18
437: 28
438: 14
439: 10
440: 9
441: 14
442: 13
443: 6
444: 6
445: 12
446: 14
447: 7
448: 14
449: 11
450: 20
451: 22
452: 17
453: 28
454: 22
455: 39
456: 18
457: 4
458: 13
459: 6
460: 11
461: 17
462: 17
463: 29
464: 15
465: 8
466: 4
467: 26
468: 21
469: 22
470: 7
471: 15
472: 20
473: 11
474: 21
475: 8
476: 12
477: 20
478: 24
479: 13
480: 8
481: 10
482: 5
483: 7
484: 14
485: 12
486: 9
487: 15
488: 25
489: 22
490: 34
491: 30
492: 14
493: 20
494: 48
495: 31
496: 10
497: 8
498: 10
499: 12
500: 9
501: 15
502: 5
503: 17
504: 40
505: 31
506: 9
507: 18
508: 6
509: 4
510: 1
511: 21
512: 14
513: 26
514: 10
515: 15
516: 25
517: 11
518: 39
519: 53
520: 38
521: 27
522: 32
523: 31
524: 2
525: 25
526: 19
527: 32
528: 28
529: 28
530: 29
531: 47
532: 8
533: 19
534: 29
535: 11
536: 17
537: 21
538: 6
539: 7
540: 6
541: 9
542: 11
543: 14
544: 14
545: 19
546: 14
547: 7
548: 7
549: 3
550: 6
551: 29
552: 37
553: 28
554: 31
555: 18
556: 7
557: 13
558: 7
559: 21
560: 27
561: 25
562: 9
563: 14
564: 19
565: 34
566: 1
567: 5
568: 4
569: 9
570: 11
571: 31
572: 26
573: 32
574: 4
575: 18
576: 19
577: 12
578: 11
579: 26
580: 25
581: 7
582: 23
583: 5
584: 22
585: 24
586: 9
587: 7
588: 26
589: 8
590: 17
591: 23
592: 11
593: 16
594: 13
595: 31
596: 30
597: 14
598: 41
599: 23
600: 22
601: 23
602: 25
603: 5
604: 6
605: 8
606: 12
607: 22
608: 30
609: 27
610: 9
611: 40
612: 19
613: 12
614: 9
615: 11
616: 6
617: 6
618: 10
619: 13
620: 7
621: 14
622: 7
623: 29
624: 23
625: 10
626: 12
627: 4
628: 16
629: 11
630: 21
631: 18
632: 18
633: 20
634: 53
635: 12
636: 23
637: 12
638: 17
639: 18
640: 19
641: 31
642: 18
643: 25
644: 25
645: 19
646: 12
647: 20
648: 7
649: 5
650: 2
651: 16
652: 13
653: 3
654: 1
655: 9
656: 10
657: 22
658: 13
659: 12
660: 6
661: 8
662: 20
663: 14
664: 8
665: 5
666: 6
667: 8
668: 5
669: 2
670: 4
671: 12
672: 9
673: 8
674: 20
675: 9
676: 8
677: 15
678: 14
679: 6
680: 10
681: 14
682: 29
683: 12
684: 18
685: 11
686: 11
687: 4
688: 9
689: 32
690: 29
691: 7
692: 32
693: 15
694: 24
695: 18
696: 11
697: 7
698: 8
699: 3
700: 10
701: 5
702: 5
703: 5
704: 12
705: 12
706: 13
707: 7
708: 10
709: 4
710: 3
711: 6
712: 13
713: 22
714: 6
715: 2
716: 8
717: 6
718: 13
719: 14
720: 10
721: 20
722: 17
723: 12
724: 15
725: 25
726: 21
727: 26
728: 22
729: 21
730: 16
731: 12
732: 12
733: 9
734: 7
735: 12
736: 14
737: 14
738: 16
739: 16
740: 22
741: 13
742: 40
743: 17
744: 5
745: 6
746: 1
747: 55
748: 62
749: 18
750: 7
751: 5
752: 2
753: 8
754: 7
755: 6
756: 9
757: 16
758: 24
759: 18
760: 28
761: 20
762: 29
763: 39
764: 32
765: 19
766: 13
767: 23
768: 7
769: 19
770: 8
771: 56
772: 27
773: 25
774: 25
775: 7
776: 11
777: 2
778: 2
779: 7
780: 26
781: 30
782: 28
783: 20
784: 15
785: 6
786: 9
787: 6
788: 8
789: 6
790: 8
791: 8
792: 12
793: 10
794: 27
795: 24
796: 1
797: 6
798: 11
799: 11
800: 10
801: 5
802: 20
803: 11
804: 14
805: 18
806: 14
807: 24
808: 21
809: 10
810: 15
811: 5
812: 8
813: 6
814: 10
815: 13
816: 12
817: 1
818: 16
819: 5
820: 9
821: 24
822: 13
823: 9
824: 6
825: 2
826: 6
827: 19
828: 5
829: 27
830: 17
831: 9
832: 20
833: 3
834: 5
835: 6
836: 20
837: 1
838: 21
839: 20
840: 11
841: 25
842: 21
843: 4
844: 9
845: 28
846: 36
847: 31
848: 11
849: 12
850: 16
851: 14
852: 12
853: 10
854: 3
855: 7
856: 7
857: 1
858: 11
859: 8
860: 27
861: 34
862: 41
863: 25
864: 17
865: 8
866: 15
867: 64
868: 23
869: 30
870: 6
871: 19
872: 13
873: 3
874: 8
875: 8
876: 21
877: 7
878: 9
879: 19
880: 18
881: 7
882: 6
883: 5
884: 22
885: 29
886: 29
887: 26
888: 2
889: 6
890: 4
891: 12
892: 15
893: 2
894: 12
895: 6
896: 17
897: 20
898: 16
899: 9
900: 14
901: 4
902: 33
903: 7
904: 12
905: 5
906: 2
907: 5
908: 10
909: 10
910: 7
911: 1
912: 11
913: 15
914: 7
915: 4
916: 1
917: 19
918: 12
919: 14
920: 14
921: 6
922: 6
923: 7
924: 7
925: 18
926: 31
927: 4
928: 29
929: 35
930: 20
931: 8
932: 10
933: 27
934: 16
935: 6
936: 6
937: 2
938: 5
939: 5
940: 6
941: 26
942: 4
943: 13
944: 27
945: 22
946: 9
947: 2
948: 46
949: 17
950: 57
951: 22
952: 35
953: 16
954: 10
955: 8
956: 8
957: 34
958: 11
959: 6
960: 33
961: 32
962: 24
963: 14
964: 12
965: 9
966: 22
967: 5
968: 6
969: 8
970: 27
971: 26
972: 20
973: 40
974: 45
975: 35
976: 19
977: 12
978: 6
979: 7
980: 5
981: 3
982: 10
983: 6
984: 10
985: 11
986: 9
987: 3
988: 7
989: 1
990: 7
991: 7
992: 4
993: 5
994: 7
995: 7
996: 5
997: 9
998: 5
999: 7
1000: 9
1001: 6
1002: 31
1003: 12
1004: 4
1005: 28
1006: 5
1007: 1
1008: 7
1009: 3
1010: 8
1011: 4
1012: 27
1013: 9
1014: 10
1015: 22
1016: 6
1017: 23
1018: 12
1019: 15
1020: 2
1021: 15
1022: 2
1023: 3
1024: 10
1025: 39
1026: 16
1027: 38
1028: 36
1029: 20
1030: 10
1031: 18
1032: 15
1033: 3
1034: 2
1035: 30
1036: 14
1037: 26
1038: 6
1039: 12
1040: 16
1041: 60
1042: 52
1043: 37
1044: 4
1045: 63
1046: 77
1047: 44
1048: 7
1049: 7
1050: 17
1051: 7
1052: 4
1053: 84
1054: 5
1055: 9
1056: 2
1057: 2
1058: 6
1059: 10
1060: 4
1061: 11
1062: 8
1063: 3
1064: 4
1065: 12
1066: 2
1067: 6
1068: 3
1069: 7
1070: 3
1071: 2
1072: 4
1073: 3
1074: 4
1075: 2
1076: 4
1077: 7
1078: 6
1079: 6
1080: 10
1081: 3
1082: 8
1083: 8
1084: 3
1085: 16
1086: 11
1087: 19
1088: 1
1089: 5
1090: 7
1091: 21
1092: 14
1093: 19
1094: 39
1095: 31
1096: 57
1097: 42
1098: 5
1099: 7
1100: 11
1101: 5
1102: 7
1103: 63
1104: 49
1105: 23
1106: 24
1107: 8
1108: 6
1109: 7
1110: 8
1111: 8
1112: 5
1113: 36
1114: 30
1115: 15
1116: 10
1117: 9
1118: 3
1119: 2
1120: 9
1121: 5
1122: 5
1123: 1
1124: 4
1125: 2
1126: 7
1127: 7
1128: 57
1129: 40
1130: 25
1131: 17
1132: 15
1133: 8
1134: 118
1135: 124
1136: 20
1137: 43
1138: 21
1139: 10
1140: 1
1141: 3
1142: 143
1143: 51
1144: 6
1145: 8
1146: 5
1147: 2
1148: 3
1149: 11
1150: 4
1151: 3
1152: 10
1153: 8
1154: 3
1155: 3
1156: 6
1157: 5
1158: 1
1159: 3
1160: 6
1161: 2
1162: 3
1163: 2
1164: 5
1165: 5
1166: 18
1167: 8
1168: 7
1169: 7
1170: 1
1171: 14
1172: 7
1173: 23
1174: 2
1175: 1
1176: 9
1177: 12
1178: 26
1179: 14
1180: 7
1181: 1
1182: 1
1183: 3
1184: 1
1185: 8
1186: 1
1187: 3
1188: 32
1189: 6
1190: 4
1191: 73
1192: 27
1193: 5
1194: 20
1195: 9
1196: 8
1197: 17
1198: 10
1199: 34
1200: 41
1201: 15
1202: 15
1203: 5
1204: 1
1205: 6
1206: 6
1207: 8
1208: 206
1209: 32
1210: 43
1211: 42
1212: 52
1213: 20
1214: 10
1215: 16
1216: 6
1217: 6
1218: 4
1219: 1
1220: 2
1221: 2
1222: 1
1223: 6
1224: 4
1225: 5
1226: 1
1227: 1
1228: 4
1229: 12
1230: 5
1231: 9
1232: 12
1233: 1
1234: 2
1235: 4
1236: 16
1237: 29
1238: 3
1239: 2
1240: 5
1241: 4
1242: 3
1243: 9
1244: 6
1245: 42
1246: 3
1247: 8
1248: 2
1249: 7
1250: 5
1251: 2
1252: 2
1253: 1
1254: 5
1255: 2
1256: 3
1257: 3
1258: 14
1259: 7
1260: 5
1261: 4
1262: 40
1263: 70
1264: 10
1265: 19
1266: 9
1267: 6
1268: 2
1269: 1
1270: 3
1271: 4
1272: 10
1273: 10
1274: 2
1275: 9
1276: 1
1277: 4
1278: 6
1279: 5
1280: 5
1281: 3
1282: 1
1283: 1
1284: 4
1285: 4
1286: 1
1287: 1
1288: 4
1289: 2
1290: 1
1291: 4
1292: 4
1293: 14
1294: 4
1295: 5
1296: 1
1297: 2
1298: 1
1299: 4
1300: 4
1301: 2
1302: 4
1303: 26
1304: 8
1305: 4
1306: 12
1307: 4
1308: 3
1309: 1
1310: 1
1311: 2
1312: 4
1313: 2
1314: 3
1315: 3
1316: 1
1317: 7
1318: 1
1319: 4
1320: 4
1321: 5
1322: 2
1323: 6
1324: 6
1325: 2
1326: 2
1327: 3
1328: 12
1329: 1
1330: 8
1331: 3
1332: 3
1333: 1
1334: 2
1335: 6
1336: 1
1337: 4
1338: 7
1339: 6
1340: 4
1341: 2
1342: 3
1343: 1
1344: 4
1345: 1
1346: 4
1347: 2
1348: 1
1349: 1
1350: 3
1351: 1
1352: 2
1353: 1
1354: 1
1355: 2
1356: 1
1357: 5
1358: 3
1359: 1
1360: 4
1361: 4
1362: 1
1363: 2
1364: 6
1365: 3
1366: 2
1367: 1
1368: 3
1369: 3
1370: 3
1371: 1
1372: 2
1373: 9
1374: 4
1375: 3
1376: 4
1377: 1
1378: 1
1379: 1
1380: 1
1381: 2
1382: 3
1383: 5
1384: 1
1385: 4
1386: 1
1387: 1
1388: 2
1389: 1
1390: 2
1391: 1
1392: 1
1393: 2
1394: 3
1395: 3
1396: 1
1397: 2
1398: 5
1399: 4
1400: 2
1401: 3
1402: 1
1403: 1
1404: 2
1405: 1
1406: 1
1407: 6
1408: 1
1409: 1
1410: 1
1411: 1
1412: 3
1413: 1
1414: 1
1415: 2
1416: 3
1417: 3
1418: 2
1419: 4
1420: 2
1421: 2
1422: 1
1423: 1
1424: 3
1425: 3
1426: 1
1427: 3
1428: 2
1429: 2
1430: 1
1431: 1
1432: 2
1433: 1
1434: 9
1435: 2
1436: 1
1437: 3
1438: 2
1439: 2
1440: 1
1441: 1
1442: 1
1443: 1
1444: 1
1445: 1
1446: 1
1447: 1
1448: 2
1449: 1
1450: 1
1451: 2
1452: 2
1453: 2
1454: 2
1455: 2
1456: 2
1457: 3
1458: 1
1459: 1
1460: 2
1461: 3
1462: 2
1463: 1
1464: 4
1465: 2
1466: 1
1467: 3
1468: 1
1469: 1
1470: 1
1471: 2
1472: 1
1473: 1
1474: 2
1475: 1
1476: 3
1477: 1
1478: 3
1479: 1
1480: 2
1481: 2
1482: 2
1483: 1
1484: 1
1485: 2
1486: 2
1487: 1
1488: 1
1489: 2
1490: 1
1491: 3
1492: 2
1493: 2
1494: 2
1495: 2
1496: 3
1497: 3
1498: 2
1499: 1
1500: 1
1501: 2
1502: 2
1503: 1
1504: 2
1505: 1
1506: 1
1507: 2
1508: 1
1509: 1
1510: 3
1511: 1
1512: 1
1513: 4
1514: 1
1515: 1
1516: 1
1517: 1
1518: 1
1519: 1
1520: 1
1521: 2
1522: 1
1523: 2
1524: 1
1525: 2
1526: 2
1527: 2
1528: 1
1529: 2
1530: 1
1531: 1
1532: 1
1533: 1
1534: 1
1535: 1
1536: 2
1537: 2
1538: 1
1539: 2
1540: 2
1541: 2
1542: 1
1543: 1
1544: 1
1545: 2
1546: 1
1547: 1
1548: 1
1549: 1
1550: 1
1551: 1
1552: 1
1553: 1
1554: 1
1555: 1
1556: 1
1557: 1
1558: 1
1559: 1
1560: 1
1561: 1
1562: 1
1563: 1
1564: 1
1565: 1
1566: 1
1567: 1
1568: 1
1569: 1
1570: 2
1571: 1
1572: 1
1573: 1
