0: 1000
1: 243
2: 257
3: 261
4: 239
5: 282
6: 357
7: 252
8: 266
9: 32
10: 56
11: 55
12: 104
13: 26
14: 49
15: 26
16: 86
17: 70
18: 126
19: 45
20: 105
21: 58
22: 119
23: 74
24: 42
25: 49
26: 25
27: 55
28: 30
29: 20
30: 56
31: 46
32: 66
33: 61
34: 33
35: 98
36: 68
37: 90
38: 65
39: 26
40: 32
41: 28
42: 23
43: 23
44: 37
45: 25
46: 78
47: 64
48: 21
49: 29
50: 35
51: 95
52: 76
53: 104
54: 36
55: 31
56: 20
57: 6
58: 24
59: 51
60: 119
61: 22
62: 41
63: 15
64: 35
65: 101
66: 143
67: 75
68: 45
69: 147
70: 52
71: 139
72: 7
73: 14
74: 3
75: 22
76: 47
77: 64
78: 11
79: 18
80: 11
81: 27
82: 68
83: 71
84: 49
85: 64
86: 91
87: 45
88: 72
89: 15
90: 10
91: 4
92: 10
93: 2
94: 9
95: 6
96: 13
97: 17
98: 23
99: 7
100: 24
101: 6
102: 7
103: 19
104: 27
105: 59
106: 60
107: 4
108: 22
109: 31
110: 33
111: 18
112: 28
113: 4
114: 4
115: 24
116: 26
117: 32
118: 7
119: 26
120: 16
121: 33
122: 119
123: 34
124: 161
125: 47
126: 159
127: 127
128: 470
129: 11
130: 7
131: 22
132: 38
133: 20
134: 42
135: 19
136: 33
137: 67
138: 145
139: 5
140: 31
141: 10
142: 13
143: 9
144: 28
145: 16
146: 12
147: 3
148: 8
149: 5
150: 6
151: 5
152: 18
153: 5
154: 8
155: 1
156: 3
157: 3
158: 5
159: 11
160: 15
161: 33
162: 162
163: 11
164: 35
165: 114
166: 3
167: 12
168: 21
169: 62
170: 9
171: 23
172: 43
173: 5
174: 14
175: 4
176: 11
177: 11
178: 52
179: 13
180: 26
181: 143
182: 15
183: 173
184: 8
185: 17
186: 87
187: 19
188: 36
189: 208
190: 11
191: 14
192: 29
193: 8
194: 18
195: 54
196: 97
197: 18
198: 34
199: 25
200: 73
201: 64
202: 211
203: 76
204: 201
205: 7
206: 22
207: 65
208: 13
209: 73
210: 14
211: 31
212: 14
213: 3
214: 10
215: 12
216: 23
217: 6
218: 14
219: 4
220: 21
221: 3
222: 13
223: 42
224: 5
225: 9
226: 12
227: 21
228: 38
229: 23
230: 52
231: 7
232: 1
233: 3
234: 6
235: 9
236: 2
237: 10
238: 2
239: 3
240: 4
241: 9
242: 3
243: 7
244: 4
245: 15
246: 13
247: 8
248: 5
249: 2
250: 4
251: 5
252: 2
253: 3
254: 4
255: 28
256: 16
257: 108
258: 153
259: 3
260: 7
261: 30
262: 37
263: 11
264: 25
265: 2
266: 8
267: 11
268: 107
269: 3
270: 44
271: 333
272: 22
273: 5
274: 10
275: 29
276: 142
277: 138
278: 45
279: 5
280: 8
281: 77
282: 92
283: 84
284: 19
285: 166
286: 136
287: 10
288: 28
289: 82
290: 6
291: 48
292: 32
293: 28
294: 8
295: 6
296: 3
297: 3
298: 27
299: 3
300: 8
301: 10
302: 7
303: 1
304: 15
305: 6
306: 8
307: 10
308: 7
309: 12
310: 18
311: 4
312: 6
313: 4
314: 2
315: 5
316: 2
317: 7
318: 6
319: 4
320: 2
321: 4
322: 4
323: 5
324: 1
325: 5
326: 5
327: 3
328: 3
329: 5
330: 5
331: 11
332: 2
333: 5
334: 2
335: 5
336: 1
337: 3
338: 72
339: 10
340: 17
341: 176
342: 3
343: 5
344: 7
345: 1
346: 23
347: 2
348: 5
349: 3
350: 7
351: 28
352: 44
353: 1
354: 13
355: 30
356: 4
357: 6
358: 10
359: 30
360: 68
361: 4
362: 18
363: 28
364: 93
365: 82
366: 21
367: 128
368: 21
369: 1
370: 87
371: 9
372: 15
373: 86
374: 157
375: 34
376: 17
377: 4
378: 49
379: 64
380: 44
381: 26
382: 8
383: 1
384: 25
385: 6
386: 5
387: 4
388: 3
389: 46
390: 23
391: 40
392: 20
393: 124
394: 68
395: 60
396: 2
397: 1
398: 5
399: 5
400: 10
401: 6
402: 5
403: 1
404: 4
405: 1
406: 2
407: 22
408: 20
409: 2
410: 40
411: 3
412: 7
413: 66
414: 10
415: 5
416: 47
417: 46
418: 1
419: 1
420: 2
421: 3
422: 6
423: 1
424: 3
425: 1
426: 2
427: 2
428: 3
429: 4
430: 2
431: 1
432: 3
433: 2
434: 1
435: 1
436: 7
437: 64
438: 43
439: 75
440: 2
441: 4
442: 6
443: 3
444: 21
445: 48
446: 45
447: 15
448: 12
449: 6
450: 3
451: 64
452: 18
453: 5
454: 9
455: 4
456: 48
457: 1
458: 27
459: 2
460: 185
461: 2
462: 6
463: 2
464: 3
465: 46
466: 104
467: 36
468: 29
469: 3
470: 8
471: 30
472: 3
473: 13
474: 55
475: 3
476: 4
477: 42
478: 38
479: 64
480: 61
481: 1
482: 4
483: 3
484: 5
485: 1
486: 12
487: 10
488: 2
489: 6
490: 2
491: 6
492: 8
493: 6
494: 41
495: 7
496: 4
497: 52
498: 9
499: 102
500: 6
501: 2
502: 1
503: 1
504: 1
505: 3
506: 2
507: 5
508: 5
509: 2
510: 1
511: 2
512: 41
513: 5
514: 1
515: 34
516: 7
517: 31
518: 66
519: 7
520: 25
521: 16
522: 55
523: 28
524: 2
525: 8
526: 16
527: 21
528: 42
529: 15
530: 3
531: 1
532: 9
533: 3
534: 25
535: 3
536: 2
537: 34
538: 3
539: 8
540: 43
541: 37
542: 49
543: 79
544: 85
545: 2
546: 1
547: 31
548: 17
549: 10
550: 29
551: 96
552: 57
553: 74
554: 3
555: 13
556: 5
557: 39
558: 3
559: 8
560: 26
561: 17
562: 20
563: 66
564: 39
565: 54
566: 44
567: 14
568: 5
569: 5
570: 4
571: 6
572: 1
573: 33
574: 37
575: 1
576: 10
577: 3
578: 18
579: 31
580: 11
581: 114
582: 110
583: 1
584: 32
585: 6
586: 3
587: 3
588: 4
589: 3
590: 5
591: 1
592: 2
593: 2
594: 2
595: 1
596: 1
597: 6
598: 2
599: 20
600: 37
601: 13
602: 10
603: 24
604: 9
605: 45
606: 26
607: 25
608: 19
609: 60
610: 33
611: 10
612: 1
613: 34
614: 2
615: 8
616: 21
617: 17
618: 4
619: 3
620: 12
621: 30
622: 12
623: 28
624: 10
625: 26
626: 1
627: 21
628: 33
629: 15
630: 28
631: 2
632: 59
633: 14
634: 40
635: 10
636: 31
637: 10
638: 4
639: 2
640: 1
641: 3
642: 6
643: 1
644: 23
645: 27
646: 29
647: 31
648: 38
649: 90
650: 67
651: 10
652: 24
653: 24
654: 35
655: 50
656: 95
657: 4
658: 1
659: 4
660: 1
661: 1
662: 38
663: 10
664: 25
665: 1
666: 46
667: 14
668: 24
669: 37
670: 1
671: 5
672: 6
673: 7
674: 44
675: 4
676: 2
677: 3
678: 36
679: 10
680: 14
681: 7
682: 29
683: 1
684: 18
685: 27
686: 13
687: 9
688: 2
689: 50
690: 18
691: 17
692: 14
693: 20
694: 9
695: 9
696: 17
697: 6
698: 31
699: 31
700: 28
701: 9
702: 29
703: 15
704: 14
705: 28
706: 5
707: 10
708: 5
709: 2
710: 2
711: 6
712: 18
713: 2
714: 54
715: 27
716: 29
717: 23
718: 45
719: 48
720: 41
721: 58
722: 45
723: 10
724: 19
725: 22
726: 48
727: 38
728: 40
729: 38
730: 7
731: 10
732: 10
733: 3
734: 2
735: 1
736: 2
737: 1
738: 24
739: 36
740: 22
741: 36
742: 1
743: 1
744: 5
745: 24
746: 23
747: 26
748: 12
749: 12
750: 15
751: 24
752: 16
753: 30
754: 3
755: 5
756: 1
757: 1
758: 3
759: 11
760: 27
761: 16
762: 7
763: 4
764: 2
765: 18
766: 26
767: 25
768: 21
769: 7
770: 5
771: 33
772: 12
773: 2
774: 22
775: 22
776: 2
777: 22
778: 10
779: 41
780: 12
781: 15
782: 28
783: 17
784: 15
785: 5
786: 6
787: 2
788: 12
789: 44
790: 24
791: 13
792: 31
793: 12
794: 18
795: 22
796: 67
797: 34
798: 61
799: 19
800: 14
801: 21
802: 8
803: 31
804: 17
805: 17
806: 26
807: 17
808: 12
809: 1
810: 18
811: 23
812: 31
813: 20
814: 41
815: 2
816: 29
817: 2
818: 29
819: 1
820: 4
821: 19
822: 1
823: 23
824: 9
825: 11
826: 23
827: 5
828: 7
829: 4
830: 7
831: 30
832: 1
833: 9
834: 22
835: 13
836: 4
837: 2
838: 14
839: 9
840: 12
841: 14
842: 4
843: 9
844: 26
845: 35
846: 20
847: 12
848: 27
849: 34
850: 8
851: 14
852: 15
853: 16
854: 31
855: 29
856: 40
857: 16
858: 43
859: 37
860: 15
861: 12
862: 37
863: 33
864: 24
865: 31
866: 20
867: 16
868: 2
869: 1
870: 7
871: 13
872: 7
873: 1
874: 31
875: 10
876: 19
877: 38
878: 42
879: 18
880: 19
881: 18
882: 18
883: 7
884: 7
885: 16
886: 49
887: 1
888: 1
889: 16
890: 7
891: 11
892: 1
893: 2
894: 13
895: 2
896: 1
897: 2
898: 9
899: 8
900: 5
901: 17
902: 21
903: 4
904: 21
905: 1
906: 11
907: 15
908: 3
909: 5
910: 9
911: 28
912: 24
913: 18
914: 30
915: 17
916: 18
917: 9
918: 4
919: 1
920: 9
921: 1
922: 29
923: 12
924: 13
925: 11
926: 13
927: 16
928: 45
929: 9
930: 24
931: 9
932: 13
933: 4
934: 9
935: 2
936: 2
937: 17
938: 8
939: 11
940: 14
941: 1
942: 35
943: 11
944: 28
945: 11
946: 23
947: 62
948: 42
949: 29
950: 10
951: 22
952: 20
953: 16
954: 47
955: 48
956: 27
957: 24
958: 13
959: 60
960: 26
961: 17
962: 4
963: 21
964: 1
965: 5
966: 10
967: 1
968: 21
969: 14
970: 26
971: 7
972: 1
973: 23
974: 13
975: 51
976: 7
977: 2
978: 8
979: 6
980: 17
981: 7
982: 41
983: 23
984: 61
985: 41
986: 3
987: 61
988: 9
989: 1
990: 31
991: 11
992: 13
993: 45
994: 10
995: 15
996: 7
997: 70
998: 21
999: 26
1000: 27
1001: 34
1002: 35
1003: 24
1004: 88
1005: 31
1006: 34
1007: 9
1008: 149
1009: 30
1010: 112
1011: 12
1012: 23
1013: 8
1014: 36
1015: 13
1016: 6
1017: 1
1018: 4
1019: 4
1020: 13
1021: 5
1022: 6
1023: 1
1024: 17
1025: 10
1026: 4
1027: 8
1028: 4
1029: 9
1030: 5
1031: 8
1032: 20
1033: 6
1034: 17
1035: 5
1036: 17
1037: 1
1038: 33
1039: 117
1040: 44
1041: 29
1042: 14
1043: 36
1044: 50
1045: 58
1046: 37
1047: 29
1048: 20
1049: 16
1050: 8
1051: 2
1052: 8
1053: 15
1054: 2
1055: 9
1056: 2
1057: 6
1058: 9
1059: 5
1060: 4
1061: 5
1062: 3
1063: 1
1064: 6
1065: 1
1066: 21
1067: 12
1068: 1
1069: 5
1070: 6
1071: 3
1072: 27
1073: 2
1074: 28
1075: 4
1076: 2
1077: 4
1078: 3
1079: 6
1080: 5
1081: 2
1082: 1
1083: 3
1084: 3
1085: 6
1086: 30
1087: 8
1088: 10
1089: 8
1090: 5
1091: 12
1092: 5
1093: 11
1094: 9
1095: 7
1096: 11
1097: 4
1098: 10
1099: 9
1100: 3
1101: 5
1102: 4
1103: 4
1104: 8
1105: 6
1106: 9
1107: 10
1108: 22
1109: 1
1110: 5
1111: 8
1112: 11
1113: 5
1114: 4
1115: 5
1116: 6
1117: 2
1118: 2
1119: 2
1120: 9
1121: 8
1122: 3
1123: 3
1124: 1
1125: 2
1126: 6
1127: 1
1128: 4
1129: 8
1130: 2
1131: 8
1132: 5
1133: 1
1134: 3
1135: 14
1136: 3
1137: 5
1138: 2
1139: 10
1140: 9
1141: 8
1142: 1
1143: 2
1144: 1
1145: 3
1146: 6
1147: 1
1148: 11
1149: 7
1150: 4
1151: 1
1152: 6
1153: 4
1154: 1
1155: 4
1156: 5
1157: 4
1158: 1
1159: 3
1160: 2
1161: 7
1162: 1
1163: 9
1164: 2
1165: 2
1166: 5
1167: 7
1168: 1
1169: 1
1170: 3
1171: 9
1172: 4
1173: 1
1174: 1
1175: 2
1176: 3
1177: 1
1178: 1
1179: 3
1180: 2
1181: 1
1182: 2
1183: 4
1184: 2
1185: 2
1186: 3
1187: 1
1188: 1
1189: 1
1190: 1
1191: 3
1192: 3
1193: 1
1194: 1
1195: 1
1196: 1
1197: 1
1198: 1
1199: 1
1200: 1
1201: 1
1202: 1
1203: 1
1204: 1
1205: 1
1206: 1
1207: 2
