0 0.501367
10 0.543945
20 0.525098
30 0.536426
40 0.537500
50 0.547852
60 0.543457
70 0.559766
80 0.556836
90 0.562402
100 0.565430
110 0.570703
120 0.571680
130 0.557031
140 0.561524
150 0.560449
160 0.562500
170 0.567285
180 0.572266
190 0.570898
200 0.579883
210 0.572754
220 0.581934
230 0.593946
240 0.591016
250 0.585059
260 0.580469
270 0.587695
280 0.595215
290 0.599414
300 0.591406
310 0.589648
320 0.599707
330 0.592578
340 0.597168
350 0.600293
360 0.592188
370 0.592871
380 0.592383
390 0.602734
400 0.605469
410 0.593262
420 0.603027
430 0.602539
440 0.611133
450 0.607227
460 0.612109
470 0.610645
480 0.608301
490 0.611914
500 0.608105
510 0.614258
520 0.607910
530 0.605176
540 0.618164
550 0.611035
560 0.606348
570 0.611523
580 0.612012
590 0.622852
600 0.613184
610 0.608692
620 0.604981
630 0.602246
640 0.605078
650 0.601172
660 0.603418
670 0.605957
680 0.593457
690 0.603418
700 0.615234
710 0.609082
720 0.612500
730 0.614551
740 0.620605
750 0.603906
760 0.621582
770 0.616211
780 0.613965
790 0.614453
800 0.610449
810 0.609863
820 0.607324
830 0.610352
840 0.617090
850 0.606836
860 0.604785
870 0.610645
880 0.600977
890 0.599414
900 0.604688
910 0.623730
920 0.605274
930 0.605469
940 0.602148
950 0.607324
960 0.606641
970 0.615625
980 0.607617
990 0.601758
1000 0.606641
1010 0.609961
1020 0.613086
1030 0.605664
1040 0.613672
1050 0.620703
1060 0.606055
1070 0.610645
1080 0.610254
1090 0.605469
1100 0.609375
1110 0.608886
1120 0.616016
1130 0.604394
1140 0.606641
1150 0.601367
1160 0.605566
1170 0.615527
1180 0.614160
1190 0.603906
1200 0.612598
1210 0.613086
1220 0.615918
1230 0.617871
1240 0.615918
1250 0.612305
1260 0.608399
1270 0.616504
1280 0.605371
1290 0.606934
1300 0.616309
1310 0.620899
1320 0.608789
1330 0.623535
1340 0.616504
1350 0.616406
1360 0.611231
1370 0.623535
1380 0.610937
1390 0.621973
1400 0.606250
1410 0.606934
1420 0.608789
1430 0.598926
1440 0.610449
1450 0.605859
1460 0.609277
1470 0.610644
1480 0.621094
1490 0.609375
1500 0.608985
1510 0.606152
1520 0.615430
1530 0.626758
1540 0.600977
1550 0.622070
1560 0.616699
1570 0.619336
1580 0.613574
1590 0.614746
1600 0.611719
1610 0.615039
1620 0.616504
1630 0.606738
1640 0.614746
1650 0.610254
1660 0.619922
1670 0.614062
1680 0.611523
1690 0.622363
1700 0.612305
1710 0.619238
1720 0.615234
1730 0.627441
1740 0.615527
1750 0.623633
1760 0.610156
1770 0.622070
1780 0.620313
1790 0.611523
1800 0.617383
1810 0.612891
1820 0.626758
1830 0.620996
1840 0.620215
1850 0.606445
1860 0.616309
1870 0.610547
1880 0.621777
1890 0.616895
1900 0.601465
1910 0.600195
1920 0.619824
1930 0.609961
1940 0.610059
1950 0.609961
1960 0.606445
1970 0.611230
1980 0.613672
1990 0.612012
