0 0.493359
10 0.535058
20 0.526758
30 0.569727
40 0.572461
50 0.564941
60 0.559863
70 0.577344
80 0.553711
90 0.571094
100 0.583984
110 0.578223
120 0.592480
130 0.596484
140 0.618750
150 0.611426
160 0.621289
170 0.620313
180 0.635840
190 0.626270
200 0.628516
210 0.637207
220 0.641406
230 0.656543
240 0.650879
250 0.644043
260 0.645508
270 0.638867
280 0.644238
290 0.648731
300 0.644336
310 0.652344
320 0.646094
330 0.641797
340 0.649219
350 0.645703
360 0.652344
370 0.636426
380 0.645508
390 0.670801
400 0.658594
410 0.652539
420 0.653222
430 0.650781
440 0.648926
450 0.653125
460 0.653906
470 0.648535
480 0.652246
490 0.651172
500 0.651758
510 0.649805
520 0.666406
530 0.667871
540 0.671484
550 0.664941
560 0.660937
570 0.670703
580 0.657422
590 0.664844
600 0.675586
610 0.669727
620 0.664355
630 0.652930
640 0.660742
650 0.666992
660 0.668555
670 0.673633
680 0.675488
690 0.676953
700 0.672363
710 0.674219
720 0.667871
730 0.670117
740 0.677344
750 0.668945
760 0.668457
770 0.680176
780 0.666016
790 0.675098
800 0.673926
810 0.664941
820 0.661426
830 0.674805
840 0.669336
850 0.663770
860 0.671484
870 0.675684
880 0.669727
890 0.677637
900 0.662793
910 0.664453
920 0.673340
930 0.675976
940 0.678320
950 0.672461
960 0.665234
970 0.669531
980 0.666309
990 0.671777
1000 0.680664
1010 0.687305
1020 0.677734
1030 0.674707
1040 0.666992
1050 0.675976
1060 0.677930
1070 0.678711
1080 0.675195
1090 0.665918
1100 0.667285
1110 0.674902
1120 0.676758
1130 0.676562
1140 0.664551
1150 0.674316
1160 0.683887
1170 0.673926
1180 0.675586
1190 0.681445
1200 0.675586
1210 0.670117
1220 0.667383
1230 0.673340
1240 0.669433
1250 0.674805
1260 0.672364
1270 0.680762
1280 0.681445
1290 0.682422
1300 0.682324
1310 0.675000
1320 0.680859
1330 0.667871
1340 0.673633
1350 0.675684
1360 0.675195
1370 0.677246
1380 0.674121
1390 0.679590
1400 0.670215
1410 0.670801
1420 0.680371
1430 0.676367
1440 0.676758
1450 0.678028
1460 0.672656
1470 0.674609
1480 0.677930
1490 0.673730
1500 0.677832
1510 0.671582
1520 0.686231
1530 0.680469
1540 0.680176
1550 0.670019
1560 0.669922
1570 0.676074
1580 0.679199
1590 0.676856
1600 0.677148
1610 0.666113
1620 0.671582
1630 0.676367
1640 0.681934
1650 0.673926
1660 0.670703
1670 0.678418
1680 0.675098
1690 0.679883
1700 0.681836
1710 0.672851
1720 0.673535
1730 0.680176
1740 0.674219
1750 0.676953
1760 0.672461
1770 0.675781
1780 0.665039
1790 0.678320
1800 0.676758
1810 0.671387
1820 0.672656
1830 0.674316
1840 0.675488
1850 0.674023
1860 0.673047
1870 0.678125
1880 0.684082
1890 0.680566
1900 0.683398
1910 0.679199
1920 0.683789
1930 0.681934
1940 0.685449
1950 0.682324
1960 0.678613
1970 0.685352
1980 0.670801
1990 0.687793
