0 0.503711
10 0.504102
20 0.502539
30 0.501758
40 0.498730
50 0.499512
60 0.494433
70 0.498731
80 0.496680
90 0.508692
100 0.498145
110 0.513672
120 0.512207
130 0.519531
140 0.519629
150 0.516992
160 0.515430
170 0.524316
180 0.514649
190 0.517187
200 0.519531
210 0.525586
220 0.519043
230 0.529492
240 0.523828
250 0.532422
260 0.534375
270 0.532226
280 0.521680
290 0.530566
300 0.529785
310 0.531738
320 0.534473
330 0.536133
340 0.533398
350 0.530566
360 0.532519
370 0.543555
380 0.539941
390 0.537598
400 0.536719
410 0.530859
420 0.539160
430 0.536816
440 0.541699
450 0.536914
460 0.542871
470 0.538867
480 0.529981
490 0.528418
500 0.539648
510 0.532812
520 0.535449
530 0.542383
540 0.537988
550 0.528711
560 0.536328
570 0.533887
580 0.537695
590 0.537988
600 0.528906
610 0.541699
620 0.546875
630 0.541601
640 0.543848
650 0.544824
660 0.540234
670 0.538086
680 0.543164
690 0.528809
700 0.539648
710 0.534180
720 0.541895
730 0.537207
740 0.535059
750 0.529102
760 0.546387
770 0.537207
780 0.540527
790 0.537500
800 0.539942
810 0.542383
820 0.540625
830 0.550879
840 0.549902
850 0.540430
860 0.551270
870 0.538086
880 0.539941
890 0.542871
900 0.534082
910 0.548535
920 0.548633
930 0.548828
940 0.534082
950 0.545215
960 0.541113
970 0.546778
980 0.539063
990 0.547851
1000 0.554102
1010 0.552148
1020 0.541113
1030 0.549121
1040 0.554980
1050 0.546289
1060 0.558691
1070 0.544629
1080 0.551465
1090 0.547168
1100 0.544531
1110 0.551563
1120 0.555664
1130 0.548731
1140 0.553809
1150 0.555567
1160 0.548633
1170 0.545019
1180 0.559766
1190 0.551074
1200 0.555957
1210 0.553027
1220 0.554199
1230 0.542969
1240 0.548633
1250 0.545605
1260 0.544922
1270 0.547949
1280 0.542188
1290 0.550488
1300 0.544922
1310 0.550586
1320 0.556055
1330 0.539551
1340 0.551855
1350 0.550684
1360 0.550000
1370 0.545899
1380 0.551465
1390 0.552930
1400 0.554395
1410 0.551074
1420 0.554980
1430 0.564258
1440 0.553223
1450 0.551856
1460 0.563184
1470 0.563477
1480 0.558105
1490 0.553711
1500 0.554980
1510 0.565723
1520 0.568750
1530 0.549805
1540 0.558692
1550 0.554297
1560 0.554980
1570 0.557910
1580 0.562012
1590 0.558594
1600 0.566406
1610 0.566602
1620 0.552441
1630 0.566992
1640 0.560352
1650 0.554688
1660 0.570703
1670 0.570215
1680 0.562793
1690 0.572461
1700 0.562207
1710 0.553516
1720 0.556055
1730 0.549902
1740 0.552441
1750 0.561426
1760 0.567676
1770 0.564746
1780 0.556250
1790 0.558398
1800 0.557324
1810 0.564746
1820 0.569824
1830 0.562305
1840 0.554004
1850 0.565332
1860 0.555078
1870 0.560156
1880 0.558887
1890 0.568067
1900 0.562402
1910 0.557129
1920 0.561621
1930 0.563086
1940 0.554785
1950 0.570117
1960 0.560742
1970 0.561328
1980 0.560254
1990 0.559668
