%!PS-Adobe-2.0 EPSF-2.0
%%Title: ../plots/hc/hc-minigammon-p.eps
%%Creator: gnuplot 4.4 patchlevel 3
%%CreationDate: Tue Dec 13 21:02:57 2011
%%DocumentFonts: (atend)
%%BoundingBox: 50 50 410 302
%%EndComments
%%BeginProlog
/gnudict 256 dict def
gnudict begin
%
% The following true/false flags may be edited by hand if desired.
% The unit line width and grayscale image gamma correction may also be changed.
%
/Color true def
/Blacktext false def
/Solid false def
/Dashlength 1 def
/Landscape false def
/Level1 false def
/Rounded false def
/ClipToBoundingBox false def
/TransparentPatterns false def
/gnulinewidth 5.000 def
/userlinewidth gnulinewidth def
/Gamma 1.0 def
%
/vshift -46 def
/dl1 {
  10.0 Dashlength mul mul
  Rounded { currentlinewidth 0.75 mul sub dup 0 le { pop 0.01 } if } if
} def
/dl2 {
  10.0 Dashlength mul mul
  Rounded { currentlinewidth 0.75 mul add } if
} def
/hpt_ 31.5 def
/vpt_ 31.5 def
/hpt hpt_ def
/vpt vpt_ def
Level1 {} {
/SDict 10 dict def
systemdict /pdfmark known not {
  userdict /pdfmark systemdict /cleartomark get put
} if
SDict begin [
  /Title (../plots/hc/hc-minigammon-p.eps)
  /Subject (gnuplot plot)
  /Creator (gnuplot 4.4 patchlevel 3)
  /Author (reza)
%  /Producer (gnuplot)
%  /Keywords ()
  /CreationDate (Tue Dec 13 21:02:57 2011)
  /DOCINFO pdfmark
end
} ifelse
/doclip {
  ClipToBoundingBox {
    newpath 50 50 moveto 410 50 lineto 410 302 lineto 50 302 lineto closepath
    clip
  } if
} def
%
% Gnuplot Prolog Version 4.4 (August 2010)
%
%/SuppressPDFMark true def
%
/M {moveto} bind def
/L {lineto} bind def
/R {rmoveto} bind def
/V {rlineto} bind def
/N {newpath moveto} bind def
/Z {closepath} bind def
/C {setrgbcolor} bind def
/f {rlineto fill} bind def
/g {setgray} bind def
/Gshow {show} def   % May be redefined later in the file to support UTF-8
/vpt2 vpt 2 mul def
/hpt2 hpt 2 mul def
/Lshow {currentpoint stroke M 0 vshift R 
	Blacktext {gsave 0 setgray show grestore} {show} ifelse} def
/Rshow {currentpoint stroke M dup stringwidth pop neg vshift R
	Blacktext {gsave 0 setgray show grestore} {show} ifelse} def
/Cshow {currentpoint stroke M dup stringwidth pop -2 div vshift R 
	Blacktext {gsave 0 setgray show grestore} {show} ifelse} def
/UP {dup vpt_ mul /vpt exch def hpt_ mul /hpt exch def
  /hpt2 hpt 2 mul def /vpt2 vpt 2 mul def} def
/DL {Color {setrgbcolor Solid {pop []} if 0 setdash}
 {pop pop pop 0 setgray Solid {pop []} if 0 setdash} ifelse} def
/BL {stroke userlinewidth 2 mul setlinewidth
	Rounded {1 setlinejoin 1 setlinecap} if} def
/AL {stroke userlinewidth 2 div setlinewidth
	Rounded {1 setlinejoin 1 setlinecap} if} def
/UL {dup gnulinewidth mul /userlinewidth exch def
	dup 1 lt {pop 1} if 10 mul /udl exch def} def
/PL {stroke userlinewidth setlinewidth
	Rounded {1 setlinejoin 1 setlinecap} if} def
3.8 setmiterlimit
% Default Line colors
/LCw {1 1 1} def
/LCb {0 0 0} def
/LCa {0 0 0} def
/LC0 {1 0 0} def
/LC1 {0 1 0} def
/LC2 {0 0 1} def
/LC3 {1 0 1} def
/LC4 {0 1 1} def
/LC5 {1 1 0} def
/LC6 {0 0 0} def
/LC7 {1 0.3 0} def
/LC8 {0.5 0.5 0.5} def
% Default Line Types
/LTw {PL [] 1 setgray} def
/LTb {BL [] LCb DL} def
/LTa {AL [1 udl mul 2 udl mul] 0 setdash LCa setrgbcolor} def
/LT0 {PL [] LC0 DL} def
/LT1 {PL [4 dl1 2 dl2] LC1 DL} def
/LT2 {PL [2 dl1 3 dl2] LC2 DL} def
/LT3 {PL [1 dl1 1.5 dl2] LC3 DL} def
/LT4 {PL [6 dl1 2 dl2 1 dl1 2 dl2] LC4 DL} def
/LT5 {PL [3 dl1 3 dl2 1 dl1 3 dl2] LC5 DL} def
/LT6 {PL [2 dl1 2 dl2 2 dl1 6 dl2] LC6 DL} def
/LT7 {PL [1 dl1 2 dl2 6 dl1 2 dl2 1 dl1 2 dl2] LC7 DL} def
/LT8 {PL [2 dl1 2 dl2 2 dl1 2 dl2 2 dl1 2 dl2 2 dl1 4 dl2] LC8 DL} def
/Pnt {stroke [] 0 setdash gsave 1 setlinecap M 0 0 V stroke grestore} def
/Dia {stroke [] 0 setdash 2 copy vpt add M
  hpt neg vpt neg V hpt vpt neg V
  hpt vpt V hpt neg vpt V closepath stroke
  Pnt} def
/Pls {stroke [] 0 setdash vpt sub M 0 vpt2 V
  currentpoint stroke M
  hpt neg vpt neg R hpt2 0 V stroke
 } def
/Box {stroke [] 0 setdash 2 copy exch hpt sub exch vpt add M
  0 vpt2 neg V hpt2 0 V 0 vpt2 V
  hpt2 neg 0 V closepath stroke
  Pnt} def
/Crs {stroke [] 0 setdash exch hpt sub exch vpt add M
  hpt2 vpt2 neg V currentpoint stroke M
  hpt2 neg 0 R hpt2 vpt2 V stroke} def
/TriU {stroke [] 0 setdash 2 copy vpt 1.12 mul add M
  hpt neg vpt -1.62 mul V
  hpt 2 mul 0 V
  hpt neg vpt 1.62 mul V closepath stroke
  Pnt} def
/Star {2 copy Pls Crs} def
/BoxF {stroke [] 0 setdash exch hpt sub exch vpt add M
  0 vpt2 neg V hpt2 0 V 0 vpt2 V
  hpt2 neg 0 V closepath fill} def
/TriUF {stroke [] 0 setdash vpt 1.12 mul add M
  hpt neg vpt -1.62 mul V
  hpt 2 mul 0 V
  hpt neg vpt 1.62 mul V closepath fill} def
/TriD {stroke [] 0 setdash 2 copy vpt 1.12 mul sub M
  hpt neg vpt 1.62 mul V
  hpt 2 mul 0 V
  hpt neg vpt -1.62 mul V closepath stroke
  Pnt} def
/TriDF {stroke [] 0 setdash vpt 1.12 mul sub M
  hpt neg vpt 1.62 mul V
  hpt 2 mul 0 V
  hpt neg vpt -1.62 mul V closepath fill} def
/DiaF {stroke [] 0 setdash vpt add M
  hpt neg vpt neg V hpt vpt neg V
  hpt vpt V hpt neg vpt V closepath fill} def
/Pent {stroke [] 0 setdash 2 copy gsave
  translate 0 hpt M 4 {72 rotate 0 hpt L} repeat
  closepath stroke grestore Pnt} def
/PentF {stroke [] 0 setdash gsave
  translate 0 hpt M 4 {72 rotate 0 hpt L} repeat
  closepath fill grestore} def
/Circle {stroke [] 0 setdash 2 copy
  hpt 0 360 arc stroke Pnt} def
/CircleF {stroke [] 0 setdash hpt 0 360 arc fill} def
/C0 {BL [] 0 setdash 2 copy moveto vpt 90 450 arc} bind def
/C1 {BL [] 0 setdash 2 copy moveto
	2 copy vpt 0 90 arc closepath fill
	vpt 0 360 arc closepath} bind def
/C2 {BL [] 0 setdash 2 copy moveto
	2 copy vpt 90 180 arc closepath fill
	vpt 0 360 arc closepath} bind def
/C3 {BL [] 0 setdash 2 copy moveto
	2 copy vpt 0 180 arc closepath fill
	vpt 0 360 arc closepath} bind def
/C4 {BL [] 0 setdash 2 copy moveto
	2 copy vpt 180 270 arc closepath fill
	vpt 0 360 arc closepath} bind def
/C5 {BL [] 0 setdash 2 copy moveto
	2 copy vpt 0 90 arc
	2 copy moveto
	2 copy vpt 180 270 arc closepath fill
	vpt 0 360 arc} bind def
/C6 {BL [] 0 setdash 2 copy moveto
	2 copy vpt 90 270 arc closepath fill
	vpt 0 360 arc closepath} bind def
/C7 {BL [] 0 setdash 2 copy moveto
	2 copy vpt 0 270 arc closepath fill
	vpt 0 360 arc closepath} bind def
/C8 {BL [] 0 setdash 2 copy moveto
	2 copy vpt 270 360 arc closepath fill
	vpt 0 360 arc closepath} bind def
/C9 {BL [] 0 setdash 2 copy moveto
	2 copy vpt 270 450 arc closepath fill
	vpt 0 360 arc closepath} bind def
/C10 {BL [] 0 setdash 2 copy 2 copy moveto vpt 270 360 arc closepath fill
	2 copy moveto
	2 copy vpt 90 180 arc closepath fill
	vpt 0 360 arc closepath} bind def
/C11 {BL [] 0 setdash 2 copy moveto
	2 copy vpt 0 180 arc closepath fill
	2 copy moveto
	2 copy vpt 270 360 arc closepath fill
	vpt 0 360 arc closepath} bind def
/C12 {BL [] 0 setdash 2 copy moveto
	2 copy vpt 180 360 arc closepath fill
	vpt 0 360 arc closepath} bind def
/C13 {BL [] 0 setdash 2 copy moveto
	2 copy vpt 0 90 arc closepath fill
	2 copy moveto
	2 copy vpt 180 360 arc closepath fill
	vpt 0 360 arc closepath} bind def
/C14 {BL [] 0 setdash 2 copy moveto
	2 copy vpt 90 360 arc closepath fill
	vpt 0 360 arc} bind def
/C15 {BL [] 0 setdash 2 copy vpt 0 360 arc closepath fill
	vpt 0 360 arc closepath} bind def
/Rec {newpath 4 2 roll moveto 1 index 0 rlineto 0 exch rlineto
	neg 0 rlineto closepath} bind def
/Square {dup Rec} bind def
/Bsquare {vpt sub exch vpt sub exch vpt2 Square} bind def
/S0 {BL [] 0 setdash 2 copy moveto 0 vpt rlineto BL Bsquare} bind def
/S1 {BL [] 0 setdash 2 copy vpt Square fill Bsquare} bind def
/S2 {BL [] 0 setdash 2 copy exch vpt sub exch vpt Square fill Bsquare} bind def
/S3 {BL [] 0 setdash 2 copy exch vpt sub exch vpt2 vpt Rec fill Bsquare} bind def
/S4 {BL [] 0 setdash 2 copy exch vpt sub exch vpt sub vpt Square fill Bsquare} bind def
/S5 {BL [] 0 setdash 2 copy 2 copy vpt Square fill
	exch vpt sub exch vpt sub vpt Square fill Bsquare} bind def
/S6 {BL [] 0 setdash 2 copy exch vpt sub exch vpt sub vpt vpt2 Rec fill Bsquare} bind def
/S7 {BL [] 0 setdash 2 copy exch vpt sub exch vpt sub vpt vpt2 Rec fill
	2 copy vpt Square fill Bsquare} bind def
/S8 {BL [] 0 setdash 2 copy vpt sub vpt Square fill Bsquare} bind def
/S9 {BL [] 0 setdash 2 copy vpt sub vpt vpt2 Rec fill Bsquare} bind def
/S10 {BL [] 0 setdash 2 copy vpt sub vpt Square fill 2 copy exch vpt sub exch vpt Square fill
	Bsquare} bind def
/S11 {BL [] 0 setdash 2 copy vpt sub vpt Square fill 2 copy exch vpt sub exch vpt2 vpt Rec fill
	Bsquare} bind def
/S12 {BL [] 0 setdash 2 copy exch vpt sub exch vpt sub vpt2 vpt Rec fill Bsquare} bind def
/S13 {BL [] 0 setdash 2 copy exch vpt sub exch vpt sub vpt2 vpt Rec fill
	2 copy vpt Square fill Bsquare} bind def
/S14 {BL [] 0 setdash 2 copy exch vpt sub exch vpt sub vpt2 vpt Rec fill
	2 copy exch vpt sub exch vpt Square fill Bsquare} bind def
/S15 {BL [] 0 setdash 2 copy Bsquare fill Bsquare} bind def
/D0 {gsave translate 45 rotate 0 0 S0 stroke grestore} bind def
/D1 {gsave translate 45 rotate 0 0 S1 stroke grestore} bind def
/D2 {gsave translate 45 rotate 0 0 S2 stroke grestore} bind def
/D3 {gsave translate 45 rotate 0 0 S3 stroke grestore} bind def
/D4 {gsave translate 45 rotate 0 0 S4 stroke grestore} bind def
/D5 {gsave translate 45 rotate 0 0 S5 stroke grestore} bind def
/D6 {gsave translate 45 rotate 0 0 S6 stroke grestore} bind def
/D7 {gsave translate 45 rotate 0 0 S7 stroke grestore} bind def
/D8 {gsave translate 45 rotate 0 0 S8 stroke grestore} bind def
/D9 {gsave translate 45 rotate 0 0 S9 stroke grestore} bind def
/D10 {gsave translate 45 rotate 0 0 S10 stroke grestore} bind def
/D11 {gsave translate 45 rotate 0 0 S11 stroke grestore} bind def
/D12 {gsave translate 45 rotate 0 0 S12 stroke grestore} bind def
/D13 {gsave translate 45 rotate 0 0 S13 stroke grestore} bind def
/D14 {gsave translate 45 rotate 0 0 S14 stroke grestore} bind def
/D15 {gsave translate 45 rotate 0 0 S15 stroke grestore} bind def
/DiaE {stroke [] 0 setdash vpt add M
  hpt neg vpt neg V hpt vpt neg V
  hpt vpt V hpt neg vpt V closepath stroke} def
/BoxE {stroke [] 0 setdash exch hpt sub exch vpt add M
  0 vpt2 neg V hpt2 0 V 0 vpt2 V
  hpt2 neg 0 V closepath stroke} def
/TriUE {stroke [] 0 setdash vpt 1.12 mul add M
  hpt neg vpt -1.62 mul V
  hpt 2 mul 0 V
  hpt neg vpt 1.62 mul V closepath stroke} def
/TriDE {stroke [] 0 setdash vpt 1.12 mul sub M
  hpt neg vpt 1.62 mul V
  hpt 2 mul 0 V
  hpt neg vpt -1.62 mul V closepath stroke} def
/PentE {stroke [] 0 setdash gsave
  translate 0 hpt M 4 {72 rotate 0 hpt L} repeat
  closepath stroke grestore} def
/CircE {stroke [] 0 setdash 
  hpt 0 360 arc stroke} def
/Opaque {gsave closepath 1 setgray fill grestore 0 setgray closepath} def
/DiaW {stroke [] 0 setdash vpt add M
  hpt neg vpt neg V hpt vpt neg V
  hpt vpt V hpt neg vpt V Opaque stroke} def
/BoxW {stroke [] 0 setdash exch hpt sub exch vpt add M
  0 vpt2 neg V hpt2 0 V 0 vpt2 V
  hpt2 neg 0 V Opaque stroke} def
/TriUW {stroke [] 0 setdash vpt 1.12 mul add M
  hpt neg vpt -1.62 mul V
  hpt 2 mul 0 V
  hpt neg vpt 1.62 mul V Opaque stroke} def
/TriDW {stroke [] 0 setdash vpt 1.12 mul sub M
  hpt neg vpt 1.62 mul V
  hpt 2 mul 0 V
  hpt neg vpt -1.62 mul V Opaque stroke} def
/PentW {stroke [] 0 setdash gsave
  translate 0 hpt M 4 {72 rotate 0 hpt L} repeat
  Opaque stroke grestore} def
/CircW {stroke [] 0 setdash 
  hpt 0 360 arc Opaque stroke} def
/BoxFill {gsave Rec 1 setgray fill grestore} def
/Density {
  /Fillden exch def
  currentrgbcolor
  /ColB exch def /ColG exch def /ColR exch def
  /ColR ColR Fillden mul Fillden sub 1 add def
  /ColG ColG Fillden mul Fillden sub 1 add def
  /ColB ColB Fillden mul Fillden sub 1 add def
  ColR ColG ColB setrgbcolor} def
/BoxColFill {gsave Rec PolyFill} def
/PolyFill {gsave Density fill grestore grestore} def
/h {rlineto rlineto rlineto gsave closepath fill grestore} bind def
%
% PostScript Level 1 Pattern Fill routine for rectangles
% Usage: x y w h s a XX PatternFill
%	x,y = lower left corner of box to be filled
%	w,h = width and height of box
%	  a = angle in degrees between lines and x-axis
%	 XX = 0/1 for no/yes cross-hatch
%
/PatternFill {gsave /PFa [ 9 2 roll ] def
  PFa 0 get PFa 2 get 2 div add PFa 1 get PFa 3 get 2 div add translate
  PFa 2 get -2 div PFa 3 get -2 div PFa 2 get PFa 3 get Rec
  gsave 1 setgray fill grestore clip
  currentlinewidth 0.5 mul setlinewidth
  /PFs PFa 2 get dup mul PFa 3 get dup mul add sqrt def
  0 0 M PFa 5 get rotate PFs -2 div dup translate
  0 1 PFs PFa 4 get div 1 add floor cvi
	{PFa 4 get mul 0 M 0 PFs V} for
  0 PFa 6 get ne {
	0 1 PFs PFa 4 get div 1 add floor cvi
	{PFa 4 get mul 0 2 1 roll M PFs 0 V} for
 } if
  stroke grestore} def
%
/languagelevel where
 {pop languagelevel} {1} ifelse
 2 lt
	{/InterpretLevel1 true def}
	{/InterpretLevel1 Level1 def}
 ifelse
%
% PostScript level 2 pattern fill definitions
%
/Level2PatternFill {
/Tile8x8 {/PaintType 2 /PatternType 1 /TilingType 1 /BBox [0 0 8 8] /XStep 8 /YStep 8}
	bind def
/KeepColor {currentrgbcolor [/Pattern /DeviceRGB] setcolorspace} bind def
<< Tile8x8
 /PaintProc {0.5 setlinewidth pop 0 0 M 8 8 L 0 8 M 8 0 L stroke} 
>> matrix makepattern
/Pat1 exch def
<< Tile8x8
 /PaintProc {0.5 setlinewidth pop 0 0 M 8 8 L 0 8 M 8 0 L stroke
	0 4 M 4 8 L 8 4 L 4 0 L 0 4 L stroke}
>> matrix makepattern
/Pat2 exch def
<< Tile8x8
 /PaintProc {0.5 setlinewidth pop 0 0 M 0 8 L
	8 8 L 8 0 L 0 0 L fill}
>> matrix makepattern
/Pat3 exch def
<< Tile8x8
 /PaintProc {0.5 setlinewidth pop -4 8 M 8 -4 L
	0 12 M 12 0 L stroke}
>> matrix makepattern
/Pat4 exch def
<< Tile8x8
 /PaintProc {0.5 setlinewidth pop -4 0 M 8 12 L
	0 -4 M 12 8 L stroke}
>> matrix makepattern
/Pat5 exch def
<< Tile8x8
 /PaintProc {0.5 setlinewidth pop -2 8 M 4 -4 L
	0 12 M 8 -4 L 4 12 M 10 0 L stroke}
>> matrix makepattern
/Pat6 exch def
<< Tile8x8
 /PaintProc {0.5 setlinewidth pop -2 0 M 4 12 L
	0 -4 M 8 12 L 4 -4 M 10 8 L stroke}
>> matrix makepattern
/Pat7 exch def
<< Tile8x8
 /PaintProc {0.5 setlinewidth pop 8 -2 M -4 4 L
	12 0 M -4 8 L 12 4 M 0 10 L stroke}
>> matrix makepattern
/Pat8 exch def
<< Tile8x8
 /PaintProc {0.5 setlinewidth pop 0 -2 M 12 4 L
	-4 0 M 12 8 L -4 4 M 8 10 L stroke}
>> matrix makepattern
/Pat9 exch def
/Pattern1 {PatternBgnd KeepColor Pat1 setpattern} bind def
/Pattern2 {PatternBgnd KeepColor Pat2 setpattern} bind def
/Pattern3 {PatternBgnd KeepColor Pat3 setpattern} bind def
/Pattern4 {PatternBgnd KeepColor Landscape {Pat5} {Pat4} ifelse setpattern} bind def
/Pattern5 {PatternBgnd KeepColor Landscape {Pat4} {Pat5} ifelse setpattern} bind def
/Pattern6 {PatternBgnd KeepColor Landscape {Pat9} {Pat6} ifelse setpattern} bind def
/Pattern7 {PatternBgnd KeepColor Landscape {Pat8} {Pat7} ifelse setpattern} bind def
} def
%
%
%End of PostScript Level 2 code
%
/PatternBgnd {
  TransparentPatterns {} {gsave 1 setgray fill grestore} ifelse
} def
%
% Substitute for Level 2 pattern fill codes with
% grayscale if Level 2 support is not selected.
%
/Level1PatternFill {
/Pattern1 {0.250 Density} bind def
/Pattern2 {0.500 Density} bind def
/Pattern3 {0.750 Density} bind def
/Pattern4 {0.125 Density} bind def
/Pattern5 {0.375 Density} bind def
/Pattern6 {0.625 Density} bind def
/Pattern7 {0.875 Density} bind def
} def
%
% Now test for support of Level 2 code
%
Level1 {Level1PatternFill} {Level2PatternFill} ifelse
%
/Symbol-Oblique /Symbol findfont [1 0 .167 1 0 0] makefont
dup length dict begin {1 index /FID eq {pop pop} {def} ifelse} forall
currentdict end definefont pop
end
%%EndProlog
gnudict begin
gsave
doclip
50 50 translate
0.050 0.050 scale
0 setgray
newpath
(Helvetica) findfont 140 scalefont setfont
1.000 UL
LTb
770 448 M
63 0 V
6114 0 R
-63 0 V
686 448 M
( 0.45) Rshow
1.000 UL
LTb
770 1185 M
63 0 V
6114 0 R
-63 0 V
-6198 0 R
( 0.5) Rshow
1.000 UL
LTb
770 1922 M
63 0 V
6114 0 R
-63 0 V
-6198 0 R
( 0.55) Rshow
1.000 UL
LTb
770 2660 M
63 0 V
6114 0 R
-63 0 V
-6198 0 R
( 0.6) Rshow
1.000 UL
LTb
770 3397 M
63 0 V
6114 0 R
-63 0 V
-6198 0 R
( 0.65) Rshow
1.000 UL
LTb
770 4134 M
63 0 V
6114 0 R
-63 0 V
-6198 0 R
( 0.7) Rshow
1.000 UL
LTb
770 4871 M
63 0 V
6114 0 R
-63 0 V
-6198 0 R
( 0.75) Rshow
1.000 UL
LTb
770 448 M
0 63 V
0 4360 R
0 -63 V
770 308 M
( 0) Cshow
1.000 UL
LTb
1388 448 M
0 63 V
0 4360 R
0 -63 V
0 -4500 R
( 200) Cshow
1.000 UL
LTb
2005 448 M
0 63 V
0 4360 R
0 -63 V
0 -4500 R
( 400) Cshow
1.000 UL
LTb
2623 448 M
0 63 V
0 4360 R
0 -63 V
0 -4500 R
( 600) Cshow
1.000 UL
LTb
3241 448 M
0 63 V
0 4360 R
0 -63 V
0 -4500 R
( 800) Cshow
1.000 UL
LTb
3858 448 M
0 63 V
0 4360 R
0 -63 V
0 -4500 R
( 1000) Cshow
1.000 UL
LTb
4476 448 M
0 63 V
0 4360 R
0 -63 V
0 -4500 R
( 1200) Cshow
1.000 UL
LTb
5094 448 M
0 63 V
0 4360 R
0 -63 V
0 -4500 R
( 1400) Cshow
1.000 UL
LTb
5712 448 M
0 63 V
0 4360 R
0 -63 V
0 -4500 R
( 1600) Cshow
1.000 UL
LTb
6329 448 M
0 63 V
0 4360 R
0 -63 V
0 -4500 R
( 1800) Cshow
1.000 UL
LTb
6947 448 M
0 63 V
0 4360 R
0 -63 V
0 -4500 R
( 2000) Cshow
1.000 UL
LTb
1.000 UL
LTb
770 4871 N
770 448 L
6177 0 V
0 4423 V
-6177 0 V
Z stroke
LCb setrgbcolor
112 2659 M
currentpoint gsave translate -270 rotate 0 0 M
(Wins against Random Agent) Cshow
grestore
LTb
LCb setrgbcolor
3858 98 M
(Generation) Cshow
LTb
1.000 UP
1.000 UL
LTb
% Begin plot #1
1.000 UL
LT0
LCb setrgbcolor
6296 4738 M
(p = 1.00) Rshow
LT0
6380 4738 M
399 0 V
770 1177 M
31 194 V
31 368 V
31 368 V
31 -133 V
30 17 V
31 309 V
31 368 V
31 -19 V
31 39 V
31 -60 V
31 219 V
31 30 V
31 212 V
30 -36 V
31 -26 V
31 237 V
31 -105 V
31 125 V
31 108 V
31 -14 V
31 132 V
30 -11 V
31 128 V
31 -59 V
31 -65 V
31 59 V
31 163 V
31 70 V
31 15 V
31 -82 V
30 -297 V
31 212 V
31 62 V
31 90 V
31 -154 V
31 241 V
31 -331 V
31 170 V
31 50 V
30 46 V
31 7 V
31 -5 V
31 54 V
31 -53 V
31 -16 V
31 130 V
31 -19 V
30 102 V
31 -62 V
31 -36 V
31 42 V
31 255 V
31 -209 V
31 16 V
31 -62 V
31 121 V
30 9 V
31 -54 V
31 -99 V
31 161 V
31 -41 V
31 -84 V
31 105 V
31 -27 V
31 56 V
30 53 V
31 125 V
31 -156 V
31 2 V
31 -72 V
31 62 V
31 -116 V
31 39 V
30 121 V
31 -94 V
31 -65 V
31 225 V
31 -3 V
31 -121 V
31 9 V
31 1 V
31 23 V
30 151 V
31 -106 V
31 -15 V
31 2 V
31 -159 V
31 75 V
31 30 V
31 -28 V
31 -183 V
30 65 V
31 177 V
31 -16 V
31 -9 V
31 -67 V
31 -25 V
31 105 V
31 150 V
30 -279 V
31 85 V
31 83 V
stroke 3920 4177 M
31 -13 V
31 -76 V
31 49 V
31 -117 V
31 220 V
31 -149 V
30 98 V
31 -144 V
31 66 V
31 44 V
31 31 V
31 62 V
31 -21 V
31 107 V
31 -168 V
30 31 V
31 -19 V
31 -11 V
31 47 V
31 -25 V
31 -173 V
31 242 V
31 5 V
31 -73 V
30 32 V
31 -33 V
31 23 V
31 195 V
31 -115 V
31 -137 V
31 150 V
31 -56 V
30 49 V
31 151 V
31 -39 V
31 -135 V
31 94 V
31 -126 V
31 15 V
31 177 V
31 -85 V
30 -98 V
31 -69 V
31 -15 V
31 45 V
31 194 V
31 -8 V
31 -169 V
31 90 V
31 -51 V
30 49 V
31 -72 V
31 -42 V
31 80 V
31 72 V
31 -106 V
31 -116 V
31 138 V
30 -117 V
31 116 V
31 28 V
31 70 V
31 -126 V
31 174 V
31 -102 V
31 -207 V
31 371 V
30 -227 V
31 49 V
31 109 V
31 -79 V
31 85 V
31 -81 V
31 -23 V
31 113 V
31 -81 V
30 0 V
31 -9 V
31 166 V
31 -170 V
31 75 V
31 -107 V
31 100 V
31 -115 V
30 -57 V
31 75 V
31 9 V
31 0 V
31 43 V
31 -118 V
31 36 V
31 134 V
31 7 V
30 15 V
31 -88 V
31 5 V
31 -28 V
% End plot #1
% Begin plot #2
stroke
LT1
LCb setrgbcolor
6296 4598 M
(p = 0.75) Rshow
LT1
6380 4598 M
399 0 V
770 1090 M
31 51 V
31 253 V
31 102 V
31 -23 V
30 144 V
31 55 V
31 234 V
31 -259 V
31 186 V
31 107 V
31 134 V
31 -108 V
31 168 V
30 -29 V
31 242 V
31 -150 V
31 16 V
31 59 V
31 147 V
31 -39 V
31 -16 V
30 -83 V
31 -62 V
31 369 V
31 -114 V
31 114 V
31 14 V
31 39 V
31 -123 V
31 90 V
30 27 V
31 -45 V
31 35 V
31 238 V
31 -310 V
31 252 V
31 -9 V
31 -11 V
31 31 V
30 -57 V
31 11 V
31 -106 V
31 161 V
31 -197 V
31 161 V
31 9 V
31 -147 V
30 138 V
31 32 V
31 78 V
31 -119 V
31 80 V
31 13 V
31 11 V
31 59 V
31 -44 V
30 -15 V
31 -19 V
31 16 V
31 25 V
31 1 V
31 7 V
31 28 V
31 77 V
31 -33 V
30 -24 V
31 43 V
31 -81 V
31 -50 V
31 -33 V
31 95 V
31 131 V
31 24 V
30 2 V
31 -167 V
31 147 V
31 27 V
31 82 V
31 -246 V
31 -27 V
31 105 V
31 -209 V
30 286 V
31 -116 V
31 -41 V
31 144 V
31 -33 V
31 80 V
31 -9 V
31 -97 V
31 -5 V
30 -46 V
31 28 V
31 118 V
31 -190 V
31 -10 V
31 -17 V
31 128 V
31 43 V
30 -51 V
31 -57 V
31 59 V
stroke 3920 3019 M
31 75 V
31 127 V
31 -99 V
31 -2 V
31 -109 V
31 95 V
30 72 V
31 -51 V
31 -28 V
31 -162 V
31 54 V
31 -8 V
31 45 V
31 -165 V
31 80 V
30 3 V
31 6 V
31 -56 V
31 74 V
31 -51 V
31 93 V
31 -20 V
31 78 V
31 -35 V
30 114 V
31 -60 V
31 -88 V
31 126 V
31 -96 V
31 29 V
31 -61 V
31 -119 V
30 121 V
31 -6 V
31 65 V
31 -108 V
31 -160 V
31 197 V
31 125 V
31 -5 V
31 -183 V
30 49 V
31 19 V
31 73 V
31 -101 V
31 94 V
31 43 V
31 -82 V
31 -29 V
31 26 V
30 -6 V
31 -122 V
31 30 V
31 200 V
31 -115 V
31 82 V
31 0 V
31 45 V
30 -13 V
31 -62 V
31 -76 V
31 96 V
31 131 V
31 -92 V
31 -140 V
31 163 V
31 -37 V
30 -34 V
31 -47 V
31 -74 V
31 91 V
31 -79 V
31 62 V
31 27 V
31 -49 V
31 -165 V
30 273 V
31 10 V
31 -108 V
31 51 V
31 -46 V
31 -68 V
31 40 V
31 -66 V
30 213 V
31 -75 V
31 52 V
31 -69 V
31 99 V
31 -138 V
31 -43 V
31 161 V
31 -109 V
30 -30 V
31 159 V
31 -110 V
31 2 V
% End plot #2
% Begin plot #3
stroke
LT2
LCb setrgbcolor
6296 4458 M
(p = 0.50) Rshow
LT2
6380 4458 M
399 0 V
770 1084 M
31 501 V
31 -76 V
31 120 V
31 -163 V
30 40 V
31 90 V
31 -42 V
31 -32 V
31 62 V
31 1 V
31 129 V
31 -157 V
31 -25 V
30 97 V
31 70 V
31 141 V
31 66 V
31 51 V
31 73 V
31 19 V
31 -33 V
30 4 V
31 -119 V
31 219 V
31 -81 V
31 94 V
31 -149 V
31 36 V
31 137 V
31 -108 V
30 98 V
31 -94 V
31 81 V
31 -68 V
31 225 V
31 -110 V
31 78 V
31 -137 V
31 -4 V
30 29 V
31 122 V
31 -123 V
31 12 V
31 155 V
31 -80 V
31 48 V
31 34 V
30 -115 V
31 -70 V
31 152 V
31 -108 V
31 100 V
31 -33 V
31 38 V
31 -74 V
31 34 V
30 -68 V
31 121 V
31 -21 V
31 31 V
31 -208 V
31 305 V
31 -305 V
31 125 V
31 -48 V
30 110 V
31 -30 V
31 -57 V
31 80 V
31 -2 V
31 92 V
31 -113 V
31 -21 V
30 -256 V
31 267 V
31 -2 V
31 17 V
31 9 V
31 -99 V
31 167 V
31 -95 V
31 0 V
30 34 V
31 41 V
31 73 V
31 -17 V
31 -20 V
31 -72 V
31 138 V
31 -108 V
31 -19 V
30 82 V
31 -66 V
31 -6 V
31 -59 V
31 98 V
31 -94 V
31 232 V
31 -56 V
30 25 V
31 83 V
31 -37 V
stroke 3920 2490 M
31 -120 V
31 10 V
31 157 V
31 -174 V
31 -16 V
31 230 V
30 -280 V
31 109 V
31 9 V
31 -113 V
31 18 V
31 -38 V
31 150 V
31 -39 V
31 -73 V
30 269 V
31 -140 V
31 -226 V
31 182 V
31 4 V
31 -115 V
31 -81 V
31 172 V
31 90 V
30 -70 V
31 -18 V
31 -37 V
31 -40 V
31 -36 V
31 82 V
31 -13 V
31 227 V
30 -314 V
31 15 V
31 47 V
31 -171 V
31 173 V
31 -28 V
31 45 V
31 24 V
31 -67 V
30 19 V
31 194 V
31 -232 V
31 194 V
31 -129 V
31 -3 V
31 6 V
31 -29 V
31 191 V
30 -156 V
31 82 V
31 -25 V
31 -11 V
31 13 V
31 -108 V
31 5 V
31 28 V
30 154 V
31 -293 V
31 202 V
31 -71 V
31 72 V
31 -11 V
31 119 V
31 -34 V
31 -58 V
30 -33 V
31 56 V
31 -66 V
31 33 V
31 -4 V
31 37 V
31 -79 V
31 121 V
31 -98 V
30 33 V
31 -13 V
31 -80 V
31 196 V
31 -110 V
31 -27 V
31 -85 V
31 8 V
30 70 V
31 73 V
31 -75 V
31 180 V
31 -155 V
31 -77 V
31 164 V
31 -85 V
31 28 V
30 20 V
31 -127 V
31 32 V
31 43 V
% End plot #3
% Begin plot #4
stroke
LT3
LCb setrgbcolor
6296 4318 M
(p = 0.25) Rshow
LT3
6380 4318 M
399 0 V
770 1093 M
31 183 V
31 -115 V
31 188 V
31 6 V
30 -68 V
31 306 V
31 -165 V
31 32 V
31 101 V
31 -143 V
31 -2 V
31 67 V
31 35 V
30 -20 V
31 -177 V
31 162 V
31 41 V
31 -2 V
31 -37 V
31 175 V
31 67 V
30 -67 V
31 -128 V
31 91 V
31 16 V
31 -153 V
31 -22 V
31 -109 V
31 264 V
31 -103 V
30 115 V
31 -15 V
31 -39 V
31 128 V
31 -82 V
31 42 V
31 164 V
31 -127 V
31 -89 V
30 62 V
31 -12 V
31 -53 V
31 135 V
31 140 V
31 -104 V
31 -62 V
31 92 V
30 -15 V
31 46 V
31 -128 V
31 53 V
31 -45 V
31 74 V
31 96 V
31 -36 V
31 -153 V
30 163 V
31 -151 V
31 148 V
31 13 V
31 22 V
31 -25 V
31 25 V
31 -130 V
31 78 V
30 148 V
31 -100 V
31 12 V
31 61 V
31 1 V
31 5 V
31 39 V
31 135 V
30 -298 V
31 83 V
31 -95 V
31 57 V
31 213 V
31 -57 V
31 -286 V
31 112 V
31 245 V
30 -209 V
31 29 V
31 124 V
31 -150 V
31 4 V
31 110 V
31 16 V
31 -107 V
31 53 V
30 147 V
31 -233 V
31 79 V
31 98 V
31 -125 V
31 -55 V
31 98 V
31 -79 V
30 128 V
31 0 V
31 9 V
stroke 3920 2058 M
31 -56 V
31 -103 V
31 153 V
31 -42 V
31 -141 V
31 68 V
30 135 V
31 -128 V
31 46 V
31 76 V
31 -85 V
31 42 V
31 -24 V
31 115 V
31 -104 V
30 -82 V
31 135 V
31 11 V
31 -101 V
31 13 V
31 201 V
31 94 V
31 -311 V
31 -22 V
30 -102 V
31 114 V
31 -79 V
31 -39 V
31 181 V
31 7 V
31 0 V
31 141 V
30 -31 V
31 -195 V
31 274 V
31 -127 V
31 -4 V
31 72 V
31 -40 V
31 -87 V
31 20 V
30 -14 V
31 20 V
31 69 V
31 46 V
31 16 V
31 -83 V
31 57 V
31 -49 V
31 131 V
30 -1 V
31 -64 V
31 -131 V
31 -10 V
31 159 V
31 0 V
31 -2 V
31 9 V
30 -102 V
31 -45 V
31 -27 V
31 126 V
31 23 V
31 -56 V
31 56 V
31 -115 V
31 -14 V
30 168 V
31 -103 V
31 -56 V
31 164 V
31 -149 V
31 -37 V
31 141 V
31 19 V
31 -159 V
30 238 V
31 -156 V
31 -96 V
31 157 V
31 -141 V
31 141 V
31 121 V
31 -123 V
30 44 V
31 -69 V
31 -116 V
31 114 V
31 65 V
31 275 V
31 -118 V
31 -101 V
31 -114 V
30 72 V
31 -129 V
31 17 V
31 52 V
% End plot #4
% Begin plot #5
stroke
LT4
LCb setrgbcolor
6296 4178 M
(p = 0.00) Rshow
LT4
6380 4178 M
399 0 V
770 1286 M
31 135 V
31 -232 V
31 -14 V
31 53 V
30 143 V
31 43 V
31 74 V
31 -22 V
31 -197 V
31 403 V
31 -206 V
31 -50 V
31 208 V
30 -318 V
31 184 V
31 199 V
31 -242 V
31 123 V
31 -55 V
31 60 V
31 107 V
30 -81 V
31 234 V
31 -247 V
31 121 V
31 -105 V
31 46 V
31 131 V
31 -57 V
31 11 V
30 249 V
31 -141 V
31 48 V
31 -234 V
31 153 V
31 -83 V
31 -61 V
31 86 V
31 39 V
30 64 V
31 -198 V
31 255 V
31 30 V
31 26 V
31 36 V
31 -96 V
31 37 V
30 -3 V
31 -15 V
31 -163 V
31 135 V
31 151 V
31 -185 V
31 -19 V
31 -14 V
31 -45 V
30 -125 V
31 214 V
31 -10 V
31 -10 V
31 -68 V
31 -90 V
31 96 V
31 -26 V
31 169 V
30 -3 V
31 -56 V
31 -88 V
31 -52 V
31 140 V
31 54 V
31 64 V
31 -91 V
30 -26 V
31 179 V
31 -12 V
31 -80 V
31 106 V
31 -50 V
31 -116 V
31 166 V
31 -127 V
30 251 V
31 -197 V
31 46 V
31 -84 V
31 23 V
31 143 V
31 -147 V
31 108 V
31 0 V
30 -284 V
31 137 V
31 -10 V
31 0 V
31 118 V
31 7 V
31 -49 V
31 176 V
30 -156 V
31 68 V
31 -95 V
stroke 3920 2000 M
31 -3 V
31 172 V
31 -55 V
31 -3 V
31 -141 V
31 62 V
30 -174 V
31 290 V
31 -172 V
31 20 V
31 11 V
31 -126 V
31 90 V
31 68 V
31 -9 V
30 -34 V
31 42 V
31 -225 V
31 157 V
31 68 V
31 31 V
31 -168 V
31 75 V
31 8 V
30 -144 V
31 115 V
31 26 V
31 -90 V
31 180 V
31 -22 V
31 -168 V
31 10 V
30 83 V
31 9 V
31 92 V
31 -148 V
31 -74 V
31 123 V
31 80 V
31 -49 V
31 -59 V
30 43 V
31 -63 V
31 7 V
31 -90 V
31 138 V
31 16 V
31 -121 V
31 80 V
31 176 V
30 -78 V
31 -40 V
31 122 V
31 -100 V
31 -8 V
31 59 V
31 -85 V
31 -50 V
30 24 V
31 136 V
31 -121 V
31 -111 V
31 135 V
31 146 V
31 7 V
31 -265 V
31 202 V
30 -120 V
31 114 V
31 11 V
31 49 V
31 26 V
31 -52 V
31 -129 V
31 167 V
31 -164 V
30 124 V
31 50 V
31 -12 V
31 -80 V
31 6 V
31 5 V
31 23 V
31 -201 V
30 237 V
31 84 V
31 -133 V
31 -129 V
31 99 V
31 -52 V
31 2 V
31 -126 V
31 191 V
30 2 V
31 -123 V
31 128 V
31 -190 V
% End plot #5
stroke
LTb
770 4871 N
770 448 L
6177 0 V
0 4423 V
-6177 0 V
Z stroke
1.000 UP
1.000 UL
LTb
stroke
grestore
end
showpage
%%Trailer
%%DocumentFonts: Helvetica
