0 47
1 65
2 222
3 37
4 17
5 79
6 53
7 116
8 54
9 6
10 34
11 26
12 43
13 12
14 42
15 63
16 10
17 39
18 3
19 100
20 25
21 4
22 99
23 15
24 17
25 102
26 35
27 6
28 3
29 30
30 16
31 45
32 90
33 43
34 17
35 67
36 74
37 45
38 24
39 7
40 44
41 6
42 79
43 7
44 4
45 7
46 185
47 50
48 179
49 17
50 37
51 92
52 31
53 62
54 170
55 29
56 28
57 5
58 94
59 60
60 174
61 3
62 49
63 67
64 20
65 7
66 60
67 29
68 1
69 13
70 35
71 79
72 63
73 70
74 6
75 7
76 108
77 160
78 57
79 30
80 36
81 55
82 9
83 14
84 23
85 56
86 2
87 19
88 13
89 196
90 53
91 9
92 2
93 204
94 78
95 150
96 121
97 5
98 110
99 184
100 106
101 94
102 181
103 113
104 7
105 13
106 172
107 2
108 23
109 87
110 301
111 34
112 194
113 4
114 34
115 43
116 41
117 18
118 9
119 44
120 17
121 14
122 25
123 39
124 45
125 58
126 171
127 143
128 4
129 62
130 35
131 51
132 22
133 21
134 37
135 48
136 90
137 258
138 64
139 18
140 67
141 84
142 49
143 20
144 98
145 54
146 119
147 67
148 55
149 66
150 31
151 42
152 139
153 80
154 81
155 123
156 22
157 29
158 106
159 73
160 97
161 11
162 73
163 6
164 91
165 65
166 9
167 90
168 54
169 17
170 234
171 25
172 46
173 84
174 36
175 45
176 116
177 72
178 79
179 58
180 125
181 29
182 2
183 15
184 60
185 3
186 35
187 26
188 3
189 15
190 92
191 181
192 2
193 105
194 12
195 28
196 63
197 95
198 163
199 32
200 86
201 45
202 58
203 4
204 22
205 40
206 90
207 109
208 212
209 24
210 98
211 197
212 112
213 28
214 82
215 135
216 153
217 58
218 160
219 109
220 121
221 123
222 68
223 87
224 4
225 2
226 55
227 22
228 60
229 38
230 19
231 117
232 63
233 117
234 234
235 89
236 1
237 26
238 46
239 10
240 20
241 18
242 17
243 47
244 2
245 16
246 33
247 3
248 38
249 90
250 148
251 169
252 41
253 17
254 41
255 51
256 15
257 46
258 157
259 23
260 79
261 95
262 88
263 52
264 56
265 24
266 24
267 106
268 70
269 128
270 13
271 240
272 17
273 112
274 123
275 41
276 38
277 16
278 5
279 3
280 66
281 26
282 44
283 19
284 1
285 24
286 33
287 23
288 48
289 22
290 10
291 79
292 3
293 9
294 82
295 193
296 64
297 38
298 65
299 5
300 137
301 78
302 41
303 79
304 154
305 64
306 57
307 40
308 3
309 35
310 21
311 66
312 3
313 7
314 50
315 11
316 21
317 19
318 2
319 28
320 27
321 68
322 30
323 56
324 29
325 7
326 6
327 80
328 2
329 28
330 12
331 22
332 31
333 10
334 56
335 199
336 27
337 54
338 28
339 53
340 137
341 1
342 20
343 1
344 121
345 27
346 54
347 174
348 41
349 85
350 25
351 47
352 113
353 91
354 147
355 100
356 89
357 33
358 39
359 75
360 32
361 11
362 37
363 56
364 27
365 213
366 89
367 19
368 29
369 30
370 89
371 38
372 5
373 68
374 2
375 21
376 166
377 34
378 41
379 49
380 99
381 128
382 23
383 90
384 40
385 82
386 218
387 158
388 11
389 72
390 25
391 159
392 133
393 51
394 107
395 173
396 29
397 75
398 40
399 88
400 87
401 110
402 4
403 8
404 1
405 60
406 56
407 67
408 95
409 91
410 18
411 77
412 18
413 6
414 9
415 15
416 84
417 28
418 26
419 24
420 3
421 315
422 2
423 90
424 96
425 119
426 9
427 211
428 245
429 27
430 253
431 19
432 195
433 54
434 182
435 1
436 196
437 24
438 31
439 68
440 12
441 53
442 296
443 92
444 13
445 39
446 23
447 16
448 19
449 2
450 29
451 108
452 19
453 178
454 224
455 88
456 37
457 14
458 102
459 59
460 58
461 114
462 43
463 56
464 20
465 32
466 27
467 427
468 38
469 317
470 5
471 35
472 6
473 28
474 32
475 43
476 91
477 61
478 4
479 41
480 42
481 75
482 67
483 76
484 198
485 139
486 66
487 30
488 3
489 33
490 60
491 204
492 34
493 46
494 22
495 118
496 15
497 81
498 12
499 46
500 7
501 26
502 62
503 15
504 49
505 34
506 164
507 43
508 17
509 56
510 120
511 57
512 135
513 153
514 44
515 79
516 26
517 212
518 135
519 1
520 131
521 19
522 25
523 71
524 137
525 9
526 10
527 262
528 39
529 50
530 152
531 27
532 94
533 105
534 55
535 111
536 176
537 221
538 171
539 100
540 171
541 442
542 151
543 102
544 99
545 40
546 103
547 3
548 97
549 40
550 57
551 76
552 66
553 28
554 69
555 150
556 11
557 24
558 96
559 126
560 56
561 7
562 6
563 77
564 115
565 24
566 3
567 4
568 65
569 55
570 35
571 11
572 68
573 35
574 3
575 27
576 76
577 38
578 4
579 135
580 88
581 113
582 20
583 21
584 189
585 4
586 14
587 59
588 129
589 118
590 84
591 80
592 71
593 288
594 107
595 74
596 106
597 17
598 16
599 59
600 51
601 122
602 78
603 1
604 14
605 35
606 180
607 42
608 126
609 146
610 92
611 110
612 57
613 33
614 64
615 60
616 19
617 18
618 246
619 34
620 45
621 198
622 6
623 172
624 104
625 106
626 271
627 77
628 90
629 70
630 13
631 90
632 15
633 34
634 9
635 30
636 329
637 154
638 14
639 27
640 3
641 176
642 18
643 46
644 265
645 292
646 30
647 80
648 21
649 27
650 223
651 64
652 127
653 143
654 307
655 1
656 64
657 313
658 20
659 224
660 183
661 5
662 63
663 76
664 118
665 49
666 75
667 85
668 78
669 50
670 87
671 184
672 34
673 183
674 171
675 48
676 15
677 7
678 44
679 57
680 169
681 36
682 20
683 5
684 310
685 143
686 44
687 172
688 223
689 42
690 172
691 81
692 15
693 149
694 192
695 171
696 164
697 188
698 144
699 75
700 261
701 96
702 30
703 7
704 129
705 14
706 65
707 1
708 43
709 56
710 92
711 20
712 37
713 46
714 22
715 311
716 44
717 38
718 141
719 56
720 270
721 15
722 30
723 194
724 7
725 20
726 40
727 88
728 164
729 102
730 148
731 51
732 8
733 301
734 5
735 113
736 98
737 63
738 65
739 129
740 2
741 23
742 168
743 9
744 12
745 73
746 61
747 110
748 35
749 37
750 57
751 152
752 52
753 116
754 164
755 21
756 19
757 143
758 51
759 136
760 246
761 173
762 31
763 7
764 12
765 163
766 47
767 144
768 94
769 220
770 46
771 403
772 136
773 15
774 155
775 97
776 78
777 23
778 155
779 22
780 275
781 144
782 89
783 8
784 13
785 295
786 20
787 181
788 78
789 72
790 27
791 49
792 67
793 160
794 163
795 72
796 2
797 76
798 165
799 642
800 100
801 167
802 4
803 2
804 318
805 115
806 454
807 95
808 188
809 85
810 9
811 362
812 16
813 38
814 6
815 13
816 36
817 32
818 154
819 146
820 174
821 199
822 27
823 88
824 245
825 19
826 36
827 195
828 21
829 36
830 33
831 74
832 29
833 6
834 31
835 195
836 243
837 330
838 24
839 104
840 41
841 93
842 158
843 18
844 388
845 1086
846 13
847 272
848 236
849 14
850 285
851 25
852 116
853 180
854 1
855 16
856 145
857 239
858 57
859 147
860 359
861 116
862 52
863 120
864 157
865 159
866 52
867 302
868 293
869 129
870 7
871 175
872 86
873 112
874 126
875 146
876 57
877 6
878 313
879 294
880 49
881 70
882 162
883 88
884 62
885 68
886 21
887 142
888 94
889 27
890 201
891 104
892 373
893 8
894 57
895 18
896 219
897 55
898 14
899 51
900 307
901 38
902 37
903 30
904 133
905 67
906 35
907 3
908 50
909 6
910 150
911 28
912 62
913 132
914 127
915 199
916 75
917 314
918 191
919 50
920 185
921 22
922 202
923 164
924 301
925 127
926 212
927 134
928 373
929 215
930 13
931 537
932 145
933 234
934 23
935 185
936 15
937 85
938 196
939 106
940 22
941 249
942 313
943 122
944 96
945 7
946 31
947 22
948 110
949 14
950 123
951 1
952 320
953 3
954 99
955 32
956 123
957 510
958 103
959 214
960 136
961 157
962 116
963 22
964 462
965 237
966 352
967 158
968 446
969 313
970 373
971 97
972 2
973 24
974 192
975 143
976 134
977 237
978 27
979 303
980 182
981 106
982 195
983 376
984 81
985 156
986 7
987 112
988 18
989 282
990 469
991 306
992 650
993 65
994 91
995 289
996 144
997 481
998 128
999 67
1000 19
1001 31
1002 158
1003 90
1004 162
1005 80
1006 209
1007 398
1008 156
1009 7
1010 116
1011 133
1012 9
1013 137
1014 76
1015 86
1016 63
1017 116
1018 85
1019 189
1020 32
1021 23
1022 198
1023 244
1024 3
1025 29
1026 29
1027 36
1028 171
1029 76
1030 24
1031 73
1032 159
1033 157
1034 247
1035 15
1036 103
1037 43
1038 161
1039 95
1040 69
1041 216
1042 246
1043 8
1044 192
1045 314
1046 7
1047 291
1048 24
1049 39
1050 450
1051 257
1052 138
1053 35
1054 68
1055 21
1056 63
1057 95
1058 2
1059 62
1060 41
1061 152
1062 6
1063 16
1064 165
1065 139
1066 190
1067 42
1068 761
1069 193
1070 209
1071 113
1072 53
1073 84
1074 163
1075 22
1076 32
1077 425
1078 204
1079 604
1080 131
1081 107
1082 97
1083 49
1084 68
1085 52
1086 355
1087 349
1088 16
1089 54
1090 38
1091 39
1092 66
1093 60
1094 105
1095 184
1096 21
1097 179
1098 63
1099 349
1100 144
1101 316
1102 13
1103 76
1104 36
1105 28
1106 364
1107 33
1108 145
1109 86
1110 33
1111 20
1112 79
1113 239
1114 111
1115 63
1116 107
1117 237
1118 60
1119 649
1120 43
1121 322
1122 33
1123 33
1124 82
1125 10
1126 44
1127 56
1128 229
1129 50
1130 14
1131 165
1132 525
1133 81
1134 142
1135 456
1136 2
1137 57
1138 14
1139 192
1140 123
1141 7
1142 39
1143 4
1144 20
1145 39
1146 345
1147 254
1148 142
1149 287
1150 190
1151 46
1152 43
1153 301
1154 39
1155 198
1156 89
1157 233
1158 548
1159 219
1160 310
1161 38
1162 59
1163 7
1164 32
1165 105
1166 77
1167 44
1168 246
1169 59
1170 6
1171 28
1172 39
1173 106
1174 89
1175 47
1176 138
1177 16
1178 57
1179 349
1180 30
1181 9
1182 98
1183 168
1184 162
1185 33
1186 20
1187 72
1188 192
1189 149
1190 50
1191 16
1192 326
1193 502
1194 3
1195 323
1196 12
1197 1
1198 317
1199 60
1200 222
1201 315
1202 1
1203 278
1204 127
1205 44
1206 153
1207 182
1208 223
1209 42
1210 239
1211 121
1212 120
1213 676
1214 620
1215 162
1216 529
1217 10
1218 65
1219 14
1220 97
1221 228
1222 262
1223 15
1224 1
1225 56
1226 92
1227 93
1228 300
1229 30
1230 125
1231 26
1232 71
1233 259
1234 131
1235 129
1236 43
1237 92
1238 124
1239 281
1240 106
1241 4
1242 115
1243 55
1244 199
1245 1
1246 282
1247 473
1248 94
1249 219
1250 204
1251 63
1252 110
1253 22
1254 214
1255 137
1256 34
1257 577
1258 8
1259 89
1260 391
1261 115
1262 236
1263 412
1264 77
1265 191
1266 11
1267 6
1268 153
1269 195
1270 176
1271 46
1272 140
1273 18
1274 11
1275 217
1276 146
1277 205
1278 61
1279 15
1280 100
1281 48
1282 106
1283 148
1284 195
1285 245
1286 11
1287 213
1288 335
1289 170
1290 299
1291 153
1292 683
1293 340
1294 141
1295 2
1296 18
1297 15
1298 74
1299 114
1300 283
1301 60
1302 6
1303 522
1304 142
1305 3
1306 52
1307 44
1308 49
1309 233
1310 48
1311 108
1312 22
1313 42
1314 43
1315 121
1316 208
1317 55
1318 2
1319 197
1320 132
1321 97
1322 177
1323 134
1324 50
1325 11
1326 150
1327 18
1328 111
1329 81
1330 28
1331 153
1332 138
1333 20
1334 92
1335 90
1336 232
1337 148
1338 453
1339 8
1340 62
1341 86
1342 23
1343 119
1344 175
1345 23
1346 24
1347 198
1348 18
1349 95
1350 64
1351 27
1352 106
1353 31
1354 100
1355 53
1356 28
1357 19
1358 260
1359 223
1360 119
1361 90
1362 85
1363 103
1364 306
1365 9
1366 110
1367 183
1368 82
1369 165
1370 77
1371 6
1372 89
1373 27
1374 471
1375 87
1376 708
1377 71
1378 47
1379 70
1380 342
1381 120
1382 144
1383 36
1384 67
1385 25
1386 54
1387 102
1388 4
1389 36
1390 134
1391 22
1392 49
1393 29
1394 31
1395 28
1396 59
1397 76
1398 38
1399 48
1400 44
1401 16
1402 93
1403 38
1404 49
1405 31
1406 15
1407 20
1408 47
1409 90
1410 109
1411 5
1412 349
1413 129
1414 70
1415 136
1416 5
1417 47
1418 63
1419 2
1420 30
1421 204
1422 26
1423 63
1424 9
1425 125
1426 80
1427 174
1428 73
1429 5
1430 4
1431 116
1432 89
1433 3
1434 94
1435 41
1436 1
1437 5
1438 8
1439 40
1440 53
1441 100
1442 38
1443 159
1444 120
1445 31
1446 45
1447 80
1448 85
1449 148
1450 24
1451 21
1452 9
1453 50
1454 14
1455 248
1456 34
1457 31
1458 43
1459 87
1460 38
1461 3
1462 207
1463 149
1464 3
1465 38
1466 58
1467 144
1468 42
1469 188
1470 201
1471 49
1472 148
1473 153
1474 414
1475 2
1476 37
1477 119
1478 33
1479 254
1480 183
1481 49
1482 26
1483 202
1484 8
1485 51
1486 11
1487 111
1488 50
1489 112
1490 119
1491 245
1492 4
1493 98
1494 249
1495 24
1496 10
1497 56
1498 171
1499 31
1500 52
1501 10
1502 48
1503 186
1504 215
1505 31
1506 66
1507 201
1508 264
1509 42
1510 33
1511 28
1512 21
1513 79
1514 117
1515 285
1516 25
1517 25
1518 64
1519 191
1520 108
1521 165
1522 5
1523 1
1524 7
1525 176
1526 119
1527 135
1528 119
1529 111
1530 177
1531 208
1532 68
1533 47
1534 12
1535 163
1536 109
1537 2
1538 23
1539 129
1540 39
1541 174
1542 88
1543 33
1544 41
1545 530
1546 9
1547 92
1548 227
1549 24
1550 14
1551 82
1552 120
1553 18
1554 18
1555 12
1556 188
1557 74
1558 125
1559 73
1560 89
1561 493
1562 95
1563 95
1564 36
1565 19
1566 160
1567 111
1568 62
1569 25
1570 40
1571 40
1572 11
1573 23
1574 179
1575 28
1576 18
1577 157
1578 46
1579 136
1580 3
1581 100
1582 98
1583 42
1584 161
1585 6
1586 170
1587 125
1588 31
1589 207
1590 45
1591 41
1592 388
1593 454
1594 45
1595 154
1596 8
1597 28
1598 52
1599 47
1600 311
1601 77
1602 361
1603 67
1604 9
1605 51
1606 226
1607 83
1608 266
1609 78
1610 26
1611 292
1612 150
1613 246
1614 245
1615 21
1616 55
1617 70
1618 51
1619 51
1620 21
1621 49
1622 17
1623 60
1624 43
1625 94
1626 153
1627 50
1628 136
1629 169
1630 317
1631 6
1632 20
1633 15
1634 66
1635 88
1636 230
1637 110
1638 4
1639 6
1640 25
1641 152
1642 17
1643 85
1644 2
1645 2
1646 104
1647 92
1648 388
1649 159
1650 87
1651 74
1652 9
1653 13
1654 13
1655 160
1656 55
1657 26
1658 43
1659 75
1660 26
1661 18
1662 140
1663 71
1664 5
1665 36
1666 238
1667 52
1668 133
1669 14
1670 9
1671 38
1672 20
1673 123
1674 10
1675 21
1676 7
1677 7
1678 38
1679 75
1680 238
1681 77
1682 21
1683 3
1684 42
1685 115
1686 48
1687 17
1688 18
1689 38
1690 114
1691 49
1692 39
1693 21
1694 203
1695 51
1696 73
1697 18
1698 9
1699 31
1700 112
1701 14
1702 39
1703 79
1704 58
1705 18
1706 8
1707 165
1708 42
1709 17
1710 43
1711 34
1712 36
1713 60
1714 190
1715 7
1716 20
1717 15
1718 62
1719 272
1720 55
1721 115
1722 47
1723 31
1724 43
1725 24
1726 56
1727 122
1728 82
1729 2
1730 2
1731 76
1732 27
1733 103
1734 10
1735 166
1736 196
1737 225
1738 24
1739 268
1740 38
1741 210
1742 64
1743 90
1744 81
1745 360
1746 211
1747 170
1748 52
1749 200
1750 73
1751 185
1752 140
1753 65
1754 46
1755 137
1756 23
1757 53
1758 18
1759 142
1760 5
1761 28
1762 31
1763 25
1764 66
1765 12
1766 68
1767 143
1768 200
1769 74
1770 211
1771 216
1772 267
1773 355
1774 151
1775 289
1776 234
1777 13
1778 22
1779 108
1780 229
1781 77
1782 146
1783 75
1784 122
1785 193
1786 55
1787 384
1788 10
1789 208
1790 72
1791 310
1792 27
1793 109
1794 103
1795 198
1796 63
1797 172
1798 192
1799 24
1800 440
1801 228
1802 75
1803 60
1804 111
1805 4
1806 73
1807 91
1808 112
1809 47
1810 15
1811 15
1812 36
1813 21
1814 92
1815 40
1816 21
1817 40
1818 207
1819 252
1820 54
1821 157
1822 26
1823 8
1824 49
1825 130
1826 183
1827 59
1828 9
1829 77
1830 42
1831 68
1832 22
1833 1
1834 47
1835 398
1836 186
1837 18
1838 133
1839 82
1840 93
1841 17
1842 16
1843 143
1844 4
1845 237
1846 58
1847 33
1848 103
1849 130
1850 86
1851 40
1852 19
1853 34
1854 295
1855 33
1856 2
1857 23
1858 14
1859 40
1860 144
1861 250
1862 50
1863 198
1864 168
1865 36
1866 279
1867 5
1868 108
1869 124
1870 22
1871 1027
1872 207
1873 115
1874 110
1875 398
1876 71
1877 115
1878 72
1879 139
1880 53
1881 189
1882 68
1883 328
1884 59
1885 328
1886 18
1887 323
1888 119
1889 2
1890 146
1891 78
1892 138
1893 17
1894 709
1895 151
1896 6
1897 101
1898 90
1899 39
1900 87
1901 106
1902 28
1903 218
1904 35
1905 24
1906 22
1907 180
1908 107
1909 119
1910 42
1911 204
1912 74
1913 82
1914 169
1915 166
1916 50
1917 60
1918 167
1919 190
1920 1
1921 97
1922 2
1923 120
1924 428
1925 72
1926 28
1927 87
1928 94
1929 1
1930 45
1931 22
1932 362
1933 24
1934 339
1935 212
1936 277
1937 273
1938 18
1939 8
1940 107
1941 112
1942 9
1943 137
1944 191
1945 265
1946 45
1947 224
1948 66
1949 51
1950 11
1951 110
1952 72
1953 161
1954 188
1955 147
1956 1
1957 3
1958 138
1959 135
1960 464
1961 131
1962 22
1963 96
1964 234
1965 67
1966 14
1967 151
1968 425
1969 246
1970 182
1971 32
1972 72
1973 67
1974 19
1975 107
1976 64
1977 148
1978 21
1979 151
1980 69
1981 120
1982 344
1983 29
1984 161
1985 296
1986 5
1987 522
1988 5
1989 228
1990 109
1991 76
1992 85
1993 33
1994 237
1995 89
1996 102
1997 224
1998 283
1999 629
