0 3
1 63
2 5
3 11
4 9
5 2
6 21
7 20
8 79
9 33
10 13
11 21
12 36
13 38
14 60
15 9
16 42
17 51
18 20
19 14
20 16
21 131
22 96
23 28
24 10
25 20
26 3
27 28
28 156
29 2
30 63
31 18
32 3
33 129
34 103
35 7
36 43
37 25
38 150
39 3
40 57
41 40
42 115
43 32
44 4
45 33
46 25
47 99
48 18
49 34
50 52
51 112
52 10
53 19
54 33
55 136
56 92
57 70
58 132
59 32
60 51
61 29
62 11
63 116
64 43
65 46
66 23
67 97
68 34
69 43
70 43
71 139
72 27
73 16
74 197
75 12
76 19
77 4
78 12
79 104
80 140
81 10
82 65
83 24
84 205
85 41
86 5
87 103
88 162
89 23
90 2
91 10
92 37
93 81
94 207
95 57
96 79
97 17
98 306
99 133
100 8
101 26
102 20
103 14
104 113
105 56
106 62
107 55
108 12
109 68
110 36
111 20
112 265
113 175
114 20
115 30
116 46
117 42
118 32
119 115
120 4
121 97
122 11
123 20
124 211
125 32
126 66
127 127
128 103
129 56
130 48
131 118
132 28
133 356
134 38
135 180
136 10
137 233
138 89
139 47
140 7
141 7
142 4
143 114
144 47
145 23
146 11
147 32
148 58
149 141
150 1
151 32
152 33
153 83
154 11
155 23
156 61
157 2
158 36
159 159
160 101
161 9
162 229
163 45
164 65
165 36
166 11
167 38
168 60
169 15
170 6
171 168
172 80
173 35
174 10
175 117
176 44
177 12
178 59
179 9
180 123
181 107
182 27
183 42
184 60
185 5
186 28
187 29
188 29
189 15
190 183
191 32
192 10
193 4
194 51
195 27
196 13
197 65
198 9
199 55
200 48
201 103
202 33
203 92
204 75
205 106
206 99
207 46
208 23
209 117
210 67
211 51
212 42
213 136
214 1
215 1
216 38
217 60
218 9
219 42
220 46
221 6
222 76
223 113
224 42
225 19
226 92
227 34
228 38
229 23
230 170
231 19
232 71
233 103
234 13
235 7
236 33
237 12
238 16
239 38
240 45
241 8
242 6
243 90
244 64
245 29
246 121
247 24
248 115
249 6
250 40
251 1
252 65
253 13
254 20
255 157
256 49
257 152
258 37
259 268
260 86
261 39
262 52
263 344
264 52
265 1
266 55
267 122
268 4
269 2
270 34
271 139
272 136
273 2
274 13
275 240
276 33
277 49
278 30
279 123
280 103
281 43
282 3
283 81
284 108
285 59
286 128
287 116
288 79
289 22
290 3
291 2
292 48
293 7
294 96
295 78
296 22
297 115
298 11
299 115
300 61
301 3
302 25
303 32
304 185
305 25
306 54
307 86
308 22
309 3
310 3
311 161
312 25
313 2
314 6
315 117
316 68
317 29
318 18
319 154
320 1
321 67
322 1
323 107
324 2
325 50
326 294
327 47
328 96
329 15
330 114
331 39
332 208
333 51
334 290
335 33
336 172
337 165
338 67
339 73
340 81
341 42
342 23
343 6
344 125
345 6
346 13
347 32
348 246
349 71
350 80
351 27
352 34
353 60
354 80
355 197
356 74
357 133
358 15
359 69
360 27
361 15
362 10
363 7
364 33
365 95
366 97
367 17
368 45
369 235
370 6
371 109
372 35
373 55
374 55
375 119
376 78
377 48
378 22
379 43
380 45
381 212
382 29
383 11
384 15
385 182
386 91
387 74
388 36
389 325
390 7
391 246
392 24
393 2
394 1
395 71
396 14
397 3
398 42
399 125
400 5
401 93
402 4
403 1
404 93
405 173
406 33
407 68
408 24
409 121
410 28
411 28
412 68
413 231
414 12
415 67
416 62
417 49
418 64
419 95
420 88
421 13
422 150
423 2
424 8
425 29
426 6
427 57
428 21
429 59
430 59
431 14
432 61
433 57
434 23
435 143
436 79
437 46
438 100
439 137
440 122
441 4
442 48
443 46
444 7
445 167
446 4
447 10
448 17
449 28
450 241
451 155
452 3
453 119
454 14
455 70
456 50
457 49
458 24
459 22
460 114
461 82
462 59
463 105
464 59
465 9
466 14
467 82
468 10
469 18
470 70
471 25
472 7
473 27
474 63
475 185
476 50
477 6
478 289
479 20
480 25
481 112
482 49
483 58
484 18
485 87
486 12
487 59
488 48
489 24
490 75
491 167
492 92
493 217
494 27
495 60
496 41
497 152
498 82
499 146
500 23
501 1
502 71
503 32
504 40
505 24
506 135
507 324
508 37
509 153
510 4
511 10
512 16
513 49
514 6
515 247
516 33
517 38
518 35
519 16
520 38
521 69
522 9
523 97
524 36
525 98
526 119
527 18
528 133
529 13
530 117
531 10
532 4
533 56
534 117
535 65
536 11
537 42
538 117
539 20
540 53
541 12
542 207
543 17
544 39
545 47
546 21
547 124
548 84
549 38
550 6
551 101
552 21
553 183
554 5
555 25
556 93
557 82
558 1
559 45
560 41
561 103
562 247
563 135
564 95
565 79
566 77
567 78
568 87
569 54
570 97
571 12
572 58
573 128
574 310
575 126
576 185
577 105
578 19
579 172
580 37
581 130
582 277
583 115
584 18
585 173
586 41
587 106
588 44
589 10
590 9
591 45
592 142
593 104
594 49
595 36
596 99
597 62
598 35
599 29
600 53
601 48
602 2
603 27
604 15
605 159
606 42
607 23
608 31
609 80
610 247
611 197
612 56
613 163
614 252
615 6
616 102
617 31
618 127
619 156
620 49
621 19
622 27
623 16
624 91
625 41
626 10
627 37
628 189
629 201
630 51
631 17
632 30
633 36
634 5
635 88
636 113
637 3
638 6
639 53
640 9
641 45
642 69
643 82
644 180
645 40
646 23
647 40
648 32
649 9
650 46
651 55
652 98
653 111
654 42
655 23
656 30
657 93
658 30
659 86
660 41
661 61
662 61
663 58
664 34
665 23
666 21
667 82
668 4
669 40
670 98
671 27
672 51
673 4
674 74
675 80
676 113
677 3
678 29
679 34
680 84
681 57
682 32
683 41
684 90
685 121
686 102
687 33
688 82
689 46
690 49
691 199
692 127
693 205
694 43
695 250
696 45
697 6
698 22
699 93
700 96
701 57
702 95
703 65
704 28
705 120
706 235
707 76
708 62
709 33
710 34
711 124
712 39
713 24
714 27
715 2
716 13
717 178
718 24
719 12
720 15
721 10
722 53
723 44
724 80
725 65
726 187
727 149
728 29
729 117
730 155
731 14
732 50
733 154
734 22
735 174
736 122
737 2
738 34
739 50
740 107
741 49
742 24
743 37
744 3
745 41
746 6
747 71
748 44
749 45
750 11
751 52
752 116
753 97
754 14
755 72
756 63
757 47
758 48
759 110
760 1
761 210
762 42
763 450
764 31
765 10
766 14
767 57
768 130
769 189
770 385
771 21
772 155
773 35
774 1
775 21
776 19
777 42
778 8
779 153
780 4
781 48
782 128
783 13
784 29
785 2
786 6
787 38
788 63
789 69
790 469
791 42
792 39
793 50
794 311
795 159
796 30
797 13
798 305
799 53
800 1
801 210
802 65
803 264
804 21
805 16
806 86
807 19
808 25
809 115
810 75
811 79
812 143
813 84
814 30
815 41
816 8
817 33
818 92
819 42
820 3
821 63
822 8
823 4
824 24
825 80
826 77
827 30
828 34
829 348
830 38
831 25
832 37
833 20
834 31
835 119
836 55
837 18
838 54
839 24
840 49
841 21
842 92
843 45
844 118
845 26
846 87
847 30
848 142
849 49
850 80
851 204
852 173
853 64
854 62
855 31
856 511
857 3
858 8
859 24
860 112
861 43
862 46
863 46
864 15
865 83
866 37
867 108
868 211
869 47
870 60
871 135
872 21
873 83
874 35
875 8
876 12
877 27
878 44
879 4
880 8
881 33
882 39
883 139
884 1
885 74
886 47
887 146
888 18
889 26
890 5
891 27
892 4
893 27
894 1
895 79
896 69
897 54
898 27
899 124
900 142
901 11
902 1
903 20
904 96
905 26
906 31
907 6
908 29
909 12
910 11
911 45
912 62
913 10
914 8
915 6
916 10
917 80
918 18
919 8
920 63
921 1
922 49
923 61
924 98
925 93
926 9
927 5
928 15
929 5
930 46
931 47
932 56
933 18
934 73
935 63
936 273
937 172
938 17
939 75
940 49
941 13
942 149
943 118
944 42
945 122
946 58
947 94
948 27
949 16
950 226
951 88
952 54
953 109
954 29
955 14
956 30
957 21
958 59
959 79
960 4
961 228
962 47
963 99
964 85
965 119
966 27
967 163
968 50
969 54
970 11
971 105
972 82
973 24
974 17
975 40
976 62
977 2
978 20
979 10
980 70
981 6
982 109
983 11
984 58
985 70
986 54
987 147
988 37
989 47
990 19
991 47
992 57
993 37
994 104
995 74
996 8
997 46
998 115
999 54
1000 34
1001 20
1002 79
1003 16
1004 129
1005 75
1006 29
1007 63
1008 6
1009 8
1010 49
1011 16
1012 2
1013 162
1014 58
1015 67
1016 20
1017 145
1018 279
1019 139
1020 19
1021 90
1022 80
1023 37
1024 10
1025 39
1026 4
1027 20
1028 4
1029 2
1030 168
1031 37
1032 114
1033 40
1034 8
1035 385
1036 104
1037 112
1038 20
1039 9
1040 79
1041 113
1042 8
1043 2
1044 41
1045 76
1046 10
1047 20
1048 125
1049 39
1050 78
1051 52
1052 46
1053 3
1054 140
1055 46
1056 14
1057 269
1058 85
1059 104
1060 33
1061 20
1062 26
1063 2
1064 71
1065 12
1066 52
1067 118
1068 104
1069 291
1070 52
1071 95
1072 126
1073 86
1074 58
1075 21
1076 25
1077 180
1078 38
1079 74
1080 44
1081 28
1082 58
1083 10
1084 11
1085 28
1086 39
1087 29
1088 73
1089 137
1090 30
1091 98
1092 130
1093 36
1094 36
1095 292
1096 5
1097 82
1098 29
1099 24
1100 151
1101 15
1102 21
1103 146
1104 135
1105 222
1106 89
1107 139
1108 147
1109 340
1110 28
1111 11
1112 100
1113 15
1114 94
1115 136
1116 28
1117 155
1118 120
1119 71
1120 98
1121 73
1122 233
1123 156
1124 65
1125 31
1126 255
1127 48
1128 46
1129 74
1130 59
1131 207
1132 87
1133 157
1134 99
1135 38
1136 6
1137 32
1138 3
1139 7
1140 101
1141 29
1142 26
1143 17
1144 35
1145 47
1146 3
1147 34
1148 8
1149 9
1150 98
1151 18
1152 184
1153 33
1154 41
1155 23
1156 193
1157 14
1158 7
1159 195
1160 62
1161 16
1162 3
1163 69
1164 95
1165 82
1166 35
1167 64
1168 55
1169 34
1170 176
1171 19
1172 37
1173 367
1174 69
1175 76
1176 187
1177 182
1178 41
1179 93
1180 6
1181 57
1182 34
1183 33
1184 99
1185 43
1186 59
1187 20
1188 12
1189 32
1190 1
1191 13
1192 33
1193 43
1194 30
1195 31
1196 112
1197 271
1198 221
1199 123
1200 162
1201 18
1202 71
1203 218
1204 120
1205 11
1206 123
1207 22
1208 132
1209 6
1210 27
1211 136
1212 6
1213 176
1214 63
1215 36
1216 163
1217 52
1218 20
1219 18
1220 65
1221 30
1222 84
1223 85
1224 71
1225 10
1226 24
1227 117
1228 16
1229 47
1230 80
1231 351
1232 4
1233 2
1234 44
1235 7
1236 56
1237 79
1238 3
1239 89
1240 28
1241 2
1242 4
1243 57
1244 55
1245 53
1246 97
1247 186
1248 105
1249 117
1250 15
1251 32
1252 61
1253 25
1254 109
1255 95
1256 131
1257 110
1258 83
1259 13
1260 32
1261 153
1262 5
1263 2
1264 25
1265 3
1266 134
1267 240
1268 173
1269 43
1270 7
1271 16
1272 9
1273 201
1274 168
1275 4
1276 35
1277 222
1278 19
1279 97
1280 35
1281 99
1282 148
1283 1
1284 68
1285 39
1286 72
1287 51
1288 28
1289 82
1290 3
1291 193
1292 65
1293 6
1294 41
1295 165
1296 21
1297 20
1298 6
1299 118
1300 54
1301 165
1302 36
1303 10
1304 1
1305 245
1306 30
1307 40
1308 37
1309 77
1310 24
1311 16
1312 148
1313 62
1314 55
1315 31
1316 8
1317 75
1318 97
1319 402
1320 64
1321 81
1322 37
1323 5
1324 158
1325 100
1326 22
1327 121
1328 133
1329 49
1330 58
1331 19
1332 107
1333 115
1334 213
1335 384
1336 85
1337 350
1338 18
1339 60
1340 1
1341 103
1342 64
1343 11
1344 31
1345 38
1346 8
1347 33
1348 122
1349 258
1350 7
1351 64
1352 96
1353 1
1354 182
1355 7
1356 106
1357 32
1358 12
1359 4
1360 37
1361 47
1362 10
1363 104
1364 82
1365 30
1366 16
1367 59
1368 63
1369 48
1370 186
1371 37
1372 259
1373 110
1374 105
1375 78
1376 35
1377 61
1378 57
1379 123
1380 162
1381 100
1382 31
1383 65
1384 45
1385 4
1386 49
1387 43
1388 111
1389 59
1390 1
1391 16
1392 54
1393 66
1394 13
1395 51
1396 13
1397 96
1398 52
1399 30
1400 277
1401 9
1402 31
1403 11
1404 180
1405 67
1406 107
1407 13
1408 37
1409 245
1410 6
1411 22
1412 32
1413 5
1414 46
1415 23
1416 24
1417 171
1418 14
1419 11
1420 5
1421 13
1422 39
1423 24
1424 3
1425 85
1426 101
1427 52
1428 64
1429 19
1430 39
1431 3
1432 66
1433 21
1434 63
1435 10
1436 32
1437 105
1438 39
1439 53
1440 22
1441 46
1442 22
1443 148
1444 63
1445 27
1446 92
1447 243
1448 4
1449 20
1450 1
1451 4
1452 51
1453 71
1454 104
1455 106
1456 20
1457 129
1458 37
1459 16
1460 152
1461 41
1462 214
1463 366
1464 8
1465 76
1466 71
1467 42
1468 3
1469 55
1470 254
1471 80
1472 32
1473 81
1474 1
1475 19
1476 34
1477 227
1478 2
1479 31
1480 23
1481 9
1482 44
1483 85
1484 114
1485 74
1486 29
1487 137
1488 12
1489 9
1490 109
1491 189
1492 55
1493 18
1494 35
1495 9
1496 44
1497 5
1498 106
1499 3
1500 5
1501 24
1502 84
1503 166
1504 21
1505 85
1506 38
1507 26
1508 87
1509 87
1510 16
1511 43
1512 90
1513 53
1514 32
1515 45
1516 40
1517 8
1518 88
1519 40
1520 4
1521 26
1522 35
1523 122
1524 153
1525 21
1526 89
1527 4
1528 54
1529 33
1530 2
1531 357
1532 90
1533 107
1534 168
1535 69
1536 76
1537 3
1538 60
1539 50
1540 76
1541 83
1542 44
1543 26
1544 79
1545 34
1546 11
1547 139
1548 62
1549 136
1550 19
1551 7
1552 60
1553 2
1554 26
1555 54
1556 19
1557 13
1558 147
1559 57
1560 155
1561 12
1562 9
1563 21
1564 27
1565 23
1566 75
1567 108
1568 76
1569 86
1570 42
1571 5
1572 35
1573 74
1574 79
1575 49
1576 65
1577 98
1578 14
1579 215
1580 140
1581 65
1582 41
1583 8
1584 80
1585 68
1586 5
1587 4
1588 18
1589 173
1590 64
1591 32
1592 35
1593 90
1594 13
1595 11
1596 86
1597 14
1598 49
1599 28
1600 2
1601 100
1602 183
1603 4
1604 23
1605 14
1606 19
1607 44
1608 52
1609 96
1610 47
1611 11
1612 24
1613 48
1614 91
1615 48
1616 41
1617 426
1618 106
1619 113
1620 97
1621 150
1622 50
1623 81
1624 4
1625 21
1626 53
1627 81
1628 57
1629 66
1630 13
1631 99
1632 35
1633 18
1634 85
1635 211
1636 74
1637 60
1638 94
1639 43
1640 4
1641 2
1642 20
1643 82
1644 17
1645 14
1646 41
1647 22
1648 4
1649 75
1650 144
1651 66
1652 39
1653 51
1654 21
1655 84
1656 1
1657 3
1658 6
1659 67
1660 16
1661 6
1662 105
1663 46
1664 10
1665 180
1666 54
1667 21
1668 22
1669 3
1670 278
1671 12
1672 22
1673 45
1674 47
1675 97
1676 17
1677 1
1678 84
1679 30
1680 51
1681 14
1682 66
1683 150
1684 23
1685 81
1686 6
1687 19
1688 97
1689 16
1690 220
1691 47
1692 58
1693 20
1694 27
1695 24
1696 19
1697 566
1698 10
1699 147
1700 27
1701 25
1702 129
1703 35
1704 64
1705 14
1706 28
1707 40
1708 168
1709 58
1710 244
1711 169
1712 80
1713 29
1714 80
1715 91
1716 58
1717 138
1718 186
1719 75
1720 7
1721 86
1722 19
1723 5
1724 6
1725 59
1726 72
1727 101
1728 145
1729 18
1730 113
1731 223
1732 115
1733 10
1734 26
1735 150
1736 161
1737 64
1738 16
1739 49
1740 291
1741 7
1742 9
1743 187
1744 22
1745 6
1746 18
1747 287
1748 12
1749 96
1750 10
1751 37
1752 15
1753 146
1754 42
1755 145
1756 112
1757 220
1758 7
1759 3
1760 209
1761 89
1762 7
1763 184
1764 30
1765 49
1766 425
1767 4
1768 4
1769 289
1770 24
1771 49
1772 71
1773 19
1774 9
1775 186
1776 27
1777 45
1778 230
1779 102
1780 31
1781 139
1782 19
1783 60
1784 36
1785 31
1786 102
1787 61
1788 8
1789 64
1790 24
1791 4
1792 9
1793 28
1794 73
1795 29
1796 41
1797 6
1798 31
1799 22
1800 138
1801 34
1802 15
1803 71
1804 47
1805 66
1806 11
1807 192
1808 123
1809 20
1810 24
1811 144
1812 28
1813 32
1814 74
1815 119
1816 181
1817 18
1818 17
1819 32
1820 61
1821 18
1822 46
1823 31
1824 110
1825 32
1826 110
1827 87
1828 124
1829 91
1830 102
1831 37
1832 13
1833 25
1834 20
1835 5
1836 49
1837 78
1838 87
1839 125
1840 13
1841 142
1842 149
1843 169
1844 339
1845 306
1846 14
1847 37
1848 25
1849 52
1850 61
1851 61
1852 157
1853 203
1854 3
1855 49
1856 462
1857 105
1858 26
1859 159
1860 7
1861 12
1862 120
1863 1
1864 63
1865 178
1866 56
1867 110
1868 37
1869 301
1870 35
1871 12
1872 37
1873 106
1874 99
1875 61
1876 72
1877 100
1878 59
1879 13
1880 19
1881 18
1882 16
1883 14
1884 55
1885 76
1886 58
1887 117
1888 105
1889 156
1890 15
1891 31
1892 309
1893 148
1894 25
1895 87
1896 184
1897 18
1898 66
1899 207
1900 12
1901 58
1902 180
1903 15
1904 214
1905 99
1906 48
1907 3
1908 43
1909 65
1910 522
1911 5
1912 25
1913 64
1914 45
1915 135
1916 82
1917 123
1918 14
1919 4
1920 74
1921 20
1922 23
1923 525
1924 52
1925 18
1926 8
1927 41
1928 36
1929 88
1930 40
1931 1
1932 232
1933 4
1934 79
1935 20
1936 39
1937 68
1938 8
1939 6
1940 131
1941 19
1942 114
1943 140
1944 127
1945 52
1946 1
1947 60
1948 33
1949 83
1950 23
1951 39
1952 85
1953 28
1954 154
1955 31
1956 35
1957 37
1958 5
1959 221
1960 5
1961 21
1962 144
1963 124
1964 125
1965 66
1966 11
1967 21
1968 5
1969 53
1970 7
1971 29
1972 69
1973 100
1974 20
1975 142
1976 97
1977 146
1978 118
1979 72
1980 155
1981 1
1982 53
1983 67
1984 11
1985 34
1986 18
1987 182
1988 11
1989 264
1990 78
1991 120
1992 265
1993 4
1994 34
1995 31
1996 122
1997 88
1998 4
1999 58
