0 23
1 72
2 16
3 28
4 36
5 2
6 88
7 14
8 69
9 23
10 18
11 31
12 28
13 27
14 105
15 3
16 13
17 111
18 17
19 35
20 8
21 113
22 86
23 24
24 83
25 21
26 3
27 7
28 24
29 19
30 21
31 97
32 65
33 19
34 25
35 9
36 18
37 10
38 23
39 7
40 15
41 14
42 38
43 38
44 45
45 27
46 42
47 68
48 13
49 43
50 2
51 40
52 78
53 111
54 27
55 196
56 36
57 16
58 3
59 133
60 33
61 60
62 10
63 190
64 23
65 96
66 29
67 10
68 11
69 58
70 15
71 104
72 9
73 126
74 180
75 19
76 11
77 32
78 24
79 7
80 8
81 60
82 80
83 32
84 49
85 52
86 28
87 22
88 41
89 15
90 5
91 175
92 35
93 33
94 192
95 191
96 112
97 105
98 7
99 45
100 25
101 78
102 53
103 47
104 2
105 75
106 150
107 16
108 55
109 69
110 102
111 3
112 10
113 15
114 12
115 4
116 4
117 7
118 5
119 49
120 32
121 11
122 41
123 76
124 89
125 77
126 53
127 62
128 51
129 3
130 29
131 60
132 5
133 24
134 7
135 68
136 62
137 13
138 295
139 53
140 6
141 103
142 17
143 1
144 50
145 268
146 18
147 135
148 23
149 86
150 28
151 75
152 130
153 120
154 84
155 24
156 205
157 167
158 32
159 138
160 20
161 73
162 31
163 192
164 19
165 28
166 247
167 8
168 17
169 38
170 97
171 11
172 23
173 55
174 2
175 18
176 4
177 11
178 81
179 2
180 2
181 78
182 73
183 121
184 55
185 8
186 99
187 49
188 87
189 82
190 9
191 15
192 3
193 224
194 162
195 145
196 36
197 75
198 21
199 7
200 21
201 7
202 49
203 10
204 117
205 60
206 43
207 53
208 1
209 10
210 119
211 17
212 194
213 104
214 53
215 80
216 132
217 113
218 63
219 96
220 9
221 20
222 95
223 7
224 36
225 8
226 214
227 33
228 23
229 71
230 107
231 32
232 1
233 11
234 1
235 16
236 25
237 69
238 62
239 36
240 9
241 94
242 10
243 23
244 41
245 100
246 15
247 50
248 20
249 12
250 56
251 27
252 73
253 15
254 14
255 31
256 195
257 41
258 54
259 95
260 90
261 89
262 40
263 218
264 66
265 52
266 24
267 129
268 44
269 2
270 159
271 158
272 45
273 73
274 127
275 232
276 60
277 7
278 7
279 24
280 440
281 26
282 58
283 44
284 15
285 5
286 164
287 79
288 101
289 17
290 46
291 22
292 3
293 66
294 128
295 20
296 204
297 106
298 63
299 48
300 42
301 77
302 38
303 58
304 42
305 4
306 56
307 55
308 21
309 99
310 13
311 128
312 25
313 7
314 99
315 105
316 8
317 42
318 9
319 38
320 8
321 150
322 30
323 168
324 2
325 14
326 116
327 97
328 20
329 16
330 134
331 78
332 57
333 21
334 14
335 113
336 42
337 58
338 201
339 1
340 30
341 30
342 6
343 44
344 31
345 22
346 24
347 136
348 16
349 27
350 44
351 82
352 4
353 30
354 157
355 57
356 30
357 149
358 131
359 87
360 193
361 10
362 211
363 56
364 53
365 92
366 32
367 119
368 8
369 52
370 82
371 176
372 183
373 43
374 8
375 24
376 17
377 16
378 83
379 1
380 28
381 29
382 259
383 143
384 115
385 12
386 45
387 6
388 77
389 35
390 1
391 8
392 17
393 109
394 231
395 29
396 60
397 127
398 20
399 19
400 101
401 63
402 52
403 65
404 105
405 17
406 46
407 11
408 51
409 29
410 14
411 11
412 38
413 329
414 102
415 144
416 36
417 51
418 200
419 8
420 173
421 45
422 10
423 23
424 148
425 229
426 19
427 9
428 63
429 17
430 58
431 20
432 39
433 21
434 50
435 40
436 15
437 115
438 31
439 23
440 39
441 7
442 166
443 42
444 39
445 27
446 41
447 284
448 33
449 90
450 19
451 17
452 156
453 29
454 17
455 74
456 114
457 25
458 62
459 68
460 36
461 39
462 34
463 29
464 13
465 50
466 51
467 34
468 57
469 95
470 131
471 47
472 74
473 351
474 70
475 1
476 37
477 277
478 13
479 320
480 57
481 61
482 27
483 10
484 48
485 53
486 6
487 19
488 21
489 26
490 5
491 58
492 113
493 130
494 21
495 14
496 41
497 4
498 99
499 10
500 147
501 65
502 116
503 84
504 62
505 185
506 24
507 20
508 24
509 21
510 12
511 68
512 71
513 69
514 12
515 8
516 36
517 180
518 92
519 17
520 30
521 19
522 51
523 28
524 42
525 100
526 26
527 19
528 41
529 49
530 33
531 53
532 61
533 142
534 18
535 58
536 36
537 30
538 13
539 16
540 52
541 95
542 58
543 5
544 5
545 36
546 13
547 48
548 21
549 68
550 14
551 21
552 146
553 53
554 5
555 147
556 26
557 5
558 50
559 195
560 63
561 35
562 33
563 17
564 19
565 16
566 5
567 56
568 1
569 8
570 12
571 125
572 67
573 12
574 11
575 40
576 29
577 118
578 4
579 97
580 78
581 25
582 27
583 3
584 4
585 20
586 151
587 99
588 32
589 3
590 27
591 66
592 11
593 35
594 101
595 50
596 24
597 14
598 7
599 61
600 6
601 59
602 71
603 26
604 32
605 64
606 45
607 2
608 17
609 15
610 31
611 217
612 74
613 60
614 13
615 11
616 5
617 48
618 46
619 115
620 3
621 17
622 64
623 55
624 91
625 37
626 25
627 30
628 29
629 95
630 4
631 56
632 69
633 40
634 25
635 6
636 3
637 73
638 60
639 43
640 30
641 113
642 34
643 21
644 40
645 39
646 115
647 45
648 43
649 70
650 36
651 11
652 4
653 91
654 70
655 2
656 51
657 274
658 11
659 131
660 163
661 21
662 57
663 27
664 52
665 38
666 11
667 2
668 37
669 88
670 109
671 121
672 12
673 17
674 14
675 187
676 17
677 12
678 9
679 21
680 78
681 18
682 29
683 20
684 38
685 10
686 38
687 11
688 34
689 19
690 12
691 101
692 14
693 12
694 2
695 66
696 12
697 22
698 47
699 19
700 257
701 8
702 27
703 19
704 13
705 6
706 8
707 50
708 10
709 43
710 1
711 26
712 36
713 24
714 12
715 19
716 20
717 40
718 3
719 29
720 34
721 19
722 38
723 17
724 24
725 22
726 41
727 128
728 93
729 24
730 6
731 59
732 33
733 67
734 105
735 28
736 9
737 45
738 106
739 103
740 36
741 150
742 14
743 28
744 26
745 29
746 36
747 16
748 23
749 18
750 10
751 13
752 131
753 35
754 48
755 44
756 20
757 210
758 241
759 34
760 60
761 105
762 38
763 130
764 32
765 171
766 1
767 94
768 175
769 59
770 14
771 12
772 10
773 171
774 6
775 32
776 201
777 22
778 44
779 25
780 4
781 39
782 86
783 166
784 85
785 60
786 24
787 456
788 57
789 130
790 122
791 31
792 356
793 66
794 87
795 232
796 59
797 27
798 186
799 75
800 13
801 292
802 103
803 581
804 32
805 119
806 108
807 239
808 221
809 24
810 101
811 107
812 7
813 29
814 19
815 105
816 60
817 38
818 44
819 10
820 38
821 85
822 303
823 156
824 1
825 310
826 386
827 10
828 52
829 147
830 119
831 141
832 2
833 39
834 110
835 20
836 145
837 119
838 29
839 106
840 96
841 31
842 46
843 13
844 5
845 101
846 182
847 105
848 130
849 4
850 11
851 85
852 12
853 481
854 66
855 27
856 9
857 4
858 58
859 662
860 105
861 101
862 28
863 155
864 41
865 35
866 22
867 41
868 63
869 102
870 122
871 128
872 37
873 16
874 368
875 106
876 56
877 20
878 43
879 166
880 175
881 6
882 11
883 28
884 101
885 292
886 22
887 119
888 3
889 43
890 52
891 2
892 117
893 253
894 275
895 9
896 9
897 96
898 3
899 86
900 11
901 1
902 13
903 54
904 26
905 10
906 46
907 4
908 4
909 9
910 190
911 18
912 95
913 64
914 82
915 12
916 22
917 54
918 49
919 11
920 103
921 5
922 63
923 78
924 42
925 9
926 23
927 64
928 174
929 83
930 51
931 508
932 4
933 4
934 1
935 148
936 71
937 112
938 102
939 15
940 17
941 24
942 23
943 278
944 140
945 25
946 29
947 85
948 41
949 1
950 24
951 27
952 70
953 11
954 97
955 27
956 6
957 9
958 2
959 54
960 7
961 14
962 69
963 210
964 74
965 27
966 48
967 73
968 2
969 71
970 22
971 21
972 19
973 55
974 76
975 27
976 79
977 30
978 11
979 7
980 12
981 168
982 74
983 25
984 80
985 31
986 43
987 11
988 25
989 28
990 82
991 81
992 65
993 113
994 221
995 91
996 29
997 15
998 20
999 7
1000 15
1001 43
1002 11
1003 63
1004 48
1005 24
1006 20
1007 49
1008 37
1009 10
1010 34
1011 13
1012 12
1013 34
1014 31
1015 19
1016 35
1017 74
1018 10
1019 76
1020 36
1021 4
1022 55
1023 97
1024 4
1025 19
1026 29
1027 119
1028 22
1029 23
1030 42
1031 205
1032 106
1033 5
1034 52
1035 32
1036 36
1037 22
1038 302
1039 82
1040 6
1041 264
1042 128
1043 226
1044 91
1045 39
1046 33
1047 115
1048 11
1049 103
1050 225
1051 5
1052 134
1053 25
1054 36
1055 59
1056 62
1057 98
1058 10
1059 43
1060 66
1061 61
1062 23
1063 3
1064 15
1065 111
1066 54
1067 13
1068 18
1069 6
1070 4
1071 4
1072 191
1073 66
1074 37
1075 1
1076 76
1077 45
1078 4
1079 58
1080 24
1081 140
1082 15
1083 160
1084 32
1085 74
1086 64
1087 41
1088 4
1089 9
1090 36
1091 24
1092 137
1093 1
1094 144
1095 14
1096 7
1097 78
1098 68
1099 25
1100 82
1101 50
1102 43
1103 48
1104 43
1105 8
1106 71
1107 141
1108 170
1109 75
1110 12
1111 38
1112 11
1113 34
1114 53
1115 26
1116 10
1117 19
1118 151
1119 161
1120 10
1121 1
1122 51
1123 128
1124 48
1125 29
1126 6
1127 32
1128 25
1129 183
1130 54
1131 60
1132 4
1133 45
1134 38
1135 5
1136 36
1137 7
1138 75
1139 12
1140 4
1141 207
1142 56
1143 24
1144 126
1145 62
1146 19
1147 26
1148 58
1149 43
1150 9
1151 4
1152 54
1153 4
1154 9
1155 33
1156 405
1157 123
1158 119
1159 2
1160 12
1161 91
1162 204
1163 118
1164 104
1165 15
1166 47
1167 1
1168 161
1169 52
1170 84
1171 56
1172 3
1173 1
1174 40
1175 3
1176 175
1177 148
1178 25
1179 50
1180 17
1181 58
1182 21
1183 8
1184 9
1185 326
1186 58
1187 110
1188 67
1189 33
1190 5
1191 20
1192 4
1193 100
1194 57
1195 59
1196 17
1197 25
1198 22
1199 8
1200 12
1201 35
1202 10
1203 64
1204 5
1205 41
1206 131
1207 56
1208 39
1209 22
1210 11
1211 27
1212 7
1213 74
1214 14
1215 29
1216 32
1217 13
1218 29
1219 64
1220 297
1221 32
1222 92
1223 7
1224 29
1225 36
1226 109
1227 4
1228 35
1229 1
1230 6
1231 99
1232 213
1233 3
1234 56
1235 84
1236 37
1237 17
1238 64
1239 77
1240 148
1241 33
1242 13
1243 90
1244 73
1245 2
1246 38
1247 85
1248 42
1249 30
1250 85
1251 23
1252 107
1253 2
1254 14
1255 17
1256 5
1257 70
1258 68
1259 23
1260 58
1261 76
1262 3
1263 163
1264 1
1265 105
1266 101
1267 22
1268 42
1269 19
1270 94
1271 2
1272 20
1273 36
1274 22
1275 14
1276 4
1277 36
1278 34
1279 17
1280 14
1281 122
1282 68
1283 5
1284 122
1285 11
1286 5
1287 129
1288 46
1289 3
1290 48
1291 107
1292 84
1293 3
1294 19
1295 83
1296 130
1297 20
1298 30
1299 13
1300 110
1301 23
1302 211
1303 16
1304 42
1305 27
1306 201
1307 13
1308 16
1309 7
1310 29
1311 12
1312 6
1313 47
1314 31
1315 76
1316 17
1317 20
1318 60
1319 39
1320 25
1321 12
1322 5
1323 16
1324 13
1325 205
1326 18
1327 71
1328 21
1329 63
1330 82
1331 162
1332 111
1333 202
1334 130
1335 29
1336 26
1337 100
1338 129
1339 32
1340 44
1341 5
1342 54
1343 29
1344 60
1345 17
1346 11
1347 95
1348 54
1349 39
1350 27
1351 26
1352 101
1353 16
1354 116
1355 32
1356 52
1357 23
1358 18
1359 36
1360 4
1361 1
1362 20
1363 11
1364 41
1365 132
1366 240
1367 2
1368 47
1369 100
1370 16
1371 66
1372 15
1373 29
1374 209
1375 26
1376 33
1377 26
1378 44
1379 4
1380 9
1381 13
1382 36
1383 1
1384 36
1385 4
1386 142
1387 41
1388 123
1389 7
1390 66
1391 34
1392 20
1393 46
1394 53
1395 13
1396 16
1397 24
1398 4
1399 6
1400 90
1401 14
1402 65
1403 74
1404 57
1405 26
1406 46
1407 2
1408 10
1409 4
1410 130
1411 4
1412 31
1413 50
1414 60
1415 97
1416 60
1417 52
1418 39
1419 10
1420 70
1421 17
1422 84
1423 297
1424 61
1425 38
1426 72
1427 2
1428 45
1429 55
1430 162
1431 46
1432 24
1433 4
1434 24
1435 51
1436 50
1437 57
1438 46
1439 73
1440 21
1441 85
1442 33
1443 27
1444 46
1445 46
1446 131
1447 86
1448 187
1449 8
1450 10
1451 11
1452 143
1453 8
1454 12
1455 11
1456 22
1457 11
1458 18
1459 43
1460 43
1461 21
1462 272
1463 14
1464 17
1465 73
1466 89
1467 144
1468 3
1469 112
1470 71
1471 5
1472 76
1473 34
1474 6
1475 44
1476 33
1477 32
1478 118
1479 70
1480 37
1481 34
1482 41
1483 117
1484 16
1485 1
1486 20
1487 47
1488 75
1489 33
1490 11
1491 34
1492 73
1493 5
1494 5
1495 62
1496 15
1497 147
1498 34
1499 4
1500 27
1501 14
1502 3
1503 70
1504 5
1505 56
1506 38
1507 74
1508 12
1509 47
1510 39
1511 146
1512 54
1513 13
1514 67
1515 34
1516 98
1517 128
1518 6
1519 217
1520 1
1521 19
1522 43
1523 165
1524 49
1525 18
1526 168
1527 121
1528 128
1529 14
1530 75
1531 9
1532 21
1533 52
1534 50
1535 72
1536 6
1537 17
1538 12
1539 40
1540 21
1541 1
1542 9
1543 19
1544 15
1545 3
1546 51
1547 175
1548 23
1549 205
1550 37
1551 18
1552 68
1553 5
1554 14
1555 17
1556 40
1557 234
1558 73
1559 37
1560 33
1561 10
1562 13
1563 30
1564 50
1565 9
1566 4
1567 29
1568 82
1569 79
1570 92
1571 8
1572 20
1573 55
1574 38
1575 7
1576 130
1577 41
1578 20
1579 31
1580 24
1581 107
1582 62
1583 2
1584 145
1585 23
1586 48
1587 219
1588 6
1589 71
1590 15
1591 15
1592 65
1593 81
1594 4
1595 8
1596 18
1597 46
1598 83
1599 62
1600 57
1601 1
1602 105
1603 74
1604 30
1605 212
1606 23
1607 5
1608 1
1609 14
1610 161
1611 11
1612 162
1613 38
1614 93
1615 157
1616 101
1617 25
1618 116
1619 78
1620 1
1621 135
1622 113
1623 21
1624 210
1625 122
1626 61
1627 55
1628 225
1629 8
1630 70
1631 54
1632 139
1633 84
1634 12
1635 164
1636 57
1637 66
1638 11
1639 16
1640 117
1641 56
1642 2
1643 74
1644 52
1645 3
1646 57
1647 102
1648 69
1649 267
1650 34
1651 7
1652 27
1653 12
1654 134
1655 129
1656 70
1657 26
1658 13
1659 75
1660 131
1661 41
1662 25
1663 34
1664 150
1665 297
1666 35
1667 31
1668 53
1669 30
1670 29
1671 86
1672 61
1673 2
1674 48
1675 11
1676 206
1677 143
1678 73
1679 16
1680 134
1681 33
1682 9
1683 135
1684 152
1685 66
1686 7
1687 20
1688 46
1689 16
1690 25
1691 247
1692 229
1693 147
1694 31
1695 10
1696 12
1697 53
1698 89
1699 3
1700 146
1701 1
1702 18
1703 398
1704 20
1705 9
1706 11
1707 27
1708 185
1709 219
1710 160
1711 24
1712 47
1713 70
1714 97
1715 26
1716 22
1717 31
1718 5
1719 202
1720 46
1721 3
1722 58
1723 134
1724 109
1725 113
1726 30
1727 62
1728 70
1729 10
1730 50
1731 64
1732 147
1733 7
1734 215
1735 101
1736 188
1737 166
1738 16
1739 82
1740 24
1741 99
1742 43
1743 29
1744 43
1745 36
1746 115
1747 71
1748 145
1749 53
1750 80
1751 131
1752 17
1753 292
1754 34
1755 69
1756 43
1757 20
1758 105
1759 81
1760 9
1761 160
1762 43
1763 8
1764 85
1765 3
1766 247
1767 64
1768 52
1769 31
1770 53
1771 130
1772 92
1773 183
1774 23
1775 166
1776 54
1777 95
1778 403
1779 22
1780 43
1781 36
1782 91
1783 43
1784 76
1785 3
1786 25
1787 54
1788 87
1789 153
1790 20
1791 90
1792 8
1793 7
1794 193
1795 32
1796 128
1797 30
1798 18
1799 51
1800 27
1801 101
1802 108
1803 8
1804 22
1805 94
1806 2
1807 72
1808 2
1809 12
1810 38
1811 1
1812 115
1813 80
1814 67
1815 19
1816 163
1817 34
1818 94
1819 1
1820 102
1821 127
1822 70
1823 3
1824 15
1825 72
1826 103
1827 171
1828 215
1829 97
1830 49
1831 129
1832 182
1833 54
1834 53
1835 47
1836 38
1837 75
1838 17
1839 2
1840 99
1841 136
1842 311
1843 82
1844 37
1845 277
1846 4
1847 61
1848 70
1849 250
1850 99
1851 39
1852 205
1853 29
1854 47
1855 27
1856 206
1857 174
1858 238
1859 44
1860 165
1861 218
1862 29
1863 241
1864 22
1865 28
1866 4
1867 56
1868 31
1869 68
1870 44
1871 38
1872 154
1873 96
1874 44
1875 34
1876 180
1877 25
1878 152
1879 74
1880 35
1881 145
1882 90
1883 27
1884 14
1885 30
1886 25
1887 43
1888 2
1889 56
1890 305
1891 12
1892 32
1893 241
1894 22
1895 114
1896 85
1897 51
1898 399
1899 3
1900 139
1901 13
1902 24
1903 176
1904 4
1905 1
1906 48
1907 161
1908 38
1909 351
1910 35
1911 67
1912 111
1913 109
1914 108
1915 24
1916 58
1917 2
1918 228
1919 224
1920 61
1921 39
1922 58
1923 153
1924 54
1925 114
1926 75
1927 39
1928 28
1929 16
1930 4
1931 2
1932 71
1933 79
1934 15
1935 84
1936 55
1937 10
1938 15
1939 11
1940 38
1941 41
1942 23
1943 146
1944 47
1945 40
1946 121
1947 198
1948 53
1949 68
1950 40
1951 4
1952 24
1953 41
1954 98
1955 180
1956 23
1957 66
1958 2
1959 11
1960 89
1961 58
1962 59
1963 101
1964 61
1965 59
1966 37
1967 28
1968 53
1969 3
1970 6
1971 20
1972 25
1973 45
1974 18
1975 114
1976 64
1977 2
1978 40
1979 38
1980 40
1981 43
1982 70
1983 67
1984 7
1985 27
1986 48
1987 64
1988 32
1989 19
1990 6
1991 19
1992 12
1993 7
1994 20
1995 24
1996 41
1997 9
1998 35
1999 3
