0 30
1 1
2 53
3 20
4 11
5 15
6 243
7 166
8 136
9 10
10 40
11 84
12 68
13 15
14 4
15 2
16 388
17 83
18 14
19 88
20 6
21 10
22 21
23 27
24 67
25 6
26 88
27 64
28 90
29 7
30 10
31 80
32 1
33 15
34 42
35 20
36 22
37 38
38 50
39 42
40 19
41 21
42 42
43 74
44 4
45 21
46 105
47 5
48 24
49 47
50 37
51 17
52 30
53 94
54 66
55 82
56 11
57 229
58 24
59 3
60 2
61 10
62 56
63 14
64 22
65 34
66 32
67 7
68 18
69 15
70 1
71 3
72 3
73 13
74 2
75 48
76 55
77 1
78 30
79 83
80 182
81 2
82 47
83 6
84 88
85 3
86 30
87 131
88 85
89 39
90 3
91 208
92 35
93 490
94 6
95 25
96 24
97 99
98 171
99 38
100 18
101 79
102 18
103 5
104 54
105 44
106 193
107 71
108 2
109 26
110 37
111 15
112 97
113 99
114 34
115 8
116 32
117 42
118 74
119 99
120 49
121 57
122 32
123 29
124 9
125 17
126 41
127 32
128 17
129 74
130 106
131 16
132 57
133 8
134 43
135 17
136 5
137 1
138 51
139 37
140 18
141 42
142 33
143 6
144 7
145 46
146 92
147 19
148 10
149 144
150 104
151 59
152 11
153 27
154 67
155 137
156 195
157 8
158 26
159 28
160 124
161 18
162 14
163 45
164 4
165 11
166 21
167 15
168 35
169 12
170 103
171 32
172 7
173 31
174 44
175 48
176 40
177 19
178 68
179 67
180 9
181 88
182 16
183 46
184 59
185 28
186 16
187 22
188 22
189 10
190 40
191 110
192 35
193 1
194 26
195 11
196 61
197 17
198 35
199 6
200 11
201 49
202 46
203 19
204 182
205 128
206 103
207 175
208 4
209 72
210 14
211 78
212 1
213 42
214 36
215 90
216 269
217 98
218 115
219 158
220 115
221 174
222 44
223 11
224 223
225 93
226 40
227 26
228 87
229 103
230 22
231 46
232 95
233 48
234 17
235 155
236 26
237 16
238 60
239 45
240 87
241 73
242 142
243 62
244 2
245 45
246 50
247 12
248 88
249 28
250 3
251 116
252 105
253 10
254 25
255 7
256 44
257 103
258 2
259 51
260 27
261 26
262 56
263 9
264 141
265 67
266 8
267 9
268 40
269 15
270 86
271 19
272 66
273 7
274 23
275 15
276 85
277 52
278 94
279 36
280 27
281 83
282 349
283 118
284 20
285 50
286 284
287 307
288 11
289 16
290 111
291 171
292 43
293 58
294 110
295 37
296 27
297 18
298 57
299 18
300 86
301 106
302 75
303 64
304 172
305 52
306 151
307 20
308 4
309 163
310 36
311 28
312 4
313 99
314 11
315 230
316 17
317 158
318 107
319 54
320 96
321 49
322 4
323 39
324 76
325 141
326 7
327 38
328 5
329 69
330 2
331 26
332 9
333 57
334 31
335 49
336 79
337 10
338 1
339 42
340 2
341 24
342 7
343 13
344 7
345 89
346 51
347 56
348 10
349 2
350 61
351 75
352 19
353 66
354 234
355 102
356 90
357 48
358 19
359 42
360 2
361 139
362 12
363 19
364 27
365 38
366 5
367 66
368 31
369 46
370 6
371 14
372 110
373 196
374 19
375 11
376 59
377 265
378 30
379 40
380 73
381 35
382 67
383 37
384 11
385 16
386 23
387 15
388 35
389 91
390 63
391 146
392 43
393 17
394 2
395 39
396 36
397 18
398 37
399 34
400 52
401 22
402 12
403 54
404 140
405 1
406 8
407 3
408 21
409 5
410 5
411 14
412 4
413 55
414 63
415 22
416 7
417 23
418 10
419 118
420 5
421 15
422 63
423 8
424 9
425 27
426 20
427 18
428 39
429 8
430 80
431 3
432 4
433 2
434 12
435 39
436 18
437 13
438 51
439 49
440 33
441 2
442 13
443 38
444 28
445 4
446 42
447 6
448 33
449 61
450 7
451 19
452 88
453 59
454 33
455 38
456 10
457 69
458 8
459 233
460 193
461 20
462 22
463 21
464 34
465 210
466 87
467 25
468 1
469 64
470 3
471 14
472 3
473 105
474 67
475 162
476 22
477 6
478 83
479 110
480 102
481 113
482 59
483 106
484 16
485 189
486 259
487 90
488 38
489 39
490 249
491 34
492 289
493 70
494 87
495 84
496 141
497 140
498 40
499 41
500 112
501 154
502 56
503 12
504 46
505 109
506 3
507 100
508 39
509 1
510 118
511 42
512 73
513 183
514 81
515 227
516 66
517 63
518 10
519 90
520 12
521 47
522 115
523 26
524 76
525 253
526 2
527 4
528 37
529 50
530 114
531 93
532 66
533 36
534 248
535 13
536 65
537 34
538 109
539 24
540 19
541 53
542 14
543 12
544 24
545 37
546 33
547 15
548 93
549 8
550 32
551 15
552 160
553 11
554 3
555 45
556 18
557 243
558 14
559 15
560 79
561 87
562 156
563 47
564 3
565 7
566 50
567 25
568 81
569 6
570 220
571 21
572 102
573 8
574 47
575 58
576 31
577 125
578 31
579 3
580 189
581 11
582 8
583 17
584 2
585 5
586 45
587 5
588 79
589 57
590 207
591 454
592 49
593 83
594 34
595 76
596 3
597 26
598 13
599 65
600 55
601 2
602 54
603 1
604 36
605 13
606 174
607 121
608 15
609 118
610 101
611 22
612 31
613 12
614 55
615 30
616 91
617 379
618 189
619 5
620 92
621 51
622 5
623 144
624 35
625 20
626 18
627 134
628 66
629 9
630 199
631 16
632 22
633 105
634 23
635 269
636 118
637 1
638 67
639 56
640 129
641 164
642 5
643 52
644 65
645 19
646 99
647 21
648 65
649 74
650 123
651 123
652 125
653 191
654 77
655 113
656 95
657 14
658 37
659 17
660 1
661 11
662 26
663 116
664 60
665 19
666 70
667 77
668 27
669 7
670 14
671 26
672 47
673 43
674 24
675 137
676 31
677 38
678 61
679 19
680 27
681 86
682 196
683 1
684 16
685 274
686 207
687 604
688 4
689 216
690 31
691 1
692 113
693 81
694 103
695 16
696 164
697 45
698 60
699 138
700 86
701 129
702 181
703 348
704 39
705 67
706 103
707 156
708 2
709 58
710 76
711 83
712 57
713 118
714 11
715 19
716 127
717 29
718 88
719 14
720 16
721 67
722 285
723 12
724 20
725 107
726 3
727 9
728 9
729 20
730 107
731 103
732 11
733 71
734 58
735 80
736 11
737 83
738 6
739 10
740 7
741 4
742 25
743 4
744 24
745 48
746 29
747 21
748 57
749 257
750 57
751 76
752 54
753 45
754 13
755 10
756 51
757 68
758 53
759 22
760 31
761 106
762 39
763 22
764 23
765 23
766 142
767 19
768 26
769 17
770 55
771 98
772 140
773 107
774 45
775 128
776 78
777 187
778 59
779 68
780 20
781 30
782 13
783 29
784 53
785 18
786 261
787 14
788 211
789 42
790 144
791 34
792 52
793 1
794 82
795 15
796 22
797 105
798 40
799 133
800 1
801 16
802 1
803 156
804 22
805 26
806 87
807 106
808 139
809 76
810 68
811 225
812 1
813 31
814 22
815 109
816 82
817 43
818 109
819 34
820 61
821 49
822 39
823 109
824 21
825 12
826 35
827 25
828 1
829 48
830 122
831 2
832 52
833 36
834 89
835 29
836 74
837 31
838 35
839 145
840 39
841 105
842 12
843 230
844 90
845 60
846 41
847 113
848 91
849 88
850 92
851 11
852 73
853 113
854 249
855 126
856 114
857 45
858 61
859 14
860 61
861 72
862 53
863 139
864 4
865 11
866 33
867 18
868 22
869 8
870 62
871 3
872 26
873 16
874 47
875 2
876 52
877 99
878 2
879 8
880 40
881 136
882 47
883 9
884 44
885 43
886 66
887 66
888 40
889 30
890 11
891 29
892 5
893 16
894 14
895 21
896 119
897 4
898 27
899 57
900 17
901 51
902 38
903 49
904 19
905 1
906 60
907 29
908 88
909 10
910 24
911 13
912 72
913 47
914 25
915 38
916 8
917 71
918 67
919 9
920 20
921 14
922 63
923 8
924 4
925 76
926 12
927 1
928 18
929 32
930 35
931 25
932 116
933 116
934 10
935 14
936 19
937 52
938 96
939 1
940 43
941 24
942 94
943 164
944 114
945 77
946 36
947 2
948 58
949 177
950 7
951 134
952 30
953 123
954 1
955 101
956 14
957 1
958 5
959 3
960 74
961 1
962 28
963 77
964 1
965 50
966 93
967 48
968 36
969 48
970 194
971 115
972 8
973 20
974 31
975 96
976 2
977 45
978 7
979 296
980 38
981 58
982 4
983 32
984 210
985 26
986 109
987 307
988 3
989 98
990 2
991 11
992 115
993 192
994 45
995 50
996 3
997 43
998 69
999 37
1000 110
1001 69
1002 28
1003 43
1004 7
1005 7
1006 22
1007 168
1008 37
1009 24
1010 6
1011 23
1012 12
1013 3
1014 8
1015 113
1016 11
1017 55
1018 35
1019 100
1020 77
1021 131
1022 8
1023 39
1024 14
1025 79
1026 3
1027 11
1028 34
1029 17
1030 23
1031 39
1032 12
1033 32
1034 54
1035 27
1036 409
1037 234
1038 112
1039 16
1040 2
1041 18
1042 72
1043 48
1044 134
1045 84
1046 172
1047 78
1048 89
1049 370
1050 4
1051 47
1052 39
1053 70
1054 119
1055 3
1056 2
1057 35
1058 11
1059 5
1060 16
1061 47
1062 38
1063 53
1064 16
1065 33
1066 151
1067 155
1068 62
1069 198
1070 24
1071 5
1072 21
1073 4
1074 48
1075 23
1076 61
1077 3
1078 33
1079 9
1080 3
1081 4
1082 3
1083 5
1084 200
1085 2
1086 1
1087 137
1088 15
1089 5
1090 13
1091 333
1092 92
1093 95
1094 53
1095 14
1096 114
1097 38
1098 136
1099 41
1100 4
1101 35
1102 128
1103 50
1104 4
1105 181
1106 4
1107 5
1108 49
1109 5
1110 11
1111 131
1112 42
1113 26
1114 157
1115 52
1116 17
1117 63
1118 111
1119 97
1120 13
1121 28
1122 90
1123 16
1124 28
1125 85
1126 114
1127 12
1128 5
1129 8
1130 8
1131 79
1132 131
1133 105
1134 1
1135 3
1136 65
1137 14
1138 33
1139 8
1140 28
1141 27
1142 10
1143 34
1144 32
1145 24
1146 4
1147 24
1148 18
1149 97
1150 53
1151 104
1152 84
1153 11
1154 4
1155 82
1156 116
1157 68
1158 13
1159 32
1160 107
1161 33
1162 40
1163 106
1164 186
1165 30
1166 64
1167 41
1168 69
1169 104
1170 119
1171 16
1172 86
1173 6
1174 22
1175 73
1176 86
1177 72
1178 96
1179 1
1180 5
1181 2
1182 27
1183 101
1184 6
1185 12
1186 80
1187 99
1188 154
1189 17
1190 58
1191 188
1192 8
1193 14
1194 80
1195 17
1196 18
1197 2
1198 11
1199 151
1200 155
1201 26
1202 187
1203 1
1204 24
1205 2
1206 27
1207 59
1208 102
1209 246
1210 44
1211 33
1212 56
1213 153
1214 11
1215 1
1216 171
1217 35
1218 108
1219 71
1220 14
1221 142
1222 178
1223 21
1224 81
1225 83
1226 114
1227 50
1228 14
1229 83
1230 14
1231 157
1232 51
1233 87
1234 55
1235 26
1236 26
1237 63
1238 80
1239 15
1240 14
1241 11
1242 14
1243 37
1244 8
1245 65
1246 192
1247 18
1248 20
1249 149
1250 173
1251 19
1252 38
1253 93
1254 6
1255 38
1256 9
1257 36
1258 21
1259 186
1260 61
1261 66
1262 56
1263 95
1264 115
1265 359
1266 11
1267 25
1268 229
1269 10
1270 3
1271 135
1272 15
1273 162
1274 32
1275 112
1276 15
1277 44
1278 1
1279 34
1280 135
1281 40
1282 3
1283 199
1284 8
1285 22
1286 77
1287 90
1288 179
1289 194
1290 120
1291 50
1292 45
1293 1
1294 136
1295 21
1296 4
1297 87
1298 79
1299 70
1300 33
1301 26
1302 56
1303 88
1304 40
1305 42
1306 24
1307 6
1308 20
1309 34
1310 255
1311 43
1312 46
1313 6
1314 13
1315 84
1316 105
1317 33
1318 97
1319 71
1320 80
1321 24
1322 2
1323 53
1324 74
1325 101
1326 52
1327 55
1328 14
1329 17
1330 30
1331 25
1332 29
1333 147
1334 1
1335 4
1336 19
1337 28
1338 76
1339 20
1340 21
1341 38
1342 34
1343 32
1344 30
1345 27
1346 6
1347 25
1348 95
1349 25
1350 26
1351 11
1352 105
1353 39
1354 68
1355 52
1356 70
1357 68
1358 67
1359 11
1360 24
1361 41
1362 17
1363 141
1364 28
1365 59
1366 11
1367 25
1368 62
1369 17
1370 5
1371 46
1372 56
1373 43
1374 1
1375 13
1376 12
1377 26
1378 83
1379 1
1380 48
1381 68
1382 86
1383 44
1384 2
1385 164
1386 69
1387 43
1388 12
1389 80
1390 5
1391 128
1392 8
1393 37
1394 83
1395 140
1396 11
1397 10
1398 65
1399 21
1400 33
1401 3
1402 4
1403 9
1404 31
1405 12
1406 72
1407 37
1408 133
1409 23
1410 240
1411 10
1412 92
1413 158
1414 61
1415 167
1416 170
1417 3
1418 98
1419 93
1420 29
1421 205
1422 61
1423 59
1424 212
1425 4
1426 10
1427 183
1428 109
1429 49
1430 138
1431 60
1432 104
1433 124
1434 34
1435 60
1436 112
1437 6
1438 90
1439 12
1440 59
1441 96
1442 72
1443 143
1444 38
1445 38
1446 4
1447 4
1448 49
1449 39
1450 144
1451 270
1452 165
1453 113
1454 97
1455 19
1456 4
1457 113
1458 13
1459 33
1460 3
1461 4
1462 4
1463 58
1464 46
1465 34
1466 49
1467 61
1468 31
1469 108
1470 25
1471 180
1472 43
1473 55
1474 57
1475 66
1476 38
1477 13
1478 27
1479 236
1480 26
1481 14
1482 75
1483 54
1484 1
1485 71
1486 4
1487 13
1488 55
1489 101
1490 38
1491 10
1492 32
1493 65
1494 3
1495 4
1496 14
1497 12
1498 37
1499 4
1500 62
1501 29
1502 13
1503 24
1504 114
1505 10
1506 209
1507 75
1508 63
1509 54
1510 35
1511 112
1512 3
1513 37
1514 88
1515 1
1516 104
1517 39
1518 9
1519 3
1520 22
1521 3
1522 52
1523 1
1524 17
1525 5
1526 77
1527 54
1528 169
1529 54
1530 63
1531 35
1532 53
1533 29
1534 14
1535 28
1536 29
1537 95
1538 35
1539 1
1540 26
1541 46
1542 24
1543 7
1544 16
1545 101
1546 55
1547 16
1548 119
1549 2
1550 92
1551 8
1552 71
1553 58
1554 78
1555 15
1556 96
1557 143
1558 16
1559 31
1560 42
1561 30
1562 85
1563 32
1564 2
1565 72
1566 9
1567 14
1568 30
1569 128
1570 24
1571 47
1572 8
1573 156
1574 66
1575 20
1576 208
1577 54
1578 27
1579 54
1580 20
1581 48
1582 43
1583 18
1584 8
1585 17
1586 6
1587 185
1588 156
1589 27
1590 35
1591 11
1592 119
1593 146
1594 232
1595 85
1596 74
1597 39
1598 6
1599 32
1600 28
1601 60
1602 22
1603 88
1604 29
1605 35
1606 22
1607 186
1608 101
1609 64
1610 86
1611 9
1612 61
1613 162
1614 61
1615 23
1616 20
1617 21
1618 125
1619 98
1620 46
1621 8
1622 12
1623 36
1624 63
1625 140
1626 75
1627 165
1628 51
1629 125
1630 54
1631 55
1632 18
1633 292
1634 60
1635 149
1636 15
1637 3
1638 6
1639 9
1640 135
1641 150
1642 165
1643 146
1644 15
1645 143
1646 14
1647 23
1648 47
1649 33
1650 54
1651 723
1652 134
1653 172
1654 28
1655 258
1656 62
1657 123
1658 153
1659 33
1660 8
1661 81
1662 61
1663 39
1664 16
1665 35
1666 58
1667 442
1668 41
1669 298
1670 9
1671 56
1672 97
1673 43
1674 126
1675 63
1676 42
1677 39
1678 98
1679 20
1680 6
1681 28
1682 14
1683 136
1684 44
1685 398
1686 383
1687 213
1688 59
1689 1
1690 14
1691 18
1692 77
1693 26
1694 21
1695 10
1696 10
1697 138
1698 217
1699 106
1700 164
1701 134
1702 35
1703 34
1704 51
1705 51
1706 17
1707 117
1708 21
1709 30
1710 84
1711 128
1712 32
1713 18
1714 144
1715 89
1716 120
1717 9
1718 98
1719 169
1720 163
1721 72
1722 58
1723 122
1724 21
1725 184
1726 81
1727 59
1728 85
1729 2
1730 95
1731 16
1732 122
1733 307
1734 232
1735 159
1736 177
1737 7
1738 79
1739 105
1740 86
1741 72
1742 70
1743 59
1744 3
1745 84
1746 270
1747 99
1748 54
1749 23
1750 155
1751 20
1752 281
1753 6
1754 301
1755 10
1756 46
1757 58
1758 78
1759 70
1760 11
1761 71
1762 175
1763 7
1764 205
1765 140
1766 20
1767 136
1768 73
1769 118
1770 248
1771 100
1772 8
1773 29
1774 80
1775 299
1776 28
1777 13
1778 32
1779 57
1780 8
1781 62
1782 77
1783 89
1784 51
1785 121
1786 107
1787 328
1788 5
1789 158
1790 40
1791 13
1792 54
1793 6
1794 7
1795 100
1796 18
1797 50
1798 4
1799 7
1800 54
1801 21
1802 2
1803 4
1804 67
1805 48
1806 9
1807 126
1808 24
1809 43
1810 39
1811 103
1812 59
1813 35
1814 110
1815 39
1816 40
1817 13
1818 53
1819 29
1820 47
1821 69
1822 39
1823 9
1824 333
1825 151
1826 109
1827 29
1828 63
1829 77
1830 156
1831 21
1832 57
1833 172
1834 4
1835 107
1836 122
1837 170
1838 110
1839 87
1840 16
1841 173
1842 346
1843 22
1844 29
1845 34
1846 121
1847 48
1848 9
1849 3
1850 103
1851 14
1852 51
1853 32
1854 122
1855 63
1856 71
1857 170
1858 70
1859 1
1860 51
1861 14
1862 18
1863 24
1864 24
1865 4
1866 389
1867 52
1868 70
1869 2
1870 123
1871 8
1872 37
1873 136
1874 13
1875 16
1876 124
1877 14
1878 10
1879 19
1880 75
1881 38
1882 16
1883 13
1884 136
1885 84
1886 21
1887 111
1888 37
1889 1
1890 25
1891 120
1892 45
1893 26
1894 34
1895 16
1896 60
1897 277
1898 27
1899 44
1900 67
1901 4
1902 24
1903 56
1904 79
1905 2
1906 92
1907 22
1908 264
1909 76
1910 92
1911 74
1912 242
1913 33
1914 1
1915 58
1916 18
1917 2
1918 2
1919 26
1920 109
1921 13
1922 235
1923 169
1924 179
1925 88
1926 46
1927 36
1928 43
1929 63
1930 14
1931 48
1932 53
1933 125
1934 61
1935 49
1936 11
1937 7
1938 187
1939 44
1940 3
1941 11
1942 69
1943 63
1944 153
1945 84
1946 18
1947 69
1948 14
1949 62
1950 184
1951 457
1952 95
1953 17
1954 60
1955 61
1956 9
1957 37
1958 6
1959 1
1960 95
1961 96
1962 21
1963 46
1964 80
1965 102
1966 16
1967 66
1968 64
1969 4
1970 166
1971 68
1972 60
1973 43
1974 140
1975 56
1976 74
1977 166
1978 5
1979 17
1980 113
1981 55
1982 20
1983 48
1984 38
1985 100
1986 64
1987 208
1988 49
1989 14
1990 103
1991 45
1992 96
1993 66
1994 74
1995 46
1996 49
1997 83
1998 77
1999 72
