0 6
1 32
2 25
3 25
4 7
5 23
6 34
7 174
8 81
9 56
10 7
11 69
12 17
13 26
14 59
15 348
16 15
17 68
18 72
19 25
20 467
21 74
22 165
23 445
24 10
25 224
26 46
27 285
28 39
29 635
30 9
31 42
32 79
33 239
34 11
35 29
36 86
37 84
38 60
39 7
40 111
41 59
42 39
43 3
44 38
45 70
46 256
47 67
48 1
49 19
50 136
51 124
52 1
53 20
54 22
55 3
56 18
57 18
58 27
59 5
60 85
61 86
62 163
63 2
64 58
65 43
66 57
67 41
68 15
69 367
70 20
71 29
72 8
73 43
74 62
75 3
76 23
77 62
78 76
79 4
80 9
81 67
82 8
83 125
84 41
85 18
86 145
87 129
88 15
89 24
90 181
91 2
92 21
93 71
94 4
95 4
96 19
97 108
98 4
99 101
100 16
101 65
102 76
103 52
104 144
105 180
106 55
107 106
108 47
109 172
110 122
111 59
112 64
113 94
114 69
115 19
116 22
117 26
118 21
119 170
120 51
121 85
122 224
123 156
124 32
125 259
126 203
127 45
128 52
129 37
130 7
131 74
132 68
133 37
134 59
135 121
136 15
137 4
138 34
139 7
140 284
141 95
142 31
143 178
144 22
145 22
146 85
147 168
148 66
149 112
150 273
151 75
152 121
153 138
154 78
155 30
156 8
157 93
158 170
159 42
160 122
161 108
162 114
163 81
164 51
165 55
166 31
167 8
168 139
169 88
170 32
171 73
172 33
173 48
174 80
175 26
176 27
177 82
178 57
179 6
180 187
181 57
182 8
183 27
184 141
185 312
186 42
187 15
188 24
189 153
190 29
191 114
192 112
193 155
194 156
195 70
196 17
197 117
198 108
199 155
200 43
201 181
202 37
203 40
204 116
205 138
206 79
207 33
208 36
209 56
210 1
211 20
212 193
213 9
214 11
215 15
216 8
217 56
218 4
219 192
220 27
221 115
222 118
223 125
224 59
225 83
226 66
227 248
228 28
229 97
230 40
231 117
232 88
233 245
234 165
235 55
236 69
237 39
238 26
239 115
240 77
241 20
242 163
243 120
244 57
245 27
246 33
247 110
248 18
249 25
250 39
251 56
252 19
253 57
254 122
255 30
256 257
257 120
258 185
259 47
260 63
261 22
262 48
263 47
264 230
265 81
266 726
267 50
268 95
269 197
270 21
271 161
272 129
273 65
274 55
275 91
276 4
277 113
278 285
279 223
280 15
281 1073
282 99
283 154
284 73
285 15
286 34
287 281
288 53
289 346
290 82
291 130
292 2
293 592
294 65
295 78
296 24
297 155
298 34
299 62
300 23
301 18
302 287
303 6
304 281
305 90
306 121
307 426
308 375
309 197
310 95
311 152
312 62
313 1
314 244
315 31
316 82
317 32
318 79
319 217
320 106
321 11
322 41
323 140
324 421
325 160
326 156
327 128
328 175
329 217
330 135
331 153
332 69
333 267
334 66
335 23
336 170
337 394
338 50
339 35
340 51
341 352
342 14
343 171
344 45
345 369
346 226
347 188
348 89
349 87
350 10
351 93
352 168
353 97
354 75
355 22
356 203
357 22
358 36
359 33
360 90
361 162
362 512
363 376
364 287
365 47
366 53
367 133
368 140
369 448
370 11
371 29
372 52
373 163
374 59
375 77
376 13
377 29
378 159
379 16
380 3
381 21
382 4
383 330
384 124
385 25
386 125
387 150
388 36
389 46
390 189
391 133
392 109
393 24
394 251
395 73
396 99
397 88
398 67
399 61
400 21
401 318
402 63
403 151
404 59
405 159
406 17
407 187
408 16
409 318
410 28
411 176
412 85
413 271
414 84
415 230
416 94
417 22
418 58
419 3
420 221
421 27
422 148
423 148
424 88
425 41
426 242
427 88
428 65
429 14
430 18
431 20
432 9
433 27
434 17
435 29
436 10
437 154
438 34
439 102
440 44
441 106
442 16
443 26
444 15
445 94
446 91
447 19
448 32
449 57
450 35
451 137
452 42
453 128
454 4
455 199
456 32
457 27
458 45
459 7
460 13
461 55
462 146
463 55
464 30
465 91
466 82
467 80
468 37
469 87
470 13
471 257
472 146
473 124
474 90
475 50
476 29
477 57
478 136
479 287
480 76
481 70
482 142
483 217
484 252
485 79
486 218
487 71
488 103
489 55
490 72
491 4
492 210
493 18
494 44
495 38
496 27
497 22
498 39
499 65
500 23
501 244
502 81
503 258
504 109
505 1
506 87
507 46
508 59
509 58
510 48
511 18
512 96
513 41
514 167
515 18
516 82
517 33
518 70
519 1
520 28
521 181
522 14
523 32
524 180
525 23
526 68
527 4
528 84
529 79
530 131
531 35
532 3
533 24
534 27
535 1
536 29
537 194
538 14
539 6
540 6
541 27
542 127
543 116
544 3
545 53
546 331
547 203
548 13
549 9
550 14
551 131
552 11
553 43
554 156
555 21
556 24
557 11
558 27
559 69
560 14
561 44
562 60
563 10
564 5
565 61
566 61
567 50
568 7
569 57
570 128
571 16
572 1
573 138
574 1
575 41
576 7
577 6
578 4
579 2
580 17
581 256
582 66
583 65
584 63
585 49
586 32
587 15
588 146
589 22
590 2
591 137
592 82
593 83
594 193
595 212
596 80
597 57
598 76
599 15
600 31
601 162
602 9
603 15
604 28
605 11
606 24
607 18
608 133
609 12
610 94
611 79
612 42
613 133
614 115
615 8
616 18
617 4
618 1
619 126
620 3
621 95
622 9
623 16
624 78
625 116
626 9
627 105
628 56
629 29
630 30
631 72
632 72
633 110
634 75
635 170
636 25
637 58
638 121
639 80
640 19
641 182
642 195
643 72
644 18
645 11
646 4
647 126
648 47
649 64
650 67
651 82
652 155
653 380
654 13
655 24
656 7
657 16
658 129
659 34
660 32
661 152
662 12
663 110
664 9
665 1
666 32
667 24
668 88
669 79
670 8
671 199
672 13
673 34
674 30
675 22
676 72
677 19
678 108
679 119
680 31
681 5
682 12
683 417
684 23
685 23
686 76
687 17
688 116
689 147
690 55
691 85
692 176
693 57
694 59
695 118
696 43
697 344
698 334
699 343
700 12
701 228
702 134
703 67
704 20
705 15
706 213
707 382
708 74
709 79
710 30
711 93
712 146
713 174
714 54
715 38
716 4
717 109
718 51
719 5
720 60
721 5
722 309
723 104
724 158
725 62
726 96
727 18
728 41
729 35
730 210
731 273
732 110
733 184
734 63
735 45
736 94
737 102
738 165
739 56
740 42
741 189
742 28
743 10
744 110
745 74
746 39
747 58
748 172
749 80
750 295
751 18
752 47
753 90
754 44
755 39
756 56
757 63
758 75
759 103
760 25
761 4
762 9
763 45
764 3
765 31
766 151
767 37
768 43
769 8
770 11
771 129
772 50
773 42
774 63
775 113
776 26
777 3
778 164
779 110
780 41
781 4
782 90
783 87
784 78
785 30
786 56
787 54
788 50
789 23
790 63
791 93
792 23
793 128
794 42
795 25
796 25
797 2
798 393
799 25
800 72
801 21
802 18
803 8
804 32
805 129
806 4
807 94
808 52
809 87
810 64
811 74
812 128
813 30
814 60
815 79
816 27
817 28
818 2
819 91
820 26
821 113
822 16
823 31
824 237
825 129
826 32
827 87
828 36
829 124
830 182
831 1
832 59
833 5
834 77
835 184
836 20
837 118
838 86
839 222
840 47
841 65
842 6
843 8
844 124
845 83
846 88
847 19
848 19
849 87
850 64
851 198
852 42
853 45
854 102
855 13
856 65
857 10
858 30
859 62
860 94
861 435
862 97
863 71
864 52
865 235
866 24
867 31
868 147
869 193
870 157
871 74
872 18
873 50
874 10
875 42
876 21
877 130
878 55
879 33
880 38
881 88
882 3
883 102
884 147
885 18
886 60
887 81
888 62
889 276
890 26
891 98
892 5
893 60
894 29
895 68
896 282
897 10
898 48
899 411
900 160
901 2
902 47
903 216
904 69
905 78
906 91
907 13
908 92
909 32
910 152
911 70
912 46
913 127
914 24
915 35
916 172
917 14
918 6
919 20
920 150
921 86
922 234
923 90
924 265
925 45
926 36
927 6
928 31
929 73
930 68
931 87
932 84
933 40
934 8
935 211
936 47
937 3
938 51
939 1
940 6
941 99
942 63
943 18
944 8
945 99
946 26
947 14
948 257
949 57
950 166
951 136
952 35
953 35
954 8
955 69
956 20
957 47
958 24
959 256
960 69
961 50
962 11
963 78
964 3
965 12
966 260
967 38
968 3
969 17
970 244
971 1
972 77
973 14
974 52
975 68
976 50
977 100
978 68
979 203
980 31
981 106
982 56
983 103
984 8
985 21
986 23
987 38
988 281
989 183
990 23
991 56
992 146
993 118
994 7
995 106
996 36
997 31
998 41
999 23
1000 18
1001 82
1002 128
1003 86
1004 150
1005 4
1006 13
1007 5
1008 242
1009 43
1010 95
1011 43
1012 92
1013 58
1014 118
1015 3
1016 43
1017 91
1018 116
1019 48
1020 55
1021 161
1022 157
1023 251
1024 9
1025 136
1026 33
1027 205
1028 34
1029 26
1030 72
1031 85
1032 100
1033 15
1034 9
1035 189
1036 217
1037 2
1038 40
1039 121
1040 110
1041 86
1042 85
1043 11
1044 56
1045 86
1046 93
1047 4
1048 117
1049 131
1050 138
1051 51
1052 17
1053 112
1054 72
1055 3
1056 230
1057 96
1058 7
1059 27
1060 7
1061 145
1062 46
1063 147
1064 82
1065 43
1066 5
1067 186
1068 37
1069 111
1070 194
1071 108
1072 174
1073 124
1074 98
1075 10
1076 73
1077 17
1078 18
1079 12
1080 251
1081 130
1082 347
1083 2
1084 9
1085 6
1086 12
1087 103
1088 121
1089 23
1090 1
1091 29
1092 8
1093 27
1094 16
1095 15
1096 23
1097 111
1098 30
1099 27
1100 75
1101 127
1102 2
1103 92
1104 49
1105 133
1106 78
1107 3
1108 6
1109 13
1110 78
1111 5
1112 33
1113 49
1114 15
1115 51
1116 18
1117 63
1118 130
1119 4
1120 73
1121 39
1122 72
1123 33
1124 67
1125 143
1126 57
1127 18
1128 67
1129 37
1130 139
1131 41
1132 4
1133 15
1134 96
1135 35
1136 52
1137 135
1138 145
1139 17
1140 22
1141 24
1142 19
1143 55
1144 97
1145 265
1146 55
1147 41
1148 179
1149 36
1150 3
1151 110
1152 37
1153 55
1154 19
1155 10
1156 51
1157 119
1158 108
1159 14
1160 15
1161 6
1162 13
1163 35
1164 26
1165 95
1166 15
1167 201
1168 14
1169 128
1170 64
1171 107
1172 20
1173 172
1174 30
1175 50
1176 86
1177 223
1178 74
1179 122
1180 19
1181 129
1182 45
1183 5
1184 22
1185 22
1186 30
1187 80
1188 197
1189 46
1190 38
1191 272
1192 103
1193 113
1194 112
1195 15
1196 54
1197 2
1198 37
1199 120
1200 13
1201 15
1202 77
1203 45
1204 117
1205 107
1206 61
1207 3
1208 67
1209 31
1210 29
1211 8
1212 78
1213 119
1214 40
1215 85
1216 56
1217 5
1218 10
1219 69
1220 58
1221 1
1222 33
1223 151
1224 1
1225 30
1226 159
1227 110
1228 65
1229 6
1230 14
1231 15
1232 66
1233 19
1234 70
1235 22
1236 42
1237 27
1238 169
1239 130
1240 16
1241 98
1242 20
1243 50
1244 56
1245 116
1246 141
1247 70
1248 116
1249 97
1250 120
1251 30
1252 69
1253 43
1254 36
1255 25
1256 7
1257 17
1258 31
1259 59
1260 103
1261 253
1262 115
1263 10
1264 168
1265 4
1266 56
1267 227
1268 52
1269 58
1270 94
1271 34
1272 12
1273 62
1274 381
1275 132
1276 3
1277 41
1278 71
1279 47
1280 172
1281 10
1282 54
1283 56
1284 33
1285 90
1286 125
1287 85
1288 73
1289 8
1290 22
1291 44
1292 116
1293 29
1294 65
1295 35
1296 158
1297 155
1298 69
1299 27
1300 19
1301 129
1302 140
1303 12
1304 25
1305 2
1306 7
1307 44
1308 64
1309 24
1310 48
1311 221
1312 80
1313 64
1314 94
1315 26
1316 391
1317 129
1318 112
1319 32
1320 29
1321 52
1322 43
1323 149
1324 80
1325 203
1326 24
1327 104
1328 23
1329 207
1330 34
1331 21
1332 50
1333 70
1334 74
1335 99
1336 135
1337 12
1338 131
1339 41
1340 58
1341 85
1342 134
1343 49
1344 156
1345 5
1346 11
1347 12
1348 38
1349 15
1350 166
1351 54
1352 12
1353 138
1354 20
1355 26
1356 405
1357 25
1358 1
1359 10
1360 113
1361 16
1362 53
1363 4
1364 16
1365 27
1366 92
1367 412
1368 47
1369 2
1370 2
1371 3
1372 20
1373 19
1374 162
1375 18
1376 61
1377 64
1378 25
1379 95
1380 104
1381 1
1382 15
1383 103
1384 347
1385 191
1386 85
1387 14
1388 76
1389 37
1390 47
1391 31
1392 44
1393 3
1394 29
1395 70
1396 22
1397 40
1398 5
1399 20
1400 84
1401 17
1402 189
1403 9
1404 33
1405 92
1406 71
1407 33
1408 181
1409 99
1410 43
1411 12
1412 61
1413 95
1414 46
1415 4
1416 129
1417 56
1418 59
1419 15
1420 87
1421 50
1422 119
1423 48
1424 4
1425 32
1426 33
1427 19
1428 84
1429 167
1430 30
1431 5
1432 72
1433 17
1434 42
1435 65
1436 28
1437 197
1438 87
1439 47
1440 136
1441 58
1442 444
1443 82
1444 228
1445 86
1446 62
1447 20
1448 46
1449 3
1450 24
1451 19
1452 19
1453 4
1454 12
1455 129
1456 105
1457 129
1458 75
1459 93
1460 44
1461 45
1462 71
1463 9
1464 12
1465 103
1466 4
1467 85
1468 16
1469 39
1470 58
1471 46
1472 18
1473 58
1474 19
1475 35
1476 25
1477 117
1478 24
1479 25
1480 32
1481 139
1482 19
1483 144
1484 42
1485 15
1486 2
1487 194
1488 193
1489 20
1490 187
1491 147
1492 67
1493 3
1494 80
1495 134
1496 21
1497 2
1498 11
1499 22
1500 8
1501 152
1502 82
1503 10
1504 35
1505 169
1506 2
1507 88
1508 190
1509 132
1510 100
1511 46
1512 18
1513 24
1514 46
1515 28
1516 22
1517 178
1518 3
1519 54
1520 17
1521 216
1522 57
1523 69
1524 28
1525 27
1526 57
1527 215
1528 85
1529 238
1530 29
1531 34
1532 16
1533 16
1534 20
1535 26
1536 103
1537 42
1538 18
1539 109
1540 41
1541 49
1542 99
1543 143
1544 7
1545 53
1546 129
1547 29
1548 55
1549 97
1550 9
1551 36
1552 115
1553 157
1554 9
1555 26
1556 180
1557 109
1558 10
1559 6
1560 9
1561 67
1562 22
1563 152
1564 15
1565 110
1566 51
1567 96
1568 116
1569 66
1570 9
1571 58
1572 208
1573 108
1574 118
1575 35
1576 78
1577 15
1578 5
1579 13
1580 99
1581 77
1582 88
1583 17
1584 22
1585 38
1586 21
1587 174
1588 76
1589 13
1590 95
1591 9
1592 102
1593 10
1594 19
1595 290
1596 29
1597 29
1598 49
1599 42
1600 145
1601 49
1602 316
1603 136
1604 341
1605 86
1606 21
1607 130
1608 31
1609 40
1610 84
1611 31
1612 10
1613 9
1614 175
1615 80
1616 34
1617 24
1618 21
1619 90
1620 1
1621 24
1622 331
1623 33
1624 91
1625 141
1626 26
1627 182
1628 66
1629 41
1630 27
1631 25
1632 186
1633 59
1634 66
1635 106
1636 56
1637 25
1638 162
1639 27
1640 133
1641 45
1642 82
1643 27
1644 38
1645 3
1646 209
1647 70
1648 65
1649 31
1650 15
1651 6
1652 97
1653 4
1654 80
1655 159
1656 40
1657 4
1658 46
1659 60
1660 41
1661 31
1662 12
1663 6
1664 6
1665 33
1666 38
1667 4
1668 4
1669 24
1670 102
1671 52
1672 95
1673 160
1674 2
1675 159
1676 32
1677 55
1678 74
1679 308
1680 66
1681 95
1682 7
1683 74
1684 6
1685 153
1686 15
1687 10
1688 44
1689 29
1690 35
1691 64
1692 74
1693 72
1694 21
1695 19
1696 9
1697 212
1698 20
1699 232
1700 6
1701 26
1702 257
1703 43
1704 32
1705 5
1706 1
1707 73
1708 67
1709 18
1710 53
1711 9
1712 18
1713 9
1714 16
1715 91
1716 46
1717 93
1718 28
1719 109
1720 72
1721 7
1722 147
1723 175
1724 47
1725 112
1726 16
1727 60
1728 50
1729 2
1730 53
1731 18
1732 97
1733 58
1734 2
1735 75
1736 96
1737 5
1738 85
1739 20
1740 176
1741 47
1742 48
1743 122
1744 4
1745 61
1746 54
1747 102
1748 160
1749 108
1750 8
1751 68
1752 33
1753 113
1754 3
1755 105
1756 146
1757 83
1758 80
1759 141
1760 34
1761 60
1762 6
1763 29
1764 66
1765 27
1766 10
1767 9
1768 140
1769 1
1770 31
1771 45
1772 95
1773 36
1774 9
1775 30
1776 16
1777 12
1778 102
1779 271
1780 43
1781 2
1782 37
1783 97
1784 4
1785 109
1786 22
1787 16
1788 86
1789 178
1790 124
1791 71
1792 50
1793 275
1794 9
1795 36
1796 48
1797 13
1798 43
1799 37
1800 124
1801 114
1802 47
1803 9
1804 17
1805 25
1806 56
1807 109
1808 73
1809 16
1810 50
1811 116
1812 237
1813 36
1814 40
1815 20
1816 49
1817 69
1818 49
1819 138
1820 76
1821 11
1822 113
1823 87
1824 6
1825 55
1826 93
1827 250
1828 23
1829 28
1830 64
1831 27
1832 126
1833 78
1834 105
1835 59
1836 37
1837 32
1838 63
1839 53
1840 20
1841 123
1842 20
1843 265
1844 130
1845 79
1846 42
1847 22
1848 49
1849 5
1850 70
1851 3
1852 26
1853 112
1854 24
1855 7
1856 113
1857 42
1858 15
1859 102
1860 61
1861 80
1862 28
1863 45
1864 27
1865 36
1866 105
1867 30
1868 33
1869 64
1870 50
1871 15
1872 73
1873 145
1874 101
1875 25
1876 118
1877 32
1878 97
1879 153
1880 1
1881 58
1882 16
1883 4
1884 95
1885 27
1886 107
1887 23
1888 7
1889 105
1890 277
1891 101
1892 43
1893 54
1894 56
1895 8
1896 28
1897 86
1898 20
1899 56
1900 14
1901 24
1902 12
1903 70
1904 119
1905 1
1906 6
1907 54
1908 211
1909 80
1910 29
1911 67
1912 9
1913 132
1914 66
1915 73
1916 83
1917 24
1918 36
1919 63
1920 87
1921 24
1922 42
1923 100
1924 7
1925 4
1926 106
1927 25
1928 3
1929 82
1930 45
1931 20
1932 23
1933 11
1934 13
1935 21
1936 3
1937 5
1938 40
1939 71
1940 9
1941 94
1942 59
1943 4
1944 92
1945 2
1946 103
1947 38
1948 227
1949 29
1950 30
1951 28
1952 66
1953 8
1954 85
1955 162
1956 70
1957 62
1958 42
1959 153
1960 59
1961 1
1962 57
1963 94
1964 5
1965 106
1966 6
1967 29
1968 45
1969 41
1970 29
1971 68
1972 32
1973 54
1974 26
1975 7
1976 179
1977 8
1978 42
1979 74
1980 124
1981 40
1982 69
1983 179
1984 35
1985 148
1986 169
1987 19
1988 38
1989 126
1990 4
1991 40
1992 120
1993 54
1994 43
1995 9
1996 110
1997 18
1998 9
1999 53
