0 26
1 48
2 185
3 19
4 12
5 5
6 7
7 24
8 34
9 40
10 21
11 21
12 153
13 22
14 27
15 13
16 16
17 6
18 64
19 4
20 19
21 149
22 20
23 204
24 21
25 122
26 8
27 162
28 22
29 123
30 88
31 4
32 40
33 33
34 17
35 3
36 14
37 42
38 34
39 120
40 116
41 101
42 5
43 13
44 64
45 67
46 42
47 24
48 15
49 12
50 1
51 165
52 29
53 60
54 77
55 57
56 123
57 86
58 21
59 16
60 115
61 13
62 7
63 155
64 1
65 19
66 30
67 8
68 1
69 57
70 135
71 130
72 73
73 5
74 88
75 46
76 12
77 10
78 43
79 21
80 32
81 58
82 81
83 52
84 88
85 90
86 59
87 64
88 17
89 56
90 34
91 30
92 176
93 34
94 30
95 33
96 3
97 43
98 9
99 86
100 194
101 52
102 19
103 31
104 63
105 9
106 75
107 15
108 15
109 84
110 112
111 39
112 8
113 173
114 20
115 3
116 118
117 30
118 54
119 12
120 10
121 15
122 86
123 21
124 75
125 36
126 236
127 54
128 27
129 25
130 79
131 153
132 65
133 102
134 16
135 192
136 49
137 19
138 91
139 62
140 8
141 24
142 43
143 24
144 20
145 92
146 58
147 75
148 173
149 100
150 36
151 50
152 82
153 30
154 66
155 359
156 96
157 42
158 372
159 672
160 101
161 55
162 245
163 57
164 78
165 348
166 5
167 31
168 431
169 496
170 125
171 1
172 313
173 231
174 346
175 206
176 108
177 167
178 18
179 23
180 53
181 18
182 197
183 58
184 6
185 118
186 159
187 121
188 51
189 40
190 11
191 37
192 169
193 203
194 89
195 96
196 2
197 67
198 30
199 69
200 57
201 201
202 6
203 205
204 200
205 33
206 70
207 143
208 65
209 49
210 2
211 22
212 9
213 36
214 273
215 48
216 18
217 19
218 97
219 90
220 80
221 153
222 61
223 55
224 165
225 13
226 163
227 12
228 80
229 4
230 122
231 66
232 31
233 1
234 114
235 51
236 158
237 17
238 99
239 28
240 18
241 200
242 27
243 15
244 51
245 260
246 34
247 99
248 4
249 46
250 98
251 95
252 94
253 220
254 261
255 412
256 72
257 82
258 62
259 288
260 14
261 94
262 1
263 139
264 112
265 96
266 25
267 188
268 17
269 13
270 10
271 167
272 258
273 44
274 180
275 38
276 423
277 160
278 41
279 412
280 117
281 18
282 313
283 2
284 223
285 65
286 68
287 101
288 6
289 1
290 127
291 142
292 113
293 57
294 43
295 80
296 79
297 30
298 33
299 107
300 116
301 16
302 69
303 155
304 136
305 285
306 203
307 33
308 24
309 96
310 165
311 336
312 109
313 251
314 12
315 31
316 128
317 20
318 97
319 286
320 10
321 130
322 97
323 655
324 247
325 124
326 425
327 288
328 9
329 89
330 264
331 279
332 62
333 1
334 378
335 50
336 27
337 169
338 83
339 82
340 54
341 102
342 37
343 113
344 154
345 83
346 76
347 46
348 207
349 80
350 16
351 40
352 78
353 32
354 6
355 143
356 386
357 101
358 123
359 237
360 22
361 86
362 72
363 117
364 13
365 142
366 36
367 174
368 18
369 59
370 83
371 110
372 44
373 83
374 6
375 103
376 238
377 121
378 89
379 36
380 56
381 36
382 171
383 5
384 110
385 159
386 88
387 304
388 162
389 135
390 95
391 66
392 108
393 52
394 112
395 77
396 66
397 75
398 80
399 102
400 35
401 2
402 34
403 261
404 129
405 1
406 11
407 122
408 97
409 126
410 50
411 192
412 105
413 5
414 119
415 16
416 6
417 52
418 22
419 135
420 42
421 132
422 91
423 16
424 214
425 50
426 23
427 93
428 30
429 124
430 71
431 201
432 2
433 29
434 29
435 31
436 168
437 25
438 17
439 20
440 32
441 13
442 132
443 113
444 68
445 39
446 86
447 17
448 40
449 279
450 26
451 25
452 24
453 28
454 17
455 81
456 299
457 32
458 2
459 98
460 28
461 90
462 20
463 68
464 30
465 123
466 200
467 165
468 165
469 63
470 118
471 182
472 149
473 179
474 17
475 118
476 107
477 18
478 62
479 143
480 76
481 66
482 157
483 153
484 161
485 12
486 69
487 232
488 159
489 71
490 48
491 43
492 124
493 1
494 15
495 70
496 3
497 54
498 202
499 76
500 169
501 129
502 86
503 3
504 199
505 97
506 492
507 90
508 64
509 8
510 16
511 11
512 108
513 19
514 14
515 204
516 16
517 110
518 144
519 13
520 23
521 195
522 26
523 138
524 304
525 64
526 3
527 14
528 121
529 10
530 53
531 80
532 7
533 99
534 165
535 287
536 1
537 53
538 265
539 25
540 58
541 41
542 1
543 135
544 62
545 5
546 37
547 23
548 262
549 113
550 23
551 73
552 209
553 207
554 30
555 107
556 122
557 17
558 124
559 418
560 38
561 16
562 193
563 7
564 222
565 26
566 37
567 165
568 8
569 8
570 111
571 135
572 162
573 3
574 38
575 156
576 78
577 111
578 96
579 204
580 20
581 239
582 205
583 117
584 14
585 41
586 52
587 258
588 529
589 41
590 408
591 79
592 176
593 10
594 33
595 39
596 162
597 247
598 219
599 98
600 50
601 94
602 284
603 59
604 21
605 219
606 341
607 274
608 54
609 92
610 3
611 92
612 64
613 252
614 113
615 54
616 147
617 9
618 40
619 225
620 114
621 83
622 7
623 41
624 527
625 45
626 169
627 106
628 264
629 103
630 87
631 119
632 9
633 107
634 171
635 10
636 183
637 42
638 354
639 45
640 24
641 24
642 435
643 257
644 85
645 28
646 5
647 56
648 92
649 11
650 253
651 8
652 32
653 46
654 43
655 11
656 202
657 6
658 251
659 166
660 246
661 7
662 6
663 1
664 118
665 52
666 96
667 76
668 10
669 62
670 9
671 83
672 3
673 79
674 150
675 9
676 10
677 16
678 93
679 89
680 198
681 50
682 30
683 12
684 29
685 94
686 21
687 105
688 79
689 365
690 3
691 75
692 167
693 69
694 150
695 93
696 122
697 224
698 317
699 143
700 70
701 305
702 7
703 60
704 67
705 112
706 103
707 28
708 71
709 126
710 96
711 223
712 36
713 501
714 111
715 37
716 40
717 106
718 53
719 57
720 634
721 54
722 45
723 1
724 267
725 436
726 176
727 26
728 165
729 126
730 26
731 30
732 111
733 157
734 323
735 510
736 99
737 137
738 8
739 31
740 15
741 127
742 19
743 73
744 344
745 30
746 356
747 13
748 88
749 39
750 205
751 80
752 3
753 68
754 62
755 61
756 128
757 76
758 162
759 262
760 85
761 128
762 59
763 198
764 11
765 455
766 61
767 3
768 30
769 71
770 57
771 206
772 99
773 176
774 194
775 2
776 357
777 35
778 79
779 44
780 1
781 59
782 44
783 53
784 148
785 190
786 144
787 141
788 78
789 56
790 39
791 104
792 152
793 12
794 37
795 164
796 39
797 26
798 21
799 55
800 79
801 50
802 245
803 98
804 48
805 118
806 118
807 94
808 36
809 72
810 11
811 64
812 254
813 27
814 290
815 449
816 249
817 33
818 45
819 221
820 41
821 104
822 119
823 27
824 19
825 40
826 125
827 9
828 9
829 128
830 7
831 13
832 9
833 139
834 284
835 41
836 86
837 65
838 48
839 389
840 98
841 104
842 136
843 139
844 100
845 15
846 24
847 154
848 10
849 119
850 171
851 174
852 311
853 13
854 62
855 60
856 35
857 46
858 66
859 17
860 24
861 334
862 160
863 24
864 344
865 161
866 58
867 116
868 277
869 226
870 96
871 101
872 121
873 105
874 42
875 85
876 107
877 77
878 123
879 31
880 294
881 162
882 68
883 182
884 273
885 80
886 9
887 33
888 114
889 3
890 74
891 55
892 65
893 118
894 20
895 28
896 189
897 39
898 30
899 63
900 103
901 252
902 159
903 13
904 55
905 62
906 143
907 118
908 74
909 141
910 70
911 87
912 121
913 9
914 54
915 167
916 2
917 62
918 198
919 15
920 146
921 93
922 116
923 1
924 18
925 13
926 15
927 9
928 66
929 202
930 227
931 132
932 133
933 57
934 116
935 43
936 149
937 24
938 157
939 219
940 111
941 213
942 70
943 18
944 116
945 116
946 1
947 165
948 47
949 33
950 63
951 134
952 69
953 178
954 75
955 155
956 100
957 16
958 28
959 29
960 39
961 54
962 92
963 12
964 11
965 101
966 69
967 40
968 263
969 58
970 40
971 165
972 236
973 81
974 147
975 239
976 37
977 109
978 27
979 268
980 28
981 353
982 64
983 12
984 335
985 162
986 121
987 66
988 25
989 33
990 22
991 359
992 156
993 61
994 164
995 35
996 123
997 2
998 5
999 23
1000 184
1001 219
1002 5
1003 239
1004 171
1005 420
1006 78
1007 202
1008 41
1009 179
1010 7
1011 95
1012 42
1013 201
1014 111
1015 30
1016 126
1017 22
1018 11
1019 73
1020 90
1021 162
1022 8
1023 1
1024 320
1025 258
1026 182
1027 55
1028 152
1029 51
1030 13
1031 137
1032 6
1033 8
1034 150
1035 164
1036 203
1037 124
1038 32
1039 137
1040 36
1041 43
1042 40
1043 70
1044 39
1045 25
1046 22
1047 4
1048 128
1049 10
1050 88
1051 100
1052 248
1053 97
1054 79
1055 54
1056 281
1057 81
1058 50
1059 20
1060 281
1061 24
1062 85
1063 124
1064 26
1065 49
1066 26
1067 198
1068 171
1069 6
1070 116
1071 170
1072 121
1073 44
1074 152
1075 14
1076 35
1077 50
1078 56
1079 44
1080 32
1081 35
1082 16
1083 169
1084 194
1085 195
1086 32
1087 364
1088 178
1089 76
1090 45
1091 109
1092 50
1093 26
1094 213
1095 13
1096 299
1097 85
1098 9
1099 30
1100 87
1101 47
1102 20
1103 340
1104 51
1105 21
1106 254
1107 135
1108 20
1109 44
1110 427
1111 160
1112 29
1113 79
1114 14
1115 59
1116 199
1117 60
1118 35
1119 2
1120 97
1121 115
1122 119
1123 360
1124 113
1125 105
1126 57
1127 6
1128 18
1129 38
1130 110
1131 29
1132 9
1133 110
1134 8
1135 29
1136 3
1137 145
1138 74
1139 14
1140 97
1141 2
1142 23
1143 25
1144 284
1145 141
1146 118
1147 411
1148 52
1149 30
1150 170
1151 55
1152 6
1153 50
1154 39
1155 106
1156 62
1157 13
1158 136
1159 45
1160 15
1161 207
1162 22
1163 400
1164 33
1165 263
1166 71
1167 190
1168 175
1169 35
1170 7
1171 8
1172 131
1173 42
1174 14
1175 248
1176 104
1177 24
1178 270
1179 44
1180 86
1181 133
1182 345
1183 299
1184 61
1185 1
1186 4
1187 184
1188 50
1189 99
1190 208
1191 50
1192 14
1193 137
1194 16
1195 21
1196 53
1197 64
1198 58
1199 126
1200 10
1201 331
1202 58
1203 169
1204 1
1205 147
1206 88
1207 132
1208 169
1209 59
1210 129
1211 56
1212 41
1213 284
1214 4
1215 135
1216 95
1217 268
1218 14
1219 14
1220 11
1221 320
1222 134
1223 51
1224 174
1225 47
1226 235
1227 18
1228 141
1229 25
1230 185
1231 188
1232 60
1233 36
1234 243
1235 343
1236 11
1237 103
1238 8
1239 111
1240 44
1241 214
1242 120
1243 45
1244 46
1245 70
1246 388
1247 57
1248 71
1249 31
1250 1
1251 16
1252 223
1253 26
1254 29
1255 6
1256 16
1257 38
1258 68
1259 2
1260 68
1261 240
1262 64
1263 135
1264 184
1265 285
1266 354
1267 13
1268 78
1269 43
1270 220
1271 34
1272 154
1273 91
1274 63
1275 7
1276 124
1277 32
1278 131
1279 156
1280 62
1281 171
1282 64
1283 404
1284 54
1285 9
1286 62
1287 57
1288 127
1289 18
1290 35
1291 111
1292 233
1293 187
1294 14
1295 513
1296 27
1297 72
1298 40
1299 65
1300 230
1301 56
1302 21
1303 176
1304 101
1305 54
1306 22
1307 19
1308 63
1309 51
1310 176
1311 278
1312 27
1313 100
1314 122
1315 112
1316 82
1317 107
1318 142
1319 40
1320 108
1321 59
1322 104
1323 45
1324 13
1325 204
1326 152
1327 192
1328 258
1329 7
1330 136
1331 47
1332 43
1333 162
1334 62
1335 13
1336 34
1337 71
1338 131
1339 138
1340 12
1341 7
1342 71
1343 400
1344 17
1345 112
1346 41
1347 199
1348 46
1349 121
1350 40
1351 7
1352 180
1353 138
1354 29
1355 104
1356 13
1357 50
1358 6
1359 18
1360 100
1361 299
1362 186
1363 74
1364 22
1365 171
1366 13
1367 1
1368 235
1369 65
1370 108
1371 113
1372 39
1373 69
1374 80
1375 32
1376 42
1377 29
1378 10
1379 214
1380 96
1381 11
1382 6
1383 20
1384 107
1385 61
1386 42
1387 11
1388 24
1389 102
1390 1
1391 245
1392 11
1393 198
1394 48
1395 108
1396 136
1397 185
1398 39
1399 56
1400 14
1401 35
1402 232
1403 164
1404 981
1405 76
1406 59
1407 247
1408 113
1409 122
1410 141
1411 247
1412 109
1413 39
1414 25
1415 68
1416 139
1417 45
1418 22
1419 58
1420 193
1421 177
1422 328
1423 20
1424 58
1425 23
1426 153
1427 348
1428 59
1429 71
1430 149
1431 139
1432 19
1433 19
1434 116
1435 39
1436 117
1437 103
1438 126
1439 98
1440 172
1441 57
1442 66
1443 65
1444 66
1445 219
1446 23
1447 18
1448 99
1449 123
1450 170
1451 26
1452 172
1453 53
1454 351
1455 45
1456 29
1457 189
1458 200
1459 33
1460 29
1461 89
1462 45
1463 41
1464 88
1465 276
1466 126
1467 139
1468 463
1469 190
1470 31
1471 27
1472 181
1473 34
1474 274
1475 384
1476 174
1477 64
1478 60
1479 205
1480 365
1481 65
1482 33
1483 280
1484 402
1485 119
1486 52
1487 5
1488 196
1489 64
1490 38
1491 3
1492 33
1493 131
1494 25
1495 64
1496 80
1497 96
1498 8
1499 4
1500 72
1501 40
1502 13
1503 34
1504 261
1505 331
1506 50
1507 211
1508 484
1509 190
1510 7
1511 45
1512 219
1513 425
1514 3
1515 60
1516 49
1517 75
1518 204
1519 78
1520 94
1521 46
1522 9
1523 27
1524 3
1525 22
1526 170
1527 223
1528 5
1529 80
1530 207
1531 59
1532 23
1533 51
1534 86
1535 99
1536 3
1537 110
1538 5
1539 5
1540 42
1541 76
1542 71
1543 11
1544 58
1545 171
1546 116
1547 58
1548 192
1549 38
1550 203
1551 26
1552 7
1553 163
1554 37
1555 32
1556 30
1557 7
1558 43
1559 149
1560 37
1561 110
1562 140
1563 48
1564 244
1565 134
1566 85
1567 111
1568 100
1569 143
1570 53
1571 153
1572 91
1573 232
1574 11
1575 9
1576 9
1577 53
1578 60
1579 49
1580 44
1581 228
1582 261
1583 33
1584 38
1585 192
1586 36
1587 32
1588 49
1589 28
1590 126
1591 42
1592 302
1593 109
1594 39
1595 12
1596 21
1597 55
1598 120
1599 29
1600 69
1601 316
1602 79
1603 130
1604 142
1605 3
1606 66
1607 13
1608 31
1609 27
1610 237
1611 307
1612 72
1613 88
1614 218
1615 49
1616 45
1617 115
1618 37
1619 5
1620 109
1621 68
1622 6
1623 81
1624 284
1625 20
1626 10
1627 11
1628 49
1629 69
1630 3
1631 255
1632 8
1633 70
1634 80
1635 27
1636 63
1637 18
1638 39
1639 82
1640 214
1641 299
1642 71
1643 157
1644 72
1645 86
1646 36
1647 93
1648 11
1649 15
1650 88
1651 91
1652 1
1653 71
1654 7
1655 153
1656 3
1657 76
1658 146
1659 178
1660 119
1661 30
1662 86
1663 227
1664 109
1665 6
1666 39
1667 117
1668 222
1669 1
1670 85
1671 145
1672 41
1673 127
1674 150
1675 57
1676 105
1677 11
1678 25
1679 86
1680 234
1681 74
1682 212
1683 5
1684 76
1685 54
1686 1
1687 23
1688 71
1689 48
1690 159
1691 52
1692 34
1693 176
1694 13
1695 137
1696 38
1697 22
1698 28
1699 53
1700 27
1701 296
1702 78
1703 9
1704 6
1705 248
1706 47
1707 42
1708 65
1709 28
1710 106
1711 22
1712 45
1713 126
1714 9
1715 39
1716 67
1717 161
1718 21
1719 21
1720 3
1721 10
1722 128
1723 51
1724 341
1725 39
1726 14
1727 76
1728 124
1729 91
1730 106
1731 1
1732 151
1733 52
1734 336
1735 502
1736 401
1737 104
1738 2
1739 92
1740 1
1741 36
1742 48
1743 145
1744 31
1745 86
1746 106
1747 163
1748 180
1749 54
1750 139
1751 168
1752 20
1753 97
1754 64
1755 70
1756 73
1757 5
1758 103
1759 344
1760 19
1761 5
1762 89
1763 41
1764 90
1765 15
1766 383
1767 289
1768 26
1769 80
1770 3
1771 93
1772 34
1773 445
1774 35
1775 71
1776 76
1777 107
1778 412
1779 146
1780 82
1781 108
1782 25
1783 65
1784 131
1785 11
1786 13
1787 333
1788 2
1789 2
1790 465
1791 168
1792 41
1793 39
1794 8
1795 35
1796 525
1797 92
1798 90
1799 14
1800 31
1801 43
1802 3
1803 151
1804 153
1805 140
1806 106
1807 91
1808 133
1809 6
1810 93
1811 19
1812 181
1813 69
1814 164
1815 4
1816 418
1817 113
1818 119
1819 50
1820 222
1821 6
1822 31
1823 248
1824 332
1825 178
1826 40
1827 131
1828 115
1829 106
1830 14
1831 27
1832 66
1833 1
1834 21
1835 165
1836 42
1837 11
1838 30
1839 71
1840 3
1841 379
1842 131
1843 26
1844 187
1845 4
1846 54
1847 12
1848 96
1849 21
1850 33
1851 151
1852 3
1853 88
1854 106
1855 487
1856 239
1857 3
1858 60
1859 8
1860 124
1861 291
1862 46
1863 265
1864 17
1865 26
1866 90
1867 363
1868 27
1869 18
1870 123
1871 31
1872 7
1873 85
1874 188
1875 38
1876 14
1877 27
1878 41
1879 64
1880 6
1881 69
1882 113
1883 57
1884 56
1885 46
1886 352
1887 102
1888 96
1889 16
1890 79
1891 154
1892 146
1893 13
1894 80
1895 228
1896 215
1897 192
1898 11
1899 486
1900 27
1901 152
1902 477
1903 31
1904 81
1905 84
1906 190
1907 254
1908 196
1909 114
1910 156
1911 69
1912 5
1913 107
1914 251
1915 294
1916 157
1917 220
1918 80
1919 69
1920 25
1921 13
1922 48
1923 137
1924 80
1925 1
1926 127
1927 30
1928 252
1929 28
1930 12
1931 9
1932 68
1933 99
1934 28
1935 10
1936 110
1937 74
1938 53
1939 94
1940 137
1941 143
1942 67
1943 184
1944 178
1945 9
1946 193
1947 91
1948 235
1949 59
1950 14
1951 327
1952 110
1953 11
1954 163
1955 58
1956 109
1957 75
1958 50
1959 248
1960 209
1961 20
1962 54
1963 44
1964 85
1965 1
1966 53
1967 16
1968 281
1969 178
1970 190
1971 167
1972 151
1973 1
1974 28
1975 12
1976 125
1977 52
1978 54
1979 277
1980 149
1981 19
1982 202
1983 35
1984 130
1985 109
1986 2
1987 97
1988 112
1989 49
1990 51
1991 82
1992 133
1993 10
1994 133
1995 52
1996 42
1997 57
1998 31
1999 44
