0 7
1 10
2 10
3 28
4 14
5 20
6 61
7 1
8 34
9 32
10 17
11 13
12 41
13 3
14 39
15 105
16 3
17 110
18 9
19 14
20 48
21 93
22 254
23 14
24 37
25 13
26 63
27 363
28 30
29 31
30 33
31 48
32 98
33 51
34 310
35 8
36 46
37 87
38 8
39 36
40 48
41 5
42 34
43 54
44 36
45 7
46 2
47 27
48 3
49 38
50 3
51 100
52 57
53 115
54 112
55 77
56 197
57 114
58 80
59 144
60 115
61 27
62 16
63 180
64 41
65 69
66 33
67 41
68 351
69 172
70 89
71 34
72 57
73 446
74 62
75 521
76 351
77 31
78 30
79 186
80 33
81 84
82 12
83 242
84 151
85 2
86 69
87 365
88 336
89 319
90 65
91 8
92 90
93 23
94 18
95 17
96 100
97 56
98 11
99 50
100 52
101 9
102 5
103 176
104 11
105 196
106 42
107 16
108 105
109 69
110 38
111 40
112 69
113 184
114 159
115 114
116 5
117 45
118 218
119 79
120 39
121 12
122 38
123 158
124 180
125 160
126 71
127 171
128 109
129 53
130 69
131 18
132 86
133 90
134 322
135 35
136 182
137 156
138 199
139 5
140 179
141 234
142 6
143 7
144 49
145 92
146 307
147 33
148 109
149 61
150 38
151 9
152 144
153 8
154 45
155 21
156 116
157 142
158 15
159 10
160 59
161 28
162 185
163 82
164 15
165 14
166 8
167 127
168 78
169 122
170 54
171 23
172 115
173 51
174 30
175 79
176 59
177 120
178 25
179 117
180 116
181 115
182 99
183 49
184 82
185 43
186 206
187 133
188 19
189 60
190 28
191 13
192 66
193 20
194 192
195 265
196 21
197 82
198 43
199 43
200 71
201 141
202 67
203 247
204 63
205 37
206 60
207 327
208 91
209 64
210 320
211 1
212 15
213 12
214 7
215 34
216 199
217 63
218 77
219 25
220 140
221 186
222 9
223 16
224 27
225 462
226 109
227 222
228 9
229 112
230 21
231 18
232 14
233 112
234 301
235 6
236 182
237 7
238 352
239 249
240 128
241 148
242 102
243 44
244 96
245 9
246 176
247 31
248 64
249 41
250 253
251 299
252 60
253 28
254 20
255 206
256 58
257 16
258 362
259 230
260 116
261 5
262 24
263 43
264 24
265 70
266 124
267 4
268 104
269 90
270 94
271 30
272 13
273 265
274 176
275 3
276 228
277 13
278 48
279 75
280 139
281 151
282 6
283 103
284 34
285 9
286 62
287 48
288 150
289 23
290 7
291 28
292 10
293 29
294 10
295 181
296 40
297 21
298 55
299 93
300 95
301 30
302 2
303 142
304 178
305 21
306 44
307 53
308 156
309 18
310 55
311 205
312 113
313 120
314 169
315 7
316 108
317 382
318 219
319 187
320 28
321 110
322 55
323 192
324 4
325 15
326 103
327 32
328 48
329 38
330 172
331 40
332 66
333 1
334 90
335 44
336 13
337 181
338 34
339 47
340 55
341 169
342 95
343 184
344 55
345 209
346 35
347 28
348 21
349 15
350 218
351 73
352 99
353 5
354 116
355 16
356 105
357 40
358 155
359 20
360 97
361 172
362 3
363 145
364 50
365 5
366 132
367 33
368 117
369 79
370 62
371 63
372 5
373 26
374 139
375 9
376 111
377 42
378 181
379 54
380 34
381 52
382 48
383 106
384 13
385 55
386 62
387 125
388 14
389 147
390 151
391 47
392 125
393 32
394 7
395 23
396 24
397 36
398 6
399 10
400 94
401 68
402 146
403 37
404 128
405 53
406 73
407 2
408 24
409 114
410 117
411 2
412 65
413 78
414 34
415 165
416 76
417 20
418 49
419 63
420 219
421 2
422 17
423 61
424 20
425 62
426 182
427 1
428 35
429 506
430 6
431 18
432 191
433 97
434 30
435 5
436 16
437 73
438 6
439 25
440 49
441 91
442 28
443 132
444 28
445 129
446 8
447 95
448 54
449 87
450 40
451 66
452 239
453 93
454 95
455 33
456 140
457 83
458 68
459 12
460 15
461 16
462 272
463 48
464 156
465 44
466 13
467 24
468 36
469 49
470 6
471 7
472 10
473 7
474 65
475 51
476 37
477 36
478 6
479 10
480 28
481 19
482 60
483 174
484 12
485 22
486 4
487 156
488 233
489 38
490 1
491 112
492 7
493 8
494 73
495 25
496 2
497 84
498 255
499 7
500 11
501 17
502 52
503 5
504 30
505 114
506 25
507 54
508 36
509 55
510 49
511 28
512 2
513 113
514 1
515 99
516 12
517 9
518 1
519 54
520 41
521 7
522 41
523 16
524 54
525 22
526 109
527 7
528 32
529 12
530 21
531 43
532 148
533 3
534 8
535 36
536 27
537 8
538 9
539 27
540 21
541 51
542 17
543 178
544 56
545 1
546 91
547 10
548 3
549 168
550 193
551 90
552 84
553 128
554 22
555 75
556 4
557 210
558 47
559 27
560 31
561 84
562 27
563 10
564 37
565 92
566 2
567 8
568 33
569 64
570 231
571 11
572 27
573 51
574 96
575 14
576 128
577 176
578 50
579 65
580 90
581 148
582 38
583 1
584 104
585 90
586 82
587 35
588 161
589 38
590 23
591 156
592 12
593 90
594 36
595 152
596 45
597 29
598 110
599 178
600 2
601 257
602 41
603 39
604 32
605 96
606 157
607 89
608 106
609 212
610 63
611 26
612 13
613 118
614 101
615 146
616 258
617 34
618 59
619 123
620 279
621 43
622 25
623 155
624 91
625 54
626 70
627 110
628 81
629 213
630 44
631 4
632 209
633 11
634 56
635 90
636 152
637 33
638 44
639 7
640 34
641 35
642 174
643 19
644 135
645 190
646 83
647 134
648 67
649 102
650 20
651 44
652 4
653 24
654 221
655 124
656 81
657 14
658 3
659 59
660 67
661 42
662 23
663 27
664 161
665 42
666 27
667 11
668 16
669 161
670 146
671 66
672 114
673 11
674 12
675 7
676 2
677 107
678 35
679 110
680 67
681 46
682 38
683 18
684 24
685 36
686 13
687 10
688 39
689 138
690 35
691 46
692 1
693 112
694 10
695 24
696 102
697 60
698 2
699 11
700 83
701 58
702 45
703 97
704 13
705 15
706 68
707 17
708 1
709 12
710 31
711 33
712 107
713 77
714 125
715 45
716 61
717 42
718 43
719 35
720 91
721 113
722 103
723 105
724 121
725 110
726 202
727 56
728 67
729 118
730 121
731 32
732 19
733 87
734 42
735 56
736 5
737 27
738 3
739 225
740 4
741 88
742 44
743 134
744 2
745 59
746 29
747 11
748 9
749 122
750 55
751 23
752 134
753 39
754 2
755 146
756 264
757 55
758 9
759 51
760 29
761 5
762 73
763 113
764 74
765 3
766 95
767 28
768 39
769 26
770 56
771 7
772 226
773 36
774 5
775 43
776 58
777 76
778 281
779 105
780 12
781 30
782 44
783 59
784 38
785 11
786 178
787 1
788 7
789 79
790 37
791 3
792 11
793 153
794 118
795 181
796 61
797 3
798 18
799 143
800 8
801 95
802 17
803 1
804 34
805 1
806 45
807 57
808 212
809 16
810 32
811 6
812 19
813 146
814 78
815 36
816 32
817 35
818 23
819 43
820 53
821 64
822 47
823 3
824 1
825 50
826 146
827 33
828 10
829 30
830 3
831 92
832 130
833 28
834 4
835 20
836 2
837 37
838 6
839 10
840 63
841 120
842 19
843 5
844 16
845 108
846 30
847 74
848 206
849 95
850 109
851 112
852 2
853 11
854 120
855 7
856 75
857 17
858 13
859 24
860 85
861 75
862 66
863 18
864 23
865 219
866 57
867 26
868 28
869 34
870 120
871 132
872 24
873 135
874 72
875 5
876 16
877 3
878 31
879 53
880 48
881 36
882 17
883 49
884 15
885 65
886 202
887 129
888 3
889 60
890 173
891 92
892 90
893 112
894 144
895 26
896 8
897 106
898 307
899 11
900 125
901 228
902 81
903 184
904 23
905 197
906 37
907 214
908 19
909 23
910 96
911 55
912 19
913 4
914 254
915 94
916 23
917 7
918 52
919 99
920 12
921 34
922 49
923 22
924 128
925 11
926 190
927 81
928 61
929 158
930 117
931 93
932 124
933 11
934 60
935 167
936 27
937 8
938 179
939 76
940 19
941 43
942 1
943 88
944 110
945 6
946 24
947 3
948 60
949 35
950 34
951 71
952 19
953 28
954 31
955 66
956 305
957 50
958 182
959 90
960 24
961 30
962 4
963 96
964 195
965 42
966 15
967 14
968 7
969 7
970 202
971 182
972 36
973 129
974 51
975 4
976 32
977 297
978 39
979 120
980 36
981 125
982 60
983 274
984 10
985 26
986 85
987 14
988 25
989 112
990 96
991 10
992 33
993 129
994 35
995 12
996 54
997 106
998 128
999 136
1000 38
1001 89
1002 126
1003 19
1004 41
1005 9
1006 17
1007 9
1008 88
1009 4
1010 9
1011 10
1012 16
1013 80
1014 34
1015 5
1016 42
1017 228
1018 27
1019 57
1020 76
1021 54
1022 36
1023 6
1024 132
1025 30
1026 45
1027 79
1028 71
1029 53
1030 2
1031 68
1032 77
1033 80
1034 97
1035 47
1036 79
1037 127
1038 16
1039 21
1040 33
1041 44
1042 88
1043 42
1044 1
1045 64
1046 24
1047 46
1048 59
1049 122
1050 221
1051 44
1052 57
1053 10
1054 34
1055 117
1056 102
1057 122
1058 3
1059 8
1060 139
1061 23
1062 81
1063 76
1064 6
1065 87
1066 232
1067 69
1068 115
1069 1
1070 76
1071 321
1072 8
1073 20
1074 43
1075 251
1076 76
1077 25
1078 2
1079 211
1080 185
1081 48
1082 71
1083 39
1084 71
1085 172
1086 31
1087 7
1088 119
1089 98
1090 13
1091 43
1092 30
1093 86
1094 111
1095 5
1096 35
1097 33
1098 48
1099 203
1100 72
1101 196
1102 3
1103 114
1104 89
1105 122
1106 29
1107 67
1108 137
1109 58
1110 39
1111 8
1112 32
1113 347
1114 93
1115 10
1116 26
1117 85
1118 42
1119 232
1120 27
1121 152
1122 51
1123 32
1124 64
1125 8
1126 1
1127 10
1128 53
1129 280
1130 42
1131 92
1132 145
1133 2
1134 95
1135 73
1136 137
1137 5
1138 231
1139 51
1140 4
1141 65
1142 122
1143 172
1144 170
1145 42
1146 40
1147 83
1148 41
1149 53
1150 20
1151 15
1152 130
1153 78
1154 73
1155 11
1156 26
1157 12
1158 32
1159 112
1160 99
1161 26
1162 117
1163 39
1164 13
1165 246
1166 221
1167 117
1168 95
1169 232
1170 449
1171 159
1172 83
1173 156
1174 50
1175 79
1176 49
1177 12
1178 351
1179 208
1180 245
1181 73
1182 14
1183 11
1184 140
1185 154
1186 62
1187 171
1188 43
1189 45
1190 4
1191 56
1192 28
1193 4
1194 170
1195 7
1196 13
1197 72
1198 97
1199 75
1200 111
1201 86
1202 26
1203 100
1204 44
1205 2
1206 77
1207 14
1208 217
1209 64
1210 84
1211 38
1212 16
1213 109
1214 13
1215 17
1216 7
1217 105
1218 151
1219 7
1220 31
1221 11
1222 9
1223 4
1224 10
1225 52
1226 18
1227 156
1228 12
1229 151
1230 17
1231 33
1232 26
1233 19
1234 49
1235 71
1236 9
1237 12
1238 103
1239 132
1240 207
1241 114
1242 26
1243 38
1244 193
1245 22
1246 221
1247 95
1248 37
1249 75
1250 50
1251 67
1252 40
1253 3
1254 228
1255 8
1256 1
1257 147
1258 29
1259 74
1260 66
1261 27
1262 5
1263 20
1264 60
1265 47
1266 59
1267 132
1268 75
1269 33
1270 64
1271 11
1272 6
1273 87
1274 5
1275 17
1276 3
1277 5
1278 75
1279 96
1280 35
1281 85
1282 17
1283 117
1284 254
1285 279
1286 53
1287 242
1288 42
1289 60
1290 17
1291 80
1292 5
1293 34
1294 6
1295 139
1296 45
1297 34
1298 7
1299 66
1300 187
1301 33
1302 105
1303 13
1304 56
1305 1
1306 71
1307 12
1308 18
1309 248
1310 13
1311 29
1312 45
1313 24
1314 35
1315 32
1316 37
1317 8
1318 32
1319 139
1320 58
1321 15
1322 32
1323 59
1324 14
1325 63
1326 20
1327 10
1328 25
1329 39
1330 88
1331 1
1332 6
1333 138
1334 80
1335 9
1336 46
1337 86
1338 65
1339 24
1340 6
1341 45
1342 19
1343 13
1344 58
1345 27
1346 60
1347 160
1348 153
1349 93
1350 7
1351 52
1352 30
1353 235
1354 11
1355 5
1356 31
1357 58
1358 71
1359 6
1360 245
1361 3
1362 43
1363 46
1364 3
1365 7
1366 63
1367 20
1368 268
1369 164
1370 24
1371 70
1372 28
1373 28
1374 21
1375 41
1376 51
1377 31
1378 19
1379 43
1380 131
1381 3
1382 47
1383 40
1384 192
1385 152
1386 95
1387 26
1388 120
1389 285
1390 5
1391 76
1392 166
1393 29
1394 21
1395 9
1396 180
1397 50
1398 30
1399 45
1400 18
1401 47
1402 13
1403 18
1404 68
1405 9
1406 52
1407 39
1408 183
1409 85
1410 17
1411 44
1412 111
1413 37
1414 27
1415 183
1416 9
1417 2
1418 43
1419 73
1420 7
1421 8
1422 14
1423 13
1424 1
1425 110
1426 19
1427 18
1428 73
1429 113
1430 31
1431 23
1432 26
1433 33
1434 83
1435 42
1436 26
1437 50
1438 8
1439 7
1440 5
1441 47
1442 90
1443 95
1444 264
1445 95
1446 145
1447 115
1448 38
1449 25
1450 31
1451 4
1452 2
1453 5
1454 94
1455 48
1456 130
1457 41
1458 45
1459 8
1460 63
1461 68
1462 4
1463 7
1464 92
1465 44
1466 43
1467 57
1468 2
1469 49
1470 72
1471 10
1472 28
1473 67
1474 71
1475 105
1476 31
1477 106
1478 356
1479 190
1480 35
1481 11
1482 11
1483 219
1484 180
1485 79
1486 17
1487 35
1488 268
1489 60
1490 63
1491 20
1492 214
1493 18
1494 120
1495 72
1496 81
1497 26
1498 34
1499 56
1500 61
1501 22
1502 16
1503 11
1504 120
1505 12
1506 4
1507 16
1508 132
1509 66
1510 231
1511 21
1512 3
1513 216
1514 57
1515 193
1516 7
1517 6
1518 2
1519 34
1520 95
1521 65
1522 18
1523 41
1524 35
1525 11
1526 60
1527 48
1528 2
1529 67
1530 22
1531 5
1532 33
1533 22
1534 76
1535 29
1536 79
1537 142
1538 49
1539 20
1540 23
1541 2
1542 38
1543 35
1544 119
1545 13
1546 8
1547 113
1548 90
1549 31
1550 50
1551 14
1552 173
1553 8
1554 74
1555 110
1556 108
1557 137
1558 1
1559 135
1560 22
1561 68
1562 55
1563 66
1564 51
1565 92
1566 80
1567 118
1568 96
1569 37
1570 64
1571 42
1572 26
1573 29
1574 2
1575 48
1576 81
1577 15
1578 21
1579 47
1580 75
1581 45
1582 21
1583 20
1584 50
1585 80
1586 105
1587 424
1588 6
1589 57
1590 5
1591 12
1592 140
1593 9
1594 45
1595 5
1596 64
1597 4
1598 79
1599 5
1600 8
1601 150
1602 7
1603 26
1604 28
1605 11
1606 9
1607 185
1608 35
1609 34
1610 5
1611 12
1612 16
1613 47
1614 35
1615 19
1616 75
1617 180
1618 38
1619 4
1620 23
1621 22
1622 18
1623 40
1624 1
1625 29
1626 37
1627 10
1628 23
1629 9
1630 4
1631 63
1632 36
1633 2
1634 102
1635 17
1636 52
1637 4
1638 22
1639 2
1640 57
1641 64
1642 59
1643 52
1644 59
1645 35
1646 59
1647 44
1648 1
1649 83
1650 12
1651 10
1652 14
1653 4
1654 85
1655 153
1656 134
1657 38
1658 209
1659 6
1660 14
1661 81
1662 40
1663 184
1664 110
1665 34
1666 24
1667 91
1668 55
1669 19
1670 9
1671 12
1672 59
1673 59
1674 1
1675 245
1676 22
1677 67
1678 144
1679 97
1680 70
1681 22
1682 23
1683 4
1684 72
1685 23
1686 143
1687 3
1688 17
1689 10
1690 210
1691 62
1692 64
1693 253
1694 42
1695 48
1696 6
1697 16
1698 46
1699 7
1700 91
1701 15
1702 7
1703 39
1704 203
1705 23
1706 72
1707 90
1708 4
1709 27
1710 72
1711 23
1712 40
1713 14
1714 214
1715 123
1716 130
1717 95
1718 265
1719 141
1720 130
1721 78
1722 70
1723 101
1724 203
1725 35
1726 12
1727 16
1728 175
1729 42
1730 43
1731 11
1732 11
1733 103
1734 68
1735 61
1736 35
1737 64
1738 11
1739 63
1740 44
1741 14
1742 27
1743 9
1744 156
1745 17
1746 102
1747 63
1748 6
1749 124
1750 3
1751 22
1752 13
1753 53
1754 54
1755 74
1756 85
1757 68
1758 35
1759 75
1760 13
1761 25
1762 88
1763 79
1764 293
1765 38
1766 14
1767 49
1768 3
1769 50
1770 203
1771 121
1772 39
1773 4
1774 86
1775 87
1776 118
1777 10
1778 195
1779 21
1780 62
1781 42
1782 30
1783 76
1784 6
1785 293
1786 57
1787 149
1788 66
1789 28
1790 36
1791 120
1792 132
1793 352
1794 34
1795 68
1796 252
1797 56
1798 13
1799 16
1800 53
1801 30
1802 14
1803 249
1804 111
1805 85
1806 75
1807 3
1808 23
1809 209
1810 24
1811 5
1812 138
1813 60
1814 12
1815 12
1816 123
1817 84
1818 29
1819 140
1820 142
1821 97
1822 32
1823 22
1824 21
1825 57
1826 112
1827 20
1828 719
1829 163
1830 11
1831 87
1832 1
1833 34
1834 19
1835 1
1836 10
1837 35
1838 76
1839 50
1840 6
1841 16
1842 36
1843 57
1844 65
1845 55
1846 30
1847 13
1848 15
1849 147
1850 110
1851 11
1852 24
1853 111
1854 316
1855 106
1856 17
1857 16
1858 6
1859 32
1860 86
1861 62
1862 44
1863 11
1864 156
1865 6
1866 158
1867 32
1868 66
1869 127
1870 100
1871 7
1872 12
1873 131
1874 235
1875 89
1876 112
1877 13
1878 61
1879 46
1880 33
1881 23
1882 67
1883 89
1884 44
1885 99
1886 24
1887 19
1888 7
1889 38
1890 32
1891 13
1892 244
1893 125
1894 78
1895 30
1896 72
1897 12
1898 204
1899 22
1900 14
1901 50
1902 48
1903 57
1904 36
1905 167
1906 33
1907 60
1908 2
1909 70
1910 59
1911 66
1912 94
1913 49
1914 9
1915 29
1916 85
1917 95
1918 1
1919 45
1920 243
1921 51
1922 55
1923 98
1924 30
1925 43
1926 30
1927 94
1928 43
1929 35
1930 31
1931 30
1932 6
1933 24
1934 74
1935 56
1936 86
1937 8
1938 9
1939 42
1940 80
1941 126
1942 69
1943 12
1944 2
1945 182
1946 54
1947 1
1948 8
1949 90
1950 6
1951 52
1952 44
1953 57
1954 91
1955 26
1956 20
1957 13
1958 82
1959 30
1960 48
1961 68
1962 16
1963 5
1964 131
1965 107
1966 155
1967 70
1968 15
1969 42
1970 92
1971 10
1972 55
1973 128
1974 101
1975 82
1976 2
1977 4
1978 17
1979 4
1980 4
1981 59
1982 5
1983 14
1984 7
1985 40
1986 20
1987 78
1988 80
1989 102
1990 107
1991 193
1992 27
1993 27
1994 58
1995 59
1996 19
1997 13
1998 76
1999 19
