0 108
1 188
2 13
3 8
4 35
5 141
6 10
7 84
8 17
9 118
10 38
11 11
12 84
13 129
14 5
15 20
16 74
17 82
18 10
19 28
20 20
21 47
22 15
23 19
24 28
25 11
26 12
27 23
28 34
29 83
30 1
31 7
32 5
33 19
34 60
35 11
36 8
37 19
38 25
39 28
40 23
41 13
42 2
43 5
44 26
45 36
46 107
47 40
48 23
49 20
50 39
51 9
52 51
53 34
54 61
55 52
56 90
57 58
58 10
59 105
60 1
61 73
62 19
63 97
64 199
65 20
66 26
67 48
68 11
69 66
70 4
71 41
72 126
73 53
74 127
75 33
76 6
77 96
78 4
79 38
80 4
81 21
82 26
83 15
84 17
85 26
86 1
87 42
88 10
89 29
90 13
91 9
92 55
93 14
94 39
95 31
96 47
97 199
98 241
99 112
100 16
101 21
102 56
103 44
104 87
105 34
106 4
107 9
108 3
109 29
110 78
111 26
112 3
113 1
114 38
115 6
116 5
117 46
118 20
119 47
120 5
121 10
122 3
123 49
124 5
125 57
126 15
127 84
128 8
129 44
130 51
131 9
132 59
133 7
134 9
135 68
136 4
137 14
138 10
139 8
140 8
141 34
142 64
143 14
144 37
145 36
146 16
147 88
148 17
149 12
150 57
151 144
152 29
153 62
154 14
155 114
156 1
157 22
158 28
159 6
160 7
161 1
162 44
163 39
164 46
165 24
166 48
167 6
168 13
169 6
170 39
171 71
172 74
173 118
174 27
175 16
176 45
177 3
178 19
179 10
180 9
181 1
182 16
183 29
184 2
185 1
186 125
187 49
188 14
189 24
190 86
191 12
192 22
193 54
194 43
195 28
196 72
197 22
198 197
199 59
200 41
201 59
202 50
203 60
204 272
205 160
206 59
207 9
208 11
209 6
210 103
211 15
212 105
213 62
214 88
215 34
216 72
217 10
218 25
219 195
220 23
221 30
222 20
223 181
224 16
225 3
226 127
227 2
228 375
229 115
230 43
231 29
232 43
233 19
234 38
235 110
236 41
237 5
238 195
239 41
240 48
241 156
242 4
243 16
244 258
245 131
246 48
247 102
248 5
249 5
250 73
251 2
252 18
253 180
254 176
255 90
256 31
257 42
258 50
259 31
260 7
261 176
262 227
263 36
264 45
265 5
266 18
267 17
268 35
269 41
270 33
271 47
272 121
273 128
274 19
275 10
276 82
277 18
278 38
279 11
280 7
281 43
282 19
283 8
284 33
285 70
286 47
287 175
288 183
289 28
290 15
291 76
292 285
293 8
294 10
295 48
296 72
297 91
298 169
299 82
300 18
301 44
302 74
303 43
304 71
305 34
306 20
307 57
308 24
309 68
310 60
311 81
312 9
313 119
314 95
315 11
316 217
317 16
318 35
319 73
320 41
321 72
322 18
323 25
324 15
325 10
326 63
327 4
328 20
329 24
330 4
331 42
332 139
333 23
334 68
335 74
336 19
337 65
338 22
339 57
340 60
341 20
342 64
343 43
344 19
345 87
346 84
347 23
348 7
349 1
350 49
351 19
352 134
353 99
354 34
355 25
356 28
357 41
358 48
359 10
360 11
361 6
362 175
363 9
364 47
365 43
366 51
367 16
368 56
369 40
370 17
371 81
372 50
373 14
374 1
375 60
376 196
377 31
378 58
379 21
380 154
381 35
382 9
383 79
384 9
385 20
386 21
387 44
388 97
389 23
390 154
391 99
392 20
393 20
394 85
395 45
396 81
397 25
398 95
399 65
400 81
401 15
402 33
403 13
404 10
405 41
406 37
407 21
408 25
409 75
410 38
411 59
412 24
413 285
414 122
415 148
416 22
417 108
418 17
419 9
420 56
421 34
422 41
423 126
424 116
425 10
426 22
427 25
428 12
429 12
430 99
431 49
432 233
433 4
434 158
435 20
436 76
437 97
438 2
439 206
440 93
441 126
442 85
443 53
444 33
445 3
446 115
447 16
448 8
449 61
450 161
451 16
452 68
453 210
454 162
455 10
456 144
457 93
458 81
459 132
460 31
461 23
462 17
463 202
464 52
465 54
466 136
467 27
468 122
469 50
470 59
471 3
472 40
473 73
474 28
475 33
476 87
477 267
478 96
479 20
480 66
481 61
482 132
483 61
484 59
485 2
486 21
487 407
488 56
489 50
490 141
491 93
492 8
493 32
494 44
495 62
496 61
497 55
498 95
499 9
500 256
501 35
502 101
503 84
504 10
505 38
506 31
507 28
508 14
509 75
510 11
511 24
512 4
513 26
514 10
515 122
516 3
517 18
518 24
519 10
520 45
521 17
522 3
523 11
524 41
525 12
526 11
527 36
528 5
529 95
530 76
531 13
532 13
533 21
534 15
535 137
536 22
537 8
538 78
539 25
540 65
541 198
542 15
543 3
544 31
545 63
546 7
547 27
548 104
549 90
550 7
551 6
552 32
553 5
554 74
555 108
556 79
557 18
558 70
559 147
560 80
561 123
562 30
563 101
564 37
565 80
566 80
567 78
568 39
569 57
570 63
571 87
572 79
573 8
574 24
575 74
576 270
577 106
578 18
579 40
580 40
581 47
582 24
583 31
584 5
585 13
586 6
587 73
588 63
589 56
590 5
591 2
592 13
593 8
594 133
595 6
596 24
597 31
598 15
599 47
600 165
601 1
602 10
603 6
604 66
605 125
606 9
607 1
608 1
609 123
610 70
611 20
612 21
613 34
614 221
615 19
616 13
617 137
618 2
619 5
620 29
621 51
622 11
623 1
624 1
625 45
626 33
627 13
628 49
629 1
630 13
631 71
632 33
633 69
634 8
635 19
636 43
637 87
638 24
639 4
640 44
641 124
642 39
643 13
644 44
645 39
646 30
647 35
648 91
649 140
650 9
651 93
652 18
653 73
654 16
655 55
656 30
657 52
658 28
659 42
660 8
661 21
662 89
663 27
664 6
665 15
666 36
667 96
668 30
669 59
670 19
671 2
672 121
673 12
674 11
675 35
676 24
677 51
678 77
679 1
680 103
681 13
682 188
683 15
684 133
685 29
686 16
687 18
688 11
689 17
690 65
691 13
692 22
693 25
694 12
695 219
696 30
697 45
698 117
699 6
700 66
701 13
702 140
703 47
704 32
705 22
706 41
707 191
708 57
709 20
710 111
711 36
712 72
713 45
714 27
715 125
716 285
717 132
718 21
719 34
720 56
721 152
722 17
723 32
724 19
725 87
726 4
727 57
728 79
729 67
730 337
731 124
732 17
733 109
734 22
735 51
736 35
737 71
738 9
739 7
740 11
741 42
742 43
743 77
744 27
745 35
746 3
747 118
748 48
749 24
750 93
751 33
752 237
753 16
754 24
755 27
756 64
757 301
758 172
759 73
760 184
761 54
762 50
763 102
764 64
765 157
766 232
767 33
768 15
769 69
770 69
771 21
772 48
773 8
774 35
775 23
776 23
777 17
778 15
779 28
780 378
781 8
782 73
783 251
784 19
785 237
786 130
787 36
788 10
789 25
790 75
791 3
792 136
793 99
794 47
795 61
796 201
797 17
798 302
799 47
800 28
801 100
802 145
803 12
804 17
805 7
806 14
807 15
808 16
809 28
810 108
811 57
812 7
813 7
814 5
815 32
816 64
817 152
818 66
819 9
820 2
821 24
822 259
823 201
824 95
825 55
826 7
827 5
828 71
829 55
830 21
831 54
832 37
833 187
834 8
835 13
836 470
837 2
838 210
839 11
840 22
841 59
842 5
843 170
844 71
845 74
846 34
847 46
848 286
849 106
850 82
851 81
852 106
853 201
854 44
855 20
856 14
857 314
858 18
859 67
860 37
861 2
862 124
863 20
864 24
865 65
866 49
867 87
868 93
869 106
870 14
871 49
872 143
873 18
874 79
875 19
876 64
877 20
878 61
879 142
880 95
881 195
882 5
883 29
884 53
885 79
886 206
887 67
888 115
889 8
890 84
891 15
892 38
893 16
894 10
895 2
896 7
897 13
898 5
899 109
900 8
901 47
902 40
903 23
904 110
905 4
906 58
907 102
908 41
909 42
910 22
911 3
912 203
913 13
914 23
915 18
916 6
917 10
918 67
919 34
920 3
921 12
922 51
923 123
924 39
925 13
926 46
927 37
928 164
929 83
930 41
931 40
932 14
933 71
934 53
935 4
936 2
937 102
938 5
939 144
940 18
941 64
942 6
943 153
944 31
945 2
946 48
947 54
948 46
949 4
950 210
951 64
952 70
953 1
954 80
955 50
956 17
957 22
958 7
959 67
960 101
961 9
962 7
963 30
964 71
965 15
966 183
967 23
968 51
969 10
970 95
971 51
972 56
973 57
974 272
975 119
976 16
977 40
978 3
979 47
980 66
981 101
982 18
983 51
984 29
985 44
986 66
987 78
988 133
989 41
990 29
991 4
992 19
993 31
994 67
995 77
996 71
997 14
998 26
999 18
1000 30
1001 57
1002 3
1003 57
1004 189
1005 2
1006 291
1007 2
1008 10
1009 40
1010 14
1011 74
1012 18
1013 154
1014 49
1015 76
1016 11
1017 56
1018 1
1019 25
1020 16
1021 59
1022 10
1023 19
1024 62
1025 19
1026 107
1027 66
1028 12
1029 46
1030 7
1031 150
1032 15
1033 29
1034 59
1035 10
1036 64
1037 49
1038 11
1039 45
1040 44
1041 7
1042 13
1043 61
1044 32
1045 39
1046 39
1047 18
1048 7
1049 21
1050 92
1051 6
1052 28
1053 136
1054 61
1055 49
1056 41
1057 31
1058 14
1059 58
1060 43
1061 1
1062 1
1063 1
1064 291
1065 54
1066 16
1067 13
1068 38
1069 135
1070 6
1071 20
1072 51
1073 290
1074 10
1075 2
1076 96
1077 10
1078 3
1079 166
1080 90
1081 91
1082 29
1083 69
1084 73
1085 147
1086 5
1087 34
1088 82
1089 24
1090 79
1091 91
1092 21
1093 5
1094 10
1095 68
1096 67
1097 27
1098 73
1099 20
1100 18
1101 28
1102 14
1103 65
1104 303
1105 1
1106 57
1107 60
1108 55
1109 71
1110 19
1111 3
1112 11
1113 323
1114 26
1115 28
1116 8
1117 1
1118 32
1119 93
1120 17
1121 7
1122 133
1123 102
1124 22
1125 119
1126 53
1127 12
1128 21
1129 9
1130 46
1131 76
1132 66
1133 20
1134 34
1135 9
1136 11
1137 84
1138 8
1139 72
1140 16
1141 48
1142 24
1143 22
1144 30
1145 28
1146 45
1147 30
1148 13
1149 124
1150 21
1151 1
1152 1
1153 24
1154 16
1155 121
1156 4
1157 101
1158 15
1159 10
1160 89
1161 21
1162 88
1163 10
1164 46
1165 26
1166 168
1167 159
1168 5
1169 19
1170 49
1171 35
1172 5
1173 35
1174 25
1175 93
1176 78
1177 87
1178 75
1179 1
1180 75
1181 33
1182 32
1183 15
1184 107
1185 50
1186 50
1187 30
1188 93
1189 56
1190 53
1191 44
1192 29
1193 47
1194 2
1195 79
1196 4
1197 36
1198 49
1199 88
1200 146
1201 14
1202 170
1203 102
1204 149
1205 36
1206 9
1207 198
1208 10
1209 9
1210 71
1211 44
1212 66
1213 39
1214 4
1215 6
1216 28
1217 112
1218 192
1219 53
1220 43
1221 20
1222 95
1223 31
1224 10
1225 28
1226 30
1227 1
1228 84
1229 17
1230 27
1231 32
1232 10
1233 41
1234 3
1235 26
1236 20
1237 16
1238 68
1239 18
1240 53
1241 31
1242 19
1243 61
1244 56
1245 10
1246 240
1247 62
1248 62
1249 62
1250 10
1251 23
1252 32
1253 90
1254 80
1255 16
1256 74
1257 39
1258 11
1259 13
1260 30
1261 10
1262 9
1263 18
1264 39
1265 107
1266 23
1267 6
1268 2
1269 138
1270 68
1271 4
1272 157
1273 2
1274 38
1275 25
1276 14
1277 138
1278 10
1279 156
1280 6
1281 140
1282 23
1283 101
1284 27
1285 21
1286 9
1287 43
1288 37
1289 74
1290 48
1291 2
1292 96
1293 17
1294 138
1295 16
1296 8
1297 44
1298 87
1299 36
1300 14
1301 147
1302 80
1303 36
1304 82
1305 6
1306 43
1307 27
1308 60
1309 39
1310 174
1311 28
1312 138
1313 35
1314 79
1315 22
1316 104
1317 7
1318 6
1319 52
1320 11
1321 1
1322 86
1323 6
1324 265
1325 208
1326 56
1327 172
1328 14
1329 1
1330 11
1331 14
1332 11
1333 53
1334 13
1335 86
1336 110
1337 119
1338 22
1339 27
1340 14
1341 131
1342 116
1343 44
1344 3
1345 4
1346 16
1347 129
1348 2
1349 102
1350 24
1351 81
1352 17
1353 54
1354 12
1355 2
1356 206
1357 32
1358 101
1359 35
1360 3
1361 1
1362 16
1363 87
1364 49
1365 61
1366 36
1367 11
1368 1
1369 99
1370 198
1371 7
1372 96
1373 29
1374 98
1375 23
1376 39
1377 141
1378 52
1379 9
1380 45
1381 15
1382 1
1383 142
1384 24
1385 85
1386 3
1387 29
1388 7
1389 99
1390 167
1391 13
1392 93
1393 45
1394 79
1395 3
1396 148
1397 1
1398 45
1399 176
1400 36
1401 4
1402 125
1403 59
1404 40
1405 211
1406 22
1407 158
1408 10
1409 18
1410 25
1411 171
1412 61
1413 13
1414 26
1415 48
1416 167
1417 12
1418 20
1419 24
1420 65
1421 2
1422 63
1423 170
1424 94
1425 100
1426 8
1427 127
1428 56
1429 66
1430 4
1431 1
1432 76
1433 86
1434 31
1435 91
1436 9
1437 16
1438 88
1439 40
1440 44
1441 39
1442 26
1443 40
1444 9
1445 112
1446 113
1447 14
1448 71
1449 22
1450 52
1451 97
1452 36
1453 119
1454 21
1455 62
1456 30
1457 133
1458 45
1459 44
1460 78
1461 43
1462 97
1463 50
1464 28
1465 28
1466 83
1467 32
1468 70
1469 36
1470 37
1471 171
1472 68
1473 9
1474 48
1475 14
1476 23
1477 18
1478 194
1479 9
1480 17
1481 117
1482 112
1483 24
1484 12
1485 156
1486 91
1487 20
1488 75
1489 99
1490 157
1491 10
1492 5
1493 40
1494 11
1495 53
1496 91
1497 23
1498 26
1499 16
1500 6
1501 1
1502 11
1503 28
1504 51
1505 96
1506 222
1507 35
1508 74
1509 17
1510 25
1511 4
1512 28
1513 8
1514 29
1515 209
1516 4
1517 33
1518 20
1519 30
1520 27
1521 5
1522 49
1523 46
1524 62
1525 108
1526 85
1527 68
1528 29
1529 14
1530 140
1531 39
1532 37
1533 16
1534 3
1535 89
1536 127
1537 44
1538 5
1539 173
1540 158
1541 296
1542 47
1543 187
1544 5
1545 29
1546 208
1547 1
1548 17
1549 4
1550 57
1551 76
1552 43
1553 25
1554 21
1555 2
1556 317
1557 30
1558 37
1559 59
1560 54
1561 75
1562 10
1563 78
1564 99
1565 25
1566 86
1567 10
1568 44
1569 33
1570 138
1571 270
1572 76
1573 62
1574 14
1575 6
1576 18
1577 169
1578 14
1579 59
1580 164
1581 37
1582 43
1583 74
1584 18
1585 12
1586 1
1587 36
1588 29
1589 46
1590 1
1591 14
1592 28
1593 18
1594 65
1595 95
1596 133
1597 24
1598 20
1599 1
1600 147
1601 30
1602 50
1603 242
1604 3
1605 73
1606 129
1607 55
1608 3
1609 110
1610 21
1611 43
1612 89
1613 25
1614 7
1615 10
1616 10
1617 24
1618 109
1619 10
1620 98
1621 54
1622 13
1623 1
1624 84
1625 17
1626 72
1627 12
1628 42
1629 6
1630 45
1631 6
1632 24
1633 34
1634 1
1635 5
1636 2
1637 7
1638 7
1639 7
1640 38
1641 14
1642 26
1643 91
1644 13
1645 103
1646 23
1647 54
1648 116
1649 101
1650 98
1651 12
1652 10
1653 4
1654 43
1655 23
1656 2
1657 173
1658 30
1659 16
1660 130
1661 66
1662 63
1663 21
1664 64
1665 14
1666 3
1667 55
1668 148
1669 38
1670 81
1671 27
1672 30
1673 70
1674 14
1675 76
1676 19
1677 64
1678 25
1679 15
1680 17
1681 93
1682 70
1683 159
1684 13
1685 103
1686 46
1687 13
1688 88
1689 32
1690 24
1691 81
1692 3
1693 16
1694 58
1695 74
1696 56
1697 58
1698 117
1699 5
1700 1
1701 29
1702 50
1703 43
1704 5
1705 60
1706 66
1707 11
1708 112
1709 91
1710 6
1711 119
1712 3
1713 231
1714 32
1715 55
1716 14
1717 66
1718 25
1719 15
1720 18
1721 17
1722 105
1723 43
1724 97
1725 159
1726 117
1727 32
1728 44
1729 3
1730 20
1731 135
1732 33
1733 71
1734 141
1735 29
1736 3
1737 188
1738 84
1739 58
1740 29
1741 7
1742 15
1743 81
1744 127
1745 42
1746 67
1747 131
1748 2
1749 240
1750 4
1751 115
1752 16
1753 17
1754 102
1755 29
1756 75
1757 109
1758 217
1759 190
1760 23
1761 59
1762 6
1763 7
1764 256
1765 37
1766 10
1767 42
1768 37
1769 49
1770 11
1771 54
1772 29
1773 10
1774 38
1775 4
1776 137
1777 111
1778 4
1779 8
1780 1
1781 9
1782 121
1783 13
1784 110
1785 10
1786 22
1787 19
1788 40
1789 60
1790 24
1791 66
1792 95
1793 100
1794 46
1795 22
1796 24
1797 23
1798 16
1799 53
1800 4
1801 7
1802 23
1803 39
1804 4
1805 68
1806 11
1807 81
1808 21
1809 19
1810 1
1811 2
1812 42
1813 39
1814 24
1815 109
1816 35
1817 51
1818 31
1819 37
1820 1
1821 33
1822 9
1823 41
1824 5
1825 105
1826 11
1827 68
1828 74
1829 120
1830 13
1831 196
1832 80
1833 10
1834 82
1835 50
1836 10
1837 74
1838 160
1839 106
1840 45
1841 12
1842 45
1843 27
1844 20
1845 12
1846 12
1847 52
1848 35
1849 27
1850 65
1851 150
1852 1
1853 27
1854 37
1855 6
1856 194
1857 62
1858 51
1859 63
1860 12
1861 190
1862 58
1863 16
1864 3
1865 4
1866 6
1867 57
1868 48
1869 26
1870 57
1871 18
1872 111
1873 147
1874 17
1875 6
1876 86
1877 75
1878 45
1879 47
1880 46
1881 54
1882 92
1883 11
1884 29
1885 76
1886 39
1887 195
1888 34
1889 91
1890 51
1891 7
1892 2
1893 1
1894 65
1895 73
1896 69
1897 28
1898 92
1899 148
1900 83
1901 6
1902 147
1903 15
1904 19
1905 112
1906 94
1907 28
1908 9
1909 3
1910 10
1911 8
1912 3
1913 131
1914 19
1915 119
1916 81
1917 2
1918 3
1919 148
1920 130
1921 71
1922 160
1923 45
1924 23
1925 147
1926 75
1927 36
1928 44
1929 98
1930 39
1931 1
1932 19
1933 35
1934 121
1935 51
1936 80
1937 78
1938 77
1939 41
1940 145
1941 30
1942 170
1943 16
1944 14
1945 20
1946 23
1947 102
1948 18
1949 124
1950 32
1951 35
1952 11
1953 8
1954 17
1955 50
1956 158
1957 78
1958 43
1959 19
1960 7
1961 14
1962 20
1963 61
1964 58
1965 44
1966 78
1967 20
1968 55
1969 81
1970 8
1971 116
1972 66
1973 1
1974 44
1975 120
1976 48
1977 86
1978 17
1979 11
1980 5
1981 6
1982 41
1983 7
1984 10
1985 61
1986 26
1987 47
1988 100
1989 84
1990 100
1991 83
1992 106
1993 96
1994 73
1995 84
1996 311
1997 20
1998 141
1999 134
