0 36
1 12
2 13
3 9
4 85
5 21
6 102
7 48
8 9
9 26
10 11
11 202
12 150
13 44
14 70
15 30
16 36
17 16
18 7
19 19
20 54
21 234
22 35
23 27
24 37
25 7
26 43
27 42
28 19
29 23
30 29
31 73
32 68
33 36
34 59
35 15
36 119
37 48
38 41
39 17
40 1
41 8
42 143
43 19
44 82
45 37
46 121
47 123
48 94
49 118
50 105
51 187
52 143
53 281
54 47
55 59
56 23
57 111
58 72
59 11
60 68
61 241
62 134
63 31
64 3
65 5
66 201
67 43
68 118
69 275
70 39
71 158
72 147
73 306
74 32
75 122
76 138
77 313
78 11
79 77
80 17
81 34
82 52
83 168
84 34
85 342
86 34
87 78
88 119
89 19
90 8
91 35
92 14
93 9
94 13
95 12
96 106
97 48
98 67
99 88
100 84
101 142
102 229
103 45
104 14
105 83
106 44
107 31
108 70
109 75
110 14
111 20
112 66
113 15
114 5
115 5
116 49
117 9
118 77
119 15
120 36
121 46
122 27
123 61
124 175
125 26
126 31
127 27
128 15
129 37
130 156
131 75
132 19
133 9
134 19
135 53
136 9
137 82
138 77
139 113
140 26
141 80
142 126
143 208
144 26
145 92
146 4
147 34
148 197
149 12
150 46
151 51
152 315
153 4
154 14
155 158
156 93
157 146
158 46
159 10
160 72
161 234
162 75
163 4
164 40
165 298
166 75
167 170
168 2
169 46
170 171
171 275
172 261
173 12
174 150
175 82
176 105
177 30
178 59
179 15
180 178
181 102
182 48
183 225
184 249
185 171
186 13
187 48
188 10
189 126
190 81
191 237
192 142
193 67
194 135
195 191
196 226
197 148
198 34
199 67
200 12
201 125
202 39
203 252
204 17
205 36
206 55
207 96
208 121
209 105
210 65
211 59
212 263
213 34
214 83
215 105
216 155
217 109
218 344
219 38
220 28
221 12
222 37
223 57
224 68
225 83
226 30
227 41
228 57
229 407
230 20
231 42
232 40
233 201
234 25
235 84
236 7
237 433
238 306
239 24
240 45
241 2
242 5
243 104
244 131
245 93
246 346
247 97
248 15
249 34
250 183
251 35
252 9
253 41
254 10
255 31
256 348
257 42
258 14
259 75
260 73
261 311
262 93
263 22
264 42
265 181
266 200
267 61
268 43
269 54
270 50
271 60
272 20
273 2
274 54
275 79
276 25
277 106
278 46
279 26
280 69
281 88
282 7
283 3
284 4
285 35
286 51
287 341
288 8
289 312
290 105
291 24
292 78
293 25
294 373
295 16
296 16
297 15
298 157
299 104
300 307
301 140
302 51
303 48
304 3
305 3
306 187
307 107
308 253
309 69
310 234
311 118
312 15
313 45
314 71
315 50
316 362
317 212
318 235
319 50
320 127
321 701
322 23
323 108
324 106
325 8
326 11
327 206
328 154
329 20
330 23
331 80
332 22
333 122
334 97
335 124
336 51
337 76
338 214
339 151
340 46
341 68
342 86
343 186
344 82
345 101
346 203
347 78
348 117
349 155
350 42
351 73
352 264
353 2
354 30
355 54
356 2
357 64
358 34
359 325
360 275
361 59
362 99
363 115
364 58
365 8
366 27
367 207
368 6
369 79
370 143
371 207
372 58
373 27
374 103
375 245
376 19
377 40
378 3
379 103
380 27
381 227
382 33
383 30
384 79
385 91
386 92
387 179
388 218
389 28
390 172
391 190
392 37
393 47
394 72
395 78
396 29
397 15
398 40
399 85
400 40
401 51
402 141
403 135
404 67
405 221
406 30
407 111
408 36
409 18
410 196
411 74
412 46
413 42
414 147
415 236
416 2
417 12
418 48
419 81
420 29
421 12
422 12
423 74
424 26
425 19
426 12
427 49
428 248
429 91
430 20
431 19
432 100
433 110
434 10
435 6
436 9
437 114
438 51
439 204
440 156
441 184
442 119
443 117
444 178
445 32
446 40
447 219
448 43
449 197
450 82
451 164
452 183
453 133
454 303
455 134
456 21
457 16
458 66
459 147
460 42
461 27
462 24
463 357
464 346
465 16
466 43
467 149
468 114
469 5
470 18
471 48
472 50
473 216
474 63
475 30
476 51
477 125
478 210
479 62
480 336
481 5
482 29
483 250
484 78
485 24
486 8
487 116
488 129
489 80
490 171
491 51
492 143
493 48
494 8
495 306
496 309
497 62
498 46
499 17
500 4
501 254
502 59
503 29
504 37
505 9
506 68
507 376
508 104
509 80
510 276
511 62
512 25
513 73
514 28
515 462
516 195
517 5
518 105
519 140
520 33
521 113
522 111
523 247
524 86
525 46
526 64
527 211
528 131
529 208
530 34
531 74
532 28
533 1
534 162
535 31
536 110
537 184
538 39
539 78
540 193
541 283
542 132
543 126
544 91
545 12
546 5
547 113
548 220
549 89
550 104
551 54
552 346
553 98
554 636
555 59
556 193
557 3
558 319
559 344
560 54
561 150
562 144
563 33
564 151
565 93
566 104
567 115
568 174
569 175
570 167
571 34
572 69
573 210
574 137
575 74
576 42
577 26
578 10
579 81
580 36
581 235
582 69
583 446
584 87
585 373
586 169
587 135
588 25
589 183
590 138
591 35
592 333
593 35
594 142
595 34
596 416
597 60
598 139
599 121
600 52
601 49
602 350
603 5
604 265
605 95
606 237
607 343
608 77
609 27
610 87
611 42
612 183
613 108
614 251
615 161
616 51
617 21
618 34
619 174
620 28
621 188
622 3
623 43
624 20
625 250
626 301
627 382
628 176
629 33
630 51
631 379
632 72
633 379
634 29
635 176
636 90
637 124
638 116
639 70
640 66
641 55
642 31
643 14
644 6
645 47
646 13
647 109
648 203
649 16
650 16
651 370
652 260
653 41
654 149
655 94
656 66
657 128
658 190
659 114
660 1
661 55
662 183
663 124
664 9
665 296
666 14
667 35
668 28
669 349
670 11
671 118
672 12
673 118
674 90
675 193
676 304
677 24
678 110
679 182
680 112
681 180
682 32
683 144
684 142
685 177
686 168
687 300
688 98
689 11
690 148
691 11
692 75
693 501
694 147
695 519
696 133
697 49
698 32
699 142
700 45
701 180
702 232
703 3
704 33
705 17
706 110
707 132
708 170
709 572
710 406
711 49
712 2
713 9
714 19
715 104
716 305
717 26
718 18
719 611
720 118
721 102
722 467
723 242
724 414
725 619
726 363
727 52
728 47
729 288
730 3
731 278
732 35
733 9
734 34
735 9
736 23
737 38
738 210
739 259
740 196
741 22
742 179
743 12
744 18
745 216
746 62
747 99
748 136
749 31
750 78
751 38
752 18
753 30
754 178
755 53
756 116
757 160
758 9
759 14
760 7
761 27
762 154
763 39
764 89
765 86
766 31
767 203
768 51
769 86
770 32
771 72
772 54
773 66
774 307
775 87
776 85
777 92
778 38
779 309
780 22
781 75
782 49
783 120
784 75
785 510
786 36
787 53
788 59
789 353
790 76
791 68
792 119
793 11
794 209
795 108
796 14
797 58
798 610
799 52
800 339
801 24
802 85
803 129
804 58
805 39
806 13
807 127
808 47
809 32
810 6
811 87
812 13
813 7
814 72
815 10
816 103
817 34
818 66
819 35
820 17
821 76
822 1
823 94
824 18
825 63
826 26
827 51
828 166
829 15
830 220
831 104
832 214
833 26
834 236
835 273
836 462
837 284
838 47
839 52
840 77
841 28
842 12
843 27
844 34
845 1
846 105
847 6
848 36
849 18
850 28
851 175
852 8
853 3
854 56
855 23
856 305
857 15
858 70
859 93
860 46
861 77
862 184
863 26
864 387
865 18
866 11
867 15
868 90
869 59
870 81
871 135
872 254
873 138
874 43
875 71
876 225
877 79
878 3
879 392
880 250
881 9
882 230
883 81
884 317
885 183
886 5
887 230
888 25
889 10
890 49
891 100
892 3
893 374
894 62
895 64
896 130
897 82
898 31
899 56
900 312
901 191
902 44
903 118
904 76
905 95
906 85
907 41
908 53
909 83
910 141
911 102
912 319
913 75
914 129
915 124
916 69
917 57
918 31
919 36
920 11
921 384
922 10
923 77
924 211
925 138
926 14
927 161
928 22
929 10
930 103
931 48
932 35
933 97
934 264
935 5
936 279
937 104
938 88
939 13
940 633
941 3
942 112
943 193
944 248
945 141
946 111
947 47
948 48
949 46
950 179
951 90
952 17
953 183
954 245
955 454
956 12
957 15
958 22
959 6
960 4
961 263
962 2
963 23
964 357
965 230
966 177
967 109
968 7
969 58
970 232
971 8
972 10
973 37
974 135
975 9
976 37
977 469
978 32
979 328
980 3
981 38
982 179
983 19
984 5
985 144
986 40
987 20
988 35
989 64
990 60
991 129
992 186
993 56
994 24
995 281
996 126
997 206
998 431
999 87
1000 85
1001 36
1002 9
1003 91
1004 296
1005 108
1006 258
1007 64
1008 80
1009 198
1010 125
1011 55
1012 61
1013 224
1014 288
1015 3
1016 49
1017 225
1018 27
1019 25
1020 171
1021 222
1022 185
1023 85
1024 7
1025 55
1026 117
1027 497
1028 155
1029 17
1030 26
1031 151
1032 175
1033 18
1034 271
1035 186
1036 120
1037 323
1038 111
1039 63
1040 5
1041 68
1042 705
1043 278
1044 42
1045 108
1046 750
1047 163
1048 5
1049 157
1050 16
1051 37
1052 22
1053 313
1054 31
1055 7
1056 67
1057 244
1058 404
1059 84
1060 123
1061 50
1062 49
1063 207
1064 10
1065 325
1066 180
1067 127
1068 3
1069 23
1070 34
1071 109
1072 59
1073 121
1074 81
1075 160
1076 39
1077 61
1078 58
1079 64
1080 124
1081 151
1082 156
1083 58
1084 35
1085 112
1086 72
1087 92
1088 190
1089 284
1090 363
1091 195
1092 49
1093 202
1094 110
1095 26
1096 30
1097 16
1098 88
1099 1
1100 59
1101 114
1102 43
1103 131
1104 50
1105 64
1106 12
1107 114
1108 325
1109 94
1110 84
1111 49
1112 137
1113 60
1114 48
1115 229
1116 409
1117 133
1118 17
1119 42
1120 9
1121 26
1122 6
1123 192
1124 249
1125 191
1126 49
1127 48
1128 202
1129 26
1130 60
1131 47
1132 37
1133 72
1134 27
1135 8
1136 7
1137 4
1138 42
1139 88
1140 53
1141 671
1142 2
1143 36
1144 284
1145 224
1146 264
1147 140
1148 225
1149 251
1150 12
1151 35
1152 92
1153 23
1154 137
1155 91
1156 121
1157 283
1158 670
1159 15
1160 77
1161 419
1162 64
1163 41
1164 351
1165 127
1166 68
1167 130
1168 210
1169 7
1170 211
1171 100
1172 106
1173 51
1174 335
1175 171
1176 61
1177 94
1178 20
1179 259
1180 14
1181 45
1182 55
1183 41
1184 66
1185 4
1186 261
1187 19
1188 23
1189 6
1190 131
1191 17
1192 100
1193 90
1194 146
1195 221
1196 123
1197 56
1198 19
1199 5
1200 105
1201 40
1202 20
1203 29
1204 45
1205 126
1206 18
1207 67
1208 174
1209 155
1210 2
1211 293
1212 18
1213 30
1214 48
1215 23
1216 103
1217 148
1218 37
1219 313
1220 94
1221 233
1222 10
1223 167
1224 26
1225 91
1226 18
1227 56
1228 43
1229 155
1230 179
1231 24
1232 26
1233 21
1234 10
1235 205
1236 6
1237 78
1238 179
1239 35
1240 60
1241 217
1242 24
1243 11
1244 411
1245 1
1246 108
1247 79
1248 287
1249 127
1250 86
1251 42
1252 46
1253 97
1254 7
1255 30
1256 157
1257 204
1258 104
1259 65
1260 12
1261 56
1262 87
1263 30
1264 6
1265 285
1266 241
1267 43
1268 25
1269 29
1270 21
1271 119
1272 50
1273 123
1274 8
1275 25
1276 7
1277 142
1278 12
1279 8
1280 463
1281 15
1282 66
1283 73
1284 115
1285 7
1286 117
1287 95
1288 138
1289 102
1290 147
1291 307
1292 288
1293 2
1294 25
1295 130
1296 63
1297 23
1298 72
1299 18
1300 13
1301 50
1302 181
1303 202
1304 248
1305 27
1306 83
1307 41
1308 92
1309 84
1310 127
1311 72
1312 47
1313 167
1314 289
1315 101
1316 408
1317 2
1318 75
1319 152
1320 10
1321 284
1322 87
1323 23
1324 33
1325 2
1326 116
1327 46
1328 158
1329 259
1330 650
1331 98
1332 28
1333 40
1334 425
1335 290
1336 283
1337 47
1338 262
1339 10
1340 35
1341 47
1342 142
1343 54
1344 17
1345 1
1346 38
1347 44
1348 706
1349 244
1350 36
1351 19
1352 18
1353 66
1354 40
1355 62
1356 94
1357 84
1358 122
1359 96
1360 1
1361 102
1362 40
1363 186
1364 106
1365 148
1366 342
1367 81
1368 91
1369 26
1370 109
1371 75
1372 15
1373 219
1374 303
1375 7
1376 22
1377 141
1378 3
1379 528
1380 554
1381 92
1382 30
1383 20
1384 2
1385 22
1386 632
1387 28
1388 12
1389 98
1390 127
1391 12
1392 74
1393 124
1394 83
1395 593
1396 110
1397 681
1398 120
1399 277
1400 156
1401 256
1402 31
1403 236
1404 40
1405 149
1406 99
1407 42
1408 115
1409 140
1410 156
1411 16
1412 100
1413 194
1414 62
1415 127
1416 44
1417 188
1418 92
1419 246
1420 280
1421 252
1422 88
1423 46
1424 119
1425 471
1426 251
1427 89
1428 45
1429 107
1430 86
1431 59
1432 109
1433 41
1434 18
1435 1
1436 5
1437 106
1438 363
1439 258
1440 54
1441 70
1442 211
1443 98
1444 295
1445 68
1446 128
1447 110
1448 11
1449 56
1450 12
1451 65
1452 119
1453 846
1454 381
1455 178
1456 39
1457 22
1458 14
1459 35
1460 64
1461 221
1462 164
1463 1
1464 214
1465 337
1466 203
1467 5
1468 220
1469 203
1470 137
1471 96
1472 63
1473 229
1474 104
1475 172
1476 45
1477 92
1478 94
1479 162
1480 74
1481 26
1482 48
1483 1
1484 287
1485 68
1486 81
1487 12
1488 15
1489 332
1490 55
1491 44
1492 582
1493 52
1494 403
1495 6
1496 219
1497 29
1498 635
1499 449
1500 18
1501 63
1502 6
1503 355
1504 206
1505 74
1506 180
1507 284
1508 477
1509 220
1510 164
1511 336
1512 186
1513 47
1514 61
1515 46
1516 413
1517 137
1518 10
1519 77
1520 26
1521 63
1522 57
1523 16
1524 100
1525 170
1526 120
1527 18
1528 94
1529 40
1530 223
1531 21
1532 54
1533 564
1534 243
1535 161
1536 83
1537 5
1538 80
1539 156
1540 48
1541 157
1542 33
1543 15
1544 20
1545 33
1546 69
1547 117
1548 259
1549 165
1550 64
1551 504
1552 174
1553 51
1554 9
1555 3
1556 122
1557 2
1558 207
1559 49
1560 394
1561 103
1562 50
1563 30
1564 254
1565 325
1566 30
1567 32
1568 112
1569 104
1570 126
1571 248
1572 514
1573 18
1574 91
1575 202
1576 57
1577 38
1578 306
1579 158
1580 265
1581 87
1582 142
1583 76
1584 70
1585 2
1586 122
1587 65
1588 36
1589 181
1590 131
1591 109
1592 36
1593 232
1594 304
1595 268
1596 40
1597 74
1598 146
1599 115
1600 109
1601 579
1602 493
1603 302
1604 20
1605 103
1606 41
1607 228
1608 268
1609 628
1610 25
1611 26
1612 67
1613 147
1614 58
1615 73
1616 28
1617 23
1618 22
1619 169
1620 84
1621 49
1622 229
1623 42
1624 8
1625 104
1626 52
1627 53
1628 6
1629 110
1630 169
1631 106
1632 43
1633 5
1634 15
1635 63
1636 288
1637 27
1638 56
1639 254
1640 74
1641 37
1642 30
1643 47
1644 409
1645 18
1646 297
1647 390
1648 100
1649 61
1650 87
1651 21
1652 107
1653 226
1654 42
1655 76
1656 244
1657 116
1658 69
1659 113
1660 181
1661 129
1662 85
1663 8
1664 134
1665 13
1666 16
1667 207
1668 23
1669 103
1670 108
1671 105
1672 52
1673 238
1674 182
1675 83
1676 1
1677 15
1678 14
1679 32
1680 32
1681 41
1682 52
1683 22
1684 8
1685 17
1686 111
1687 144
1688 34
1689 119
1690 2
1691 13
1692 275
1693 28
1694 78
1695 126
1696 229
1697 207
1698 335
1699 95
1700 485
1701 265
1702 378
1703 150
1704 72
1705 51
1706 76
1707 313
1708 32
1709 66
1710 49
1711 12
1712 276
1713 308
1714 347
1715 27
1716 310
1717 198
1718 188
1719 67
1720 136
1721 96
1722 45
1723 352
1724 25
1725 16
1726 128
1727 33
1728 94
1729 17
1730 27
1731 138
1732 110
1733 65
1734 225
1735 33
1736 121
1737 10
1738 54
1739 162
1740 8
1741 900
1742 422
1743 97
1744 40
1745 10
1746 21
1747 9
1748 98
1749 302
1750 34
1751 18
1752 104
1753 310
1754 76
1755 2
1756 88
1757 284
1758 49
1759 17
1760 11
1761 176
1762 6
1763 18
1764 55
1765 69
1766 137
1767 403
1768 124
1769 81
1770 144
1771 6
1772 7
1773 271
1774 41
1775 243
1776 99
1777 225
1778 126
1779 52
1780 42
1781 269
1782 66
1783 102
1784 231
1785 170
1786 136
1787 128
1788 54
1789 404
1790 17
1791 24
1792 14
1793 45
1794 232
1795 75
1796 382
1797 139
1798 194
1799 110
1800 50
1801 118
1802 36
1803 28
1804 65
1805 186
1806 165
1807 250
1808 83
1809 52
1810 4
1811 307
1812 19
1813 24
1814 206
1815 339
1816 8
1817 73
1818 110
1819 23
1820 52
1821 18
1822 41
1823 33
1824 301
1825 58
1826 67
1827 208
1828 210
1829 100
1830 175
1831 79
1832 268
1833 56
1834 13
1835 219
1836 65
1837 10
1838 23
1839 21
1840 52
1841 15
1842 34
1843 4
1844 107
1845 40
1846 26
1847 144
1848 86
1849 45
1850 200
1851 23
1852 51
1853 339
1854 45
1855 83
1856 97
1857 84
1858 215
1859 2
1860 21
1861 56
1862 149
1863 110
1864 20
1865 19
1866 131
1867 28
1868 48
1869 294
1870 187
1871 11
1872 213
1873 26
1874 30
1875 18
1876 67
1877 23
1878 46
1879 321
1880 178
1881 161
1882 183
1883 180
1884 45
1885 8
1886 129
1887 29
1888 80
1889 27
1890 27
1891 132
1892 11
1893 102
1894 148
1895 32
1896 268
1897 42
1898 65
1899 204
1900 18
1901 1
1902 190
1903 171
1904 32
1905 512
1906 58
1907 138
1908 139
1909 72
1910 10
1911 112
1912 23
1913 38
1914 95
1915 81
1916 39
1917 3
1918 110
1919 5
1920 154
1921 180
1922 81
1923 80
1924 138
1925 21
1926 52
1927 77
1928 253
1929 108
1930 83
1931 36
1932 207
1933 195
1934 104
1935 5
1936 76
1937 38
1938 211
1939 456
1940 286
1941 32
1942 46
1943 39
1944 37
1945 27
1946 67
1947 162
1948 77
1949 159
1950 18
1951 41
1952 55
1953 187
1954 159
1955 47
1956 531
1957 174
1958 115
1959 186
1960 4
1961 79
1962 18
1963 306
1964 169
1965 171
1966 25
1967 18
1968 39
1969 75
1970 155
1971 167
1972 9
1973 153
1974 2
1975 181
1976 30
1977 142
1978 184
1979 8
1980 219
1981 76
1982 120
1983 65
1984 35
1985 202
1986 28
1987 17
1988 179
1989 109
1990 63
1991 103
1992 16
1993 66
1994 31
1995 114
1996 168
1997 68
1998 61
1999 245
