0 46
1 80
2 106
3 66
4 19
5 86
6 1
7 50
8 98
9 3
10 49
11 7
12 37
13 88
14 60
15 50
16 38
17 124
18 18
19 43
20 25
21 479
22 204
23 4
24 31
25 140
26 36
27 178
28 4
29 27
30 28
31 16
32 6
33 33
34 13
35 85
36 12
37 13
38 12
39 15
40 2
41 5
42 48
43 29
44 44
45 26
46 48
47 31
48 78
49 2
50 59
51 13
52 3
53 90
54 13
55 10
56 2
57 36
58 95
59 35
60 119
61 134
62 103
63 46
64 4
65 45
66 42
67 135
68 34
69 18
70 52
71 229
72 4
73 166
74 13
75 52
76 6
77 19
78 14
79 32
80 73
81 13
82 47
83 113
84 39
85 11
86 80
87 6
88 38
89 2
90 103
91 143
92 40
93 19
94 63
95 27
96 8
97 8
98 33
99 59
100 14
101 74
102 53
103 142
104 17
105 204
106 48
107 23
108 8
109 13
110 76
111 17
112 73
113 143
114 51
115 22
116 73
117 34
118 76
119 32
120 27
121 18
122 85
123 243
124 119
125 73
126 113
127 6
128 43
129 3
130 100
131 16
132 97
133 142
134 2
135 108
136 107
137 40
138 6
139 23
140 46
141 19
142 56
143 8
144 206
145 27
146 92
147 203
148 53
149 37
150 115
151 46
152 90
153 44
154 122
155 35
156 107
157 3
158 56
159 39
160 35
161 7
162 109
163 125
164 96
165 116
166 7
167 23
168 55
169 9
170 117
171 11
172 5
173 47
174 10
175 4
176 41
177 1
178 96
179 12
180 11
181 94
182 14
183 219
184 62
185 76
186 20
187 47
188 120
189 101
190 70
191 26
192 73
193 119
194 168
195 290
196 74
197 36
198 123
199 84
200 101
201 39
202 16
203 12
204 30
205 35
206 11
207 7
208 71
209 103
210 21
211 127
212 232
213 14
214 83
215 115
216 34
217 21
218 137
219 84
220 22
221 42
222 47
223 109
224 174
225 133
226 27
227 49
228 18
229 22
230 7
231 188
232 4
233 27
234 22
235 7
236 12
237 80
238 321
239 5
240 15
241 12
242 4
243 8
244 14
245 49
246 20
247 117
248 95
249 11
250 74
251 24
252 9
253 65
254 29
255 167
256 62
257 11
258 1
259 63
260 12
261 22
262 19
263 183
264 42
265 16
266 18
267 15
268 38
269 5
270 14
271 7
272 53
273 6
274 2
275 30
276 13
277 16
278 58
279 30
280 17
281 25
282 26
283 85
284 52
285 38
286 61
287 22
288 25
289 220
290 10
291 49
292 26
293 54
294 29
295 204
296 33
297 79
298 31
299 60
300 208
301 63
302 165
303 8
304 64
305 62
306 77
307 296
308 32
309 30
310 32
311 30
312 7
313 8
314 82
315 44
316 174
317 76
318 2
319 159
320 58
321 8
322 65
323 152
324 91
325 243
326 56
327 53
328 98
329 72
330 185
331 76
332 49
333 78
334 6
335 13
336 67
337 42
338 313
339 23
340 40
341 151
342 99
343 19
344 88
345 11
346 38
347 110
348 175
349 160
350 10
351 10
352 259
353 23
354 159
355 23
356 21
357 2
358 237
359 88
360 32
361 88
362 524
363 285
364 8
365 2
366 66
367 22
368 45
369 68
370 18
371 81
372 25
373 230
374 51
375 61
376 109
377 52
378 4
379 77
380 41
381 46
382 26
383 23
384 31
385 30
386 43
387 17
388 73
389 56
390 107
391 1
392 75
393 107
394 10
395 56
396 61
397 20
398 47
399 29
400 8
401 47
402 23
403 39
404 49
405 4
406 142
407 104
408 27
409 66
410 31
411 425
412 252
413 37
414 9
415 19
416 85
417 19
418 89
419 184
420 118
421 131
422 156
423 112
424 129
425 49
426 15
427 16
428 17
429 80
430 14
431 44
432 68
433 34
434 85
435 2
436 47
437 91
438 264
439 35
440 49
441 66
442 109
443 68
444 114
445 31
446 159
447 262
448 99
449 37
450 64
451 44
452 17
453 197
454 49
455 27
456 14
457 21
458 1
459 52
460 47
461 39
462 5
463 37
464 52
465 3
466 233
467 45
468 51
469 132
470 80
471 11
472 37
473 60
474 148
475 192
476 113
477 27
478 129
479 47
480 12
481 38
482 42
483 176
484 43
485 72
486 52
487 47
488 27
489 103
490 140
491 20
492 17
493 197
494 228
495 38
496 3
497 79
498 68
499 59
500 25
501 219
502 104
503 176
504 241
505 13
506 45
507 35
508 135
509 9
510 174
511 50
512 9
513 293
514 65
515 344
516 199
517 78
518 218
519 99
520 29
521 177
522 140
523 24
524 62
525 91
526 82
527 18
528 13
529 23
530 158
531 15
532 68
533 73
534 171
535 12
536 267
537 49
538 234
539 52
540 14
541 25
542 20
543 93
544 67
545 31
546 1
547 155
548 15
549 151
550 7
551 14
552 54
553 57
554 52
555 24
556 13
557 2
558 3
559 176
560 87
561 6
562 23
563 47
564 58
565 155
566 93
567 75
568 51
569 20
570 117
571 73
572 90
573 66
574 260
575 23
576 168
577 65
578 145
579 82
580 47
581 168
582 36
583 122
584 12
585 24
586 45
587 69
588 21
589 63
590 71
591 139
592 25
593 312
594 24
595 22
596 76
597 35
598 5
599 12
600 35
601 89
602 82
603 75
604 21
605 50
606 18
607 304
608 63
609 100
610 59
611 59
612 57
613 21
614 120
615 368
616 80
617 20
618 41
619 41
620 62
621 92
622 52
623 50
624 243
625 13
626 155
627 91
628 92
629 178
630 115
631 143
632 21
633 22
634 53
635 29
636 68
637 110
638 54
639 61
640 178
641 159
642 76
643 73
644 372
645 120
646 44
647 25
648 46
649 131
650 38
651 108
652 59
653 22
654 189
655 20
656 31
657 20
658 153
659 32
660 174
661 16
662 86
663 368
664 54
665 24
666 12
667 84
668 106
669 87
670 85
671 451
672 44
673 27
674 15
675 13
676 79
677 67
678 249
679 47
680 29
681 299
682 13
683 274
684 66
685 10
686 165
687 76
688 50
689 127
690 31
691 323
692 73
693 104
694 280
695 161
696 250
697 99
698 60
699 91
700 231
701 141
702 74
703 12
704 74
705 145
706 160
707 462
708 119
709 135
710 8
711 16
712 27
713 926
714 195
715 43
716 5
717 285
718 40
719 63
720 249
721 12
722 201
723 21
724 224
725 220
726 154
727 72
728 91
729 43
730 24
731 2
732 344
733 29
734 633
735 157
736 40
737 205
738 81
739 88
740 4
741 6
742 189
743 517
744 25
745 48
746 5
747 83
748 110
749 111
750 192
751 218
752 59
753 2
754 116
755 74
756 17
757 139
758 63
759 383
760 92
761 13
762 74
763 28
764 14
765 111
766 10
767 182
768 45
769 65
770 12
771 228
772 90
773 417
774 104
775 8
776 178
777 74
778 23
779 2
780 300
781 110
782 12
783 164
784 101
785 6
786 229
787 156
788 283
789 15
790 25
791 16
792 5
793 17
794 375
795 479
796 75
797 191
798 241
799 81
800 249
801 159
802 228
803 5
804 12
805 94
806 97
807 195
808 95
809 24
810 45
811 1
812 35
813 90
814 6
815 223
816 275
817 59
818 96
819 51
820 17
821 55
822 33
823 377
824 48
825 164
826 109
827 91
828 4
829 122
830 343
831 196
832 111
833 6
834 21
835 136
836 45
837 134
838 8
839 72
840 52
841 12
842 65
843 320
844 514
845 56
846 175
847 135
848 130
849 23
850 184
851 32
852 61
853 317
854 3
855 58
856 173
857 186
858 184
859 3
860 80
861 64
862 188
863 25
864 346
865 4
866 29
867 186
868 250
869 158
870 157
871 11
872 129
873 248
874 10
875 56
876 39
877 65
878 39
879 10
880 265
881 383
882 99
883 56
884 213
885 60
886 83
887 134
888 156
889 67
890 49
891 36
892 8
893 407
894 172
895 13
896 107
897 51
898 234
899 83
900 71
901 205
902 231
903 39
904 375
905 372
906 90
907 17
908 151
909 12
910 34
911 76
912 191
913 84
914 127
915 75
916 322
917 58
918 283
919 83
920 504
921 116
922 86
923 53
924 217
925 386
926 55
927 32
928 212
929 133
930 113
931 57
932 497
933 220
934 1
935 36
936 43
937 146
938 96
939 389
940 377
941 137
942 76
943 148
944 51
945 11
946 41
947 27
948 120
949 282
950 49
951 41
952 25
953 18
954 411
955 168
956 84
957 353
958 66
959 41
960 377
961 93
962 79
963 634
964 119
965 89
966 70
967 105
968 70
969 59
970 3
971 133
972 751
973 456
974 233
975 9
976 13
977 3
978 20
979 49
980 243
981 75
982 318
983 397
984 243
985 76
986 128
987 12
988 220
989 249
990 85
991 24
992 67
993 5
994 78
995 269
996 46
997 256
998 37
999 520
1000 104
1001 77
1002 68
1003 241
1004 465
1005 138
1006 53
1007 288
1008 63
1009 340
1010 22
1011 151
1012 43
1013 148
1014 4
1015 51
1016 227
1017 74
1018 56
1019 14
1020 83
1021 231
1022 175
1023 32
1024 45
1025 346
1026 18
1027 51
1028 1
1029 52
1030 48
1031 179
1032 65
1033 119
1034 115
1035 382
1036 176
1037 325
1038 515
1039 387
1040 13
1041 58
1042 9
1043 218
1044 349
1045 191
1046 86
1047 62
1048 30
1049 126
1050 70
1051 58
1052 205
1053 39
1054 46
1055 68
1056 167
1057 38
1058 62
1059 64
1060 124
1061 65
1062 80
1063 41
1064 46
1065 263
1066 254
1067 37
1068 333
1069 311
1070 491
1071 3
1072 136
1073 190
1074 83
1075 270
1076 42
1077 108
1078 124
1079 193
1080 83
1081 508
1082 179
1083 56
1084 39
1085 290
1086 68
1087 29
1088 90
1089 84
1090 303
1091 6
1092 55
1093 404
1094 253
1095 58
1096 7
1097 104
1098 29
1099 66
1100 69
1101 49
1102 764
1103 474
1104 32
1105 35
1106 417
1107 142
1108 138
1109 129
1110 595
1111 199
1112 107
1113 36
1114 221
1115 26
1116 194
1117 141
1118 12
1119 15
1120 208
1121 103
1122 73
1123 31
1124 88
1125 36
1126 190
1127 64
1128 46
1129 58
1130 83
1131 32
1132 14
1133 56
1134 54
1135 402
1136 434
1137 82
1138 269
1139 68
1140 69
1141 28
1142 3
1143 188
1144 128
1145 59
1146 95
1147 489
1148 174
1149 237
1150 342
1151 164
1152 231
1153 286
1154 495
1155 233
1156 11
1157 108
1158 92
1159 19
1160 279
1161 106
1162 132
1163 244
1164 44
1165 98
1166 89
1167 91
1168 42
1169 3
1170 129
1171 381
1172 371
1173 189
1174 184
1175 56
1176 189
1177 11
1178 138
1179 137
1180 29
1181 226
1182 15
1183 45
1184 84
1185 279
1186 21
1187 325
1188 297
1189 5
1190 73
1191 128
1192 157
1193 90
1194 55
1195 8
1196 37
1197 27
1198 9
1199 2
1200 56
1201 9
1202 147
1203 93
1204 163
1205 3
1206 117
1207 29
1208 288
1209 42
1210 10
1211 237
1212 528
1213 236
1214 262
1215 120
1216 7
1217 415
1218 67
1219 77
1220 58
1221 17
1222 48
1223 8
1224 39
1225 13
1226 45
1227 49
1228 197
1229 349
1230 57
1231 16
1232 19
1233 252
1234 21
1235 128
1236 86
1237 28
1238 148
1239 35
1240 266
1241 515
1242 71
1243 113
1244 296
1245 23
1246 61
1247 177
1248 209
1249 65
1250 291
1251 16
1252 263
1253 238
1254 235
1255 105
1256 179
1257 16
1258 12
1259 16
1260 33
1261 6
1262 229
1263 44
1264 85
1265 121
1266 78
1267 108
1268 2
1269 246
1270 77
1271 129
1272 194
1273 175
1274 51
1275 358
1276 3
1277 103
1278 36
1279 127
1280 459
1281 11
1282 20
1283 284
1284 92
1285 46
1286 153
1287 446
1288 167
1289 16
1290 1704
1291 98
1292 249
1293 76
1294 77
1295 150
1296 32
1297 86
1298 281
1299 31
1300 53
1301 177
1302 97
1303 996
1304 184
1305 47
1306 3
1307 462
1308 276
1309 53
1310 144
1311 175
1312 24
1313 21
1314 46
1315 12
1316 32
1317 227
1318 223
1319 209
1320 290
1321 51
1322 421
1323 108
1324 9
1325 252
1326 230
1327 832
1328 105
1329 36
1330 13
1331 251
1332 50
1333 241
1334 9
1335 70
1336 20
1337 89
1338 159
1339 70
1340 186
1341 223
1342 207
1343 538
1344 40
1345 5
1346 400
1347 227
1348 111
1349 32
1350 85
1351 107
1352 22
1353 29
1354 274
1355 74
1356 154
1357 258
1358 5
1359 202
1360 79
1361 47
1362 124
1363 92
1364 10
1365 10
1366 249
1367 57
1368 404
1369 172
1370 8
1371 218
1372 5
1373 27
1374 504
1375 199
1376 20
1377 478
1378 84
1379 107
1380 80
1381 560
1382 88
1383 66
1384 22
1385 18
1386 269
1387 185
1388 406
1389 67
1390 296
1391 51
1392 22
1393 117
1394 627
1395 14
1396 41
1397 8
1398 34
1399 40
1400 52
1401 238
1402 147
1403 53
1404 56
1405 229
1406 17
1407 357
1408 354
1409 472
1410 66
1411 7
1412 2
1413 130
1414 12
1415 241
1416 139
1417 8
1418 19
1419 153
1420 39
1421 102
1422 18
1423 5
1424 41
1425 244
1426 495
1427 110
1428 236
1429 260
1430 361
1431 9
1432 347
1433 240
1434 30
1435 158
1436 38
1437 66
1438 177
1439 133
1440 186
1441 65
1442 346
1443 56
1444 94
1445 304
1446 155
1447 38
1448 226
1449 19
1450 13
1451 191
1452 34
1453 212
1454 18
1455 373
1456 184
1457 112
1458 600
1459 164
1460 138
1461 346
1462 714
1463 33
1464 48
1465 41
1466 173
1467 146
1468 295
1469 295
1470 37
1471 226
1472 184
1473 224
1474 100
1475 2
1476 7
1477 47
1478 235
1479 191
1480 338
1481 208
1482 125
1483 427
1484 53
1485 108
1486 184
1487 115
1488 142
1489 60
1490 25
1491 267
1492 88
1493 136
1494 128
1495 54
1496 80
1497 158
1498 263
1499 8
1500 112
1501 7
1502 249
1503 346
1504 2
1505 29
1506 26
1507 157
1508 34
1509 29
1510 549
1511 191
1512 63
1513 149
1514 3
1515 71
1516 55
1517 165
1518 372
1519 30
1520 69
1521 214
1522 46
1523 23
1524 80
1525 41
1526 319
1527 25
1528 13
1529 227
1530 209
1531 45
1532 185
1533 205
1534 32
1535 112
1536 74
1537 477
1538 355
1539 11
1540 356
1541 139
1542 51
1543 267
1544 2
1545 105
1546 50
1547 3
1548 309
1549 17
1550 162
1551 88
1552 12
1553 40
1554 64
1555 25
1556 30
1557 194
1558 189
1559 33
1560 10
1561 169
1562 35
1563 29
1564 141
1565 94
1566 226
1567 26
1568 139
1569 73
1570 184
1571 659
1572 2
1573 32
1574 31
1575 62
1576 32
1577 158
1578 60
1579 459
1580 150
1581 21
1582 132
1583 249
1584 2
1585 174
1586 464
1587 129
1588 48
1589 276
1590 55
1591 79
1592 214
1593 49
1594 79
1595 309
1596 242
1597 43
1598 9
1599 635
1600 128
1601 289
1602 23
1603 380
1604 2
1605 13
1606 206
1607 16
1608 183
1609 325
1610 50
1611 211
1612 18
1613 5
1614 12
1615 15
1616 147
1617 1
1618 21
1619 108
1620 326
1621 444
1622 8
1623 25
1624 226
1625 122
1626 481
1627 266
1628 271
1629 136
1630 49
1631 28
1632 56
1633 33
1634 3
1635 63
1636 461
1637 129
1638 64
1639 37
1640 87
1641 62
1642 224
1643 63
1644 109
1645 128
1646 41
1647 155
1648 9
1649 51
1650 36
1651 31
1652 193
1653 70
1654 220
1655 27
1656 46
1657 376
1658 121
1659 177
1660 20
1661 101
1662 2
1663 58
1664 134
1665 161
1666 104
1667 82
1668 128
1669 111
1670 4
1671 203
1672 134
1673 50
1674 9
1675 40
1676 160
1677 128
1678 2
1679 84
1680 12
1681 63
1682 142
1683 239
1684 67
1685 132
1686 38
1687 39
1688 8
1689 154
1690 40
1691 133
1692 139
1693 19
1694 65
1695 142
1696 81
1697 28
1698 48
1699 2
1700 57
1701 104
1702 105
1703 68
1704 9
1705 43
1706 105
1707 4
1708 109
1709 378
1710 216
1711 190
1712 137
1713 64
1714 177
1715 106
1716 258
1717 71
1718 24
1719 54
1720 61
1721 225
1722 86
1723 131
1724 166
1725 168
1726 21
1727 120
1728 86
1729 62
1730 286
1731 7
1732 42
1733 254
1734 38
1735 236
1736 155
1737 81
1738 85
1739 56
1740 9
1741 372
1742 7
1743 79
1744 108
1745 191
1746 200
1747 36
1748 32
1749 68
1750 181
1751 630
1752 381
1753 115
1754 92
1755 54
1756 173
1757 221
1758 113
1759 395
1760 277
1761 131
1762 2
1763 13
1764 98
1765 104
1766 417
1767 74
1768 107
1769 510
1770 107
1771 4
1772 430
1773 91
1774 175
1775 72
1776 118
1777 472
1778 25
1779 4
1780 244
1781 32
1782 215
1783 61
1784 5
1785 361
1786 13
1787 162
1788 139
1789 77
1790 1
1791 285
1792 28
1793 321
1794 4
1795 435
1796 210
1797 177
1798 191
1799 184
1800 171
1801 79
1802 460
1803 402
1804 135
1805 64
1806 138
1807 7
1808 85
1809 118
1810 131
1811 15
1812 76
1813 48
1814 123
1815 270
1816 60
1817 296
1818 218
1819 135
1820 16
1821 139
1822 301
1823 7
1824 282
1825 516
1826 100
1827 34
1828 326
1829 170
1830 351
1831 46
1832 93
1833 19
1834 6
1835 229
1836 189
1837 53
1838 174
1839 552
1840 223
1841 103
1842 82
1843 90
1844 252
1845 17
1846 234
1847 319
1848 321
1849 404
1850 139
1851 336
1852 155
1853 389
1854 10
1855 211
1856 8
1857 190
1858 31
1859 23
1860 65
1861 414
1862 311
1863 174
1864 12
1865 184
1866 20
1867 95
1868 251
1869 125
1870 225
1871 148
1872 240
1873 286
1874 6
1875 446
1876 78
1877 93
1878 12
1879 277
1880 96
1881 190
1882 5
1883 12
1884 340
1885 310
1886 177
1887 457
1888 802
1889 71
1890 104
1891 409
1892 172
1893 35
1894 28
1895 35
1896 79
1897 54
1898 86
1899 13
1900 37
1901 127
1902 119
1903 219
1904 85
1905 280
1906 41
1907 61
1908 147
1909 113
1910 460
1911 265
1912 105
1913 446
1914 24
1915 196
1916 86
1917 226
1918 481
1919 45
1920 23
1921 34
1922 240
1923 29
1924 190
1925 92
1926 155
1927 90
1928 332
1929 280
1930 3
1931 129
1932 48
1933 149
1934 118
1935 186
1936 39
1937 293
1938 148
1939 15
1940 166
1941 3
1942 85
1943 87
1944 208
1945 29
1946 359
1947 319
1948 29
1949 182
1950 82
1951 63
1952 191
1953 38
1954 166
1955 61
1956 116
1957 293
1958 295
1959 127
1960 57
1961 108
1962 88
1963 513
1964 476
1965 54
1966 74
1967 393
1968 336
1969 244
1970 224
1971 50
1972 182
1973 11
1974 86
1975 63
1976 173
1977 256
1978 49
1979 112
1980 93
1981 229
1982 725
1983 102
1984 93
1985 157
1986 97
1987 190
1988 875
1989 10
1990 127
1991 25
1992 183
1993 80
1994 28
1995 92
1996 260
1997 161
1998 294
1999 96
