0 43
1 106
2 2
3 55
4 108
5 60
6 303
7 14
8 40
9 136
10 14
11 6
12 86
13 57
14 35
15 60
16 8
17 101
18 37
19 84
20 6
21 177
22 73
23 175
24 65
25 28
26 78
27 57
28 68
29 93
30 53
31 8
32 19
33 108
34 140
35 357
36 366
37 57
38 39
39 398
40 151
41 105
42 163
43 239
44 153
45 23
46 250
47 14
48 100
49 37
50 94
51 240
52 78
53 78
54 16
55 325
56 61
57 20
58 29
59 85
60 113
61 8
62 45
63 33
64 208
65 23
66 62
67 146
68 13
69 13
70 137
71 68
72 41
73 49
74 149
75 16
76 106
77 62
78 87
79 20
80 98
81 13
82 156
83 8
84 119
85 42
86 36
87 25
88 91
89 11
90 30
91 161
92 50
93 197
94 105
95 249
96 25
97 103
98 73
99 222
100 144
101 442
102 52
103 232
104 36
105 222
106 224
107 86
108 104
109 37
110 54
111 112
112 198
113 61
114 75
115 24
116 136
117 113
118 235
119 188
120 136
121 122
122 230
123 152
124 17
125 230
126 67
127 46
128 43
129 1
130 100
131 73
132 3
133 78
134 27
135 31
136 19
137 297
138 101
139 35
140 111
141 126
142 185
143 355
144 180
145 74
146 221
147 87
148 100
149 62
150 133
151 317
152 83
153 54
154 2
155 276
156 168
157 43
158 103
159 56
160 21
161 144
162 48
163 88
164 43
165 450
166 92
167 105
168 33
169 6
170 2
171 10
172 200
173 147
174 1
175 194
176 135
177 80
178 14
179 104
180 61
181 74
182 115
183 16
184 74
185 110
186 73
187 215
188 42
189 231
190 478
191 48
192 510
193 65
194 49
195 190
196 57
197 10
198 587
199 130
200 968
201 224
202 197
203 285
204 88
205 32
206 160
207 37
208 14
209 156
210 35
211 79
212 195
213 89
214 38
215 252
216 2
217 474
218 147
219 195
220 154
221 91
222 149
223 21
224 30
225 131
226 273
227 68
228 22
229 71
230 288
231 223
232 212
233 85
234 87
235 75
236 21
237 69
238 9
239 227
240 33
241 33
242 44
243 286
244 358
245 104
246 94
247 289
248 3
249 15
250 25
251 2
252 121
253 84
254 8
255 245
256 30
257 50
258 36
259 410
260 53
261 149
262 290
263 136
264 160
265 21
266 9
267 162
268 247
269 48
270 59
271 12
272 37
273 293
274 200
275 79
276 7
277 54
278 5
279 69
280 266
281 61
282 80
283 57
284 141
285 25
286 129
287 35
288 62
289 46
290 78
291 1
292 296
293 11
294 2
295 46
296 8
297 8
298 15
299 120
300 7
301 14
302 164
303 56
304 2
305 23
306 135
307 88
308 14
309 50
310 86
311 15
312 18
313 56
314 10
315 32
316 2
317 30
318 4
319 58
320 46
321 155
322 61
323 20
324 56
325 53
326 169
327 86
328 16
329 173
330 22
331 45
332 26
333 66
334 40
335 5
336 6
337 19
338 241
339 6
340 22
341 23
342 93
343 35
344 71
345 14
346 140
347 11
348 11
349 18
350 36
351 9
352 145
353 1
354 224
355 58
356 35
357 50
358 39
359 4
360 62
361 62
362 78
363 2
364 23
365 46
366 11
367 4
368 127
369 14
370 47
371 42
372 1
373 30
374 81
375 61
376 106
377 29
378 31
379 63
380 2
381 24
382 13
383 13
384 30
385 50
386 20
387 80
388 41
389 2
390 5
391 46
392 1
393 18
394 14
395 20
396 9
397 34
398 179
399 79
400 355
401 24
402 54
403 43
404 144
405 30
406 54
407 101
408 139
409 436
410 9
411 138
412 52
413 202
414 162
415 85
416 35
417 92
418 154
419 47
420 66
421 268
422 39
423 25
424 251
425 141
426 145
427 25
428 65
429 13
430 12
431 54
432 7
433 66
434 154
435 13
436 8
437 94
438 51
439 39
440 50
441 236
442 94
443 60
444 53
445 84
446 56
447 165
448 68
449 394
450 128
451 485
452 68
453 45
454 7
455 80
456 29
457 70
458 306
459 101
460 7
461 95
462 15
463 82
464 258
465 370
466 14
467 59
468 14
469 19
470 58
471 26
472 31
473 92
474 26
475 98
476 105
477 91
478 15
479 90
480 15
481 94
482 267
483 24
484 28
485 112
486 35
487 54
488 59
489 45
490 30
491 29
492 111
493 83
494 41
495 79
496 25
497 55
498 117
499 19
500 52
501 3
502 34
503 50
504 11
505 7
506 44
507 39
508 32
509 152
510 27
511 7
512 35
513 97
514 89
515 64
516 70
517 5
518 16
519 4
520 101
521 158
522 111
523 6
524 31
525 36
526 41
527 9
528 37
529 54
530 33
531 32
532 51
533 2
534 113
535 64
536 164
537 155
538 3
539 15
540 91
541 49
542 25
543 149
544 60
545 2
546 9
547 96
548 154
549 9
550 79
551 134
552 26
553 12
554 37
555 10
556 19
557 76
558 92
559 32
560 192
561 386
562 25
563 64
564 74
565 29
566 1
567 51
568 14
569 152
570 4
571 25
572 77
573 40
574 65
575 5
576 62
577 292
578 69
579 107
580 33
581 78
582 16
583 55
584 74
585 197
586 67
587 87
588 14
589 116
590 33
591 4
592 210
593 104
594 20
595 12
596 7
597 5
598 68
599 53
600 37
601 3
602 49
603 27
604 33
605 67
606 27
607 39
608 50
609 93
610 52
611 6
612 111
613 4
614 25
615 51
616 23
617 13
618 11
619 158
620 61
621 30
622 77
623 153
624 24
625 45
626 81
627 112
628 71
629 8
630 84
631 14
632 68
633 6
634 40
635 4
636 74
637 25
638 14
639 229
640 122
641 73
642 43
643 59
644 16
645 1
646 114
647 93
648 10
649 296
650 139
651 92
652 46
653 133
654 46
655 44
656 10
657 55
658 109
659 39
660 56
661 13
662 2
663 29
664 94
665 33
666 16
667 89
668 39
669 70
670 6
671 239
672 16
673 19
674 10
675 35
676 58
677 15
678 35
679 24
680 39
681 35
682 13
683 33
684 2
685 76
686 55
687 3
688 10
689 46
690 20
691 70
692 19
693 17
694 208
695 49
696 35
697 46
698 4
699 11
700 27
701 139
702 205
703 3
704 130
705 37
706 37
707 62
708 94
709 20
710 97
711 36
712 32
713 134
714 12
715 28
716 5
717 19
718 31
719 23
720 146
721 18
722 64
723 73
724 54
725 42
726 37
727 12
728 19
729 1
730 11
731 9
732 147
733 16
734 74
735 3
736 57
737 92
738 31
739 25
740 44
741 47
742 41
743 28
744 27
745 2
746 117
747 54
748 85
749 60
750 101
751 24
752 82
753 33
754 7
755 1
756 107
757 28
758 41
759 62
760 107
761 4
762 104
763 116
764 71
765 89
766 21
767 19
768 28
769 4
770 43
771 44
772 89
773 26
774 55
775 7
776 88
777 56
778 59
779 58
780 1
781 56
782 50
783 31
784 37
785 32
786 29
787 120
788 10
789 7
790 10
791 76
792 79
793 114
794 19
795 48
796 85
797 29
798 21
799 89
800 6
801 8
802 29
803 140
804 79
805 17
806 28
807 7
808 20
809 18
810 124
811 13
812 97
813 1
814 12
815 14
816 48
817 60
818 30
819 33
820 27
821 160
822 110
823 139
824 43
825 117
826 50
827 68
828 77
829 17
830 79
831 73
832 4
833 20
834 131
835 28
836 9
837 37
838 39
839 202
840 30
841 4
842 21
843 19
844 343
845 82
846 22
847 15
848 138
849 98
850 68
851 61
852 33
853 69
854 24
855 14
856 23
857 24
858 47
859 13
860 19
861 13
862 28
863 12
864 134
865 24
866 44
867 3
868 16
869 193
870 6
871 34
872 21
873 112
874 188
875 49
876 10
877 10
878 4
879 278
880 38
881 31
882 55
883 52
884 33
885 41
886 275
887 66
888 15
889 40
890 90
891 10
892 32
893 191
894 4
895 29
896 111
897 127
898 22
899 93
900 16
901 30
902 117
903 23
904 76
905 52
906 28
907 41
908 4
909 75
910 84
911 9
912 44
913 35
914 36
915 41
916 208
917 11
918 17
919 58
920 36
921 4
922 20
923 69
924 20
925 75
926 25
927 37
928 5
929 54
930 98
931 60
932 10
933 30
934 1
935 6
936 25
937 69
938 107
939 37
940 80
941 6
942 20
943 18
944 10
945 67
946 13
947 68
948 42
949 26
950 12
951 33
952 110
953 26
954 65
955 27
956 59
957 20
958 117
959 20
960 51
961 13
962 209
963 5
964 80
965 5
966 15
967 76
968 55
969 24
970 38
971 57
972 29
973 11
974 45
975 18
976 74
977 39
978 104
979 16
980 1
981 62
982 3
983 19
984 23
985 10
986 9
987 48
988 114
989 49
990 8
991 85
992 37
993 52
994 48
995 85
996 233
997 85
998 13
999 196
1000 1
1001 51
1002 4
1003 16
1004 86
1005 52
1006 10
1007 64
1008 8
1009 32
1010 56
1011 98
1012 139
1013 147
1014 11
1015 5
1016 104
1017 74
1018 236
1019 34
1020 41
1021 7
1022 29
1023 55
1024 12
1025 27
1026 45
1027 21
1028 72
1029 101
1030 9
1031 47
1032 27
1033 20
1034 26
1035 16
1036 20
1037 35
1038 3
1039 8
1040 19
1041 204
1042 32
1043 58
1044 74
1045 42
1046 14
1047 102
1048 55
1049 14
1050 29
1051 73
1052 52
1053 44
1054 69
1055 34
1056 81
1057 7
1058 19
1059 19
1060 32
1061 1
1062 11
1063 81
1064 85
1065 1
1066 11
1067 47
1068 274
1069 57
1070 112
1071 61
1072 73
1073 138
1074 20
1075 43
1076 17
1077 83
1078 153
1079 84
1080 45
1081 89
1082 1
1083 115
1084 69
1085 7
1086 179
1087 115
1088 121
1089 107
1090 28
1091 165
1092 312
1093 85
1094 77
1095 38
1096 103
1097 76
1098 316
1099 26
1100 110
1101 70
1102 72
1103 152
1104 45
1105 93
1106 85
1107 19
1108 32
1109 82
1110 2
1111 26
1112 110
1113 42
1114 2
1115 16
1116 73
1117 19
1118 126
1119 18
1120 153
1121 152
1122 19
1123 74
1124 4
1125 94
1126 65
1127 33
1128 60
1129 5
1130 34
1131 90
1132 135
1133 29
1134 27
1135 19
1136 111
1137 53
1138 207
1139 178
1140 99
1141 14
1142 32
1143 12
1144 170
1145 4
1146 59
1147 250
1148 27
1149 21
1150 69
1151 15
1152 6
1153 42
1154 37
1155 29
1156 71
1157 20
1158 25
1159 60
1160 38
1161 63
1162 129
1163 129
1164 220
1165 3
1166 78
1167 50
1168 19
1169 8
1170 45
1171 11
1172 35
1173 9
1174 36
1175 9
1176 92
1177 30
1178 19
1179 43
1180 60
1181 67
1182 77
1183 8
1184 52
1185 14
1186 54
1187 6
1188 12
1189 168
1190 59
1191 13
1192 90
1193 18
1194 20
1195 64
1196 42
1197 112
1198 9
1199 37
1200 7
1201 6
1202 70
1203 68
1204 2
1205 1
1206 16
1207 13
1208 44
1209 31
1210 27
1211 167
1212 3
1213 10
1214 193
1215 23
1216 50
1217 62
1218 88
1219 43
1220 51
1221 40
1222 25
1223 24
1224 9
1225 31
1226 99
1227 2
1228 100
1229 55
1230 16
1231 8
1232 1
1233 281
1234 30
1235 1
1236 37
1237 4
1238 4
1239 64
1240 8
1241 22
1242 24
1243 35
1244 53
1245 6
1246 80
1247 68
1248 9
1249 29
1250 10
1251 112
1252 76
1253 32
1254 5
1255 67
1256 43
1257 11
1258 43
1259 17
1260 116
1261 56
1262 92
1263 60
1264 22
1265 48
1266 28
1267 41
1268 9
1269 68
1270 18
1271 71
1272 6
1273 61
1274 82
1275 140
1276 8
1277 47
1278 3
1279 67
1280 4
1281 2
1282 2
1283 74
1284 5
1285 62
1286 53
1287 67
1288 17
1289 20
1290 279
1291 55
1292 243
1293 55
1294 40
1295 66
1296 1
1297 14
1298 98
1299 121
1300 11
1301 93
1302 25
1303 99
1304 2
1305 204
1306 33
1307 2
1308 13
1309 49
1310 245
1311 123
1312 23
1313 43
1314 24
1315 166
1316 40
1317 38
1318 4
1319 30
1320 45
1321 39
1322 20
1323 111
1324 173
1325 24
1326 16
1327 5
1328 2
1329 6
1330 74
1331 54
1332 56
1333 86
1334 3
1335 85
1336 219
1337 9
1338 29
1339 11
1340 151
1341 248
1342 11
1343 29
1344 154
1345 61
1346 12
1347 6
1348 132
1349 15
1350 31
1351 53
1352 103
1353 5
1354 183
1355 43
1356 20
1357 153
1358 191
1359 4
1360 59
1361 4
1362 26
1363 11
1364 66
1365 26
1366 76
1367 99
1368 230
1369 41
1370 81
1371 143
1372 12
1373 65
1374 19
1375 149
1376 29
1377 77
1378 78
1379 110
1380 103
1381 75
1382 22
1383 61
1384 108
1385 14
1386 47
1387 11
1388 26
1389 49
1390 203
1391 16
1392 195
1393 55
1394 29
1395 177
1396 34
1397 156
1398 286
1399 49
1400 5
1401 76
1402 16
1403 22
1404 38
1405 101
1406 38
1407 29
1408 134
1409 60
1410 64
1411 52
1412 14
1413 88
1414 21
1415 86
1416 148
1417 61
1418 157
1419 173
1420 13
1421 130
1422 30
1423 91
1424 31
1425 60
1426 198
1427 4
1428 53
1429 50
1430 68
1431 5
1432 146
1433 106
1434 30
1435 146
1436 39
1437 7
1438 19
1439 83
1440 145
1441 77
1442 114
1443 54
1444 287
1445 222
1446 4
1447 84
1448 57
1449 309
1450 301
1451 172
1452 141
1453 93
1454 197
1455 27
1456 123
1457 218
1458 3
1459 193
1460 398
1461 58
1462 21
1463 26
1464 32
1465 91
1466 13
1467 78
1468 56
1469 127
1470 138
1471 45
1472 225
1473 14
1474 4
1475 149
1476 29
1477 164
1478 45
1479 99
1480 6
1481 41
1482 30
1483 113
1484 9
1485 159
1486 60
1487 15
1488 70
1489 10
1490 110
1491 326
1492 162
1493 88
1494 42
1495 199
1496 63
1497 7
1498 78
1499 276
1500 75
1501 6
1502 35
1503 10
1504 80
1505 54
1506 22
1507 213
1508 30
1509 116
1510 44
1511 31
1512 156
1513 121
1514 43
1515 54
1516 124
1517 299
1518 30
1519 327
1520 13
1521 99
1522 14
1523 43
1524 30
1525 4
1526 51
1527 10
1528 15
1529 234
1530 212
1531 64
1532 11
1533 131
1534 39
1535 38
1536 1
1537 7
1538 13
1539 65
1540 390
1541 46
1542 55
1543 122
1544 39
1545 86
1546 27
1547 64
1548 144
1549 39
1550 10
1551 108
1552 90
1553 57
1554 91
1555 8
1556 74
1557 246
1558 14
1559 48
1560 62
1561 10
1562 180
1563 36
1564 242
1565 73
1566 109
1567 4
1568 57
1569 21
1570 182
1571 43
1572 90
1573 37
1574 51
1575 102
1576 43
1577 24
1578 4
1579 22
1580 20
1581 12
1582 8
1583 47
1584 2
1585 181
1586 261
1587 40
1588 140
1589 56
1590 51
1591 22
1592 80
1593 107
1594 123
1595 69
1596 32
1597 46
1598 112
1599 120
1600 9
1601 52
1602 29
1603 101
1604 115
1605 78
1606 6
1607 69
1608 93
1609 83
1610 147
1611 36
1612 113
1613 77
1614 3
1615 159
1616 354
1617 28
1618 63
1619 190
1620 189
1621 4
1622 30
1623 172
1624 282
1625 53
1626 226
1627 5
1628 93
1629 35
1630 13
1631 56
1632 1
1633 62
1634 10
1635 57
1636 174
1637 13
1638 138
1639 17
1640 180
1641 40
1642 2
1643 242
1644 1
1645 48
1646 95
1647 32
1648 110
1649 16
1650 21
1651 141
1652 35
1653 71
1654 29
1655 179
1656 28
1657 17
1658 3
1659 71
1660 158
1661 15
1662 4
1663 251
1664 99
1665 73
1666 18
1667 1
1668 1
1669 9
1670 35
1671 40
1672 147
1673 73
1674 24
1675 79
1676 39
1677 18
1678 18
1679 8
1680 102
1681 57
1682 186
1683 65
1684 48
1685 72
1686 11
1687 21
1688 40
1689 28
1690 260
1691 80
1692 26
1693 33
1694 35
1695 25
1696 24
1697 142
1698 170
1699 2
1700 71
1701 10
1702 48
1703 88
1704 76
1705 23
1706 32
1707 8
1708 21
1709 23
1710 78
1711 39
1712 31
1713 6
1714 120
1715 47
1716 99
1717 3
1718 37
1719 19
1720 19
1721 80
1722 102
1723 47
1724 225
1725 36
1726 95
1727 1
1728 9
1729 137
1730 262
1731 17
1732 52
1733 35
1734 1
1735 54
1736 219
1737 127
1738 134
1739 53
1740 9
1741 16
1742 6
1743 96
1744 13
1745 22
1746 23
1747 20
1748 3
1749 19
1750 83
1751 42
1752 5
1753 88
1754 129
1755 1
1756 121
1757 48
1758 3
1759 30
1760 11
1761 2
1762 35
1763 108
1764 23
1765 3
1766 149
1767 104
1768 15
1769 37
1770 54
1771 42
1772 86
1773 74
1774 7
1775 25
1776 1
1777 9
1778 10
1779 104
1780 17
1781 7
1782 5
1783 53
1784 124
1785 68
1786 150
1787 96
1788 5
1789 36
1790 4
1791 40
1792 40
1793 3
1794 50
1795 299
1796 25
1797 141
1798 14
1799 4
1800 10
1801 53
1802 11
1803 13
1804 15
1805 71
1806 40
1807 22
1808 31
1809 197
1810 4
1811 59
1812 67
1813 8
1814 109
1815 63
1816 51
1817 10
1818 59
1819 33
1820 18
1821 102
1822 23
1823 45
1824 16
1825 96
1826 70
1827 46
1828 11
1829 26
1830 14
1831 42
1832 4
1833 29
1834 30
1835 24
1836 1
1837 62
1838 13
1839 8
1840 10
1841 32
1842 42
1843 7
1844 62
1845 35
1846 21
1847 288
1848 11
1849 57
1850 74
1851 49
1852 2
1853 112
1854 59
1855 8
1856 71
1857 15
1858 318
1859 14
1860 37
1861 98
1862 8
1863 21
1864 37
1865 4
1866 22
1867 103
1868 98
1869 77
1870 63
1871 74
1872 50
1873 50
1874 36
1875 148
1876 92
1877 59
1878 17
1879 51
1880 47
1881 3
1882 156
1883 251
1884 143
1885 94
1886 9
1887 17
1888 46
1889 57
1890 37
1891 22
1892 3
1893 27
1894 156
1895 107
1896 35
1897 76
1898 1
1899 13
1900 44
1901 20
1902 90
1903 16
1904 52
1905 18
1906 18
1907 5
1908 31
1909 55
1910 49
1911 127
1912 51
1913 11
1914 125
1915 6
1916 17
1917 56
1918 81
1919 14
1920 49
1921 23
1922 97
1923 19
1924 50
1925 25
1926 30
1927 111
1928 34
1929 40
1930 28
1931 21
1932 100
1933 3
1934 24
1935 29
1936 104
1937 36
1938 22
1939 219
1940 62
1941 275
1942 25
1943 93
1944 2
1945 51
1946 28
1947 51
1948 92
1949 53
1950 38
1951 23
1952 13
1953 56
1954 111
1955 167
1956 45
1957 12
1958 37
1959 64
1960 24
1961 56
1962 53
1963 97
1964 106
1965 29
1966 86
1967 19
1968 12
1969 100
1970 174
1971 19
1972 40
1973 8
1974 56
1975 49
1976 31
1977 20
1978 48
1979 47
1980 106
1981 66
1982 6
1983 126
1984 193
1985 79
1986 2
1987 52
1988 87
1989 8
1990 30
1991 160
1992 23
1993 27
1994 87
1995 79
1996 163
1997 64
1998 68
1999 14
