0 59
1 1
2 8
3 59
4 51
5 32
6 9
7 25
8 185
9 11
10 24
11 6
12 7
13 55
14 89
15 32
16 206
17 28
18 58
19 47
20 2
21 32
22 70
23 10
24 60
25 4
26 15
27 21
28 205
29 156
30 2
31 43
32 21
33 34
34 132
35 75
36 332
37 43
38 27
39 20
40 176
41 85
42 70
43 90
44 18
45 159
46 19
47 7
48 238
49 113
50 4
51 27
52 51
53 69
54 47
55 41
56 18
57 139
58 186
59 125
60 18
61 135
62 158
63 53
64 32
65 103
66 187
67 192
68 203
69 11
70 262
71 249
72 51
73 46
74 66
75 123
76 14
77 192
78 3
79 167
80 89
81 23
82 91
83 6
84 37
85 70
86 87
87 273
88 103
89 87
90 37
91 184
92 27
93 8
94 53
95 288
96 67
97 61
98 34
99 211
100 27
101 102
102 5
103 7
104 49
105 46
106 80
107 35
108 25
109 67
110 185
111 90
112 33
113 175
114 132
115 132
116 55
117 83
118 43
119 35
120 329
121 80
122 104
123 196
124 85
125 18
126 6
127 77
128 20
129 28
130 119
131 21
132 59
133 19
134 41
135 22
136 18
137 274
138 72
139 18
140 3
141 161
142 157
143 132
144 100
145 50
146 76
147 33
148 32
149 138
150 17
151 43
152 133
153 134
154 81
155 151
156 86
157 134
158 171
159 59
160 51
161 80
162 9
163 4
164 2
165 27
166 9
167 35
168 175
169 15
170 6
171 262
172 64
173 117
174 67
175 84
176 9
177 41
178 194
179 152
180 82
181 169
182 143
183 220
184 90
185 236
186 144
187 145
188 28
189 121
190 1
191 27
192 26
193 426
194 16
195 3
196 53
197 416
198 309
199 235
200 753
201 45
202 111
203 268
204 16
205 235
206 649
207 336
208 405
209 73
210 67
211 82
212 22
213 43
214 106
215 151
216 45
217 2
218 7
219 78
220 85
221 43
222 68
223 164
224 148
225 75
226 92
227 184
228 16
229 90
230 21
231 14
232 87
233 55
234 125
235 44
236 16
237 40
238 186
239 1
240 76
241 218
242 90
243 18
244 86
245 25
246 27
247 15
248 21
249 572
250 90
251 35
252 7
253 166
254 22
255 193
256 179
257 128
258 343
259 11
260 42
261 64
262 37
263 175
264 414
265 62
266 9
267 172
268 428
269 90
270 25
271 87
272 422
273 8
274 21
275 18
276 56
277 56
278 41
279 5
280 55
281 299
282 107
283 124
284 283
285 559
286 70
287 228
288 96
289 52
290 12
291 135
292 29
293 6
294 39
295 27
296 4
297 9
298 274
299 109
300 120
301 39
302 60
303 153
304 12
305 10
306 82
307 97
308 18
309 27
310 45
311 297
312 204
313 108
314 38
315 464
316 13
317 44
318 589
319 31
320 22
321 88
322 84
323 153
324 56
325 72
326 88
327 239
328 22
329 260
330 128
331 75
332 149
333 147
334 6
335 28
336 272
337 87
338 45
339 76
340 333
341 10
342 281
343 47
344 177
345 47
346 8
347 129
348 42
349 208
350 327
351 102
352 516
353 24
354 267
355 144
356 72
357 102
358 83
359 8
360 74
361 177
362 21
363 64
364 59
365 77
366 57
367 535
368 33
369 354
370 78
371 47
372 53
373 208
374 39
375 65
376 159
377 408
378 27
379 194
380 135
381 493
382 80
383 176
384 239
385 199
386 264
387 48
388 43
389 108
390 57
391 79
392 423
393 223
394 14
395 256
396 28
397 425
398 143
399 64
400 52
401 172
402 608
403 188
404 152
405 33
406 34
407 142
408 45
409 71
410 408
411 110
412 179
413 85
414 185
415 21
416 242
417 554
418 79
419 326
420 450
421 61
422 58
423 94
424 143
425 216
426 28
427 421
428 176
429 176
430 36
431 113
432 82
433 90
434 386
435 142
436 301
437 254
438 27
439 40
440 200
441 37
442 198
443 47
444 29
445 136
446 170
447 147
448 351
449 95
450 96
451 314
452 13
453 135
454 460
455 462
456 340
457 64
458 16
459 28
460 201
461 100
462 54
463 307
464 406
465 88
466 45
467 428
468 462
469 201
470 116
471 81
472 455
473 356
474 2
475 71
476 23
477 422
478 263
479 19
480 5
481 439
482 167
483 285
484 32
485 314
486 206
487 202
488 86
489 484
490 18
491 271
492 380
493 298
494 121
495 281
496 29
497 67
498 5
499 29
500 730
501 113
502 84
503 14
504 100
505 155
506 13
507 26
508 316
509 212
510 227
511 63
512 56
513 305
514 62
515 189
516 27
517 19
518 271
519 31
520 60
521 86
522 109
523 49
524 166
525 29
526 80
527 214
528 139
529 7
530 74
531 35
532 229
533 359
534 36
535 133
536 345
537 160
538 167
539 233
540 39
541 50
542 163
543 30
544 50
545 176
546 392
547 12
548 46
549 174
550 1045
551 14
552 35
553 164
554 597
555 48
556 38
557 54
558 244
559 232
560 466
561 195
562 84
563 22
564 99
565 158
566 253
567 28
568 78
569 199
570 111
571 190
572 14
573 269
574 568
575 45
576 60
577 21
578 13
579 16
580 236
581 28
582 360
583 134
584 67
585 90
586 159
587 372
588 73
589 6
590 366
591 416
592 7
593 362
594 153
595 50
596 16
597 73
598 10
599 19
600 854
601 195
602 353
603 254
604 19
605 243
606 241
607 354
608 49
609 13
610 54
611 40
612 108
613 97
614 146
615 152
616 699
617 143
618 76
619 58
620 382
621 392
622 171
623 236
624 69
625 28
626 72
627 17
628 10
629 48
630 91
631 113
632 56
633 21
634 4
635 233
636 526
637 139
638 14
639 90
640 59
641 135
642 305
643 41
644 186
645 206
646 35
647 73
648 3
649 31
650 347
651 131
652 120
653 64
654 11
655 248
656 230
657 150
658 122
659 303
660 37
661 44
662 58
663 336
664 70
665 72
666 22
667 147
668 95
669 161
670 208
671 462
672 8
673 190
674 225
675 34
676 158
677 50
678 23
679 162
680 162
681 198
682 113
683 359
684 134
685 151
686 186
687 91
688 47
689 213
690 196
691 18
692 312
693 29
694 61
695 1
696 1
697 137
698 245
699 185
700 402
701 797
702 225
703 232
704 189
705 405
706 112
707 50
708 261
709 601
710 151
711 67
712 640
713 10
714 348
715 357
716 77
717 47
718 158
719 157
720 509
721 104
722 204
723 246
724 110
725 79
726 77
727 746
728 73
729 5
730 205
731 2
732 162
733 45
734 209
735 6
736 81
737 108
738 55
739 221
740 76
741 81
742 48
743 611
744 67
745 9
746 274
747 54
748 197
749 55
750 312
751 82
752 84
753 20
754 332
755 61
756 105
757 2
758 83
759 51
760 26
761 20
762 10
763 264
764 268
765 68
766 97
767 341
768 82
769 124
770 204
771 50
772 227
773 234
774 1
775 23
776 7
777 50
778 74
779 76
780 21
781 23
782 45
783 11
784 29
785 102
786 3
787 191
788 110
789 32
790 168
791 177
792 153
793 115
794 176
795 389
796 48
797 309
798 158
799 367
800 294
801 213
802 314
803 187
804 49
805 9
806 223
807 204
808 290
809 97
810 20
811 220
812 250
813 84
814 109
815 77
816 16
817 98
818 229
819 1
820 44
821 84
822 10
823 58
824 267
825 196
826 169
827 185
828 97
829 154
830 32
831 111
832 53
833 96
834 3
835 30
836 149
837 47
838 169
839 15
840 201
841 151
842 10
843 8
844 25
845 6
846 93
847 5
848 208
849 534
850 55
851 43
852 204
853 253
854 364
855 39
856 69
857 242
858 28
859 704
860 125
861 67
862 47
863 150
864 121
865 75
866 76
867 203
868 394
869 1
870 75
871 34
872 263
873 592
874 215
875 131
876 53
877 294
878 134
879 330
880 76
881 40
882 83
883 208
884 60
885 133
886 190
887 59
888 203
889 18
890 2
891 260
892 257
893 146
894 418
895 302
896 170
897 817
898 32
899 109
900 75
901 138
902 175
903 55
904 53
905 246
906 111
907 34
908 18
909 296
910 34
911 68
912 57
913 18
914 333
915 32
916 7
917 115
918 183
919 385
920 122
921 87
922 68
923 115
924 306
925 64
926 5
927 31
928 215
929 15
930 117
931 206
932 478
933 132
934 80
935 296
936 42
937 28
938 49
939 104
940 31
941 38
942 6
943 40
944 134
945 538
946 20
947 126
948 95
949 341
950 105
951 532
952 68
953 134
954 22
955 345
956 6
957 174
958 12
959 130
960 362
961 55
962 455
963 543
964 714
965 367
966 1
967 53
968 119
969 6
970 192
971 168
972 83
973 80
974 262
975 14
976 110
977 157
978 133
979 171
980 74
981 188
982 113
983 508
984 32
985 107
986 14
987 45
988 135
989 119
990 243
991 114
992 30
993 205
994 247
995 90
996 352
997 82
998 121
999 48
1000 155
1001 270
1002 107
1003 390
1004 83
1005 14
1006 129
1007 8
1008 243
1009 11
1010 5
1011 201
1012 229
1013 68
1014 294
1015 462
1016 104
1017 67
1018 16
1019 42
1020 89
1021 81
1022 77
1023 14
1024 1
1025 506
1026 94
1027 39
1028 57
1029 48
1030 7
1031 373
1032 164
1033 100
1034 86
1035 39
1036 181
1037 85
1038 43
1039 126
1040 122
1041 173
1042 269
1043 92
1044 160
1045 78
1046 68
1047 65
1048 43
1049 128
1050 2
1051 28
1052 141
1053 251
1054 100
1055 78
1056 148
1057 384
1058 58
1059 92
1060 21
1061 8
1062 26
1063 188
1064 4
1065 26
1066 22
1067 45
1068 133
1069 57
1070 192
1071 126
1072 33
1073 31
1074 56
1075 311
1076 300
1077 176
1078 105
1079 300
1080 241
1081 63
1082 69
1083 17
1084 399
1085 148
1086 6
1087 313
1088 9
1089 134
1090 106
1091 143
1092 154
1093 1
1094 427
1095 375
1096 63
1097 517
1098 61
1099 83
1100 1
1101 61
1102 11
1103 1
1104 18
1105 30
1106 139
1107 77
1108 214
1109 48
1110 382
1111 409
1112 291
1113 81
1114 10
1115 249
1116 7
1117 18
1118 151
1119 81
1120 35
1121 187
1122 86
1123 32
1124 6
1125 95
1126 27
1127 77
1128 82
1129 152
1130 65
1131 55
1132 82
1133 54
1134 10
1135 264
1136 8
1137 456
1138 112
1139 388
1140 53
1141 40
1142 12
1143 459
1144 129
1145 47
1146 193
1147 4
1148 48
1149 183
1150 252
1151 75
1152 73
1153 57
1154 11
1155 428
1156 103
1157 432
1158 45
1159 87
1160 97
1161 295
1162 392
1163 151
1164 77
1165 66
1166 26
1167 187
1168 115
1169 5
1170 392
1171 339
1172 329
1173 9
1174 313
1175 434
1176 82
1177 30
1178 39
1179 227
1180 348
1181 571
1182 62
1183 74
1184 45
1185 9
1186 15
1187 262
1188 300
1189 168
1190 33
1191 208
1192 174
1193 283
1194 90
1195 109
1196 321
1197 61
1198 288
1199 137
1200 178
1201 312
1202 24
1203 60
1204 147
1205 854
1206 72
1207 21
1208 94
1209 192
1210 172
1211 218
1212 65
1213 169
1214 82
1215 325
1216 193
1217 54
1218 295
1219 32
1220 85
1221 527
1222 36
1223 264
1224 240
1225 12
1226 134
1227 11
1228 155
1229 87
1230 36
1231 169
1232 147
1233 164
1234 30
1235 370
1236 105
1237 60
1238 165
1239 244
1240 663
1241 71
1242 257
1243 311
1244 326
1245 125
1246 112
1247 140
1248 59
1249 83
1250 70
1251 33
1252 100
1253 150
1254 62
1255 30
1256 92
1257 23
1258 21
1259 101
1260 71
1261 82
1262 30
1263 48
1264 22
1265 97
1266 132
1267 88
1268 2
1269 35
1270 51
1271 93
1272 209
1273 25
1274 76
1275 16
1276 123
1277 112
1278 336
1279 308
1280 65
1281 194
1282 44
1283 189
1284 32
1285 1
1286 109
1287 25
1288 83
1289 221
1290 53
1291 192
1292 276
1293 11
1294 196
1295 25
1296 15
1297 69
1298 427
1299 144
1300 39
1301 146
1302 263
1303 31
1304 38
1305 469
1306 121
1307 36
1308 94
1309 168
1310 38
1311 703
1312 13
1313 248
1314 211
1315 274
1316 203
1317 16
1318 299
1319 109
1320 234
1321 233
1322 318
1323 20
1324 81
1325 424
1326 232
1327 305
1328 224
1329 344
1330 109
1331 108
1332 887
1333 123
1334 69
1335 55
1336 235
1337 390
1338 25
1339 439
1340 23
1341 159
1342 6
1343 297
1344 235
1345 27
1346 172
1347 7
1348 276
1349 72
1350 52
1351 14
1352 244
1353 93
1354 95
1355 117
1356 560
1357 172
1358 99
1359 47
1360 150
1361 52
1362 143
1363 16
1364 59
1365 94
1366 16
1367 72
1368 131
1369 143
1370 70
1371 65
1372 86
1373 24
1374 114
1375 190
1376 544
1377 302
1378 125
1379 82
1380 21
1381 171
1382 196
1383 2
1384 126
1385 9
1386 215
1387 194
1388 254
1389 101
1390 1
1391 301
1392 91
1393 129
1394 698
1395 11
1396 248
1397 551
1398 121
1399 11
1400 22
1401 55
1402 1
1403 95
1404 64
1405 104
1406 84
1407 95
1408 65
1409 23
1410 223
1411 30
1412 58
1413 51
1414 325
1415 15
1416 72
1417 359
1418 83
1419 31
1420 57
1421 126
1422 79
1423 629
1424 79
1425 58
1426 14
1427 273
1428 10
1429 22
1430 39
1431 56
1432 129
1433 31
1434 174
1435 45
1436 52
1437 45
1438 224
1439 229
1440 35
1441 311
1442 6
1443 97
1444 192
1445 389
1446 156
1447 17
1448 106
1449 1
1450 36
1451 60
1452 45
1453 47
1454 241
1455 5
1456 301
1457 37
1458 268
1459 274
1460 41
1461 155
1462 54
1463 42
1464 3
1465 25
1466 40
1467 24
1468 193
1469 44
1470 107
1471 48
1472 124
1473 122
1474 312
1475 9
1476 14
1477 49
1478 27
1479 100
1480 61
1481 9
1482 185
1483 328
1484 39
1485 64
1486 1
1487 269
1488 52
1489 92
1490 520
1491 313
1492 111
1493 575
1494 69
1495 85
1496 32
1497 35
1498 150
1499 60
1500 146
1501 12
1502 178
1503 252
1504 82
1505 191
1506 190
1507 187
1508 24
1509 289
1510 23
1511 354
1512 155
1513 21
1514 231
1515 17
1516 141
1517 57
1518 80
1519 93
1520 154
1521 167
1522 115
1523 34
1524 61
1525 121
1526 50
1527 153
1528 116
1529 356
1530 298
1531 6
1532 40
1533 345
1534 54
1535 142
1536 162
1537 250
1538 139
1539 288
1540 30
1541 98
1542 199
1543 46
1544 110
1545 59
1546 6
1547 10
1548 161
1549 80
1550 45
1551 14
1552 240
1553 233
1554 23
1555 184
1556 110
1557 106
1558 58
1559 511
1560 49
1561 218
1562 6
1563 107
1564 13
1565 4
1566 46
1567 236
1568 25
1569 18
1570 53
1571 356
1572 426
1573 191
1574 9
1575 229
1576 89
1577 165
1578 17
1579 433
1580 48
1581 18
1582 231
1583 17
1584 113
1585 242
1586 157
1587 28
1588 158
1589 146
1590 90
1591 46
1592 319
1593 26
1594 67
1595 115
1596 74
1597 297
1598 268
1599 105
1600 115
1601 43
1602 12
1603 34
1604 14
1605 14
1606 195
1607 226
1608 224
1609 307
1610 623
1611 78
1612 81
1613 592
1614 299
1615 117
1616 54
1617 242
1618 383
1619 227
1620 141
1621 199
1622 55
1623 2
1624 16
1625 709
1626 194
1627 472
1628 48
1629 79
1630 415
1631 83
1632 71
1633 89
1634 318
1635 156
1636 133
1637 49
1638 601
1639 134
1640 303
1641 154
1642 38
1643 51
1644 91
1645 229
1646 445
1647 100
1648 238
1649 1
1650 102
1651 131
1652 5
1653 66
1654 901
1655 327
1656 224
1657 26
1658 615
1659 126
1660 83
1661 31
1662 18
1663 325
1664 533
1665 54
1666 58
1667 85
1668 28
1669 86
1670 23
1671 34
1672 59
1673 36
1674 459
1675 59
1676 217
1677 155
1678 211
1679 20
1680 95
1681 144
1682 227
1683 120
1684 156
1685 275
1686 185
1687 155
1688 800
1689 147
1690 378
1691 136
1692 26
1693 136
1694 107
1695 113
1696 103
1697 76
1698 53
1699 253
1700 184
1701 330
1702 55
1703 94
1704 81
1705 23
1706 211
1707 52
1708 353
1709 159
1710 116
1711 371
1712 17
1713 449
1714 152
1715 102
1716 58
1717 522
1718 70
1719 536
1720 14
1721 155
1722 209
1723 115
1724 100
1725 9
1726 98
1727 11
1728 165
1729 203
1730 86
1731 1
1732 597
1733 98
1734 298
1735 180
1736 61
1737 130
1738 90
1739 125
1740 208
1741 21
1742 79
1743 136
1744 93
1745 197
1746 143
1747 218
1748 108
1749 6
1750 454
1751 114
1752 91
1753 326
1754 329
1755 174
1756 104
1757 1
1758 9
1759 108
1760 6
1761 455
1762 67
1763 17
1764 33
1765 210
1766 3
1767 44
1768 56
1769 251
1770 84
1771 77
1772 84
1773 169
1774 220
1775 34
1776 54
1777 17
1778 72
1779 20
1780 125
1781 188
1782 439
1783 75
1784 79
1785 38
1786 86
1787 106
1788 30
1789 265
1790 136
1791 196
1792 430
1793 48
1794 178
1795 198
1796 637
1797 81
1798 563
1799 256
1800 178
1801 79
1802 385
1803 257
1804 410
1805 94
1806 16
1807 10
1808 40
1809 50
1810 53
1811 26
1812 179
1813 32
1814 638
1815 280
1816 24
1817 471
1818 77
1819 113
1820 238
1821 23
1822 470
1823 241
1824 303
1825 40
1826 172
1827 33
1828 80
1829 23
1830 153
1831 24
1832 160
1833 137
1834 33
1835 3
1836 4
1837 27
1838 39
1839 149
1840 59
1841 7
1842 170
1843 174
1844 79
1845 27
1846 55
1847 48
1848 64
1849 3
1850 119
1851 287
1852 62
1853 370
1854 69
1855 117
1856 204
1857 348
1858 101
1859 54
1860 97
1861 144
1862 72
1863 8
1864 35
1865 35
1866 28
1867 19
1868 95
1869 282
1870 5
1871 671
1872 74
1873 176
1874 46
1875 198
1876 149
1877 61
1878 55
1879 151
1880 58
1881 78
1882 111
1883 817
1884 593
1885 12
1886 509
1887 267
1888 2
1889 173
1890 194
1891 15
1892 20
1893 7
1894 144
1895 165
1896 18
1897 18
1898 288
1899 45
1900 56
1901 144
1902 88
1903 75
1904 295
1905 77
1906 364
1907 136
1908 2
1909 87
1910 269
1911 288
1912 354
1913 285
1914 78
1915 256
1916 57
1917 331
1918 129
1919 145
1920 61
1921 106
1922 127
1923 55
1924 361
1925 245
1926 375
1927 280
1928 1
1929 317
1930 257
1931 15
1932 452
1933 88
1934 36
1935 5
1936 11
1937 166
1938 496
1939 159
1940 332
1941 14
1942 306
1943 390
1944 146
1945 8
1946 7
1947 121
1948 3
1949 46
1950 171
1951 118
1952 316
1953 235
1954 31
1955 144
1956 182
1957 246
1958 567
1959 23
1960 55
1961 200
1962 42
1963 1
1964 39
1965 114
1966 58
1967 269
1968 5
1969 241
1970 389
1971 97
1972 211
1973 93
1974 158
1975 183
1976 89
1977 99
1978 97
1979 65
1980 844
1981 48
1982 177
1983 20
1984 151
1985 207
1986 231
1987 136
1988 63
1989 140
1990 36
1991 208
1992 289
1993 242
1994 97
1995 190
1996 88
1997 28
1998 69
1999 216
