0 27
1 66
2 24
3 59
4 76
5 88
6 12
7 62
8 21
9 57
10 62
11 24
12 15
13 249
14 11
15 7
16 78
17 3
18 54
19 101
20 26
21 82
22 71
23 46
24 22
25 12
26 18
27 15
28 3
29 3
30 10
31 47
32 12
33 132
34 4
35 134
36 152
37 5
38 24
39 60
40 61
41 71
42 4
43 7
44 18
45 39
46 25
47 82
48 42
49 14
50 115
51 5
52 18
53 60
54 30
55 39
56 17
57 117
58 38
59 33
60 69
61 146
62 1
63 17
64 25
65 10
66 151
67 14
68 23
69 40
70 48
71 43
72 46
73 70
74 73
75 166
76 7
77 27
78 26
79 18
80 37
81 8
82 134
83 211
84 149
85 21
86 125
87 14
88 60
89 226
90 205
91 66
92 365
93 46
94 101
95 144
96 44
97 106
98 102
99 130
100 40
101 116
102 93
103 71
104 235
105 78
106 88
107 31
108 22
109 143
110 101
111 23
112 18
113 42
114 232
115 43
116 22
117 61
118 101
119 9
120 38
121 61
122 84
123 97
124 52
125 26
126 44
127 34
128 25
129 93
130 123
131 13
132 68
133 140
134 11
135 17
136 53
137 136
138 95
139 18
140 28
141 60
142 4
143 187
144 5
145 100
146 52
147 27
148 29
149 18
150 4
151 46
152 30
153 20
154 9
155 134
156 91
157 151
158 104
159 48
160 84
161 195
162 43
163 48
164 58
165 65
166 52
167 30
168 34
169 20
170 48
171 49
172 2
173 111
174 58
175 72
176 25
177 29
178 4
179 30
180 14
181 68
182 7
183 3
184 41
185 4
186 28
187 4
188 6
189 4
190 40
191 26
192 52
193 16
194 43
195 121
196 200
197 71
198 115
199 48
200 3
201 184
202 176
203 122
204 46
205 16
206 57
207 26
208 325
209 49
210 175
211 9
212 374
213 11
214 8
215 51
216 11
217 3
218 37
219 36
220 78
221 13
222 5
223 6
224 29
225 8
226 21
227 124
228 57
229 55
230 24
231 24
232 153
233 39
234 27
235 112
236 81
237 13
238 44
239 69
240 17
241 16
242 104
243 30
244 52
245 81
246 23
247 90
248 74
249 6
250 71
251 93
252 86
253 9
254 13
255 118
256 68
257 132
258 3
259 31
260 50
261 73
262 261
263 44
264 110
265 27
266 114
267 105
268 123
269 266
270 7
271 49
272 92
273 212
274 63
275 4
276 77
277 244
278 41
279 3
280 85
281 65
282 36
283 257
284 46
285 156
286 90
287 38
288 90
289 45
290 112
291 79
292 176
293 26
294 125
295 128
296 111
297 115
298 8
299 61
300 42
301 74
302 299
303 162
304 53
305 52
306 38
307 37
308 5
309 11
310 122
311 160
312 6
313 63
314 220
315 144
316 57
317 38
318 47
319 123
320 116
321 51
322 75
323 59
324 12
325 191
326 444
327 272
328 36
329 390
330 143
331 94
332 52
333 9
334 58
335 8
336 27
337 23
338 159
339 35
340 129
341 13
342 7
343 160
344 720
345 39
346 19
347 57
348 82
349 185
350 21
351 142
352 75
353 100
354 65
355 112
356 13
357 96
358 274
359 436
360 294
361 280
362 313
363 268
364 190
365 49
366 290
367 139
368 156
369 37
370 256
371 45
372 6
373 245
374 18
375 151
376 17
377 18
378 83
379 165
380 122
381 68
382 72
383 22
384 8
385 155
386 244
387 171
388 69
389 95
390 104
391 112
392 44
393 61
394 32
395 26
396 175
397 137
398 22
399 88
400 148
401 311
402 49
403 152
404 103
405 116
406 181
407 18
408 183
409 69
410 30
411 128
412 27
413 102
414 267
415 66
416 131
417 163
418 122
419 270
420 208
421 81
422 44
423 76
424 36
425 417
426 21
427 359
428 34
429 429
430 258
431 59
432 208
433 6
434 56
435 220
436 67
437 62
438 72
439 27
440 360
441 37
442 191
443 32
444 12
445 112
446 107
447 10
448 18
449 86
450 157
451 11
452 125
453 19
454 71
455 39
456 266
457 8
458 234
459 135
460 26
461 120
462 150
463 35
464 120
465 242
466 20
467 62
468 14
469 202
470 125
471 4
472 5
473 70
474 868
475 137
476 22
477 136
478 188
479 39
480 287
481 146
482 101
483 15
484 222
485 62
486 12
487 57
488 160
489 227
490 248
491 36
492 208
493 10
494 57
495 336
496 404
497 148
498 36
499 203
500 21
501 74
502 57
503 215
504 25
505 54
506 615
507 215
508 34
509 4
510 69
511 130
512 54
513 63
514 21
515 70
516 296
517 324
518 655
519 297
520 131
521 230
522 60
523 22
524 97
525 88
526 128
527 34
528 43
529 17
530 247
531 71
532 52
533 216
534 98
535 22
536 84
537 49
538 175
539 5
540 266
541 587
542 91
543 40
544 734
545 177
546 211
547 384
548 173
549 116
550 16
551 34
552 355
553 167
554 96
555 75
556 18
557 173
558 48
559 39
560 78
561 48
562 147
563 110
564 62
565 369
566 56
567 5
568 204
569 33
570 43
571 2
572 40
573 82
574 69
575 23
576 13
577 2
578 472
579 84
580 126
581 122
582 76
583 20
584 134
585 108
586 119
587 54
588 66
589 5
590 3
591 21
592 4
593 9
594 100
595 12
596 119
597 88
598 132
599 451
600 37
601 37
602 7
603 52
604 45
605 93
606 50
607 342
608 1
609 236
610 4
611 21
612 104
613 78
614 207
615 26
616 166
617 223
618 61
619 68
620 32
621 59
622 216
623 429
624 64
625 33
626 26
627 80
628 155
629 245
630 8
631 3
632 73
633 242
634 3
635 683
636 6
637 14
638 62
639 82
640 31
641 11
642 98
643 7
644 108
645 122
646 223
647 138
648 148
649 7
650 60
651 336
652 20
653 10
654 37
655 44
656 50
657 16
658 81
659 108
660 49
661 1
662 71
663 23
664 12
665 179
666 57
667 10
668 4
669 322
670 13
671 1
672 154
673 272
674 21
675 303
676 141
677 14
678 376
679 20
680 173
681 15
682 149
683 66
684 54
685 8
686 170
687 11
688 176
689 45
690 252
691 23
692 61
693 1
694 89
695 95
696 40
697 490
698 37
699 78
700 41
701 109
702 1
703 42
704 34
705 55
706 67
707 91
708 133
709 67
710 72
711 3
712 50
713 38
714 75
715 252
716 97
717 21
718 78
719 114
720 220
721 54
722 370
723 211
724 419
725 61
726 161
727 92
728 12
729 92
730 278
731 40
732 230
733 343
734 284
735 68
736 39
737 83
738 10
739 30
740 48
741 150
742 56
743 274
744 26
745 38
746 139
747 143
748 156
749 29
750 44
751 94
752 68
753 236
754 65
755 579
756 277
757 198
758 82
759 190
760 43
761 73
762 234
763 887
764 135
765 27
766 106
767 662
768 24
769 106
770 298
771 122
772 62
773 109
774 9
775 117
776 169
777 128
778 145
779 107
780 76
781 63
782 69
783 82
784 204
785 451
786 2
787 115
788 254
789 124
790 222
791 76
792 100
793 55
794 7
795 536
796 119
797 55
798 98
799 70
800 54
801 184
802 30
803 31
804 124
805 117
806 257
807 47
808 25
809 62
810 14
811 82
812 44
813 47
814 4
815 22
816 40
817 84
818 51
819 86
820 42
821 36
822 109
823 51
824 10
825 48
826 690
827 53
828 81
829 106
830 104
831 61
832 325
833 106
834 17
835 15
836 10
837 191
838 31
839 77
840 7
841 4
842 17
843 74
844 173
845 7
846 209
847 178
848 486
849 163
850 13
851 243
852 53
853 54
854 77
855 7
856 34
857 338
858 54
859 819
860 460
861 30
862 172
863 144
864 380
865 47
866 34
867 86
868 14
869 209
870 242
871 215
872 120
873 158
874 358
875 44
876 32
877 166
878 50
879 152
880 244
881 51
882 193
883 12
884 32
885 77
886 58
887 63
888 26
889 151
890 136
891 40
892 207
893 43
894 116
895 44
896 140
897 195
898 20
899 99
900 70
901 133
902 86
903 46
904 449
905 74
906 77
907 55
908 57
909 141
910 15
911 94
912 64
913 823
914 24
915 171
916 276
917 24
918 40
919 60
920 1
921 231
922 26
923 117
924 83
925 94
926 100
927 366
928 182
929 46
930 30
931 195
932 128
933 162
934 627
935 61
936 127
937 142
938 1
939 100
940 8
941 143
942 137
943 272
944 41
945 127
946 93
947 206
948 69
949 200
950 79
951 92
952 44
953 7
954 178
955 117
956 47
957 7
958 139
959 127
960 44
961 23
962 47
963 109
964 31
965 149
966 21
967 2
968 79
969 60
970 67
971 92
972 228
973 206
974 108
975 97
976 538
977 12
978 111
979 179
980 193
981 226
982 47
983 175
984 252
985 118
986 218
987 512
988 86
989 31
990 17
991 168
992 198
993 118
994 23
995 16
996 45
997 46
998 183
999 159
1000 144
1001 98
1002 65
1003 169
1004 85
1005 66
1006 142
1007 62
1008 194
1009 118
1010 30
1011 138
1012 491
1013 114
1014 138
1015 111
1016 136
1017 321
1018 179
1019 131
1020 496
1021 96
1022 113
1023 95
1024 242
1025 87
1026 26
1027 548
1028 383
1029 43
1030 52
1031 162
1032 105
1033 167
1034 69
1035 306
1036 133
1037 228
1038 367
1039 113
1040 25
1041 197
1042 73
1043 78
1044 14
1045 142
1046 140
1047 115
1048 112
1049 75
1050 101
1051 27
1052 59
1053 232
1054 120
1055 72
1056 307
1057 200
1058 305
1059 237
1060 183
1061 126
1062 170
1063 283
1064 91
1065 325
1066 5
1067 36
1068 253
1069 234
1070 115
1071 6
1072 337
1073 424
1074 19
1075 154
1076 223
1077 50
1078 513
1079 15
1080 83
1081 39
1082 20
1083 7
1084 91
1085 8
1086 405
1087 46
1088 111
1089 38
1090 139
1091 158
1092 109
1093 29
1094 46
1095 83
1096 99
1097 92
1098 364
1099 25
1100 71
1101 47
1102 364
1103 19
1104 39
1105 93
1106 339
1107 260
1108 74
1109 5
1110 57
1111 112
1112 57
1113 18
1114 22
1115 7
1116 39
1117 107
1118 309
1119 41
1120 304
1121 29
1122 13
1123 119
1124 92
1125 311
1126 99
1127 27
1128 264
1129 130
1130 254
1131 141
1132 250
1133 261
1134 184
1135 66
1136 58
1137 9
1138 290
1139 290
1140 49
1141 38
1142 42
1143 58
1144 5
1145 15
1146 132
1147 114
1148 511
1149 32
1150 20
1151 61
1152 135
1153 36
1154 3
1155 381
1156 10
1157 80
1158 26
1159 288
1160 90
1161 3
1162 53
1163 46
1164 397
1165 401
1166 252
1167 45
1168 181
1169 136
1170 96
1171 47
1172 35
1173 26
1174 269
1175 273
1176 4
1177 82
1178 45
1179 121
1180 253
1181 192
1182 101
1183 173
1184 34
1185 193
1186 21
1187 23
1188 382
1189 21
1190 248
1191 72
1192 276
1193 84
1194 270
1195 95
1196 335
1197 174
1198 190
1199 25
1200 26
1201 35
1202 385
1203 149
1204 28
1205 514
1206 98
1207 14
1208 161
1209 10
1210 3
1211 130
1212 55
1213 207
1214 245
1215 161
1216 367
1217 156
1218 14
1219 121
1220 133
1221 431
1222 21
1223 95
1224 3
1225 48
1226 85
1227 61
1228 277
1229 82
1230 35
1231 18
1232 84
1233 399
1234 31
1235 64
1236 239
1237 48
1238 110
1239 16
1240 195
1241 9
1242 14
1243 286
1244 125
1245 425
1246 16
1247 123
1248 12
1249 76
1250 277
1251 302
1252 123
1253 161
1254 220
1255 22
1256 61
1257 211
1258 158
1259 148
1260 498
1261 346
1262 111
1263 248
1264 179
1265 77
1266 127
1267 205
1268 33
1269 41
1270 1
1271 139
1272 111
1273 147
1274 22
1275 136
1276 7
1277 181
1278 143
1279 49
1280 246
1281 364
1282 124
1283 150
1284 339
1285 91
1286 27
1287 201
1288 240
1289 156
1290 203
1291 10
1292 85
1293 109
1294 53
1295 27
1296 49
1297 61
1298 19
1299 223
1300 82
1301 71
1302 235
1303 330
1304 73
1305 145
1306 20
1307 86
1308 74
1309 157
1310 298
1311 5
1312 254
1313 511
1314 148
1315 655
1316 396
1317 58
1318 196
1319 143
1320 84
1321 314
1322 23
1323 41
1324 35
1325 204
1326 191
1327 162
1328 63
1329 13
1330 19
1331 278
1332 121
1333 142
1334 99
1335 621
1336 612
1337 221
1338 169
1339 146
1340 120
1341 137
1342 28
1343 442
1344 294
1345 15
1346 212
1347 21
1348 60
1349 241
1350 168
1351 143
1352 97
1353 53
1354 170
1355 26
1356 276
1357 124
1358 144
1359 49
1360 5
1361 118
1362 283
1363 135
1364 55
1365 13
1366 273
1367 18
1368 108
1369 19
1370 415
1371 31
1372 274
1373 304
1374 39
1375 372
1376 42
1377 55
1378 422
1379 60
1380 61
1381 51
1382 233
1383 263
1384 2
1385 136
1386 37
1387 25
1388 63
1389 126
1390 257
1391 71
1392 36
1393 53
1394 151
1395 160
1396 185
1397 24
1398 15
1399 5
1400 199
1401 178
1402 79
1403 452
1404 154
1405 204
1406 290
1407 374
1408 213
1409 24
1410 97
1411 1
1412 68
1413 55
1414 62
1415 89
1416 485
1417 185
1418 320
1419 44
1420 90
1421 91
1422 32
1423 111
1424 319
1425 916
1426 101
1427 133
1428 249
1429 97
1430 445
1431 168
1432 442
1433 241
1434 328
1435 41
1436 314
1437 216
1438 84
1439 67
1440 288
1441 410
1442 277
1443 72
1444 15
1445 41
1446 199
1447 5
1448 118
1449 30
1450 63
1451 81
1452 111
1453 208
1454 101
1455 132
1456 29
1457 425
1458 209
1459 36
1460 78
1461 84
1462 9
1463 352
1464 574
1465 53
1466 23
1467 560
1468 57
1469 264
1470 59
1471 394
1472 114
1473 35
1474 108
1475 4
1476 252
1477 12
1478 318
1479 185
1480 219
1481 22
1482 67
1483 23
1484 65
1485 24
1486 105
1487 62
1488 194
1489 77
1490 161
1491 335
1492 96
1493 173
1494 345
1495 99
1496 68
1497 25
1498 129
1499 12
1500 8
1501 123
1502 60
1503 155
1504 163
1505 96
1506 378
1507 13
1508 8
1509 3
1510 6
1511 378
1512 356
1513 1
1514 73
1515 197
1516 41
1517 7
1518 48
1519 57
1520 536
1521 151
1522 61
1523 102
1524 168
1525 163
1526 166
1527 375
1528 121
1529 184
1530 81
1531 168
1532 141
1533 114
1534 48
1535 121
1536 150
1537 7
1538 490
1539 224
1540 390
1541 43
1542 98
1543 73
1544 479
1545 111
1546 142
1547 381
1548 55
1549 149
1550 1
1551 7
1552 280
1553 99
1554 206
1555 208
1556 83
1557 14
1558 53
1559 234
1560 30
1561 107
1562 70
1563 45
1564 107
1565 34
1566 24
1567 69
1568 135
1569 58
1570 162
1571 266
1572 160
1573 26
1574 145
1575 58
1576 140
1577 263
1578 9
1579 345
1580 21
1581 649
1582 33
1583 44
1584 61
1585 209
1586 92
1587 33
1588 96
1589 3
1590 21
1591 172
1592 95
1593 342
1594 79
1595 2
1596 42
1597 23
1598 24
1599 139
1600 40
1601 30
1602 141
1603 284
1604 101
1605 29
1606 1005
1607 294
1608 272
1609 33
1610 8
1611 49
1612 6
1613 196
1614 54
1615 478
1616 279
1617 230
1618 89
1619 460
1620 16
1621 493
1622 151
1623 76
1624 127
1625 56
1626 49
1627 61
1628 66
1629 134
1630 329
1631 137
1632 13
1633 128
1634 138
1635 56
1636 223
1637 118
1638 56
1639 242
1640 147
1641 114
1642 112
1643 27
1644 118
1645 103
1646 109
1647 58
1648 290
1649 258
1650 126
1651 825
1652 33
1653 242
1654 47
1655 5
1656 428
1657 199
1658 107
1659 31
1660 167
1661 14
1662 230
1663 214
1664 131
1665 246
1666 1
1667 9
1668 403
1669 303
1670 429
1671 8
1672 518
1673 155
1674 394
1675 59
1676 115
1677 210
1678 80
1679 204
1680 4
1681 157
1682 329
1683 286
1684 134
1685 225
1686 163
1687 109
1688 55
1689 92
1690 230
1691 96
1692 62
1693 125
1694 396
1695 324
1696 44
1697 15
1698 39
1699 209
1700 113
1701 75
1702 254
1703 142
1704 283
1705 191
1706 190
1707 141
1708 77
1709 213
1710 296
1711 466
1712 56
1713 69
1714 71
1715 166
1716 40
1717 113
1718 71
1719 159
1720 1
1721 92
1722 176
1723 364
1724 237
1725 113
1726 487
1727 477
1728 176
1729 152
1730 14
1731 42
1732 135
1733 121
1734 94
1735 17
1736 186
1737 93
1738 89
1739 14
1740 115
1741 215
1742 55
1743 55
1744 198
1745 18
1746 59
1747 62
1748 72
1749 327
1750 329
1751 61
1752 234
1753 134
1754 43
1755 389
1756 176
1757 45
1758 17
1759 181
1760 39
1761 49
1762 34
1763 313
1764 74
1765 140
1766 368
1767 161
1768 196
1769 157
1770 300
1771 257
1772 78
1773 225
1774 125
1775 33
1776 244
1777 246
1778 481
1779 32
1780 358
1781 97
1782 153
1783 71
1784 285
1785 139
1786 88
1787 160
1788 74
1789 51
1790 156
1791 140
1792 893
1793 397
1794 1
1795 615
1796 3
1797 937
1798 435
1799 585
1800 502
1801 653
1802 151
1803 7
1804 54
1805 284
1806 7
1807 224
1808 13
1809 77
1810 11
1811 3
1812 49
1813 74
1814 20
1815 60
1816 306
1817 46
1818 643
1819 20
1820 66
1821 40
1822 225
1823 195
1824 95
1825 88
1826 41
1827 270
1828 127
1829 103
1830 353
1831 111
1832 15
1833 137
1834 136
1835 93
1836 2
1837 44
1838 636
1839 142
1840 128
1841 14
1842 50
1843 159
1844 4
1845 135
1846 230
1847 677
1848 103
1849 357
1850 99
1851 115
1852 30
1853 183
1854 177
1855 32
1856 314
1857 3
1858 41
1859 157
1860 4
1861 173
1862 19
1863 24
1864 37
1865 6
1866 11
1867 70
1868 87
1869 43
1870 89
1871 97
1872 14
1873 8
1874 288
1875 202
1876 122
1877 122
1878 368
1879 30
1880 8
1881 114
1882 439
1883 103
1884 40
1885 100
1886 432
1887 117
1888 378
1889 14
1890 424
1891 204
1892 562
1893 159
1894 15
1895 25
1896 3
1897 482
1898 133
1899 8
1900 37
1901 92
1902 12
1903 114
1904 80
1905 235
1906 130
1907 241
1908 145
1909 53
1910 12
1911 99
1912 278
1913 198
1914 236
1915 588
1916 368
1917 46
1918 35
1919 161
1920 184
1921 428
1922 46
1923 18
1924 212
1925 18
1926 68
1927 189
1928 3
1929 139
1930 60
1931 207
1932 122
1933 627
1934 217
1935 45
1936 181
1937 103
1938 457
1939 99
1940 32
1941 321
1942 132
1943 6
1944 307
1945 35
1946 171
1947 94
1948 134
1949 30
1950 62
1951 124
1952 222
1953 26
1954 15
1955 213
1956 58
1957 65
1958 87
1959 604
1960 440
1961 16
1962 60
1963 350
1964 56
1965 136
1966 31
1967 5
1968 16
1969 382
1970 48
1971 768
1972 453
1973 33
1974 160
1975 194
1976 9
1977 39
1978 142
1979 126
1980 220
1981 612
1982 141
1983 30
1984 147
1985 163
1986 216
1987 35
1988 33
1989 77
1990 48
1991 329
1992 46
1993 131
1994 82
1995 125
1996 16
1997 333
1998 173
1999 79
