0 56
1 93
2 22
3 27
4 3
5 60
6 96
7 9
8 35
9 109
10 17
11 37
12 231
13 222
14 162
15 136
16 275
17 58
18 5
19 191
20 80
21 1135
22 549
23 320
24 15
25 150
26 99
27 211
28 33
29 17
30 434
31 276
32 140
33 321
34 13
35 97
36 14
37 2
38 73
39 425
40 12
41 37
42 245
43 96
44 42
45 220
46 32
47 52
48 180
49 108
50 41
51 101
52 53
53 45
54 44
55 77
56 91
57 46
58 356
59 127
60 61
61 37
62 33
63 91
64 21
65 37
66 101
67 64
68 87
69 22
70 70
71 25
72 171
73 17
74 47
75 223
76 41
77 163
78 224
79 38
80 403
81 21
82 14
83 25
84 2
85 114
86 102
87 10
88 37
89 22
90 419
91 147
92 953
93 257
94 303
95 134
96 2
97 111
98 327
99 51
100 30
101 9
102 409
103 238
104 402
105 27
106 71
107 174
108 41
109 419
110 76
111 140
112 437
113 1
114 239
115 10
116 12
117 12
118 46
119 210
120 346
121 227
122 206
123 84
124 231
125 29
126 77
127 57
128 46
129 28
130 112
131 21
132 47
133 42
134 8
135 124
136 4
137 38
138 69
139 23
140 121
141 216
142 81
143 571
144 85
145 24
146 15
147 197
148 227
149 58
150 57
151 503
152 277
153 143
154 7
155 33
156 15
157 124
158 260
159 714
160 108
161 205
162 31
163 40
164 85
165 39
166 130
167 372
168 276
169 345
170 117
171 6
172 13
173 79
174 112
175 647
176 37
177 244
178 25
179 47
180 25
181 22
182 29
183 229
184 312
185 49
186 60
187 68
188 3
189 62
190 99
191 120
192 267
193 93
194 799
195 336
196 90
197 117
198 134
199 28
200 138
201 12
202 34
203 79
204 20
205 207
206 232
207 42
208 105
209 68
210 19
211 139
212 345
213 210
214 288
215 148
216 319
217 5
218 89
219 94
220 149
221 70
222 140
223 5
224 109
225 35
226 52
227 255
228 51
229 229
230 251
231 262
232 162
233 359
234 27
235 134
236 24
237 20
238 6
239 96
240 875
241 147
242 116
243 17
244 801
245 54
246 558
247 508
248 925
249 162
250 46
251 120
252 206
253 540
254 68
255 236
256 38
257 95
258 29
259 13
260 75
261 110
262 48
263 88
264 255
265 3
266 19
267 401
268 48
269 681
270 182
271 412
272 129
273 549
274 91
275 52
276 488
277 554
278 36
279 399
280 15
281 53
282 106
283 2
284 186
285 9
286 172
287 477
288 932
289 129
290 20
291 276
292 213
293 151
294 195
295 110
296 600
297 86
298 58
299 64
300 79
301 62
302 466
303 153
304 581
305 118
306 204
307 47
308 283
309 76
310 132
311 152
312 22
313 340
314 52
315 425
316 491
317 4
318 83
319 5
320 52
321 186
322 19
323 339
324 216
325 284
326 415
327 95
328 54
329 100
330 748
331 164
332 268
333 111
334 211
335 812
336 270
337 153
338 8
339 268
340 58
341 138
342 193
343 310
344 71
345 27
346 168
347 597
348 32
349 39
350 120
351 409
352 205
353 8
354 77
355 11
356 73
357 88
358 347
359 489
360 201
361 292
362 9
363 8
364 159
365 84
366 833
367 611
368 304
369 27
370 306
371 200
372 103
373 19
374 269
375 827
376 161
377 69
378 140
379 116
380 156
381 17
382 43
383 138
384 1133
385 75
386 213
387 786
388 157
389 161
390 400
391 127
392 325
393 141
394 284
395 68
396 459
397 67
398 150
399 101
400 756
401 149
402 1186
403 96
404 29
405 401
406 98
407 496
408 1007
409 42
410 80
411 22
412 985
413 28
414 169
415 210
416 658
417 83
418 436
419 167
420 211
421 106
422 115
423 61
424 164
425 652
426 35
427 173
428 91
429 70
430 294
431 123
432 346
433 127
434 19
435 104
436 843
437 140
438 56
439 244
440 99
441 297
442 512
443 88
444 431
445 45
446 39
447 2
448 34
449 596
450 56
451 176
452 191
453 20
454 94
455 68
456 128
457 28
458 150
459 128
460 550
461 125
462 3
463 41
464 39
465 5
466 271
467 60
468 878
469 17
470 220
471 57
472 145
473 169
474 140
475 104
476 433
477 10
478 359
479 270
480 749
481 344
482 695
483 343
484 605
485 14
486 65
487 819
488 252
489 107
490 234
491 205
492 49
493 543
494 584
495 30
496 29
497 611
498 73
499 129
500 99
501 25
502 141
503 54
504 9
505 217
506 38
507 150
508 828
509 45
510 52
511 138
512 146
513 52
514 455
515 362
516 246
517 254
518 76
519 26
520 228
521 84
522 112
523 26
524 34
525 48
526 256
527 62
528 127
529 23
530 130
531 65
532 63
533 143
534 355
535 801
536 60
537 55
538 123
539 149
540 86
541 4
542 3
543 93
544 126
545 190
546 37
547 939
548 67
549 165
550 291
551 52
552 623
553 184
554 248
555 26
556 336
557 4
558 105
559 72
560 13
561 39
562 171
563 36
564 8
565 203
566 133
567 101
568 83
569 346
570 5
571 133
572 42
573 157
574 126
575 86
576 184
577 264
578 311
579 294
580 186
581 262
582 280
583 43
584 104
585 518
586 12
587 185
588 655
589 79
590 131
591 137
592 1
593 20
594 104
595 10
596 150
597 9
598 33
599 23
600 274
601 515
602 294
603 10
604 134
605 368
606 56
607 330
608 87
609 202
610 251
611 96
612 208
613 71
614 49
615 204
616 160
617 98
618 34
619 85
620 205
621 159
622 183
623 250
624 33
625 17
626 20
627 140
628 725
629 367
630 9
631 66
632 8
633 172
634 21
635 358
636 15
637 268
638 125
639 287
640 2
641 518
642 361
643 182
644 31
645 117
646 180
647 148
648 217
649 65
650 31
651 294
652 89
653 20
654 566
655 378
656 63
657 1
658 106
659 127
660 71
661 139
662 153
663 193
664 161
665 94
666 163
667 117
668 1850
669 282
670 117
671 164
672 203
673 30
674 216
675 280
676 938
677 399
678 270
679 332
680 347
681 502
682 456
683 170
684 175
685 13
686 66
687 145
688 3
689 114
690 344
691 69
692 37
693 858
694 840
695 7
696 523
697 302
698 543
699 432
700 45
701 289
702 47
703 436
704 105
705 304
706 284
707 397
708 1533
709 44
710 257
711 27
712 134
713 315
714 16
715 16
716 15
717 14
718 102
719 167
720 102
721 97
722 107
723 73
724 43
725 194
726 40
727 278
728 141
729 385
730 272
731 137
732 404
733 422
734 149
735 109
736 26
737 135
738 870
739 77
740 136
741 64
742 257
743 558
744 147
745 338
746 161
747 41
748 61
749 231
750 569
751 47
752 258
753 212
754 29
755 70
756 7
757 9
758 148
759 99
760 45
761 126
762 240
763 59
764 40
765 44
766 454
767 212
768 84
769 56
770 66
771 104
772 361
773 20
774 235
775 24
776 79
777 158
778 66
779 614
780 109
781 16
782 7
783 16
784 181
785 195
786 562
787 35
788 55
789 3
790 112
791 395
792 289
793 366
794 299
795 165
796 6
797 213
798 56
799 96
800 239
801 80
802 785
803 271
804 530
805 31
806 119
807 25
808 110
809 44
810 286
811 9
812 112
813 39
814 4
815 384
816 161
817 153
818 159
819 440
820 49
821 33
822 20
823 40
824 240
825 818
826 419
827 169
828 124
829 55
830 151
831 425
832 471
833 30
834 6
835 51
836 99
837 28
838 205
839 497
840 162
841 38
842 226
843 114
844 34
845 736
846 92
847 255
848 73
849 485
850 17
851 149
852 58
853 60
854 193
855 99
856 10
857 57
858 50
859 22
860 245
861 82
862 46
863 25
864 252
865 85
866 75
867 16
868 96
869 58
870 49
871 12
872 92
873 218
874 399
875 104
876 154
877 110
878 135
879 112
880 408
881 38
882 237
883 86
884 543
885 210
886 141
887 540
888 108
889 26
890 262
891 52
892 639
893 55
894 568
895 63
896 88
897 6
898 63
899 151
900 274
901 164
902 66
903 47
904 239
905 24
906 118
907 569
908 185
909 29
910 52
911 105
912 95
913 17
914 747
915 169
916 12
917 72
918 60
919 108
920 202
921 137
922 3
923 228
924 102
925 275
926 86
927 42
928 138
929 126
930 79
931 480
932 334
933 371
934 180
935 74
936 37
937 136
938 432
939 33
940 324
941 136
942 466
943 96
944 42
945 87
946 9
947 503
948 21
949 524
950 23
951 19
952 303
953 442
954 202
955 102
956 83
957 88
958 195
959 256
960 42
961 15
962 78
963 451
964 131
965 774
966 197
967 106
968 67
969 37
970 186
971 836
972 362
973 183
974 333
975 20
976 119
977 153
978 4
979 52
980 108
981 145
982 7
983 199
984 518
985 206
986 26
987 105
988 52
989 94
990 476
991 235
992 76
993 18
994 538
995 52
996 3
997 115
998 11
999 28
1000 88
1001 30
1002 71
1003 161
1004 10
1005 132
1006 147
1007 54
1008 56
1009 62
1010 246
1011 185
1012 22
1013 2
1014 83
1015 513
1016 163
1017 199
1018 34
1019 211
1020 122
1021 65
1022 11
1023 294
1024 46
1025 189
1026 209
1027 28
1028 101
1029 22
1030 33
1031 249
1032 129
1033 459
1034 185
1035 58
1036 259
1037 178
1038 6
1039 63
1040 97
1041 19
1042 34
1043 70
1044 87
1045 158
1046 83
1047 105
1048 282
1049 206
1050 54
1051 22
1052 94
1053 303
1054 288
1055 58
1056 121
1057 125
1058 39
1059 157
1060 184
1061 99
1062 95
1063 13
1064 165
1065 253
1066 367
1067 28
1068 10
1069 118
1070 55
1071 37
1072 120
1073 44
1074 266
1075 207
1076 96
1077 70
1078 341
1079 60
1080 53
1081 38
1082 19
1083 718
1084 273
1085 133
1086 119
1087 13
1088 62
1089 45
1090 165
1091 129
1092 8
1093 90
1094 14
1095 191
1096 166
1097 33
1098 175
1099 26
1100 94
1101 90
1102 145
1103 107
1104 87
1105 37
1106 50
1107 35
1108 65
1109 50
1110 57
1111 68
1112 240
1113 297
1114 54
1115 131
1116 161
1117 302
1118 42
1119 171
1120 138
1121 604
1122 79
1123 193
1124 140
1125 135
1126 725
1127 170
1128 172
1129 227
1130 220
1131 32
1132 118
1133 260
1134 32
1135 16
1136 44
1137 64
1138 26
1139 339
1140 52
1141 77
1142 356
1143 636
1144 58
1145 471
1146 72
1147 175
1148 6
1149 921
1150 11
1151 448
1152 143
1153 234
1154 61
1155 216
1156 87
1157 137
1158 329
1159 30
1160 372
1161 590
1162 5
1163 276
1164 255
1165 9
1166 3
1167 58
1168 325
1169 348
1170 73
1171 175
1172 167
1173 511
1174 424
1175 120
1176 4
1177 43
1178 175
1179 78
1180 29
1181 546
1182 211
1183 24
1184 131
1185 34
1186 59
1187 115
1188 223
1189 38
1190 51
1191 138
1192 77
1193 406
1194 42
1195 181
1196 17
1197 490
1198 52
1199 30
1200 132
1201 221
1202 93
1203 90
1204 164
1205 197
1206 111
1207 128
1208 90
1209 139
1210 617
1211 81
1212 351
1213 43
1214 23
1215 11
1216 327
1217 76
1218 14
1219 260
1220 12
1221 169
1222 135
1223 43
1224 140
1225 215
1226 218
1227 16
1228 424
1229 139
1230 563
1231 96
1232 170
1233 107
1234 116
1235 31
1236 6
1237 40
1238 113
1239 77
1240 61
1241 111
1242 261
1243 81
1244 110
1245 99
1246 41
1247 91
1248 25
1249 280
1250 264
1251 32
1252 50
1253 193
1254 42
1255 401
1256 593
1257 178
1258 2060
1259 75
1260 171
1261 33
1262 1
1263 69
1264 97
1265 98
1266 56
1267 188
1268 459
1269 26
1270 174
1271 615
1272 39
1273 354
1274 7
1275 607
1276 126
1277 79
1278 155
1279 104
1280 101
1281 56
1282 132
1283 176
1284 23
1285 47
1286 269
1287 48
1288 82
1289 35
1290 6
1291 187
1292 192
1293 48
1294 200
1295 87
1296 61
1297 99
1298 134
1299 77
1300 39
1301 68
1302 322
1303 306
1304 270
1305 176
1306 20
1307 10
1308 45
1309 1
1310 444
1311 11
1312 7
1313 58
1314 43
1315 35
1316 391
1317 34
1318 32
1319 73
1320 223
1321 355
1322 17
1323 35
1324 148
1325 257
1326 281
1327 124
1328 287
1329 170
1330 52
1331 50
1332 136
1333 28
1334 69
1335 215
1336 79
1337 35
1338 68
1339 86
1340 26
1341 35
1342 150
1343 7
1344 21
1345 314
1346 81
1347 141
1348 153
1349 225
1350 60
1351 25
1352 37
1353 11
1354 86
1355 129
1356 91
1357 233
1358 121
1359 130
1360 3
1361 42
1362 140
1363 25
1364 113
1365 99
1366 62
1367 16
1368 64
1369 266
1370 141
1371 46
1372 31
1373 801
1374 116
1375 24
1376 124
1377 279
1378 64
1379 84
1380 85
1381 46
1382 69
1383 37
1384 27
1385 190
1386 117
1387 14
1388 283
1389 983
1390 271
1391 115
1392 209
1393 5
1394 124
1395 46
1396 300
1397 11
1398 281
1399 153
1400 78
1401 58
1402 55
1403 317
1404 329
1405 46
1406 706
1407 63
1408 245
1409 467
1410 107
1411 17
1412 153
1413 259
1414 8
1415 358
1416 449
1417 214
1418 298
1419 293
1420 109
1421 20
1422 604
1423 43
1424 160
1425 308
1426 110
1427 391
1428 358
1429 89
1430 255
1431 533
1432 13
1433 87
1434 100
1435 53
1436 257
1437 92
1438 111
1439 78
1440 62
1441 34
1442 39
1443 55
1444 107
1445 28
1446 58
1447 82
1448 1
1449 398
1450 133
1451 922
1452 395
1453 511
1454 72
1455 17
1456 185
1457 163
1458 27
1459 734
1460 729
1461 15
1462 52
1463 2
1464 54
1465 255
1466 210
1467 29
1468 242
1469 368
1470 234
1471 63
1472 145
1473 74
1474 131
1475 73
1476 632
1477 6
1478 7
1479 84
1480 21
1481 362
1482 31
1483 70
1484 507
1485 49
1486 765
1487 459
1488 604
1489 62
1490 213
1491 95
1492 50
1493 115
1494 9
1495 105
1496 781
1497 29
1498 376
1499 7
1500 134
1501 117
1502 22
1503 197
1504 232
1505 79
1506 97
1507 352
1508 91
1509 401
1510 146
1511 159
1512 199
1513 376
1514 274
1515 220
1516 45
1517 90
1518 25
1519 380
1520 136
1521 52
1522 16
1523 21
1524 261
1525 296
1526 9
1527 81
1528 1
1529 263
1530 359
1531 48
1532 69
1533 114
1534 221
1535 9
1536 29
1537 128
1538 98
1539 140
1540 103
1541 488
1542 404
1543 102
1544 25
1545 1020
1546 476
1547 124
1548 164
1549 89
1550 224
1551 68
1552 46
1553 36
1554 84
1555 98
1556 176
1557 390
1558 10
1559 1270
1560 14
1561 91
1562 102
1563 83
1564 14
1565 50
1566 4
1567 144
1568 118
1569 308
1570 59
1571 33
1572 88
1573 10
1574 1
1575 194
1576 298
1577 47
1578 149
1579 53
1580 58
1581 56
1582 113
1583 171
1584 312
1585 76
1586 289
1587 321
1588 62
1589 126
1590 201
1591 24
1592 137
1593 333
1594 136
1595 21
1596 169
1597 222
1598 60
1599 187
1600 146
1601 312
1602 96
1603 29
1604 131
1605 487
1606 332
1607 24
1608 46
1609 46
1610 13
1611 235
1612 454
1613 187
1614 91
1615 20
1616 375
1617 198
1618 20
1619 24
1620 621
1621 48
1622 206
1623 76
1624 5
1625 535
1626 857
1627 33
1628 372
1629 73
1630 66
1631 126
1632 245
1633 159
1634 119
1635 244
1636 55
1637 178
1638 18
1639 7
1640 204
1641 245
1642 62
1643 227
1644 104
1645 589
1646 368
1647 13
1648 5
1649 31
1650 104
1651 30
1652 55
1653 108
1654 21
1655 697
1656 5
1657 62
1658 233
1659 121
1660 134
1661 12
1662 2
1663 91
1664 218
1665 197
1666 80
1667 174
1668 137
1669 303
1670 483
1671 115
1672 203
1673 71
1674 76
1675 41
1676 31
1677 513
1678 14
1679 481
1680 415
1681 250
1682 201
1683 177
1684 60
1685 105
1686 515
1687 67
1688 65
1689 21
1690 118
1691 16
1692 294
1693 389
1694 358
1695 690
1696 73
1697 217
1698 555
1699 119
1700 205
1701 66
1702 625
1703 152
1704 285
1705 882
1706 171
1707 117
1708 212
1709 111
1710 26
1711 341
1712 16
1713 344
1714 234
1715 126
1716 118
1717 190
1718 1018
1719 801
1720 4
1721 119
1722 588
1723 239
1724 321
1725 175
1726 163
1727 172
1728 396
1729 25
1730 238
1731 596
1732 497
1733 50
1734 143
1735 133
1736 141
1737 134
1738 495
1739 621
1740 36
1741 70
1742 6
1743 289
1744 331
1745 62
1746 192
1747 452
1748 362
1749 29
1750 327
1751 218
1752 334
1753 206
1754 189
1755 180
1756 123
1757 17
1758 18
1759 711
1760 121
1761 433
1762 54
1763 202
1764 396
1765 275
1766 18
1767 158
1768 110
1769 265
1770 50
1771 158
1772 808
1773 245
1774 50
1775 85
1776 148
1777 199
1778 172
1779 50
1780 29
1781 161
1782 162
1783 213
1784 103
1785 4
1786 250
1787 134
1788 255
1789 59
1790 279
1791 113
1792 102
1793 173
1794 13
1795 104
1796 25
1797 23
1798 116
1799 32
1800 462
1801 36
1802 114
1803 151
1804 157
1805 146
1806 74
1807 115
1808 27
1809 26
1810 247
1811 113
1812 88
1813 54
1814 88
1815 372
1816 78
1817 99
1818 222
1819 344
1820 748
1821 163
1822 3
1823 140
1824 454
1825 362
1826 316
1827 528
1828 360
1829 308
1830 110
1831 239
1832 38
1833 334
1834 333
1835 52
1836 64
1837 133
1838 15
1839 74
1840 642
1841 293
1842 55
1843 114
1844 227
1845 256
1846 12
1847 127
1848 42
1849 7
1850 498
1851 46
1852 58
1853 335
1854 236
1855 36
1856 69
1857 200
1858 69
1859 20
1860 176
1861 146
1862 92
1863 74
1864 53
1865 63
1866 373
1867 216
1868 49
1869 12
1870 345
1871 296
1872 292
1873 43
1874 96
1875 175
1876 167
1877 196
1878 106
1879 21
1880 25
1881 146
1882 116
1883 85
1884 25
1885 667
1886 41
1887 83
1888 258
1889 353
1890 1104
1891 27
1892 91
1893 155
1894 143
1895 73
1896 64
1897 579
1898 254
1899 66
1900 404
1901 49
1902 69
1903 229
1904 319
1905 144
1906 116
1907 234
1908 114
1909 103
1910 114
1911 142
1912 33
1913 332
1914 168
1915 5
1916 285
1917 23
1918 17
1919 135
1920 174
1921 19
1922 172
1923 97
1924 393
1925 35
1926 243
1927 1228
1928 115
1929 24
1930 160
1931 192
1932 543
1933 2
1934 287
1935 151
1936 322
1937 335
1938 10
1939 235
1940 44
1941 234
1942 71
1943 274
1944 6
1945 122
1946 227
1947 306
1948 125
1949 73
1950 106
1951 560
1952 126
1953 344
1954 114
1955 130
1956 119
1957 383
1958 803
1959 735
1960 205
1961 10
1962 311
1963 159
1964 116
1965 56
1966 119
1967 604
1968 174
1969 325
1970 628
1971 129
1972 282
1973 55
1974 261
1975 253
1976 109
1977 143
1978 198
1979 46
1980 21
1981 315
1982 10
1983 148
1984 40
1985 36
1986 348
1987 100
1988 5
1989 23
1990 70
1991 99
1992 16
1993 108
1994 105
1995 956
1996 86
1997 177
1998 28
1999 170
