0 2
1 90
2 28
3 32
4 44
5 104
6 13
7 10
8 13
9 16
10 26
11 30
12 123
13 84
14 15
15 21
16 95
17 68
18 29
19 27
20 18
21 26
22 19
23 67
24 9
25 156
26 7
27 101
28 39
29 74
30 35
31 4
32 45
33 47
34 88
35 25
36 37
37 44
38 51
39 105
40 212
41 5
42 84
43 49
44 66
45 59
46 55
47 53
48 70
49 78
50 36
51 47
52 134
53 69
54 11
55 125
56 153
57 11
58 2
59 103
60 23
61 4
62 24
63 82
64 63
65 10
66 170
67 44
68 130
69 70
70 62
71 139
72 19
73 111
74 21
75 69
76 56
77 2
78 12
79 84
80 57
81 41
82 102
83 124
84 11
85 137
86 17
87 10
88 21
89 40
90 20
91 59
92 27
93 19
94 71
95 50
96 17
97 83
98 141
99 1
100 64
101 22
102 73
103 146
104 117
105 94
106 159
107 12
108 235
109 105
110 88
111 55
112 68
113 6
114 22
115 27
116 209
117 139
118 4
119 43
120 16
121 218
122 10
123 231
124 37
125 6
126 11
127 63
128 168
129 17
130 111
131 199
132 159
133 141
134 22
135 112
136 4
137 71
138 106
139 36
140 4
141 153
142 216
143 83
144 24
145 171
146 48
147 239
148 35
149 105
150 32
151 128
152 95
153 3
154 40
155 332
156 15
157 156
158 99
159 284
160 50
161 148
162 132
163 76
164 42
165 23
166 51
167 45
168 6
169 12
170 15
171 5
172 255
173 49
174 206
175 156
176 60
177 202
178 40
179 291
180 44
181 34
182 13
183 80
184 113
185 7
186 30
187 66
188 73
189 43
190 7
191 87
192 72
193 19
194 92
195 165
196 112
197 19
198 3
199 36
200 25
201 50
202 35
203 4
204 8
205 4
206 299
207 99
208 15
209 18
210 362
211 160
212 169
213 79
214 168
215 136
216 40
217 84
218 98
219 50
220 8
221 10
222 80
223 99
224 101
225 13
226 217
227 338
228 206
229 59
230 27
231 41
232 124
233 2
234 32
235 21
236 53
237 421
238 6
239 2
240 48
241 397
242 150
243 39
244 69
245 195
246 101
247 64
248 296
249 419
250 241
251 324
252 71
253 131
254 37
255 650
256 17
257 169
258 18
259 74
260 124
261 1
262 57
263 125
264 137
265 139
266 403
267 1
268 36
269 155
270 15
271 41
272 257
273 14
274 64
275 33
276 4
277 123
278 18
279 266
280 6
281 20
282 47
283 242
284 96
285 65
286 40
287 49
288 42
289 7
290 63
291 147
292 88
293 46
294 79
295 18
296 8
297 39
298 185
299 39
300 75
301 367
302 17
303 289
304 28
305 57
306 20
307 85
308 79
309 42
310 94
311 112
312 15
313 28
314 25
315 15
316 2
317 174
318 373
319 205
320 121
321 102
322 12
323 3
324 61
325 45
326 19
327 4
328 31
329 59
330 43
331 49
332 60
333 33
334 62
335 103
336 45
337 112
338 36
339 104
340 177
341 38
342 169
343 51
344 104
345 43
346 122
347 316
348 30
349 82
350 91
351 114
352 24
353 50
354 133
355 75
356 110
357 63
358 3
359 13
360 103
361 33
362 18
363 222
364 84
365 49
366 238
367 76
368 26
369 126
370 308
371 25
372 52
373 36
374 25
375 23
376 95
377 85
378 179
379 2
380 46
381 11
382 356
383 224
384 34
385 83
386 117
387 32
388 18
389 138
390 6
391 267
392 265
393 2
394 21
395 57
396 49
397 58
398 84
399 186
400 68
401 64
402 35
403 32
404 117
405 57
406 3
407 53
408 259
409 119
410 86
411 62
412 51
413 1
414 24
415 8
416 45
417 138
418 91
419 117
420 106
421 152
422 11
423 78
424 41
425 66
426 66
427 21
428 1
429 102
430 10
431 59
432 9
433 3
434 350
435 14
436 7
437 23
438 72
439 9
440 55
441 101
442 28
443 2
444 127
445 6
446 85
447 77
448 12
449 40
450 10
451 106
452 171
453 98
454 4
455 29
456 73
457 83
458 101
459 57
460 258
461 3
462 465
463 29
464 35
465 13
466 16
467 43
468 127
469 18
470 68
471 10
472 3
473 128
474 28
475 257
476 14
477 16
478 16
479 100
480 63
481 73
482 57
483 88
484 70
485 6
486 168
487 139
488 13
489 144
490 116
491 42
492 64
493 98
494 22
495 34
496 51
497 148
498 54
499 15
500 157
501 53
502 107
503 39
504 77
505 14
506 198
507 48
508 3
509 179
510 433
511 5
512 42
513 63
514 47
515 50
516 50
517 36
518 219
519 38
520 50
521 143
522 68
523 42
524 50
525 25
526 2
527 14
528 90
529 15
530 117
531 129
532 317
533 142
534 92
535 10
536 40
537 97
538 191
539 62
540 6
541 166
542 281
543 9
544 35
545 220
546 14
547 62
548 39
549 64
550 54
551 108
552 46
553 105
554 44
555 41
556 337
557 31
558 51
559 133
560 1
561 139
562 29
563 171
564 51
565 98
566 227
567 31
568 152
569 50
570 54
571 167
572 10
573 78
574 23
575 11
576 16
577 69
578 22
579 27
580 99
581 34
582 22
583 36
584 138
585 42
586 360
587 8
588 99
589 12
590 43
591 66
592 48
593 34
594 17
595 50
596 38
597 29
598 55
599 158
600 95
601 29
602 87
603 156
604 14
605 56
606 60
607 48
608 108
609 19
610 72
611 16
612 51
613 165
614 254
615 35
616 16
617 101
618 86
619 12
620 50
621 57
622 41
623 25
624 101
625 272
626 194
627 53
628 60
629 22
630 32
631 58
632 151
633 132
634 3
635 25
636 24
637 144
638 183
639 21
640 13
641 113
642 40
643 70
644 55
645 261
646 4
647 102
648 76
649 15
650 4
651 24
652 96
653 31
654 4
655 155
656 19
657 11
658 16
659 225
660 95
661 75
662 51
663 105
664 9
665 39
666 86
667 14
668 24
669 14
670 13
671 35
672 4
673 52
674 6
675 8
676 226
677 4
678 357
679 39
680 20
681 41
682 11
683 11
684 43
685 66
686 5
687 53
688 135
689 43
690 114
691 59
692 95
693 47
694 86
695 61
696 60
697 61
698 125
699 53
700 132
701 80
702 5
703 70
704 97
705 3
706 18
707 31
708 244
709 144
710 52
711 127
712 19
713 16
714 20
715 47
716 25
717 38
718 125
719 83
720 115
721 96
722 145
723 35
724 95
725 98
726 74
727 44
728 62
729 557
730 112
731 100
732 9
733 89
734 13
735 31
736 19
737 53
738 129
739 1
740 78
741 181
742 52
743 154
744 9
745 112
746 113
747 11
748 56
749 41
750 108
751 76
752 230
753 23
754 113
755 30
756 131
757 88
758 188
759 98
760 143
761 240
762 21
763 39
764 19
765 8
766 34
767 1
768 28
769 25
770 26
771 39
772 25
773 25
774 87
775 19
776 69
777 84
778 82
779 44
780 45
781 45
782 11
783 32
784 49
785 36
786 165
787 17
788 7
789 143
790 43
791 106
792 144
793 7
794 33
795 44
796 5
797 119
798 2
799 2
800 159
801 47
802 31
803 2
804 136
805 52
806 42
807 281
808 11
809 87
810 32
811 74
812 47
813 65
814 98
815 128
816 47
817 16
818 110
819 105
820 33
821 38
822 118
823 90
824 10
825 11
826 103
827 30
828 33
829 276
830 168
831 142
832 230
833 22
834 118
835 29
836 51
837 3
838 75
839 32
840 18
841 35
842 43
843 56
844 97
845 227
846 172
847 99
848 14
849 124
850 50
851 21
852 13
853 30
854 5
855 1
856 44
857 76
858 4
859 234
860 48
861 80
862 53
863 61
864 129
865 146
866 81
867 18
868 18
869 8
870 5
871 35
872 98
873 62
874 74
875 49
876 67
877 80
878 2
879 43
880 26
881 80
882 8
883 9
884 265
885 48
886 45
887 116
888 80
889 1
890 85
891 10
892 30
893 64
894 185
895 38
896 24
897 44
898 33
899 9
900 336
901 3
902 14
903 12
904 46
905 100
906 11
907 59
908 49
909 121
910 74
911 13
912 60
913 62
914 65
915 87
916 141
917 67
918 35
919 65
920 75
921 62
922 127
923 9
924 7
925 41
926 33
927 18
928 9
929 8
930 72
931 15
932 58
933 2
934 142
935 77
936 76
937 65
938 62
939 4
940 113
941 103
942 93
943 21
944 5
945 36
946 82
947 7
948 63
949 7
950 72
951 62
952 13
953 129
954 87
955 100
956 107
957 224
958 28
959 1
960 34
961 13
962 127
963 190
964 12
965 209
966 70
967 40
968 182
969 330
970 132
971 15
972 64
973 254
974 105
975 192
976 22
977 291
978 7
979 1
980 11
981 53
982 18
983 50
984 151
985 82
986 17
987 14
988 38
989 90
990 9
991 124
992 45
993 20
994 89
995 32
996 14
997 121
998 42
999 54
1000 85
1001 26
1002 70
1003 11
1004 15
1005 324
1006 123
1007 156
1008 21
1009 108
1010 238
1011 92
1012 24
1013 3
1014 411
1015 4
1016 152
1017 90
1018 17
1019 34
1020 47
1021 18
1022 89
1023 2
1024 84
1025 29
1026 52
1027 77
1028 128
1029 27
1030 2
1031 132
1032 6
1033 119
1034 90
1035 5
1036 4
1037 18
1038 23
1039 8
1040 72
1041 175
1042 3
1043 77
1044 59
1045 63
1046 33
1047 74
1048 45
1049 126
1050 32
1051 27
1052 32
1053 127
1054 28
1055 55
1056 37
1057 5
1058 166
1059 104
1060 19
1061 145
1062 35
1063 19
1064 93
1065 102
1066 124
1067 54
1068 3
1069 242
1070 175
1071 79
1072 52
1073 218
1074 14
1075 143
1076 115
1077 188
1078 24
1079 66
1080 32
1081 229
1082 143
1083 52
1084 99
1085 24
1086 228
1087 235
1088 27
1089 7
1090 81
1091 60
1092 42
1093 90
1094 336
1095 53
1096 16
1097 5
1098 23
1099 58
1100 194
1101 5
1102 30
1103 76
1104 18
1105 26
1106 37
1107 50
1108 92
1109 93
1110 25
1111 15
1112 20
1113 103
1114 116
1115 239
1116 14
1117 4
1118 84
1119 55
1120 11
1121 122
1122 66
1123 34
1124 72
1125 32
1126 129
1127 13
1128 5
1129 25
1130 125
1131 19
1132 4
1133 47
1134 59
1135 153
1136 24
1137 8
1138 21
1139 70
1140 53
1141 64
1142 87
1143 11
1144 60
1145 15
1146 111
1147 83
1148 85
1149 19
1150 26
1151 51
1152 67
1153 127
1154 18
1155 36
1156 135
1157 38
1158 70
1159 38
1160 69
1161 96
1162 112
1163 9
1164 14
1165 45
1166 76
1167 213
1168 120
1169 12
1170 13
1171 112
1172 306
1173 6
1174 104
1175 16
1176 112
1177 27
1178 16
1179 160
1180 51
1181 184
1182 94
1183 56
1184 1
1185 2
1186 22
1187 30
1188 39
1189 14
1190 3
1191 14
1192 163
1193 37
1194 234
1195 9
1196 148
1197 24
1198 15
1199 193
1200 150
1201 134
1202 111
1203 40
1204 108
1205 26
1206 25
1207 184
1208 3
1209 48
1210 25
1211 168
1212 3
1213 26
1214 130
1215 169
1216 112
1217 5
1218 14
1219 71
1220 54
1221 17
1222 33
1223 23
1224 65
1225 65
1226 11
1227 46
1228 35
1229 66
1230 190
1231 9
1232 163
1233 289
1234 49
1235 361
1236 153
1237 92
1238 24
1239 110
1240 69
1241 21
1242 78
1243 3
1244 4
1245 22
1246 88
1247 200
1248 66
1249 105
1250 86
1251 100
1252 4
1253 76
1254 89
1255 117
1256 31
1257 54
1258 224
1259 71
1260 110
1261 14
1262 55
1263 74
1264 25
1265 4
1266 23
1267 66
1268 6
1269 13
1270 145
1271 34
1272 19
1273 25
1274 24
1275 46
1276 91
1277 184
1278 89
1279 101
1280 130
1281 24
1282 67
1283 115
1284 156
1285 48
1286 10
1287 14
1288 1
1289 35
1290 17
1291 96
1292 154
1293 66
1294 5
1295 49
1296 21
1297 11
1298 116
1299 29
1300 194
1301 107
1302 4
1303 259
1304 46
1305 30
1306 5
1307 78
1308 10
1309 84
1310 48
1311 157
1312 12
1313 9
1314 27
1315 65
1316 58
1317 119
1318 72
1319 159
1320 78
1321 50
1322 96
1323 95
1324 204
1325 96
1326 97
1327 6
1328 278
1329 132
1330 98
1331 22
1332 138
1333 65
1334 1
1335 107
1336 22
1337 22
1338 123
1339 41
1340 5
1341 163
1342 30
1343 146
1344 101
1345 28
1346 11
1347 39
1348 108
1349 16
1350 84
1351 21
1352 34
1353 19
1354 128
1355 51
1356 37
1357 38
1358 37
1359 2
1360 12
1361 17
1362 32
1363 15
1364 185
1365 271
1366 76
1367 12
1368 48
1369 434
1370 2
1371 1
1372 190
1373 35
1374 143
1375 128
1376 217
1377 104
1378 20
1379 14
1380 132
1381 41
1382 198
1383 19
1384 114
1385 15
1386 147
1387 107
1388 141
1389 8
1390 52
1391 40
1392 109
1393 56
1394 178
1395 112
1396 3
1397 29
1398 17
1399 187
1400 78
1401 12
1402 1
1403 6
1404 16
1405 4
1406 15
1407 94
1408 6
1409 11
1410 39
1411 136
1412 1
1413 14
1414 210
1415 10
1416 21
1417 143
1418 17
1419 49
1420 26
1421 87
1422 2
1423 27
1424 77
1425 59
1426 133
1427 97
1428 130
1429 48
1430 43
1431 186
1432 129
1433 37
1434 5
1435 142
1436 51
1437 68
1438 1
1439 3
1440 165
1441 142
1442 144
1443 87
1444 116
1445 16
1446 7
1447 25
1448 80
1449 64
1450 40
1451 66
1452 9
1453 42
1454 35
1455 50
1456 98
1457 98
1458 59
1459 82
1460 8
1461 83
1462 113
1463 14
1464 13
1465 10
1466 2
1467 92
1468 92
1469 6
1470 5
1471 12
1472 18
1473 301
1474 24
1475 17
1476 68
1477 71
1478 11
1479 4
1480 110
1481 11
1482 218
1483 16
1484 2
1485 31
1486 11
1487 88
1488 10
1489 51
1490 17
1491 8
1492 4
1493 141
1494 35
1495 17
1496 84
1497 65
1498 22
1499 15
1500 234
1501 37
1502 162
1503 166
1504 19
1505 54
1506 12
1507 183
1508 42
1509 128
1510 220
1511 13
1512 20
1513 175
1514 51
1515 15
1516 126
1517 144
1518 27
1519 7
1520 38
1521 2
1522 21
1523 123
1524 12
1525 100
1526 56
1527 4
1528 59
1529 11
1530 42
1531 30
1532 23
1533 3
1534 103
1535 77
1536 38
1537 132
1538 6
1539 6
1540 31
1541 220
1542 148
1543 192
1544 5
1545 43
1546 32
1547 93
1548 67
1549 38
1550 25
1551 19
1552 16
1553 13
1554 18
1555 9
1556 8
1557 61
1558 8
1559 45
1560 1
1561 139
1562 59
1563 16
1564 225
1565 47
1566 22
1567 62
1568 116
1569 128
1570 156
1571 17
1572 5
1573 21
1574 22
1575 29
1576 145
1577 14
1578 15
1579 4
1580 92
1581 255
1582 85
1583 50
1584 73
1585 51
1586 158
1587 3
1588 131
1589 147
1590 33
1591 339
1592 31
1593 44
1594 12
1595 39
1596 22
1597 75
1598 33
1599 29
1600 140
1601 168
1602 102
1603 20
1604 63
1605 19
1606 142
1607 7
1608 25
1609 48
1610 67
1611 25
1612 3
1613 36
1614 15
1615 12
1616 177
1617 5
1618 22
1619 89
1620 70
1621 36
1622 50
1623 15
1624 191
1625 63
1626 14
1627 65
1628 229
1629 37
1630 108
1631 131
1632 11
1633 9
1634 49
1635 122
1636 129
1637 246
1638 11
1639 24
1640 54
1641 10
1642 12
1643 10
1644 22
1645 22
1646 3
1647 19
1648 15
1649 10
1650 117
1651 226
1652 79
1653 168
1654 33
1655 84
1656 79
1657 42
1658 292
1659 64
1660 121
1661 101
1662 8
1663 151
1664 11
1665 71
1666 35
1667 82
1668 23
1669 58
1670 92
1671 40
1672 28
1673 60
1674 23
1675 40
1676 147
1677 102
1678 69
1679 206
1680 85
1681 3
1682 21
1683 50
1684 76
1685 17
1686 2
1687 13
1688 16
1689 87
1690 150
1691 75
1692 241
1693 128
1694 128
1695 7
1696 321
1697 37
1698 57
1699 169
1700 74
1701 84
1702 21
1703 9
1704 55
1705 29
1706 46
1707 67
1708 28
1709 27
1710 25
1711 11
1712 11
1713 3
1714 2
1715 20
1716 20
1717 46
1718 33
1719 9
1720 14
1721 9
1722 5
1723 91
1724 43
1725 142
1726 25
1727 127
1728 4
1729 16
1730 15
1731 100
1732 12
1733 44
1734 4
1735 32
1736 4
1737 142
1738 43
1739 156
1740 3
1741 1
1742 29
1743 15
1744 179
1745 82
1746 11
1747 88
1748 43
1749 284
1750 45
1751 147
1752 67
1753 64
1754 2
1755 46
1756 96
1757 28
1758 2
1759 83
1760 35
1761 46
1762 26
1763 201
1764 20
1765 113
1766 27
1767 147
1768 169
1769 10
1770 59
1771 54
1772 16
1773 19
1774 16
1775 50
1776 8
1777 58
1778 1
1779 233
1780 26
1781 8
1782 354
1783 39
1784 60
1785 61
1786 55
1787 11
1788 157
1789 58
1790 50
1791 112
1792 4
1793 274
1794 33
1795 2
1796 59
1797 17
1798 12
1799 1
1800 69
1801 25
1802 162
1803 118
1804 67
1805 45
1806 107
1807 98
1808 51
1809 11
1810 17
1811 19
1812 49
1813 6
1814 109
1815 50
1816 53
1817 98
1818 68
1819 98
1820 122
1821 84
1822 102
1823 45
1824 1
1825 34
1826 40
1827 14
1828 15
1829 105
1830 147
1831 11
1832 87
1833 47
1834 68
1835 196
1836 18
1837 98
1838 79
1839 39
1840 45
1841 97
1842 51
1843 6
1844 30
1845 123
1846 6
1847 13
1848 86
1849 47
1850 8
1851 46
1852 37
1853 66
1854 6
1855 52
1856 134
1857 48
1858 142
1859 22
1860 8
1861 21
1862 93
1863 21
1864 125
1865 30
1866 60
1867 62
1868 31
1869 123
1870 154
1871 79
1872 124
1873 26
1874 35
1875 151
1876 17
1877 9
1878 14
1879 86
1880 41
1881 113
1882 41
1883 74
1884 158
1885 14
1886 110
1887 86
1888 2
1889 14
1890 21
1891 77
1892 40
1893 54
1894 14
1895 135
1896 4
1897 54
1898 14
1899 38
1900 3
1901 19
1902 45
1903 110
1904 180
1905 147
1906 3
1907 54
1908 12
1909 46
1910 13
1911 29
1912 35
1913 60
1914 22
1915 28
1916 43
1917 9
1918 9
1919 327
1920 179
1921 15
1922 92
1923 106
1924 295
1925 30
1926 473
1927 70
1928 1
1929 12
1930 83
1931 73
1932 205
1933 49
1934 73
1935 15
1936 70
1937 8
1938 102
1939 51
1940 6
1941 6
1942 50
1943 113
1944 12
1945 27
1946 366
1947 75
1948 18
1949 36
1950 82
1951 27
1952 131
1953 63
1954 30
1955 2
1956 155
1957 43
1958 87
1959 124
1960 38
1961 10
1962 39
1963 19
1964 59
1965 27
1966 34
1967 17
1968 131
1969 27
1970 106
1971 71
1972 81
1973 36
1974 29
1975 18
1976 106
1977 40
1978 24
1979 37
1980 92
1981 76
1982 120
1983 49
1984 150
1985 114
1986 15
1987 43
1988 11
1989 93
1990 43
1991 85
1992 51
1993 30
1994 179
1995 13
1996 77
1997 17
1998 62
1999 6
