0 7
1 3
2 84
3 5
4 10
5 35
6 47
7 67
8 11
9 13
10 73
11 1
12 48
13 15
14 90
15 140
16 2
17 122
18 30
19 32
20 176
21 48
22 6
23 11
24 5
25 16
26 11
27 44
28 61
29 12
30 5
31 125
32 148
33 52
34 1
35 9
36 66
37 22
38 8
39 99
40 25
41 27
42 21
43 13
44 1
45 48
46 109
47 13
48 20
49 2
50 10
51 65
52 39
53 77
54 73
55 53
56 25
57 120
58 46
59 57
60 118
61 139
62 25
63 2
64 13
65 14
66 52
67 19
68 87
69 3
70 21
71 6
72 7
73 65
74 30
75 16
76 24
77 133
78 21
79 110
80 3
81 94
82 31
83 23
84 78
85 128
86 41
87 45
88 190
89 25
90 5
91 33
92 49
93 181
94 55
95 25
96 38
97 14
98 109
99 27
100 33
101 33
102 49
103 128
104 55
105 61
106 12
107 11
108 77
109 6
110 98
111 258
112 259
113 22
114 12
115 8
116 1
117 133
118 8
119 38
120 31
121 3
122 27
123 119
124 85
125 68
126 19
127 65
128 80
129 39
130 158
131 25
132 37
133 44
134 10
135 17
136 70
137 14
138 14
139 53
140 5
141 17
142 21
143 62
144 144
145 51
146 11
147 14
148 54
149 77
150 73
151 31
152 16
153 14
154 234
155 21
156 66
157 108
158 147
159 48
160 12
161 184
162 32
163 34
164 169
165 37
166 77
167 5
168 77
169 19
170 49
171 475
172 98
173 211
174 81
175 72
176 212
177 169
178 62
179 236
180 112
181 10
182 97
183 50
184 16
185 158
186 63
187 42
188 177
189 154
190 81
191 73
192 10
193 64
194 42
195 98
196 180
197 44
198 55
199 74
200 46
201 36
202 112
203 138
204 102
205 32
206 85
207 12
208 157
209 55
210 9
211 447
212 11
213 344
214 453
215 209
216 216
217 92
218 290
219 69
220 17
221 9
222 113
223 5
224 115
225 70
226 39
227 17
228 192
229 92
230 129
231 89
232 34
233 188
234 32
235 204
236 154
237 79
238 269
239 149
240 1
241 24
242 11
243 308
244 181
245 16
246 36
247 34
248 105
249 207
250 37
251 62
252 73
253 103
254 359
255 74
256 38
257 21
258 48
259 105
260 71
261 87
262 26
263 61
264 87
265 183
266 4
267 49
268 115
269 53
270 47
271 348
272 56
273 85
274 65
275 57
276 95
277 59
278 6
279 20
280 97
281 61
282 123
283 361
284 23
285 143
286 71
287 83
288 132
289 142
290 16
291 11
292 69
293 29
294 13
295 29
296 54
297 16
298 20
299 149
300 111
301 63
302 86
303 124
304 30
305 4
306 2
307 276
308 163
309 252
310 197
311 28
312 77
313 93
314 477
315 98
316 5
317 138
318 59
319 30
320 5
321 96
322 21
323 51
324 64
325 45
326 10
327 157
328 388
329 37
330 260
331 72
332 107
333 180
334 202
335 87
336 145
337 2
338 43
339 233
340 24
341 143
342 101
343 12
344 153
345 88
346 27
347 58
348 126
349 62
350 109
351 149
352 145
353 2
354 61
355 421
356 133
357 159
358 20
359 147
360 111
361 228
362 242
363 102
364 41
365 47
366 30
367 81
368 65
369 168
370 132
371 18
372 37
373 71
374 71
375 65
376 94
377 57
378 59
379 21
380 8
381 251
382 84
383 134
384 37
385 153
386 79
387 48
388 38
389 370
390 237
391 27
392 232
393 165
394 184
395 106
396 209
397 367
398 43
399 45
400 8
401 3
402 191
403 248
404 150
405 568
406 173
407 45
408 128
409 45
410 119
411 137
412 146
413 86
414 63
415 91
416 259
417 70
418 72
419 142
420 91
421 16
422 45
423 304
424 362
425 239
426 10
427 69
428 11
429 118
430 13
431 29
432 215
433 184
434 59
435 14
436 206
437 87
438 50
439 269
440 426
441 511
442 23
443 49
444 116
445 316
446 5
447 35
448 38
449 101
450 127
451 36
452 310
453 65
454 11
455 33
456 65
457 207
458 70
459 244
460 274
461 785
462 384
463 19
464 103
465 28
466 62
467 311
468 18
469 18
470 100
471 142
472 54
473 32
474 274
475 24
476 75
477 125
478 96
479 19
480 249
481 57
482 1
483 129
484 20
485 123
486 375
487 64
488 19
489 142
490 355
491 338
492 207
493 363
494 110
495 342
496 46
497 378
498 30
499 57
500 3
501 183
502 223
503 48
504 216
505 25
506 194
507 42
508 142
509 205
510 406
511 431
512 9
513 56
514 41
515 28
516 35
517 125
518 656
519 112
520 189
521 208
522 672
523 41
524 310
525 138
526 78
527 528
528 293
529 148
530 106
531 17
532 76
533 160
534 124
535 84
536 47
537 73
538 101
539 68
540 149
541 100
542 173
543 26
544 20
545 67
546 8
547 44
548 761
549 176
550 42
551 259
552 4
553 73
554 30
555 237
556 183
557 166
558 8
559 155
560 94
561 204
562 249
563 78
564 91
565 94
566 23
567 22
568 357
569 222
570 326
571 45
572 163
573 126
574 115
575 115
576 21
577 4
578 185
579 414
580 34
581 36
582 9
583 65
584 111
585 103
586 23
587 13
588 376
589 156
590 101
591 111
592 250
593 60
594 133
595 98
596 34
597 71
598 38
599 543
600 95
601 151
602 386
603 1
604 84
605 149
606 3
607 292
608 17
609 10
610 10
611 324
612 619
613 37
614 7
615 476
616 56
617 442
618 593
619 262
620 584
621 49
622 5
623 47
624 187
625 33
626 60
627 18
628 410
629 71
630 19
631 11
632 69
633 273
634 80
635 10
636 14
637 54
638 141
639 36
640 96
641 178
642 519
643 95
644 30
645 376
646 206
647 71
648 117
649 433
650 52
651 146
652 649
653 459
654 138
655 99
656 94
657 646
658 257
659 341
660 250
661 112
662 196
663 246
664 72
665 331
666 66
667 471
668 258
669 69
670 190
671 70
672 62
673 35
674 104
675 149
676 295
677 118
678 131
679 119
680 187
681 122
682 98
683 31
684 92
685 118
686 223
687 302
688 757
689 315
690 43
691 61
692 98
693 160
694 25
695 28
696 537
697 22
698 181
699 100
700 208
701 121
702 241
703 181
704 402
705 48
706 465
707 44
708 103
709 454
710 6
711 26
712 157
713 230
714 32
715 100
716 4
717 1
718 52
719 27
720 2
721 25
722 195
723 20
724 360
725 169
726 139
727 100
728 361
729 17
730 97
731 101
732 643
733 137
734 302
735 133
736 7
737 167
738 206
739 421
740 478
741 137
742 45
743 162
744 15
745 464
746 90
747 64
748 66
749 11
750 21
751 203
752 76
753 144
754 289
755 306
756 185
757 7
758 45
759 301
760 304
761 78
762 9
763 75
764 50
765 347
766 454
767 66
768 141
769 267
770 104
771 205
772 30
773 203
774 43
775 756
776 389
777 165
778 83
779 72
780 636
781 39
782 616
783 24
784 204
785 298
786 23
787 33
788 33
789 285
790 114
791 12
792 258
793 117
794 62
795 71
796 33
797 56
798 97
799 51
800 31
801 52
802 146
803 25
804 279
805 380
806 100
807 15
808 235
809 24
810 63
811 89
812 76
813 116
814 107
815 143
816 16
817 303
818 464
819 92
820 38
821 122
822 369
823 508
824 105
825 214
826 355
827 37
828 90
829 84
830 122
831 22
832 643
833 1
834 40
835 302
836 2
837 1048
838 40
839 17
840 121
841 41
842 283
843 13
844 149
845 176
846 1
847 114
848 239
849 246
850 12
851 141
852 364
853 55
854 130
855 167
856 100
857 73
858 4
859 47
860 12
861 174
862 126
863 316
864 44
865 60
866 102
867 22
868 143
869 75
870 106
871 305
872 188
873 24
874 99
875 28
876 61
877 261
878 90
879 53
880 173
881 20
882 300
883 107
884 32
885 206
886 57
887 326
888 285
889 72
890 10
891 47
892 88
893 407
894 141
895 123
896 86
897 93
898 489
899 49
900 82
901 114
902 176
903 173
904 160
905 16
906 1
907 148
908 74
909 47
910 87
911 126
912 67
913 61
914 28
915 103
916 146
917 140
918 11
919 9
920 5
921 62
922 128
923 210
924 137
925 193
926 124
927 27
928 158
929 61
930 190
931 164
932 33
933 26
934 136
935 68
936 18
937 713
938 140
939 236
940 66
941 523
942 29
943 15
944 334
945 42
946 41
947 83
948 66
949 50
950 43
951 272
952 15
953 284
954 78
955 68
956 56
957 85
958 10
959 56
960 84
961 216
962 16
963 128
964 17
965 56
966 7
967 6
968 179
969 126
970 2
971 5
972 15
973 23
974 5
975 23
976 403
977 513
978 183
979 17
980 267
981 53
982 119
983 27
984 26
985 137
986 362
987 11
988 136
989 260
990 254
991 64
992 118
993 115
994 285
995 435
996 13
997 75
998 22
999 224
1000 543
1001 93
1002 120
1003 39
1004 233
1005 51
1006 147
1007 670
1008 44
1009 141
1010 29
1011 51
1012 79
1013 471
1014 143
1015 61
1016 131
1017 92
1018 30
1019 140
1020 89
1021 75
1022 2
1023 19
1024 400
1025 90
1026 39
1027 64
1028 90
1029 234
1030 6
1031 75
1032 194
1033 168
1034 6
1035 11
1036 27
1037 1
1038 303
1039 103
1040 272
1041 175
1042 82
1043 58
1044 96
1045 25
1046 45
1047 379
1048 5
1049 367
1050 440
1051 113
1052 9
1053 12
1054 142
1055 48
1056 321
1057 7
1058 558
1059 508
1060 642
1061 42
1062 65
1063 135
1064 2
1065 271
1066 189
1067 219
1068 178
1069 109
1070 162
1071 244
1072 66
1073 33
1074 118
1075 21
1076 40
1077 6
1078 47
1079 57
1080 173
1081 47
1082 10
1083 139
1084 37
1085 17
1086 214
1087 2
1088 764
1089 8
1090 125
1091 18
1092 11
1093 86
1094 116
1095 28
1096 5
1097 51
1098 252
1099 100
1100 102
1101 30
1102 387
1103 17
1104 41
1105 9
1106 90
1107 50
1108 60
1109 750
1110 37
1111 168
1112 9
1113 139
1114 212
1115 392
1116 86
1117 163
1118 90
1119 117
1120 38
1121 141
1122 160
1123 327
1124 361
1125 387
1126 47
1127 130
1128 188
1129 49
1130 5
1131 22
1132 651
1133 490
1134 12
1135 216
1136 24
1137 99
1138 424
1139 417
1140 182
1141 44
1142 505
1143 77
1144 32
1145 257
1146 483
1147 107
1148 50
1149 150
1150 7
1151 66
1152 23
1153 63
1154 379
1155 252
1156 44
1157 264
1158 29
1159 3
1160 89
1161 232
1162 100
1163 52
1164 173
1165 16
1166 198
1167 463
1168 98
1169 280
1170 136
1171 354
1172 103
1173 186
1174 444
1175 17
1176 265
1177 2
1178 92
1179 53
1180 279
1181 298
1182 182
1183 94
1184 65
1185 209
1186 62
1187 218
1188 432
1189 579
1190 111
1191 245
1192 247
1193 51
1194 153
1195 16
1196 115
1197 234
1198 92
1199 319
1200 178
1201 44
1202 7
1203 1
1204 288
1205 223
1206 7
1207 63
1208 104
1209 7
1210 97
1211 141
1212 36
1213 13
1214 180
1215 56
1216 102
1217 216
1218 155
1219 295
1220 449
1221 91
1222 17
1223 15
1224 47
1225 209
1226 85
1227 135
1228 292
1229 279
1230 155
1231 148
1232 36
1233 68
1234 10
1235 100
1236 143
1237 53
1238 129
1239 22
1240 252
1241 208
1242 35
1243 90
1244 64
1245 74
1246 186
1247 9
1248 93
1249 74
1250 40
1251 77
1252 78
1253 27
1254 88
1255 152
1256 13
1257 141
1258 242
1259 133
1260 72
1261 164
1262 45
1263 13
1264 93
1265 46
1266 7
1267 43
1268 74
1269 6
1270 42
1271 59
1272 243
1273 76
1274 109
1275 324
1276 113
1277 436
1278 183
1279 72
1280 29
1281 35
1282 142
1283 82
1284 6
1285 244
1286 44
1287 144
1288 402
1289 167
1290 4
1291 118
1292 34
1293 231
1294 30
1295 78
1296 97
1297 47
1298 102
1299 473
1300 124
1301 358
1302 19
1303 45
1304 4
1305 46
1306 18
1307 231
1308 197
1309 19
1310 157
1311 240
1312 94
1313 333
1314 5
1315 46
1316 9
1317 93
1318 246
1319 26
1320 43
1321 55
1322 242
1323 152
1324 250
1325 80
1326 313
1327 88
1328 111
1329 24
1330 255
1331 79
1332 382
1333 65
1334 19
1335 17
1336 105
1337 58
1338 139
1339 199
1340 27
1341 105
1342 22
1343 78
1344 392
1345 58
1346 95
1347 83
1348 342
1349 85
1350 156
1351 20
1352 31
1353 177
1354 185
1355 25
1356 64
1357 301
1358 12
1359 230
1360 103
1361 11
1362 11
1363 30
1364 62
1365 27
1366 5
1367 197
1368 88
1369 34
1370 252
1371 19
1372 163
1373 173
1374 7
1375 110
1376 93
1377 107
1378 93
1379 124
1380 52
1381 80
1382 80
1383 640
1384 14
1385 29
1386 7
1387 148
1388 244
1389 13
1390 26
1391 87
1392 16
1393 273
1394 173
1395 115
1396 245
1397 51
1398 46
1399 40
1400 66
1401 93
1402 411
1403 50
1404 18
1405 93
1406 14
1407 59
1408 93
1409 14
1410 137
1411 297
1412 119
1413 94
1414 245
1415 68
1416 49
1417 66
1418 152
1419 75
1420 1
1421 357
1422 168
1423 20
1424 69
1425 26
1426 140
1427 1
1428 12
1429 33
1430 192
1431 31
1432 168
1433 127
1434 101
1435 101
1436 31
1437 22
1438 51
1439 45
1440 120
1441 6
1442 30
1443 119
1444 47
1445 43
1446 81
1447 92
1448 293
1449 30
1450 256
1451 373
1452 10
1453 119
1454 29
1455 86
1456 493
1457 180
1458 94
1459 218
1460 137
1461 131
1462 115
1463 324
1464 12
1465 14
1466 3
1467 55
1468 22
1469 173
1470 156
1471 67
1472 72
1473 12
1474 111
1475 80
1476 2
1477 294
1478 72
1479 275
1480 228
1481 60
1482 122
1483 240
1484 177
1485 134
1486 505
1487 90
1488 270
1489 53
1490 16
1491 72
1492 28
1493 39
1494 342
1495 371
1496 105
1497 241
1498 300
1499 470
1500 28
1501 316
1502 31
1503 272
1504 195
1505 18
1506 144
1507 338
1508 37
1509 628
1510 24
1511 88
1512 44
1513 95
1514 97
1515 225
1516 133
1517 73
1518 472
1519 340
1520 8
1521 324
1522 184
1523 58
1524 520
1525 153
1526 82
1527 163
1528 69
1529 175
1530 36
1531 175
1532 140
1533 408
1534 37
1535 39
1536 25
1537 244
1538 194
1539 120
1540 96
1541 137
1542 38
1543 9
1544 156
1545 298
1546 317
1547 220
1548 506
1549 19
1550 539
1551 30
1552 82
1553 48
1554 95
1555 367
1556 109
1557 107
1558 231
1559 8
1560 1150
1561 132
1562 269
1563 726
1564 158
1565 53
1566 356
1567 110
1568 132
1569 139
1570 50
1571 339
1572 121
1573 272
1574 345
1575 74
1576 28
1577 20
1578 10
1579 231
1580 29
1581 410
1582 424
1583 167
1584 418
1585 284
1586 78
1587 85
1588 102
1589 178
1590 45
1591 238
1592 43
1593 716
1594 129
1595 82
1596 29
1597 16
1598 110
1599 205
1600 61
1601 261
1602 70
1603 24
1604 63
1605 59
1606 119
1607 128
1608 55
1609 34
1610 172
1611 701
1612 123
1613 44
1614 92
1615 60
1616 33
1617 122
1618 4
1619 50
1620 58
1621 104
1622 262
1623 73
1624 36
1625 271
1626 12
1627 381
1628 153
1629 32
1630 10
1631 160
1632 280
1633 223
1634 176
1635 45
1636 9
1637 684
1638 247
1639 129
1640 37
1641 178
1642 101
1643 23
1644 90
1645 12
1646 288
1647 41
1648 106
1649 149
1650 62
1651 6
1652 11
1653 16
1654 45
1655 232
1656 11
1657 23
1658 6
1659 90
1660 213
1661 75
1662 527
1663 44
1664 19
1665 1
1666 84
1667 3
1668 306
1669 36
1670 32
1671 646
1672 25
1673 6
1674 115
1675 39
1676 134
1677 227
1678 73
1679 15
1680 66
1681 476
1682 299
1683 30
1684 95
1685 122
1686 80
1687 56
1688 37
1689 37
1690 119
1691 26
1692 3
1693 182
1694 160
1695 237
1696 186
1697 149
1698 21
1699 43
1700 87
1701 27
1702 310
1703 13
1704 63
1705 181
1706 35
1707 53
1708 93
1709 36
1710 278
1711 121
1712 360
1713 331
1714 27
1715 420
1716 26
1717 584
1718 114
1719 92
1720 189
1721 464
1722 18
1723 220
1724 26
1725 125
1726 78
1727 17
1728 2
1729 66
1730 760
1731 123
1732 31
1733 33
1734 199
1735 293
1736 381
1737 175
1738 568
1739 260
1740 167
1741 318
1742 54
1743 85
1744 38
1745 312
1746 39
1747 1409
1748 123
1749 104
1750 13
1751 377
1752 386
1753 58
1754 29
1755 93
1756 121
1757 31
1758 284
1759 205
1760 22
1761 70
1762 12
1763 341
1764 93
1765 27
1766 25
1767 316
1768 17
1769 127
1770 62
1771 171
1772 261
1773 450
1774 53
1775 53
1776 105
1777 1
1778 152
1779 327
1780 74
1781 147
1782 278
1783 188
1784 262
1785 148
1786 7
1787 337
1788 52
1789 226
1790 101
1791 183
1792 6
1793 102
1794 49
1795 1
1796 376
1797 54
1798 83
1799 314
1800 4
1801 120
1802 258
1803 185
1804 183
1805 38
1806 288
1807 256
1808 98
1809 73
1810 447
1811 88
1812 3
1813 99
1814 151
1815 259
1816 7
1817 106
1818 45
1819 14
1820 40
1821 120
1822 101
1823 104
1824 9
1825 12
1826 22
1827 91
1828 89
1829 206
1830 15
1831 34
1832 308
1833 377
1834 3
1835 203
1836 203
1837 97
1838 134
1839 80
1840 298
1841 43
1842 635
1843 64
1844 89
1845 65
1846 158
1847 81
1848 123
1849 1
1850 74
1851 1
1852 2
1853 127
1854 245
1855 40
1856 4
1857 5
1858 348
1859 719
1860 52
1861 96
1862 25
1863 33
1864 24
1865 315
1866 7
1867 379
1868 76
1869 165
1870 260
1871 82
1872 66
1873 264
1874 283
1875 192
1876 49
1877 137
1878 110
1879 13
1880 2
1881 483
1882 264
1883 336
1884 260
1885 54
1886 129
1887 26
1888 236
1889 152
1890 269
1891 162
1892 246
1893 159
1894 50
1895 315
1896 50
1897 481
1898 6
1899 15
1900 39
1901 123
1902 377
1903 72
1904 37
1905 5
1906 4
1907 27
1908 76
1909 92
1910 512
1911 36
1912 58
1913 167
1914 100
1915 13
1916 62
1917 151
1918 57
1919 232
1920 188
1921 14
1922 52
1923 101
1924 183
1925 429
1926 449
1927 30
1928 239
1929 133
1930 57
1931 19
1932 300
1933 69
1934 12
1935 40
1936 46
1937 112
1938 92
1939 68
1940 39
1941 221
1942 2
1943 5
1944 1
1945 133
1946 18
1947 5
1948 48
1949 85
1950 130
1951 24
1952 26
1953 47
1954 254
1955 336
1956 90
1957 255
1958 79
1959 99
1960 15
1961 72
1962 70
1963 62
1964 38
1965 109
1966 156
1967 272
1968 39
1969 31
1970 13
1971 11
1972 144
1973 49
1974 89
1975 199
1976 40
1977 143
1978 63
1979 68
1980 139
1981 138
1982 246
1983 64
1984 167
1985 91
1986 240
1987 193
1988 47
1989 61
1990 535
1991 204
1992 798
1993 20
1994 455
1995 106
1996 64
1997 84
1998 25
1999 85
