0 3
1 17
2 20
3 64
4 97
5 89
6 6
7 15
8 9
9 65
10 57
11 55
12 30
13 46
14 4
15 28
16 2
17 35
18 53
19 26
20 5
21 25
22 58
23 16
24 10
25 106
26 199
27 199
28 140
29 235
30 19
31 169
32 47
33 281
34 50
35 81
36 15
37 9
38 92
39 94
40 87
41 14
42 190
43 89
44 31
45 16
46 123
47 13
48 1
49 94
50 139
51 198
52 15
53 49
54 176
55 55
56 69
57 50
58 153
59 150
60 16
61 123
62 58
63 56
64 53
65 3
66 49
67 269
68 24
69 428
70 10
71 3
72 50
73 3
74 34
75 119
76 213
77 137
78 7
79 121
80 52
81 129
82 18
83 28
84 410
85 108
86 204
87 7
88 8
89 50
90 15
91 6
92 12
93 287
94 84
95 10
96 28
97 5
98 92
99 42
100 143
101 49
102 112
103 82
104 11
105 131
106 89
107 139
108 11
109 75
110 68
111 4
112 36
113 68
114 3
115 117
116 47
117 208
118 3
119 164
120 92
121 34
122 84
123 350
124 27
125 31
126 42
127 21
128 354
129 118
130 273
131 101
132 79
133 4
134 159
135 13
136 25
137 162
138 255
139 232
140 61
141 16
142 75
143 6
144 22
145 34
146 148
147 59
148 71
149 55
150 13
151 82
152 12
153 188
154 22
155 213
156 35
157 100
158 47
159 40
160 31
161 274
162 119
163 4
164 8
165 108
166 52
167 24
168 99
169 111
170 27
171 81
172 41
173 60
174 57
175 78
176 27
177 33
178 182
179 29
180 11
181 1
182 151
183 32
184 37
185 1
186 159
187 214
188 158
189 2
190 39
191 93
192 10
193 6
194 103
195 22
196 24
197 6
198 4
199 78
200 12
201 87
202 58
203 284
204 75
205 30
206 117
207 106
208 134
209 85
210 106
211 30
212 10
213 19
214 13
215 109
216 36
217 155
218 59
219 23
220 132
221 47
222 286
223 55
224 33
225 39
226 42
227 57
228 57
229 35
230 34
231 17
232 37
233 36
234 58
235 22
236 233
237 12
238 150
239 16
240 147
241 68
242 151
243 321
244 170
245 48
246 91
247 236
248 30
249 80
250 89
251 30
252 59
253 27
254 68
255 40
256 30
257 53
258 71
259 26
260 8
261 66
262 122
263 204
264 58
265 13
266 17
267 6
268 39
269 31
270 77
271 220
272 101
273 27
274 4
275 56
276 19
277 219
278 123
279 28
280 103
281 134
282 46
283 101
284 206
285 20
286 23
287 34
288 58
289 45
290 22
291 61
292 7
293 80
294 43
295 201
296 18
297 37
298 1
299 3
300 15
301 31
302 115
303 71
304 40
305 58
306 92
307 7
308 31
309 7
310 47
311 44
312 92
313 27
314 34
315 123
316 37
317 28
318 47
319 4
320 21
321 149
322 123
323 32
324 322
325 1
326 110
327 106
328 75
329 66
330 169
331 43
332 116
333 11
334 189
335 7
336 26
337 181
338 8
339 242
340 115
341 38
342 22
343 18
344 92
345 100
346 337
347 20
348 168
349 61
350 3
351 14
352 110
353 7
354 39
355 38
356 31
357 53
358 24
359 59
360 29
361 115
362 170
363 106
364 173
365 188
366 51
367 36
368 25
369 98
370 11
371 2
372 101
373 1
374 19
375 16
376 32
377 34
378 238
379 71
380 4
381 122
382 144
383 16
384 221
385 42
386 27
387 211
388 199
389 29
390 18
391 252
392 36
393 8
394 31
395 16
396 4
397 65
398 111
399 92
400 135
401 76
402 14
403 282
404 38
405 36
406 181
407 1
408 120
409 12
410 182
411 26
412 341
413 36
414 103
415 19
416 65
417 55
418 61
419 27
420 76
421 101
422 21
423 198
424 18
425 96
426 37
427 87
428 8
429 58
430 70
431 35
432 44
433 6
434 11
435 42
436 45
437 86
438 98
439 66
440 57
441 211
442 72
443 1
444 12
445 143
446 199
447 34
448 106
449 44
450 6
451 108
452 55
453 29
454 12
455 131
456 59
457 52
458 31
459 71
460 12
461 105
462 160
463 26
464 116
465 16
466 30
467 24
468 93
469 57
470 5
471 144
472 104
473 110
474 104
475 81
476 37
477 42
478 80
479 3
480 373
481 58
482 34
483 380
484 44
485 67
486 278
487 109
488 132
489 26
490 265
491 90
492 94
493 46
494 38
495 34
496 62
497 275
498 220
499 120
500 56
501 46
502 28
503 120
504 53
505 148
506 70
507 15
508 132
509 46
510 103
511 9
512 24
513 31
514 75
515 63
516 15
517 6
518 8
519 47
520 10
521 61
522 7
523 3
524 57
525 65
526 70
527 26
528 5
529 70
530 23
531 93
532 52
533 9
534 3
535 32
536 13
537 44
538 55
539 29
540 35
541 101
542 16
543 5
544 30
545 31
546 15
547 7
548 25
549 10
550 29
551 27
552 1
553 97
554 63
555 48
556 39
557 3
558 2
559 26
560 140
561 97
562 42
563 35
564 12
565 24
566 20
567 43
568 101
569 30
570 3
571 89
572 12
573 176
574 42
575 89
576 11
577 108
578 180
579 48
580 97
581 33
582 21
583 23
584 5
585 3
586 149
587 18
588 27
589 52
590 126
591 41
592 59
593 167
594 172
595 1
596 130
597 162
598 18
599 33
600 60
601 46
602 33
603 14
604 54
605 18
606 7
607 8
608 80
609 5
610 1
611 21
612 3
613 1
614 73
615 11
616 12
617 41
618 41
619 19
620 4
621 9
622 3
623 330
624 3
625 33
626 38
627 3
628 1
629 26
630 178
631 46
632 53
633 97
634 132
635 6
636 88
637 32
638 21
639 59
640 42
641 98
642 92
643 67
644 10
645 20
646 53
647 31
648 49
649 5
650 42
651 145
652 17
653 30
654 149
655 66
656 70
657 163
658 59
659 10
660 12
661 8
662 16
663 39
664 58
665 27
666 17
667 25
668 84
669 6
670 19
671 109
672 121
673 4
674 121
675 39
676 25
677 123
678 3
679 138
680 40
681 123
682 4
683 96
684 77
685 27
686 5
687 52
688 8
689 4
690 7
691 54
692 72
693 38
694 47
695 22
696 82
697 15
698 20
699 1
700 100
701 116
702 12
703 19
704 27
705 30
706 130
707 30
708 71
709 12
710 8
711 8
712 1
713 2
714 7
715 1
716 78
717 40
718 111
719 16
720 123
721 3
722 30
723 7
724 67
725 5
726 64
727 52
728 70
729 13
730 56
731 61
732 38
733 9
734 51
735 13
736 135
737 128
738 44
739 21
740 98
741 16
742 3
743 24
744 56
745 2
746 270
747 48
748 41
749 30
750 23
751 39
752 17
753 64
754 12
755 64
756 3
757 15
758 27
759 14
760 70
761 31
762 10
763 33
764 65
765 95
766 4
767 2
768 72
769 78
770 105
771 9
772 163
773 40
774 23
775 29
776 12
777 36
778 222
779 37
780 89
781 87
782 68
783 47
784 7
785 59
786 54
787 45
788 11
789 134
790 14
791 83
792 2
793 126
794 95
795 37
796 82
797 24
798 81
799 59
800 123
801 18
802 19
803 7
804 79
805 40
806 169
807 35
808 23
809 20
810 27
811 38
812 75
813 24
814 13
815 87
816 34
817 112
818 221
819 90
820 81
821 8
822 92
823 51
824 8
825 169
826 82
827 69
828 47
829 47
830 28
831 76
832 164
833 92
834 5
835 85
836 63
837 18
838 42
839 159
840 127
841 23
842 32
843 5
844 59
845 66
846 123
847 96
848 11
849 38
850 73
851 21
852 123
853 158
854 114
855 23
856 34
857 14
858 31
859 51
860 20
861 13
862 95
863 23
864 46
865 43
866 23
867 14
868 41
869 180
870 61
871 48
872 137
873 1
874 5
875 19
876 9
877 55
878 45
879 38
880 87
881 7
882 82
883 25
884 55
885 135
886 18
887 68
888 34
889 2
890 1
891 40
892 2
893 48
894 10
895 89
896 20
897 57
898 64
899 13
900 36
901 21
902 20
903 70
904 70
905 1
906 69
907 54
908 63
909 155
910 149
911 48
912 14
913 13
914 65
915 2
916 209
917 89
918 2
919 18
920 11
921 6
922 26
923 105
924 35
925 74
926 54
927 9
928 4
929 6
930 211
931 8
932 176
933 20
934 1
935 22
936 71
937 11
938 15
939 20
940 25
941 22
942 5
943 45
944 100
945 19
946 8
947 3
948 110
949 53
950 39
951 44
952 143
953 15
954 48
955 8
956 52
957 88
958 10
959 42
960 93
961 30
962 17
963 4
964 99
965 50
966 159
967 142
968 3
969 52
970 121
971 25
972 46
973 18
974 3
975 70
976 13
977 20
978 6
979 162
980 101
981 37
982 163
983 26
984 20
985 1
986 7
987 115
988 56
989 11
990 18
991 54
992 148
993 42
994 14
995 8
996 89
997 21
998 6
999 46
1000 4
1001 12
1002 10
1003 56
1004 53
1005 112
1006 107
1007 160
1008 40
1009 88
1010 5
1011 6
1012 4
1013 9
1014 39
1015 40
1016 437
1017 31
1018 9
1019 28
1020 1
1021 12
1022 165
1023 103
1024 111
1025 41
1026 13
1027 64
1028 62
1029 31
1030 31
1031 24
1032 85
1033 24
1034 50
1035 3
1036 5
1037 23
1038 113
1039 9
1040 36
1041 13
1042 30
1043 4
1044 10
1045 55
1046 16
1047 10
1048 1
1049 159
1050 107
1051 51
1052 32
1053 14
1054 17
1055 175
1056 12
1057 12
1058 28
1059 2
1060 110
1061 8
1062 79
1063 115
1064 37
1065 66
1066 12
1067 19
1068 27
1069 50
1070 67
1071 28
1072 69
1073 61
1074 90
1075 1
1076 17
1077 1
1078 18
1079 40
1080 93
1081 189
1082 46
1083 35
1084 42
1085 23
1086 9
1087 1
1088 7
1089 41
1090 81
1091 45
1092 19
1093 55
1094 86
1095 143
1096 47
1097 45
1098 49
1099 79
1100 32
1101 42
1102 1
1103 62
1104 4
1105 122
1106 40
1107 133
1108 135
1109 18
1110 6
1111 32
1112 43
1113 64
1114 23
1115 45
1116 31
1117 63
1118 20
1119 22
1120 48
1121 87
1122 4
1123 44
1124 66
1125 30
1126 3
1127 80
1128 36
1129 67
1130 77
1131 15
1132 119
1133 122
1134 3
1135 9
1136 63
1137 33
1138 12
1139 110
1140 107
1141 36
1142 15
1143 150
1144 3
1145 68
1146 63
1147 53
1148 13
1149 9
1150 29
1151 90
1152 165
1153 15
1154 10
1155 6
1156 31
1157 60
1158 14
1159 38
1160 99
1161 35
1162 91
1163 14
1164 98
1165 11
1166 30
1167 56
1168 5
1169 217
1170 17
1171 4
1172 53
1173 13
1174 192
1175 55
1176 61
1177 12
1178 2
1179 14
1180 449
1181 60
1182 21
1183 7
1184 38
1185 7
1186 86
1187 22
1188 96
1189 180
1190 10
1191 55
1192 59
1193 9
1194 8
1195 12
1196 116
1197 14
1198 56
1199 277
1200 21
1201 214
1202 45
1203 5
1204 26
1205 46
1206 32
1207 19
1208 89
1209 53
1210 46
1211 19
1212 275
1213 76
1214 169
1215 58
1216 25
1217 99
1218 6
1219 116
1220 118
1221 109
1222 140
1223 43
1224 229
1225 90
1226 3
1227 92
1228 41
1229 81
1230 137
1231 95
1232 43
1233 40
1234 54
1235 92
1236 150
1237 18
1238 129
1239 31
1240 13
1241 146
1242 49
1243 19
1244 45
1245 8
1246 89
1247 31
1248 130
1249 35
1250 2
1251 93
1252 1
1253 83
1254 38
1255 105
1256 32
1257 52
1258 15
1259 87
1260 71
1261 68
1262 50
1263 128
1264 173
1265 9
1266 11
1267 2
1268 97
1269 38
1270 189
1271 13
1272 55
1273 176
1274 8
1275 93
1276 164
1277 76
1278 19
1279 49
1280 14
1281 8
1282 74
1283 57
1284 35
1285 19
1286 38
1287 43
1288 51
1289 105
1290 56
1291 48
1292 15
1293 35
1294 158
1295 166
1296 19
1297 4
1298 22
1299 70
1300 87
1301 30
1302 36
1303 8
1304 11
1305 99
1306 64
1307 24
1308 29
1309 33
1310 104
1311 211
1312 19
1313 140
1314 65
1315 77
1316 119
1317 74
1318 154
1319 5
1320 27
1321 12
1322 157
1323 18
1324 8
1325 48
1326 126
1327 18
1328 22
1329 40
1330 7
1331 18
1332 4
1333 41
1334 35
1335 63
1336 13
1337 3
1338 16
1339 15
1340 25
1341 92
1342 36
1343 62
1344 55
1345 56
1346 26
1347 38
1348 6
1349 37
1350 112
1351 72
1352 105
1353 12
1354 86
1355 56
1356 62
1357 111
1358 29
1359 14
1360 20
1361 13
1362 12
1363 113
1364 55
1365 252
1366 280
1367 12
1368 68
1369 207
1370 29
1371 72
1372 75
1373 57
1374 26
1375 22
1376 27
1377 67
1378 11
1379 24
1380 31
1381 108
1382 61
1383 8
1384 2
1385 5
1386 21
1387 14
1388 71
1389 2
1390 48
1391 42
1392 9
1393 25
1394 65
1395 37
1396 9
1397 21
1398 111
1399 116
1400 76
1401 129
1402 28
1403 31
1404 122
1405 105
1406 74
1407 62
1408 114
1409 106
1410 120
1411 28
1412 34
1413 35
1414 37
1415 47
1416 9
1417 69
1418 28
1419 39
1420 65
1421 51
1422 98
1423 70
1424 29
1425 26
1426 25
1427 77
1428 50
1429 7
1430 38
1431 8
1432 9
1433 20
1434 43
1435 79
1436 26
1437 63
1438 70
1439 87
1440 20
1441 92
1442 38
1443 8
1444 114
1445 16
1446 51
1447 40
1448 17
1449 94
1450 48
1451 96
1452 94
1453 48
1454 15
1455 50
1456 195
1457 125
1458 61
1459 26
1460 40
1461 9
1462 23
1463 2
1464 74
1465 4
1466 35
1467 104
1468 12
1469 3
1470 39
1471 35
1472 14
1473 21
1474 48
1475 114
1476 9
1477 94
1478 27
1479 6
1480 213
1481 127
1482 26
1483 189
1484 35
1485 90
1486 25
1487 157
1488 82
1489 175
1490 19
1491 50
1492 32
1493 39
1494 31
1495 63
1496 54
1497 10
1498 66
1499 46
1500 271
1501 33
1502 59
1503 135
1504 28
1505 27
1506 33
1507 66
1508 38
1509 77
1510 39
1511 284
1512 18
1513 47
1514 101
1515 4
1516 104
1517 81
1518 30
1519 341
1520 142
1521 372
1522 71
1523 86
1524 191
1525 4
1526 57
1527 44
1528 54
1529 147
1530 1
1531 13
1532 208
1533 17
1534 30
1535 92
1536 20
1537 19
1538 39
1539 69
1540 16
1541 66
1542 24
1543 2
1544 57
1545 15
1546 119
1547 3
1548 18
1549 46
1550 69
1551 91
1552 9
1553 95
1554 84
1555 14
1556 25
1557 19
1558 62
1559 74
1560 62
1561 85
1562 121
1563 6
1564 41
1565 23
1566 29
1567 121
1568 50
1569 23
1570 17
1571 14
1572 121
1573 18
1574 71
1575 19
1576 13
1577 42
1578 68
1579 5
1580 9
1581 5
1582 76
1583 37
1584 72
1585 9
1586 68
1587 198
1588 4
1589 14
1590 12
1591 1
1592 14
1593 64
1594 70
1595 3
1596 10
1597 78
1598 24
1599 122
1600 15
1601 14
1602 7
1603 185
1604 49
1605 30
1606 7
1607 81
1608 90
1609 34
1610 62
1611 80
1612 17
1613 22
1614 51
1615 74
1616 43
1617 6
1618 87
1619 119
1620 238
1621 49
1622 33
1623 54
1624 18
1625 35
1626 51
1627 38
1628 20
1629 87
1630 97
1631 80
1632 103
1633 13
1634 45
1635 243
1636 78
1637 12
1638 99
1639 45
1640 174
1641 89
1642 55
1643 21
1644 23
1645 10
1646 84
1647 47
1648 19
1649 5
1650 134
1651 52
1652 14
1653 87
1654 7
1655 105
1656 102
1657 26
1658 54
1659 60
1660 18
1661 2
1662 47
1663 44
1664 172
1665 33
1666 34
1667 21
1668 3
1669 66
1670 69
1671 133
1672 85
1673 66
1674 16
1675 61
1676 128
1677 16
1678 33
1679 66
1680 44
1681 23
1682 8
1683 115
1684 62
1685 123
1686 116
1687 21
1688 23
1689 3
1690 35
1691 28
1692 50
1693 2
1694 39
1695 6
1696 8
1697 59
1698 16
1699 236
1700 33
1701 106
1702 168
1703 175
1704 19
1705 42
1706 9
1707 45
1708 63
1709 2
1710 127
1711 67
1712 16
1713 97
1714 32
1715 11
1716 148
1717 27
1718 72
1719 29
1720 237
1721 2
1722 4
1723 2
1724 156
1725 15
1726 45
1727 73
1728 19
1729 23
1730 30
1731 25
1732 31
1733 30
1734 15
1735 4
1736 49
1737 28
1738 8
1739 2
1740 3
1741 34
1742 3
1743 8
1744 26
1745 71
1746 44
1747 56
1748 39
1749 43
1750 25
1751 2
1752 10
1753 209
1754 12
1755 101
1756 87
1757 59
1758 10
1759 1
1760 185
1761 18
1762 44
1763 5
1764 2
1765 22
1766 21
1767 2
1768 2
1769 19
1770 47
1771 3
1772 10
1773 32
1774 158
1775 17
1776 29
1777 33
1778 126
1779 17
1780 28
1781 58
1782 104
1783 71
1784 61
1785 44
1786 12
1787 1
1788 19
1789 64
1790 77
1791 49
1792 27
1793 18
1794 15
1795 15
1796 65
1797 99
1798 4
1799 6
1800 19
1801 76
1802 29
1803 55
1804 30
1805 22
1806 67
1807 17
1808 23
1809 44
1810 34
1811 3
1812 16
1813 11
1814 1
1815 87
1816 44
1817 82
1818 74
1819 3
1820 5
1821 4
1822 142
1823 11
1824 52
1825 14
1826 6
1827 22
1828 8
1829 165
1830 15
1831 60
1832 84
1833 38
1834 57
1835 38
1836 1
1837 92
1838 13
1839 94
1840 14
1841 46
1842 7
1843 19
1844 9
1845 35
1846 29
1847 20
1848 33
1849 69
1850 21
1851 25
1852 51
1853 2
1854 61
1855 30
1856 82
1857 68
1858 2
1859 58
1860 22
1861 36
1862 16
1863 32
1864 75
1865 124
1866 51
1867 18
1868 69
1869 80
1870 101
1871 135
1872 24
1873 38
1874 288
1875 4
1876 28
1877 14
1878 23
1879 41
1880 87
1881 91
1882 21
1883 54
1884 55
1885 9
1886 16
1887 27
1888 20
1889 97
1890 97
1891 13
1892 95
1893 8
1894 109
1895 101
1896 17
1897 6
1898 10
1899 16
1900 104
1901 9
1902 18
1903 71
1904 52
1905 54
1906 18
1907 128
1908 47
1909 139
1910 15
1911 11
1912 172
1913 156
1914 76
1915 41
1916 78
1917 53
1918 61
1919 16
1920 92
1921 15
1922 9
1923 47
1924 54
1925 28
1926 53
1927 11
1928 24
1929 9
1930 139
1931 106
1932 24
1933 11
1934 78
1935 16
1936 14
1937 113
1938 33
1939 14
1940 14
1941 2
1942 69
1943 86
1944 263
1945 86
1946 187
1947 16
1948 27
1949 15
1950 127
1951 96
1952 17
1953 93
1954 79
1955 45
1956 47
1957 40
1958 76
1959 24
1960 44
1961 18
1962 11
1963 43
1964 75
1965 55
1966 7
1967 151
1968 33
1969 11
1970 26
1971 52
1972 17
1973 1
1974 56
1975 156
1976 1
1977 99
1978 12
1979 40
1980 15
1981 28
1982 8
1983 12
1984 23
1985 61
1986 13
1987 6
1988 12
1989 7
1990 154
1991 32
1992 1
1993 26
1994 59
1995 23
1996 58
1997 6
1998 35
1999 86
