0 3
1 4
2 7
3 38
4 66
5 156
6 42
7 90
8 20
9 23
10 296
11 11
12 160
13 18
14 112
15 129
16 31
17 63
18 164
19 134
20 159
21 59
22 44
23 5
24 141
25 186
26 72
27 24
28 11
29 1
30 8
31 90
32 47
33 130
34 76
35 36
36 64
37 86
38 19
39 29
40 20
41 19
42 85
43 18
44 49
45 12
46 27
47 172
48 15
49 175
50 34
51 8
52 44
53 6
54 23
55 137
56 2
57 32
58 7
59 250
60 39
61 72
62 76
63 126
64 79
65 54
66 67
67 51
68 63
69 38
70 31
71 290
72 8
73 39
74 26
75 56
76 15
77 1
78 23
79 130
80 59
81 46
82 6
83 132
84 138
85 110
86 114
87 72
88 4
89 67
90 118
91 51
92 305
93 33
94 59
95 213
96 75
97 84
98 47
99 48
100 113
101 72
102 17
103 37
104 350
105 905
106 54
107 497
108 169
109 20
110 72
111 17
112 39
113 59
114 9
115 41
116 25
117 224
118 1
119 14
120 79
121 311
122 10
123 89
124 73
125 4
126 51
127 44
128 48
129 90
130 148
131 304
132 8
133 49
134 210
135 9
136 102
137 83
138 15
139 352
140 212
141 125
142 101
143 13
144 62
145 183
146 164
147 75
148 90
149 75
150 37
151 25
152 158
153 336
154 119
155 172
156 76
157 57
158 178
159 48
160 15
161 89
162 61
163 11
164 133
165 50
166 14
167 40
168 135
169 5
170 29
171 5
172 60
173 105
174 203
175 79
176 140
177 129
178 43
179 7
180 21
181 94
182 81
183 187
184 9
185 664
186 126
187 59
188 59
189 89
190 94
191 132
192 82
193 64
194 17
195 173
196 153
197 143
198 165
199 34
200 102
201 127
202 54
203 85
204 55
205 118
206 16
207 109
208 44
209 289
210 52
211 3
212 154
213 63
214 61
215 154
216 117
217 52
218 24
219 21
220 81
221 50
222 86
223 44
224 62
225 315
226 8
227 128
228 360
229 62
230 163
231 431
232 49
233 237
234 36
235 34
236 387
237 46
238 103
239 186
240 124
241 120
242 119
243 160
244 61
245 33
246 128
247 163
248 552
249 52
250 31
251 240
252 60
253 21
254 47
255 41
256 25
257 189
258 86
259 84
260 387
261 50
262 94
263 48
264 24
265 28
266 62
267 9
268 16
269 22
270 177
271 10
272 64
273 63
274 396
275 33
276 123
277 1
278 23
279 32
280 190
281 30
282 64
283 151
284 50
285 34
286 67
287 174
288 3
289 160
290 77
291 64
292 60
293 92
294 46
295 93
296 53
297 88
298 79
299 103
300 113
301 25
302 79
303 81
304 205
305 148
306 20
307 2
308 47
309 225
310 11
311 59
312 53
313 62
314 64
315 175
316 9
317 145
318 135
319 10
320 255
321 80
322 20
323 4
324 72
325 132
326 219
327 96
328 62
329 101
330 139
331 50
332 69
333 33
334 39
335 109
336 43
337 236
338 15
339 96
340 141
341 255
342 26
343 158
344 225
345 42
346 78
347 237
348 154
349 86
350 160
351 113
352 33
353 246
354 207
355 285
356 17
357 320
358 7
359 165
360 34
361 17
362 21
363 17
364 4
365 33
366 248
367 175
368 166
369 273
370 77
371 192
372 52
373 90
374 55
375 74
376 96
377 49
378 7
379 76
380 38
381 157
382 103
383 85
384 134
385 254
386 26
387 268
388 150
389 199
390 5
391 439
392 59
393 2
394 117
395 19
396 44
397 128
398 30
399 94
400 77
401 238
402 65
403 5
404 370
405 174
406 60
407 53
408 145
409 96
410 181
411 48
412 20
413 47
414 129
415 192
416 110
417 151
418 144
419 117
420 198
421 87
422 48
423 22
424 265
425 207
426 150
427 150
428 97
429 53
430 113
431 11
432 194
433 118
434 43
435 56
436 174
437 228
438 89
439 281
440 9
441 259
442 301
443 72
444 85
445 51
446 257
447 324
448 59
449 76
450 215
451 310
452 93
453 55
454 123
455 114
456 216
457 292
458 111
459 10
460 78
461 106
462 7
463 128
464 190
465 166
466 250
467 190
468 330
469 52
470 1
471 32
472 276
473 73
474 57
475 18
476 331
477 169
478 118
479 197
480 359
481 250
482 72
483 142
484 10
485 89
486 50
487 150
488 43
489 12
490 317
491 162
492 285
493 15
494 79
495 23
496 3
497 305
498 43
499 217
500 256
501 42
502 18
503 123
504 52
505 115
506 33
507 89
508 14
509 78
510 42
511 303
512 277
513 153
514 227
515 35
516 187
517 22
518 145
519 767
520 73
521 510
522 5
523 83
524 110
525 236
526 54
527 20
528 270
529 148
530 222
531 49
532 64
533 65
534 390
535 72
536 244
537 85
538 73
539 408
540 39
541 31
542 39
543 198
544 163
545 127
546 17
547 31
548 657
549 332
550 84
551 43
552 73
553 8
554 100
555 63
556 20
557 73
558 147
559 16
560 6
561 78
562 81
563 53
564 78
565 17
566 532
567 109
568 79
569 99
570 59
571 228
572 137
573 30
574 339
575 317
576 70
577 753
578 374
579 166
580 225
581 11
582 147
583 212
584 175
585 119
586 134
587 29
588 355
589 222
590 23
591 21
592 4
593 15
594 43
595 4
596 119
597 129
598 222
599 97
600 36
601 71
602 188
603 143
604 38
605 98
606 35
607 40
608 97
609 79
610 451
611 307
612 30
613 228
614 81
615 33
616 126
617 172
618 83
619 99
620 84
621 97
622 66
623 145
624 71
625 16
626 14
627 109
628 105
629 151
630 121
631 276
632 41
633 179
634 164
635 95
636 8
637 93
638 56
639 60
640 35
641 71
642 112
643 68
644 19
645 489
646 66
647 24
648 197
649 121
650 57
651 186
652 203
653 117
654 2
655 348
656 102
657 177
658 32
659 317
660 138
661 77
662 354
663 15
664 141
665 27
666 98
667 365
668 111
669 199
670 486
671 143
672 17
673 108
674 609
675 14
676 463
677 6
678 89
679 758
680 104
681 60
682 488
683 73
684 77
685 324
686 31
687 35
688 143
689 122
690 87
691 80
692 64
693 106
694 208
695 165
696 148
697 158
698 97
699 30
700 122
701 124
702 117
703 61
704 63
705 203
706 141
707 146
708 157
709 108
710 111
711 62
712 146
713 534
714 146
715 7
716 16
717 23
718 62
719 47
720 192
721 114
722 652
723 9
724 151
725 19
726 392
727 96
728 57
729 192
730 127
731 301
732 344
733 118
734 327
735 206
736 72
737 14
738 6
739 100
740 63
741 198
742 39
743 239
744 32
745 5
746 67
747 317
748 227
749 125
750 33
751 92
752 77
753 636
754 39
755 111
756 94
757 25
758 181
759 43
760 221
761 263
762 12
763 120
764 179
765 302
766 11
767 313
768 186
769 383
770 138
771 83
772 37
773 84
774 151
775 155
776 18
777 60
778 4
779 498
780 133
781 88
782 484
783 18
784 228
785 356
786 379
787 18
788 5
789 101
790 363
791 178
792 159
793 131
794 186
795 378
796 16
797 131
798 194
799 104
800 287
801 99
802 24
803 62
804 116
805 36
806 193
807 94
808 181
809 6
810 176
811 34
812 30
813 521
814 354
815 142
816 386
817 3
818 279
819 178
820 20
821 259
822 83
823 41
824 76
825 101
826 247
827 5
828 111
829 16
830 189
831 143
832 174
833 428
834 222
835 283
836 135
837 38
838 325
839 118
840 52
841 22
842 74
843 140
844 11
845 34
846 140
847 5
848 42
849 2
850 19
851 23
852 128
853 158
854 38
855 103
856 284
857 72
858 265
859 116
860 98
861 20
862 441
863 39
864 28
865 20
866 462
867 45
868 72
869 48
870 325
871 80
872 5
873 1
874 30
875 123
876 29
877 3
878 54
879 45
880 123
881 23
882 79
883 111
884 167
885 99
886 59
887 212
888 102
889 131
890 104
891 35
892 27
893 134
894 174
895 12
896 115
897 50
898 188
899 2
900 309
901 115
902 207
903 87
904 10
905 9
906 63
907 53
908 69
909 95
910 456
911 66
912 188
913 112
914 133
915 226
916 265
917 678
918 68
919 39
920 237
921 278
922 15
923 524
924 23
925 163
926 122
927 47
928 347
929 34
930 210
931 18
932 14
933 60
934 79
935 35
936 10
937 204
938 53
939 32
940 37
941 12
942 37
943 37
944 87
945 129
946 420
947 175
948 110
949 167
950 13
951 227
952 11
953 147
954 154
955 83
956 119
957 74
958 270
959 23
960 122
961 324
962 80
963 266
964 14
965 51
966 85
967 136
968 83
969 86
970 45
971 272
972 25
973 10
974 24
975 20
976 100
977 14
978 43
979 8
980 26
981 214
982 42
983 204
984 3
985 77
986 22
987 70
988 76
989 204
990 245
991 107
992 161
993 47
994 401
995 70
996 77
997 49
998 11
999 31
1000 28
1001 291
1002 443
1003 11
1004 15
1005 10
1006 134
1007 15
1008 140
1009 54
1010 548
1011 9
1012 401
1013 425
1014 65
1015 2
1016 172
1017 10
1018 34
1019 76
1020 21
1021 40
1022 184
1023 4
1024 53
1025 223
1026 322
1027 34
1028 368
1029 117
1030 76
1031 556
1032 163
1033 46
1034 59
1035 449
1036 78
1037 8
1038 97
1039 14
1040 154
1041 272
1042 99
1043 220
1044 10
1045 347
1046 7
1047 192
1048 29
1049 75
1050 87
1051 206
1052 5
1053 66
1054 72
1055 36
1056 32
1057 10
1058 99
1059 343
1060 327
1061 265
1062 339
1063 129
1064 3
1065 95
1066 77
1067 112
1068 7
1069 175
1070 119
1071 55
1072 7
1073 357
1074 4
1075 293
1076 65
1077 242
1078 96
1079 221
1080 104
1081 158
1082 77
1083 23
1084 7
1085 13
1086 7
1087 94
1088 14
1089 33
1090 131
1091 114
1092 131
1093 110
1094 174
1095 216
1096 78
1097 91
1098 28
1099 130
1100 739
1101 41
1102 221
1103 184
1104 221
1105 17
1106 6
1107 115
1108 44
1109 203
1110 7
1111 1201
1112 62
1113 49
1114 161
1115 25
1116 71
1117 153
1118 50
1119 295
1120 22
1121 2
1122 51
1123 40
1124 212
1125 49
1126 138
1127 91
1128 426
1129 144
1130 128
1131 100
1132 33
1133 171
1134 6
1135 4
1136 1
1137 166
1138 11
1139 90
1140 112
1141 119
1142 56
1143 176
1144 33
1145 89
1146 101
1147 47
1148 16
1149 199
1150 129
1151 24
1152 80
1153 211
1154 98
1155 93
1156 5
1157 121
1158 17
1159 88
1160 92
1161 2
1162 31
1163 125
1164 54
1165 15
1166 138
1167 6
1168 84
1169 146
1170 7
1171 47
1172 130
1173 455
1174 2
1175 47
1176 82
1177 124
1178 2
1179 163
1180 294
1181 65
1182 61
1183 114
1184 20
1185 98
1186 25
1187 77
1188 52
1189 134
1190 258
1191 11
1192 9
1193 781
1194 132
1195 100
1196 73
1197 74
1198 335
1199 144
1200 34
1201 219
1202 103
1203 14
1204 6
1205 3
1206 69
1207 145
1208 20
1209 51
1210 109
1211 231
1212 417
1213 58
1214 112
1215 142
1216 197
1217 28
1218 3
1219 445
1220 86
1221 62
1222 618
1223 54
1224 155
1225 68
1226 68
1227 208
1228 252
1229 17
1230 105
1231 177
1232 109
1233 222
1234 57
1235 197
1236 15
1237 47
1238 263
1239 78
1240 141
1241 311
1242 146
1243 8
1244 8
1245 250
1246 131
1247 211
1248 6
1249 9
1250 43
1251 8
1252 14
1253 228
1254 50
1255 196
1256 206
1257 85
1258 172
1259 100
1260 25
1261 45
1262 166
1263 15
1264 9
1265 88
1266 80
1267 28
1268 142
1269 50
1270 85
1271 605
1272 21
1273 273
1274 80
1275 328
1276 40
1277 301
1278 148
1279 112
1280 31
1281 163
1282 164
1283 231
1284 338
1285 206
1286 158
1287 130
1288 45
1289 138
1290 59
1291 314
1292 112
1293 59
1294 205
1295 48
1296 19
1297 1
1298 46
1299 142
1300 67
1301 140
1302 123
1303 114
1304 29
1305 23
1306 26
1307 17
1308 98
1309 99
1310 165
1311 3
1312 263
1313 68
1314 7
1315 19
1316 102
1317 262
1318 6
1319 299
1320 31
1321 190
1322 21
1323 21
1324 92
1325 62
1326 2
1327 198
1328 202
1329 100
1330 300
1331 19
1332 39
1333 120
1334 242
1335 58
1336 13
1337 38
1338 16
1339 1
1340 131
1341 6
1342 92
1343 109
1344 118
1345 249
1346 98
1347 14
1348 31
1349 143
1350 76
1351 128
1352 278
1353 17
1354 30
1355 230
1356 248
1357 382
1358 37
1359 278
1360 12
1361 137
1362 40
1363 60
1364 83
1365 554
1366 161
1367 546
1368 100
1369 25
1370 37
1371 50
1372 37
1373 104
1374 6
1375 49
1376 128
1377 105
1378 525
1379 92
1380 1
1381 96
1382 7
1383 453
1384 55
1385 26
1386 13
1387 513
1388 63
1389 474
1390 142
1391 220
1392 68
1393 4
1394 49
1395 31
1396 148
1397 22
1398 147
1399 114
1400 41
1401 13
1402 37
1403 88
1404 64
1405 230
1406 21
1407 110
1408 100
1409 2
1410 66
1411 76
1412 1
1413 367
1414 402
1415 19
1416 46
1417 32
1418 59
1419 137
1420 51
1421 35
1422 355
1423 545
1424 329
1425 31
1426 162
1427 179
1428 352
1429 106
1430 228
1431 5
1432 40
1433 36
1434 63
1435 93
1436 382
1437 16
1438 211
1439 273
1440 222
1441 77
1442 352
1443 78
1444 16
1445 28
1446 102
1447 199
1448 178
1449 297
1450 138
1451 8
1452 146
1453 157
1454 48
1455 116
1456 193
1457 212
1458 467
1459 23
1460 209
1461 12
1462 120
1463 125
1464 160
1465 292
1466 379
1467 69
1468 11
1469 920
1470 58
1471 27
1472 110
1473 8
1474 110
1475 238
1476 6
1477 206
1478 136
1479 417
1480 139
1481 336
1482 195
1483 24
1484 30
1485 129
1486 80
1487 94
1488 14
1489 49
1490 3
1491 540
1492 280
1493 390
1494 197
1495 20
1496 1
1497 16
1498 36
1499 143
1500 37
1501 241
1502 238
1503 19
1504 28
1505 35
1506 40
1507 55
1508 146
1509 140
1510 171
1511 468
1512 31
1513 94
1514 7
1515 122
1516 23
1517 170
1518 72
1519 271
1520 87
1521 259
1522 276
1523 55
1524 89
1525 30
1526 170
1527 14
1528 444
1529 163
1530 21
1531 47
1532 94
1533 62
1534 113
1535 56
1536 24
1537 356
1538 2
1539 110
1540 93
1541 110
1542 73
1543 205
1544 30
1545 297
1546 599
1547 220
1548 287
1549 412
1550 85
1551 68
1552 322
1553 128
1554 508
1555 98
1556 59
1557 155
1558 57
1559 654
1560 535
1561 357
1562 8
1563 74
1564 62
1565 102
1566 176
1567 203
1568 157
1569 218
1570 235
1571 98
1572 333
1573 5
1574 210
1575 115
1576 302
1577 64
1578 508
1579 260
1580 168
1581 328
1582 5
1583 55
1584 167
1585 185
1586 109
1587 177
1588 26
1589 5
1590 78
1591 56
1592 196
1593 143
1594 100
1595 100
1596 123
1597 58
1598 7
1599 57
1600 80
1601 248
1602 82
1603 2
1604 85
1605 221
1606 45
1607 217
1608 26
1609 350
1610 125
1611 221
1612 44
1613 152
1614 330
1615 51
1616 378
1617 81
1618 133
1619 51
1620 176
1621 83
1622 173
1623 188
1624 315
1625 169
1626 236
1627 3
1628 365
1629 262
1630 49
1631 23
1632 120
1633 69
1634 436
1635 74
1636 272
1637 144
1638 188
1639 106
1640 1088
1641 318
1642 443
1643 45
1644 15
1645 76
1646 406
1647 7
1648 61
1649 31
1650 34
1651 47
1652 76
1653 191
1654 78
1655 89
1656 108
1657 159
1658 256
1659 117
1660 4
1661 1
1662 43
1663 203
1664 51
1665 133
1666 202
1667 141
1668 43
1669 48
1670 256
1671 130
1672 265
1673 383
1674 57
1675 29
1676 699
1677 83
1678 64
1679 90
1680 446
1681 10
1682 169
1683 188
1684 109
1685 53
1686 52
1687 477
1688 132
1689 49
1690 223
1691 241
1692 7
1693 85
1694 103
1695 389
1696 359
1697 38
1698 84
1699 587
1700 50
1701 170
1702 245
1703 534
1704 72
1705 142
1706 350
1707 24
1708 144
1709 170
1710 14
1711 244
1712 9
1713 135
1714 350
1715 608
1716 103
1717 151
1718 37
1719 225
1720 36
1721 98
1722 340
1723 54
1724 143
1725 366
1726 79
1727 82
1728 49
1729 91
1730 238
1731 279
1732 220
1733 133
1734 384
1735 323
1736 48
1737 153
1738 240
1739 487
1740 99
1741 110
1742 480
1743 103
1744 61
1745 101
1746 61
1747 78
1748 58
1749 86
1750 291
1751 31
1752 476
1753 7
1754 62
1755 260
1756 61
1757 2
1758 698
1759 174
1760 336
1761 52
1762 174
1763 57
1764 412
1765 88
1766 253
1767 85
1768 38
1769 57
1770 349
1771 13
1772 81
1773 29
1774 4
1775 95
1776 31
1777 35
1778 218
1779 19
1780 20
1781 189
1782 44
1783 189
1784 78
1785 55
1786 155
1787 307
1788 97
1789 53
1790 393
1791 68
1792 18
1793 11
1794 106
1795 48
1796 11
1797 328
1798 454
1799 22
1800 19
1801 89
1802 69
1803 44
1804 99
1805 143
1806 323
1807 22
1808 95
1809 224
1810 78
1811 60
1812 353
1813 42
1814 453
1815 226
1816 15
1817 167
1818 131
1819 209
1820 137
1821 398
1822 129
1823 381
1824 9
1825 9
1826 82
1827 206
1828 58
1829 147
1830 2
1831 96
1832 282
1833 168
1834 2
1835 312
1836 234
1837 281
1838 41
1839 69
1840 22
1841 132
1842 79
1843 108
1844 174
1845 221
1846 59
1847 14
1848 82
1849 38
1850 50
1851 93
1852 229
1853 53
1854 387
1855 419
1856 16
1857 6
1858 124
1859 260
1860 111
1861 31
1862 70
1863 261
1864 299
1865 248
1866 128
1867 134
1868 118
1869 183
1870 22
1871 58
1872 34
1873 261
1874 66
1875 41
1876 111
1877 95
1878 1
1879 160
1880 182
1881 366
1882 97
1883 129
1884 231
1885 200
1886 633
1887 28
1888 507
1889 19
1890 18
1891 453
1892 76
1893 8
1894 130
1895 27
1896 161
1897 111
1898 180
1899 76
1900 52
1901 1
1902 90
1903 56
1904 92
1905 122
1906 18
1907 32
1908 185
1909 66
1910 116
1911 359
1912 48
1913 2
1914 137
1915 57
1916 12
1917 14
1918 217
1919 93
1920 84
1921 10
1922 216
1923 165
1924 4
1925 70
1926 38
1927 112
1928 704
1929 118
1930 27
1931 196
1932 430
1933 46
1934 14
1935 388
1936 165
1937 250
1938 219
1939 50
1940 143
1941 57
1942 479
1943 172
1944 146
1945 16
1946 4
1947 2
1948 130
1949 373
1950 104
1951 8
1952 258
1953 19
1954 133
1955 44
1956 198
1957 39
1958 97
1959 478
1960 192
1961 229
1962 49
1963 61
1964 308
1965 208
1966 250
1967 159
1968 71
1969 13
1970 82
1971 53
1972 81
1973 251
1974 66
1975 8
1976 27
1977 2
1978 211
1979 97
1980 14
1981 30
1982 26
1983 99
1984 81
1985 87
1986 87
1987 135
1988 187
1989 26
1990 45
1991 4
1992 20
1993 251
1994 206
1995 8
1996 83
1997 20
1998 129
1999 407
