0 31
1 35
2 36
3 21
4 170
5 5
6 15
7 2
8 10
9 15
10 53
11 13
12 1
13 21
14 54
15 33
16 9
17 8
18 75
19 23
20 111
21 11
22 102
23 48
24 27
25 55
26 40
27 56
28 68
29 39
30 20
31 58
32 1
33 28
34 12
35 13
36 42
37 17
38 79
39 96
40 57
41 93
42 32
43 87
44 9
45 27
46 66
47 167
48 2
49 2
50 3
51 20
52 15
53 23
54 1
55 43
56 2
57 126
58 24
59 16
60 33
61 48
62 25
63 23
64 8
65 6
66 44
67 19
68 30
69 26
70 41
71 76
72 115
73 20
74 25
75 62
76 40
77 22
78 24
79 40
80 34
81 33
82 47
83 28
84 50
85 3
86 20
87 10
88 28
89 27
90 23
91 275
92 4
93 88
94 31
95 1
96 15
97 20
98 60
99 3
100 45
101 24
102 67
103 10
104 85
105 21
106 11
107 94
108 27
109 81
110 104
111 175
112 7
113 5
114 87
115 110
116 91
117 27
118 129
119 66
120 15
121 6
122 17
123 141
124 60
125 216
126 4
127 19
128 79
129 284
130 80
131 33
132 191
133 9
134 19
135 192
136 96
137 120
138 75
139 34
140 75
141 74
142 58
143 125
144 98
145 5
146 33
147 71
148 193
149 31
150 69
151 88
152 7
153 41
154 4
155 72
156 3
157 60
158 99
159 52
160 1
161 29
162 16
163 1
164 66
165 104
166 25
167 16
168 40
169 58
170 33
171 43
172 190
173 158
174 62
175 56
176 466
177 110
178 66
179 84
180 64
181 61
182 282
183 145
184 145
185 15
186 14
187 16
188 126
189 18
190 102
191 34
192 46
193 32
194 6
195 2
196 27
197 47
198 35
199 15
200 17
201 77
202 211
203 40
204 91
205 182
206 117
207 78
208 57
209 197
210 103
211 56
212 12
213 9
214 22
215 16
216 25
217 86
218 5
219 59
220 23
221 109
222 30
223 76
224 103
225 68
226 26
227 51
228 24
229 8
230 48
231 5
232 12
233 9
234 37
235 41
236 100
237 87
238 11
239 1
240 12
241 227
242 8
243 63
244 7
245 31
246 169
247 43
248 49
249 98
250 117
251 32
252 95
253 123
254 92
255 3
256 27
257 125
258 72
259 1
260 31
261 71
262 12
263 25
264 60
265 26
266 36
267 52
268 40
269 11
270 119
271 17
272 62
273 120
274 190
275 1
276 16
277 8
278 30
279 32
280 40
281 7
282 10
283 109
284 79
285 67
286 3
287 22
288 219
289 56
290 50
291 125
292 23
293 142
294 136
295 58
296 264
297 172
298 224
299 120
300 8
301 43
302 3
303 57
304 6
305 169
306 7
307 21
308 58
309 236
310 120
311 61
312 38
313 54
314 205
315 22
316 16
317 147
318 12
319 105
320 12
321 239
322 1
323 137
324 19
325 19
326 137
327 100
328 30
329 30
330 108
331 19
332 27
333 25
334 38
335 54
336 51
337 16
338 66
339 124
340 20
341 117
342 113
343 54
344 8
345 114
346 11
347 46
348 77
349 43
350 7
351 83
352 85
353 3
354 8
355 103
356 3
357 25
358 17
359 87
360 68
361 115
362 87
363 99
364 56
365 87
366 93
367 68
368 44
369 206
370 78
371 64
372 87
373 3
374 13
375 131
376 131
377 83
378 211
379 13
380 70
381 109
382 13
383 152
384 34
385 153
386 81
387 48
388 18
389 54
390 22
391 15
392 38
393 67
394 4
395 36
396 3
397 1
398 63
399 107
400 2
401 101
402 93
403 80
404 112
405 159
406 81
407 24
408 121
409 102
410 15
411 83
412 171
413 16
414 199
415 2
416 3
417 72
418 30
419 58
420 252
421 3
422 177
423 44
424 128
425 106
426 42
427 26
428 138
429 197
430 55
431 64
432 36
433 37
434 2
435 23
436 6
437 103
438 23
439 14
440 26
441 66
442 70
443 86
444 11
445 35
446 62
447 1
448 40
449 51
450 120
451 82
452 182
453 201
454 22
455 7
456 26
457 24
458 70
459 186
460 102
461 4
462 35
463 54
464 1
465 110
466 70
467 16
468 36
469 9
470 2
471 20
472 19
473 24
474 44
475 48
476 115
477 67
478 180
479 72
480 40
481 63
482 102
483 41
484 7
485 81
486 36
487 108
488 29
489 38
490 15
491 79
492 63
493 9
494 81
495 144
496 35
497 69
498 52
499 4
500 42
501 11
502 1
503 46
504 68
505 58
506 37
507 40
508 121
509 16
510 88
511 70
512 145
513 48
514 1
515 39
516 103
517 46
518 148
519 16
520 21
521 43
522 47
523 90
524 58
525 59
526 28
527 135
528 44
529 74
530 34
531 149
532 49
533 27
534 195
535 8
536 105
537 5
538 14
539 15
540 40
541 23
542 102
543 104
544 103
545 22
546 69
547 91
548 25
549 131
550 69
551 17
552 258
553 47
554 16
555 97
556 22
557 33
558 121
559 30
560 26
561 20
562 6
563 40
564 7
565 40
566 11
567 44
568 225
569 68
570 18
571 77
572 2
573 40
574 63
575 57
576 22
577 147
578 22
579 6
580 78
581 81
582 103
583 31
584 17
585 35
586 47
587 93
588 186
589 148
590 125
591 16
592 14
593 175
594 27
595 93
596 68
597 9
598 3
599 11
600 136
601 13
602 8
603 4
604 12
605 186
606 1
607 52
608 70
609 34
610 131
611 40
612 20
613 59
614 42
615 124
616 21
617 18
618 9
619 32
620 70
621 13
622 4
623 115
624 39
625 130
626 13
627 7
628 54
629 153
630 13
631 19
632 15
633 45
634 44
635 76
636 28
637 20
638 146
639 35
640 44
641 155
642 12
643 19
644 2
645 57
646 23
647 75
648 9
649 51
650 15
651 26
652 9
653 77
654 3
655 68
656 10
657 36
658 2
659 83
660 10
661 17
662 63
663 6
664 39
665 37
666 69
667 68
668 6
669 56
670 1
671 131
672 107
673 25
674 116
675 177
676 39
677 46
678 35
679 301
680 72
681 13
682 122
683 12
684 8
685 1
686 72
687 101
688 26
689 121
690 59
691 83
692 40
693 81
694 125
695 44
696 14
697 242
698 71
699 35
700 78
701 29
702 95
703 105
704 25
705 46
706 46
707 70
708 37
709 2
710 94
711 13
712 67
713 26
714 29
715 13
716 21
717 321
718 32
719 51
720 66
721 83
722 132
723 83
724 71
725 65
726 97
727 58
728 87
729 12
730 43
731 161
732 5
733 83
734 127
735 77
736 51
737 34
738 5
739 52
740 26
741 147
742 77
743 42
744 57
745 9
746 124
747 265
748 19
749 39
750 58
751 150
752 27
753 31
754 15
755 122
756 22
757 119
758 110
759 70
760 15
761 1
762 25
763 41
764 233
765 39
766 30
767 34
768 8
769 101
770 112
771 196
772 12
773 1
774 42
775 19
776 4
777 98
778 31
779 42
780 3
781 34
782 24
783 63
784 21
785 1
786 35
787 58
788 1
789 99
790 13
791 29
792 10
793 35
794 87
795 43
796 3
797 3
798 97
799 3
800 11
801 11
802 45
803 36
804 1
805 145
806 10
807 38
808 42
809 13
810 45
811 13
812 11
813 65
814 155
815 91
816 79
817 12
818 24
819 97
820 39
821 48
822 41
823 21
824 12
825 20
826 9
827 13
828 57
829 67
830 81
831 14
832 33
833 25
834 124
835 33
836 20
837 96
838 31
839 187
840 158
841 16
842 9
843 34
844 180
845 91
846 26
847 150
848 2
849 104
850 54
851 140
852 95
853 4
854 115
855 108
856 77
857 270
858 47
859 86
860 93
861 184
862 14
863 255
864 107
865 7
866 7
867 18
868 23
869 89
870 106
871 7
872 14
873 206
874 318
875 11
876 100
877 31
878 55
879 42
880 78
881 185
882 41
883 46
884 169
885 34
886 39
887 12
888 39
889 153
890 29
891 123
892 12
893 11
894 18
895 4
896 62
897 59
898 42
899 56
900 103
901 43
902 56
903 57
904 10
905 1
906 25
907 111
908 2
909 24
910 54
911 36
912 8
913 1
914 43
915 86
916 85
917 14
918 48
919 25
920 6
921 51
922 85
923 166
924 45
925 8
926 14
927 4
928 54
929 23
930 9
931 126
932 205
933 4
934 2
935 81
936 40
937 35
938 16
939 115
940 32
941 243
942 59
943 60
944 24
945 42
946 52
947 4
948 71
949 125
950 202
951 33
952 73
953 86
954 7
955 51
956 46
957 41
958 3
959 31
960 56
961 4
962 153
963 310
964 14
965 406
966 36
967 247
968 53
969 59
970 23
971 56
972 176
973 53
974 45
975 70
976 66
977 15
978 45
979 28
980 145
981 35
982 5
983 23
984 64
985 141
986 77
987 161
988 133
989 92
990 19
991 383
992 102
993 100
994 2
995 46
996 61
997 25
998 194
999 24
1000 31
1001 86
1002 3
1003 46
1004 68
1005 53
1006 5
1007 115
1008 41
1009 81
1010 76
1011 196
1012 20
1013 51
1014 54
1015 149
1016 43
1017 49
1018 145
1019 11
1020 37
1021 125
1022 107
1023 66
1024 133
1025 24
1026 57
1027 74
1028 95
1029 39
1030 103
1031 5
1032 34
1033 51
1034 89
1035 29
1036 216
1037 274
1038 6
1039 122
1040 19
1041 2
1042 63
1043 88
1044 61
1045 127
1046 24
1047 4
1048 46
1049 31
1050 138
1051 86
1052 122
1053 149
1054 54
1055 39
1056 34
1057 55
1058 114
1059 145
1060 42
1061 12
1062 118
1063 47
1064 2
1065 47
1066 94
1067 108
1068 41
1069 47
1070 42
1071 62
1072 23
1073 72
1074 55
1075 64
1076 34
1077 6
1078 3
1079 167
1080 4
1081 7
1082 556
1083 27
1084 39
1085 2
1086 163
1087 20
1088 79
1089 79
1090 127
1091 13
1092 69
1093 12
1094 12
1095 6
1096 142
1097 270
1098 147
1099 36
1100 63
1101 78
1102 64
1103 3
1104 93
1105 84
1106 22
1107 252
1108 181
1109 87
1110 212
1111 33
1112 208
1113 75
1114 80
1115 204
1116 142
1117 49
1118 165
1119 84
1120 84
1121 35
1122 255
1123 69
1124 148
1125 10
1126 45
1127 66
1128 45
1129 178
1130 226
1131 23
1132 75
1133 35
1134 13
1135 7
1136 29
1137 321
1138 113
1139 107
1140 59
1141 125
1142 212
1143 3
1144 157
1145 171
1146 132
1147 20
1148 99
1149 119
1150 271
1151 46
1152 107
1153 60
1154 121
1155 115
1156 62
1157 153
1158 434
1159 6
1160 17
1161 35
1162 9
1163 10
1164 280
1165 137
1166 15
1167 50
1168 22
1169 38
1170 12
1171 10
1172 804
1173 44
1174 10
1175 708
1176 51
1177 60
1178 26
1179 71
1180 14
1181 155
1182 48
1183 71
1184 4
1185 120
1186 5
1187 353
1188 203
1189 180
1190 62
1191 3
1192 22
1193 35
1194 19
1195 2
1196 163
1197 119
1198 1
1199 9
1200 140
1201 1
1202 46
1203 84
1204 142
1205 37
1206 39
1207 186
1208 82
1209 56
1210 28
1211 152
1212 92
1213 159
1214 10
1215 106
1216 81
1217 140
1218 34
1219 326
1220 3
1221 6
1222 214
1223 171
1224 14
1225 185
1226 12
1227 77
1228 20
1229 27
1230 16
1231 94
1232 48
1233 16
1234 129
1235 254
1236 123
1237 6
1238 83
1239 66
1240 10
1241 38
1242 20
1243 98
1244 13
1245 19
1246 16
1247 151
1248 32
1249 116
1250 148
1251 22
1252 81
1253 14
1254 108
1255 15
1256 7
1257 107
1258 13
1259 19
1260 91
1261 49
1262 23
1263 74
1264 28
1265 46
1266 29
1267 34
1268 88
1269 17
1270 15
1271 61
1272 92
1273 87
1274 147
1275 83
1276 23
1277 89
1278 14
1279 25
1280 7
1281 225
1282 48
1283 30
1284 2
1285 106
1286 47
1287 28
1288 47
1289 41
1290 78
1291 172
1292 92
1293 68
1294 24
1295 74
1296 112
1297 16
1298 33
1299 6
1300 64
1301 132
1302 52
1303 12
1304 38
1305 21
1306 35
1307 29
1308 313
1309 16
1310 46
1311 81
1312 1
1313 84
1314 65
1315 73
1316 101
1317 78
1318 97
1319 64
1320 25
1321 67
1322 20
1323 63
1324 14
1325 17
1326 268
1327 32
1328 115
1329 35
1330 22
1331 23
1332 303
1333 186
1334 107
1335 3
1336 10
1337 12
1338 200
1339 9
1340 83
1341 86
1342 51
1343 18
1344 264
1345 52
1346 104
1347 29
1348 57
1349 110
1350 17
1351 28
1352 29
1353 5
1354 91
1355 284
1356 110
1357 129
1358 276
1359 8
1360 16
1361 22
1362 45
1363 14
1364 312
1365 28
1366 19
1367 71
1368 107
1369 7
1370 91
1371 126
1372 4
1373 99
1374 31
1375 101
1376 44
1377 129
1378 53
1379 159
1380 113
1381 96
1382 34
1383 142
1384 2
1385 172
1386 102
1387 3
1388 2
1389 75
1390 103
1391 18
1392 40
1393 182
1394 59
1395 148
1396 72
1397 151
1398 3
1399 57
1400 39
1401 2
1402 168
1403 28
1404 16
1405 15
1406 22
1407 59
1408 245
1409 134
1410 15
1411 40
1412 41
1413 42
1414 29
1415 78
1416 113
1417 102
1418 38
1419 46
1420 21
1421 37
1422 335
1423 70
1424 8
1425 74
1426 115
1427 97
1428 39
1429 9
1430 205
1431 34
1432 34
1433 97
1434 33
1435 170
1436 15
1437 38
1438 50
1439 18
1440 30
1441 172
1442 109
1443 6
1444 17
1445 43
1446 10
1447 70
1448 176
1449 46
1450 49
1451 202
1452 29
1453 45
1454 57
1455 272
1456 6
1457 142
1458 43
1459 245
1460 124
1461 39
1462 14
1463 10
1464 10
1465 33
1466 14
1467 7
1468 9
1469 208
1470 60
1471 29
1472 34
1473 11
1474 63
1475 149
1476 53
1477 10
1478 24
1479 63
1480 220
1481 38
1482 11
1483 131
1484 59
1485 7
1486 89
1487 8
1488 77
1489 45
1490 17
1491 3
1492 62
1493 12
1494 101
1495 40
1496 25
1497 86
1498 38
1499 79
1500 81
1501 20
1502 2
1503 4
1504 32
1505 16
1506 23
1507 53
1508 238
1509 3
1510 43
1511 88
1512 23
1513 16
1514 31
1515 29
1516 18
1517 8
1518 90
1519 64
1520 9
1521 23
1522 97
1523 88
1524 92
1525 23
1526 4
1527 96
1528 114
1529 31
1530 117
1531 68
1532 226
1533 33
1534 10
1535 39
1536 18
1537 20
1538 17
1539 59
1540 22
1541 21
1542 7
1543 55
1544 59
1545 17
1546 58
1547 75
1548 180
1549 18
1550 94
1551 8
1552 24
1553 6
1554 171
1555 340
1556 51
1557 16
1558 45
1559 15
1560 33
1561 229
1562 274
1563 14
1564 9
1565 6
1566 14
1567 99
1568 35
1569 41
1570 9
1571 29
1572 101
1573 5
1574 19
1575 41
1576 4
1577 317
1578 24
1579 20
1580 115
1581 83
1582 77
1583 123
1584 49
1585 76
1586 244
1587 292
1588 213
1589 9
1590 129
1591 183
1592 74
1593 47
1594 56
1595 286
1596 111
1597 28
1598 19
1599 36
1600 87
1601 37
1602 13
1603 36
1604 52
1605 92
1606 84
1607 4
1608 28
1609 208
1610 241
1611 163
1612 11
1613 16
1614 153
1615 94
1616 69
1617 65
1618 17
1619 276
1620 94
1621 24
1622 59
1623 50
1624 26
1625 54
1626 98
1627 120
1628 4
1629 216
1630 17
1631 27
1632 79
1633 93
1634 132
1635 264
1636 82
1637 86
1638 91
1639 185
1640 132
1641 15
1642 20
1643 59
1644 123
1645 1
1646 130
1647 58
1648 81
1649 146
1650 2
1651 43
1652 162
1653 142
1654 87
1655 45
1656 60
1657 60
1658 37
1659 130
1660 240
1661 37
1662 216
1663 38
1664 89
1665 233
1666 4
1667 13
1668 115
1669 91
1670 75
1671 133
1672 21
1673 245
1674 7
1675 73
1676 247
1677 71
1678 36
1679 70
1680 10
1681 56
1682 4
1683 36
1684 302
1685 72
1686 53
1687 69
1688 3
1689 49
1690 15
1691 20
1692 20
1693 6
1694 19
1695 21
1696 32
1697 318
1698 28
1699 36
1700 216
1701 113
1702 44
1703 242
1704 65
1705 13
1706 17
1707 39
1708 380
1709 56
1710 128
1711 4
1712 138
1713 24
1714 59
1715 6
1716 54
1717 1
1718 83
1719 72
1720 135
1721 3
1722 25
1723 107
1724 44
1725 289
1726 2
1727 58
1728 78
1729 42
1730 45
1731 57
1732 186
1733 31
1734 19
1735 38
1736 155
1737 60
1738 16
1739 16
1740 86
1741 32
1742 8
1743 92
1744 306
1745 205
1746 13
1747 672
1748 42
1749 58
1750 21
1751 4
1752 91
1753 11
1754 56
1755 41
1756 21
1757 156
1758 32
1759 15
1760 42
1761 54
1762 2
1763 89
1764 118
1765 54
1766 113
1767 6
1768 227
1769 24
1770 201
1771 100
1772 29
1773 211
1774 27
1775 162
1776 60
1777 13
1778 48
1779 67
1780 11
1781 28
1782 272
1783 15
1784 157
1785 21
1786 70
1787 49
1788 26
1789 97
1790 10
1791 178
1792 73
1793 53
1794 70
1795 2
1796 133
1797 28
1798 121
1799 168
1800 13
1801 3
1802 157
1803 94
1804 13
1805 20
1806 75
1807 128
1808 78
1809 96
1810 244
1811 78
1812 159
1813 42
1814 135
1815 35
1816 142
1817 174
1818 158
1819 91
1820 50
1821 166
1822 306
1823 69
1824 123
1825 121
1826 14
1827 103
1828 31
1829 22
1830 25
1831 216
1832 141
1833 1
1834 75
1835 44
1836 30
1837 154
1838 8
1839 27
1840 72
1841 20
1842 67
1843 34
1844 5
1845 22
1846 119
1847 24
1848 65
1849 93
1850 130
1851 250
1852 17
1853 32
1854 1
1855 22
1856 127
1857 14
1858 59
1859 113
1860 208
1861 12
1862 48
1863 142
1864 150
1865 13
1866 51
1867 48
1868 118
1869 36
1870 415
1871 90
1872 35
1873 84
1874 32
1875 138
1876 317
1877 21
1878 59
1879 1
1880 49
1881 12
1882 186
1883 241
1884 14
1885 78
1886 8
1887 95
1888 3
1889 61
1890 144
1891 71
1892 20
1893 18
1894 82
1895 50
1896 33
1897 258
1898 78
1899 22
1900 104
1901 35
1902 9
1903 205
1904 5
1905 9
1906 65
1907 2
1908 109
1909 46
1910 38
1911 47
1912 258
1913 107
1914 33
1915 9
1916 9
1917 2
1918 66
1919 234
1920 45
1921 38
1922 31
1923 26
1924 10
1925 140
1926 40
1927 42
1928 11
1929 81
1930 108
1931 90
1932 10
1933 62
1934 40
1935 8
1936 90
1937 55
1938 77
1939 28
1940 81
1941 111
1942 31
1943 273
1944 56
1945 80
1946 80
1947 41
1948 9
1949 15
1950 77
1951 28
1952 163
1953 64
1954 68
1955 186
1956 76
1957 15
1958 72
1959 40
1960 3
1961 104
1962 16
1963 49
1964 7
1965 34
1966 30
1967 247
1968 43
1969 26
1970 14
1971 142
1972 20
1973 11
1974 112
1975 43
1976 51
1977 56
1978 110
1979 42
1980 13
1981 26
1982 20
1983 8
1984 206
1985 59
1986 23
1987 43
1988 2
1989 173
1990 101
1991 141
1992 47
1993 45
1994 546
1995 137
1996 11
1997 340
1998 68
1999 33
