0 12
1 112
2 15
3 96
4 137
5 33
6 35
7 36
8 33
9 12
10 29
11 151
12 8
13 169
14 51
15 282
16 9
17 41
18 50
19 15
20 75
21 70
22 51
23 38
24 67
25 103
26 50
27 5
28 73
29 56
30 42
31 185
32 2
33 64
34 48
35 20
36 10
37 9
38 90
39 225
40 70
41 33
42 44
43 37
44 249
45 82
46 49
47 20
48 251
49 158
50 84
51 219
52 143
53 280
54 111
55 206
56 10
57 85
58 28
59 133
60 79
61 5
62 172
63 64
64 89
65 60
66 102
67 87
68 37
69 55
70 3
71 374
72 29
73 211
74 95
75 79
76 147
77 58
78 96
79 39
80 12
81 4
82 19
83 1
84 14
85 101
86 309
87 193
88 136
89 30
90 27
91 111
92 45
93 8
94 34
95 95
96 9
97 16
98 4
99 284
100 97
101 2
102 12
103 8
104 11
105 22
106 21
107 1
108 121
109 33
110 49
111 52
112 35
113 56
114 21
115 1
116 18
117 27
118 15
119 119
120 20
121 238
122 211
123 91
124 63
125 282
126 6
127 21
128 22
129 56
130 75
131 409
132 207
133 73
134 79
135 13
136 64
137 35
138 51
139 88
140 24
141 125
142 114
143 7
144 42
145 182
146 56
147 159
148 18
149 23
150 160
151 59
152 20
153 225
154 14
155 275
156 34
157 24
158 56
159 74
160 107
161 140
162 65
163 58
164 181
165 58
166 168
167 11
168 121
169 62
170 78
171 111
172 30
173 60
174 24
175 18
176 7
177 92
178 70
179 187
180 88
181 28
182 81
183 161
184 58
185 72
186 31
187 171
188 69
189 66
190 413
191 161
192 29
193 146
194 58
195 5
196 169
197 122
198 151
199 14
200 33
201 50
202 167
203 21
204 15
205 63
206 124
207 33
208 38
209 110
210 81
211 96
212 45
213 64
214 90
215 22
216 24
217 28
218 120
219 166
220 154
221 21
222 92
223 82
224 55
225 67
226 66
227 193
228 65
229 47
230 122
231 38
232 45
233 76
234 59
235 25
236 11
237 9
238 86
239 144
240 112
241 36
242 35
243 96
244 89
245 28
246 187
247 26
248 103
249 71
250 198
251 143
252 45
253 4
254 129
255 119
256 177
257 75
258 151
259 52
260 30
261 196
262 126
263 278
264 94
265 102
266 142
267 18
268 87
269 41
270 170
271 361
272 250
273 137
274 60
275 45
276 94
277 38
278 129
279 300
280 43
281 143
282 255
283 31
284 72
285 99
286 270
287 110
288 170
289 105
290 22
291 166
292 304
293 109
294 78
295 32
296 281
297 461
298 41
299 43
300 122
301 165
302 172
303 119
304 54
305 44
306 72
307 44
308 325
309 15
310 32
311 100
312 96
313 438
314 653
315 50
316 42
317 44
318 54
319 70
320 103
321 73
322 127
323 192
324 265
325 46
326 7
327 68
328 2
329 152
330 131
331 16
332 335
333 32
334 24
335 7
336 241
337 177
338 44
339 285
340 60
341 34
342 27
343 83
344 40
345 289
346 127
347 57
348 136
349 43
350 61
351 10
352 26
353 43
354 20
355 91
356 27
357 45
358 192
359 7
360 114
361 24
362 33
363 19
364 135
365 47
366 42
367 368
368 54
369 55
370 72
371 42
372 97
373 234
374 15
375 135
376 24
377 43
378 90
379 28
380 10
381 23
382 111
383 155
384 16
385 40
386 48
387 39
388 51
389 9
390 194
391 24
392 39
393 6
394 133
395 65
396 263
397 45
398 3
399 154
400 159
401 27
402 67
403 31
404 19
405 193
406 22
407 58
408 233
409 95
410 8
411 46
412 31
413 166
414 25
415 416
416 252
417 168
418 13
419 72
420 31
421 143
422 40
423 133
424 29
425 19
426 112
427 322
428 238
429 79
430 30
431 72
432 10
433 90
434 79
435 2
436 160
437 312
438 14
439 74
440 1
441 68
442 150
443 90
444 159
445 11
446 124
447 35
448 34
449 19
450 27
451 13
452 277
453 348
454 86
455 26
456 26
457 331
458 103
459 22
460 91
461 234
462 84
463 135
464 50
465 181
466 13
467 26
468 315
469 26
470 12
471 68
472 324
473 1
474 187
475 75
476 25
477 115
478 70
479 466
480 117
481 137
482 113
483 63
484 2
485 95
486 104
487 50
488 37
489 3
490 185
491 9
492 8
493 181
494 75
495 30
496 106
497 84
498 2
499 162
500 41
501 87
502 290
503 109
504 16
505 255
506 71
507 116
508 150
509 253
510 213
511 59
512 29
513 195
514 50
515 108
516 53
517 100
518 55
519 27
520 89
521 231
522 72
523 15
524 203
525 16
526 52
527 125
528 34
529 119
530 174
531 36
532 382
533 58
534 68
535 4
536 75
537 156
538 248
539 16
540 11
541 13
542 139
543 21
544 122
545 159
546 6
547 38
548 16
549 291
550 74
551 10
552 223
553 137
554 60
555 153
556 141
557 242
558 94
559 287
560 144
561 124
562 111
563 83
564 98
565 135
566 9
567 88
568 156
569 14
570 27
571 153
572 278
573 163
574 118
575 36
576 16
577 242
578 21
579 337
580 43
581 28
582 140
583 126
584 281
585 604
586 99
587 114
588 65
589 65
590 45
591 399
592 84
593 62
594 103
595 50
596 360
597 38
598 85
599 35
600 390
601 244
602 57
603 76
604 33
605 77
606 137
607 71
608 172
609 4
610 53
611 236
612 114
613 191
614 177
615 28
616 83
617 95
618 78
619 378
620 16
621 96
622 35
623 50
624 19
625 92
626 120
627 30
628 23
629 32
630 172
631 41
632 80
633 133
634 12
635 52
636 38
637 210
638 180
639 43
640 8
641 3
642 185
643 284
644 52
645 3
646 60
647 149
648 34
649 35
650 275
651 306
652 84
653 75
654 17
655 381
656 59
657 118
658 19
659 45
660 74
661 253
662 65
663 226
664 41
665 57
666 115
667 38
668 84
669 102
670 156
671 103
672 328
673 311
674 539
675 241
676 27
677 1
678 99
679 12
680 184
681 83
682 58
683 108
684 26
685 18
686 80
687 69
688 11
689 21
690 61
691 26
692 34
693 1
694 120
695 8
696 258
697 67
698 14
699 35
700 535
701 141
702 48
703 11
704 34
705 127
706 103
707 105
708 35
709 58
710 42
711 120
712 109
713 26
714 83
715 47
716 150
717 97
718 31
719 59
720 22
721 136
722 99
723 78
724 11
725 120
726 81
727 10
728 269
729 6
730 116
731 45
732 254
733 124
734 116
735 215
736 435
737 40
738 55
739 99
740 122
741 70
742 118
743 49
744 250
745 351
746 13
747 12
748 40
749 238
750 102
751 3
752 15
753 75
754 289
755 61
756 255
757 56
758 68
759 84
760 53
761 15
762 139
763 220
764 134
765 188
766 384
767 144
768 65
769 150
770 196
771 42
772 72
773 87
774 19
775 121
776 8
777 95
778 60
779 45
780 19
781 89
782 164
783 22
784 12
785 243
786 103
787 21
788 242
789 30
790 38
791 5
792 520
793 247
794 9
795 130
796 83
797 49
798 79
799 56
800 44
801 6
802 2
803 359
804 113
805 149
806 114
807 65
808 197
809 94
810 44
811 120
812 1
813 75
814 195
815 279
816 10
817 244
818 233
819 11
820 48
821 201
822 129
823 119
824 23
825 21
826 181
827 51
828 34
829 222
830 41
831 13
832 10
833 6
834 65
835 4
836 47
837 51
838 23
839 43
840 33
841 187
842 20
843 326
844 106
845 136
846 37
847 7
848 174
849 107
850 149
851 44
852 173
853 76
854 31
855 45
856 203
857 38
858 47
859 55
860 26
861 10
862 133
863 14
864 63
865 123
866 233
867 69
868 101
869 106
870 21
871 61
872 158
873 69
874 89
875 15
876 68
877 20
878 644
879 77
880 37
881 166
882 22
883 67
884 187
885 56
886 11
887 39
888 30
889 258
890 17
891 40
892 53
893 47
894 204
895 28
896 14
897 51
898 100
899 116
900 19
901 29
902 31
903 72
904 31
905 72
906 90
907 114
908 142
909 8
910 167
911 134
912 461
913 84
914 60
915 82
916 55
917 25
918 76
919 359
920 499
921 340
922 17
923 228
924 56
925 34
926 60
927 102
928 96
929 85
930 42
931 13
932 68
933 120
934 48
935 34
936 36
937 62
938 3
939 47
940 37
941 49
942 18
943 62
944 307
945 1
946 45
947 97
948 161
949 207
950 548
951 39
952 269
953 46
954 74
955 33
956 173
957 266
958 39
959 161
960 3
961 3
962 208
963 135
964 3
965 3
966 134
967 5
968 209
969 352
970 34
971 24
972 42
973 75
974 51
975 316
976 756
977 82
978 234
979 239
980 306
981 14
982 46
983 10
984 258
985 16
986 101
987 127
988 334
989 15
990 112
991 133
992 110
993 18
994 100
995 14
996 156
997 83
998 19
999 55
1000 12
1001 394
1002 90
1003 116
1004 203
1005 104
1006 82
1007 26
1008 57
1009 59
1010 89
1011 41
1012 243
1013 155
1014 126
1015 21
1016 7
1017 235
1018 211
1019 76
1020 16
1021 7
1022 280
1023 33
1024 32
1025 16
1026 4
1027 268
1028 44
1029 153
1030 116
1031 47
1032 15
1033 76
1034 22
1035 14
1036 48
1037 19
1038 26
1039 208
1040 10
1041 24
1042 143
1043 61
1044 145
1045 135
1046 67
1047 62
1048 32
1049 541
1050 8
1051 5
1052 98
1053 66
1054 10
1055 73
1056 34
1057 165
1058 8
1059 50
1060 66
1061 38
1062 42
1063 84
1064 10
1065 451
1066 80
1067 433
1068 32
1069 70
1070 221
1071 41
1072 441
1073 115
1074 11
1075 103
1076 10
1077 20
1078 60
1079 123
1080 9
1081 91
1082 160
1083 24
1084 122
1085 6
1086 179
1087 126
1088 94
1089 80
1090 80
1091 207
1092 10
1093 86
1094 7
1095 54
1096 32
1097 259
1098 68
1099 65
1100 27
1101 11
1102 219
1103 29
1104 523
1105 204
1106 80
1107 7
1108 493
1109 47
1110 252
1111 55
1112 27
1113 147
1114 81
1115 214
1116 98
1117 173
1118 102
1119 38
1120 6
1121 28
1122 319
1123 136
1124 207
1125 21
1126 9
1127 119
1128 184
1129 313
1130 153
1131 101
1132 115
1133 165
1134 231
1135 203
1136 47
1137 24
1138 133
1139 382
1140 95
1141 18
1142 386
1143 292
1144 224
1145 20
1146 268
1147 59
1148 90
1149 107
1150 22
1151 104
1152 52
1153 820
1154 129
1155 111
1156 15
1157 56
1158 179
1159 101
1160 342
1161 61
1162 259
1163 385
1164 93
1165 13
1166 97
1167 68
1168 123
1169 341
1170 529
1171 234
1172 204
1173 106
1174 473
1175 36
1176 57
1177 44
1178 595
1179 269
1180 216
1181 32
1182 208
1183 118
1184 218
1185 129
1186 137
1187 59
1188 166
1189 378
1190 34
1191 240
1192 55
1193 102
1194 23
1195 86
1196 25
1197 22
1198 149
1199 105
1200 122
1201 138
1202 90
1203 506
1204 59
1205 131
1206 159
1207 29
1208 48
1209 112
1210 395
1211 51
1212 12
1213 137
1214 280
1215 514
1216 10
1217 124
1218 22
1219 35
1220 24
1221 34
1222 168
1223 16
1224 112
1225 205
1226 164
1227 473
1228 246
1229 99
1230 161
1231 20
1232 92
1233 221
1234 45
1235 5
1236 362
1237 23
1238 55
1239 42
1240 127
1241 59
1242 107
1243 68
1244 23
1245 143
1246 3
1247 61
1248 105
1249 20
1250 227
1251 47
1252 41
1253 1
1254 24
1255 189
1256 299
1257 239
1258 45
1259 8
1260 661
1261 58
1262 56
1263 5
1264 73
1265 7
1266 104
1267 148
1268 176
1269 1
1270 16
1271 122
1272 146
1273 111
1274 55
1275 284
1276 91
1277 67
1278 55
1279 9
1280 64
1281 22
1282 21
1283 2
1284 40
1285 97
1286 4
1287 7
1288 58
1289 285
1290 99
1291 69
1292 83
1293 7
1294 23
1295 16
1296 819
1297 1
1298 402
1299 200
1300 81
1301 142
1302 81
1303 445
1304 62
1305 62
1306 144
1307 109
1308 142
1309 6
1310 28
1311 59
1312 79
1313 249
1314 124
1315 247
1316 108
1317 22
1318 19
1319 92
1320 89
1321 265
1322 31
1323 14
1324 222
1325 227
1326 364
1327 136
1328 207
1329 8
1330 160
1331 182
1332 11
1333 42
1334 278
1335 5
1336 259
1337 22
1338 18
1339 11
1340 21
1341 103
1342 75
1343 68
1344 69
1345 54
1346 272
1347 73
1348 94
1349 7
1350 26
1351 199
1352 63
1353 28
1354 58
1355 15
1356 37
1357 12
1358 66
1359 116
1360 129
1361 51
1362 38
1363 19
1364 254
1365 279
1366 217
1367 45
1368 128
1369 371
1370 23
1371 30
1372 188
1373 139
1374 249
1375 86
1376 96
1377 13
1378 261
1379 111
1380 2
1381 176
1382 76
1383 90
1384 255
1385 15
1386 154
1387 35
1388 60
1389 131
1390 367
1391 76
1392 96
1393 28
1394 53
1395 11
1396 74
1397 116
1398 47
1399 89
1400 120
1401 234
1402 285
1403 111
1404 23
1405 550
1406 66
1407 34
1408 73
1409 65
1410 85
1411 61
1412 29
1413 281
1414 67
1415 278
1416 4
1417 122
1418 72
1419 274
1420 6
1421 48
1422 212
1423 120
1424 43
1425 161
1426 204
1427 80
1428 275
1429 220
1430 255
1431 35
1432 192
1433 206
1434 34
1435 72
1436 24
1437 7
1438 200
1439 116
1440 138
1441 45
1442 57
1443 292
1444 37
1445 74
1446 112
1447 26
1448 160
1449 139
1450 154
1451 11
1452 78
1453 43
1454 12
1455 256
1456 49
1457 202
1458 99
1459 86
1460 157
1461 226
1462 111
1463 137
1464 1
1465 349
1466 94
1467 58
1468 1
1469 5
1470 131
1471 37
1472 201
1473 36
1474 44
1475 130
1476 260
1477 107
1478 48
1479 107
1480 4
1481 45
1482 85
1483 6
1484 38
1485 1
1486 57
1487 60
1488 113
1489 95
1490 114
1491 26
1492 24
1493 82
1494 67
1495 1
1496 66
1497 154
1498 33
1499 212
1500 122
1501 414
1502 61
1503 27
1504 171
1505 5
1506 77
1507 5
1508 20
1509 238
1510 15
1511 14
1512 7
1513 51
1514 87
1515 82
1516 123
1517 60
1518 22
1519 321
1520 131
1521 150
1522 528
1523 23
1524 111
1525 67
1526 8
1527 426
1528 42
1529 33
1530 147
1531 163
1532 43
1533 158
1534 150
1535 35
1536 196
1537 24
1538 10
1539 12
1540 439
1541 66
1542 569
1543 36
1544 519
1545 105
1546 38
1547 227
1548 47
1549 159
1550 180
1551 22
1552 429
1553 171
1554 100
1555 373
1556 196
1557 305
1558 37
1559 65
1560 20
1561 50
1562 177
1563 49
1564 129
1565 1
1566 456
1567 10
1568 397
1569 1
1570 164
1571 43
1572 36
1573 242
1574 23
1575 212
1576 264
1577 13
1578 5
1579 134
1580 139
1581 19
1582 136
1583 104
1584 150
1585 156
1586 56
1587 333
1588 38
1589 10
1590 79
1591 179
1592 71
1593 340
1594 44
1595 98
1596 5
1597 11
1598 71
1599 159
1600 28
1601 101
1602 81
1603 16
1604 48
1605 395
1606 104
1607 93
1608 160
1609 17
1610 318
1611 8
1612 681
1613 49
1614 121
1615 66
1616 77
1617 14
1618 15
1619 63
1620 45
1621 19
1622 158
1623 49
1624 29
1625 21
1626 51
1627 27
1628 370
1629 64
1630 145
1631 89
1632 132
1633 15
1634 126
1635 16
1636 78
1637 64
1638 2
1639 5
1640 1
1641 204
1642 65
1643 52
1644 130
1645 56
1646 86
1647 211
1648 45
1649 130
1650 287
1651 302
1652 378
1653 38
1654 270
1655 139
1656 282
1657 21
1658 1
1659 103
1660 256
1661 50
1662 9
1663 96
1664 152
1665 44
1666 457
1667 1
1668 65
1669 38
1670 38
1671 106
1672 32
1673 99
1674 86
1675 60
1676 103
1677 18
1678 3
1679 155
1680 6
1681 34
1682 346
1683 84
1684 17
1685 65
1686 10
1687 114
1688 410
1689 26
1690 78
1691 24
1692 2
1693 34
1694 32
1695 87
1696 4
1697 4
1698 15
1699 3
1700 23
1701 74
1702 44
1703 108
1704 51
1705 15
1706 11
1707 90
1708 38
1709 20
1710 256
1711 310
1712 34
1713 84
1714 85
1715 114
1716 10
1717 15
1718 59
1719 43
1720 168
1721 88
1722 294
1723 64
1724 237
1725 129
1726 538
1727 46
1728 55
1729 30
1730 11
1731 147
1732 38
1733 74
1734 13
1735 18
1736 290
1737 52
1738 125
1739 158
1740 236
1741 101
1742 99
1743 52
1744 26
1745 38
1746 80
1747 48
1748 228
1749 29
1750 154
1751 174
1752 22
1753 16
1754 74
1755 91
1756 306
1757 9
1758 62
1759 85
1760 90
1761 120
1762 149
1763 118
1764 242
1765 55
1766 37
1767 501
1768 89
1769 175
1770 195
1771 148
1772 160
1773 193
1774 135
1775 78
1776 113
1777 204
1778 22
1779 276
1780 280
1781 112
1782 348
1783 8
1784 41
1785 53
1786 4
1787 28
1788 282
1789 515
1790 7
1791 38
1792 176
1793 98
1794 81
1795 188
1796 69
1797 36
1798 181
1799 30
1800 55
1801 278
1802 28
1803 311
1804 33
1805 71
1806 17
1807 399
1808 167
1809 62
1810 97
1811 42
1812 459
1813 57
1814 119
1815 4
1816 168
1817 26
1818 136
1819 12
1820 144
1821 37
1822 175
1823 159
1824 84
1825 52
1826 165
1827 49
1828 51
1829 60
1830 150
1831 12
1832 5
1833 302
1834 85
1835 92
1836 9
1837 42
1838 68
1839 48
1840 146
1841 159
1842 37
1843 107
1844 40
1845 52
1846 4
1847 50
1848 53
1849 407
1850 52
1851 50
1852 96
1853 36
1854 18
1855 56
1856 63
1857 216
1858 58
1859 24
1860 175
1861 38
1862 6
1863 217
1864 275
1865 396
1866 85
1867 88
1868 87
1869 71
1870 115
1871 90
1872 144
1873 93
1874 148
1875 403
1876 44
1877 14
1878 32
1879 51
1880 42
1881 90
1882 9
1883 306
1884 110
1885 117
1886 182
1887 637
1888 90
1889 57
1890 140
1891 28
1892 74
1893 204
1894 205
1895 345
1896 1
1897 79
1898 156
1899 230
1900 52
1901 37
1902 146
1903 134
1904 135
1905 101
1906 416
1907 299
1908 19
1909 412
1910 81
1911 37
1912 67
1913 174
1914 76
1915 20
1916 202
1917 134
1918 106
1919 103
1920 30
1921 53
1922 176
1923 12
1924 96
1925 98
1926 54
1927 130
1928 25
1929 18
1930 223
1931 28
1932 31
1933 106
1934 279
1935 37
1936 97
1937 217
1938 372
1939 131
1940 284
1941 13
1942 367
1943 378
1944 21
1945 47
1946 158
1947 293
1948 347
1949 102
1950 76
1951 3
1952 34
1953 133
1954 1
1955 30
1956 251
1957 313
1958 181
1959 63
1960 50
1961 64
1962 226
1963 169
1964 100
1965 140
1966 78
1967 26
1968 94
1969 313
1970 41
1971 61
1972 2
1973 6
1974 72
1975 110
1976 417
1977 12
1978 82
1979 30
1980 41
1981 87
1982 53
1983 68
1984 64
1985 7
1986 27
1987 104
1988 390
1989 88
1990 85
1991 60
1992 339
1993 38
1994 128
1995 667
1996 170
1997 11
1998 134
1999 176
