0 79
1 70
2 52
3 31
4 39
5 45
6 71
7 37
8 52
9 28
10 3
11 9
12 118
13 33
14 86
15 7
16 9
17 56
18 27
19 24
20 98
21 98
22 14
23 7
24 43
25 4
26 21
27 101
28 14
29 40
30 11
31 5
32 72
33 5
34 11
35 64
36 95
37 64
38 269
39 131
40 86
41 52
42 37
43 26
44 66
45 32
46 181
47 115
48 91
49 30
50 208
51 69
52 8
53 160
54 38
55 151
56 50
57 24
58 4
59 24
60 29
61 60
62 55
63 163
64 149
65 25
66 4
67 131
68 78
69 7
70 8
71 33
72 62
73 5
74 52
75 40
76 83
77 33
78 141
79 221
80 142
81 9
82 13
83 95
84 51
85 16
86 20
87 56
88 242
89 37
90 18
91 192
92 36
93 11
94 69
95 40
96 42
97 31
98 99
99 12
100 3
101 110
102 73
103 56
104 8
105 14
106 36
107 4
108 59
109 38
110 35
111 69
112 36
113 156
114 48
115 15
116 38
117 18
118 79
119 14
120 15
121 61
122 5
123 119
124 71
125 77
126 8
127 10
128 25
129 119
130 23
131 1
132 48
133 23
134 1
135 57
136 37
137 3
138 69
139 37
140 27
141 17
142 25
143 48
144 1
145 77
146 82
147 22
148 35
149 11
150 9
151 28
152 12
153 13
154 10
155 22
156 33
157 179
158 37
159 139
160 60
161 27
162 334
163 142
164 53
165 44
166 29
167 2
168 3
169 3
170 2
171 11
172 106
173 61
174 74
175 86
176 3
177 211
178 15
179 34
180 62
181 47
182 67
183 2
184 129
185 42
186 88
187 45
188 14
189 31
190 555
191 3
192 1
193 107
194 65
195 19
196 11
197 91
198 44
199 14
200 23
201 5
202 16
203 35
204 59
205 14
206 43
207 65
208 89
209 102
210 22
211 5
212 12
213 30
214 39
215 57
216 24
217 43
218 57
219 113
220 30
221 32
222 2
223 9
224 56
225 5
226 4
227 4
228 62
229 63
230 63
231 5
232 12
233 216
234 41
235 7
236 23
237 47
238 74
239 60
240 66
241 241
242 13
243 34
244 10
245 98
246 60
247 61
248 95
249 44
250 64
251 34
252 33
253 22
254 51
255 3
256 178
257 32
258 6
259 11
260 2
261 35
262 89
263 34
264 19
265 67
266 35
267 25
268 55
269 31
270 92
271 13
272 45
273 53
274 18
275 48
276 51
277 26
278 84
279 18
280 48
281 212
282 31
283 80
284 25
285 28
286 8
287 33
288 95
289 27
290 18
291 35
292 66
293 25
294 55
295 105
296 12
297 36
298 74
299 75
300 19
301 36
302 66
303 27
304 81
305 1
306 6
307 15
308 147
309 47
310 43
311 94
312 19
313 40
314 47
315 19
316 36
317 19
318 17
319 182
320 5
321 4
322 166
323 72
324 1
325 153
326 7
327 35
328 5
329 3
330 15
331 70
332 16
333 56
334 1
335 12
336 28
337 56
338 41
339 20
340 12
341 10
342 36
343 98
344 38
345 150
346 15
347 135
348 17
349 81
350 1
351 187
352 15
353 3
354 3
355 10
356 34
357 146
358 59
359 15
360 7
361 13
362 70
363 8
364 60
365 66
366 14
367 63
368 34
369 66
370 55
371 14
372 1
373 3
374 23
375 1
376 46
377 1
378 66
379 45
380 33
381 4
382 3
383 106
384 43
385 2
386 66
387 72
388 41
389 23
390 53
391 17
392 13
393 51
394 12
395 10
396 83
397 6
398 54
399 7
400 37
401 5
402 21
403 5
404 6
405 49
406 48
407 56
408 12
409 19
410 40
411 3
412 88
413 14
414 69
415 54
416 2
417 59
418 1
419 41
420 13
421 267
422 73
423 103
424 56
425 60
426 54
427 134
428 37
429 77
430 7
431 69
432 37
433 167
434 51
435 105
436 18
437 22
438 235
439 8
440 189
441 33
442 10
443 22
444 18
445 2
446 34
447 29
448 3
449 15
450 59
451 5
452 52
453 31
454 70
455 87
456 6
457 47
458 4
459 23
460 20
461 7
462 12
463 46
464 55
465 131
466 53
467 58
468 123
469 35
470 11
471 30
472 47
473 8
474 69
475 31
476 6
477 2
478 21
479 122
480 33
481 43
482 2
483 308
484 18
485 153
486 63
487 26
488 7
489 17
490 2
491 80
492 1
493 9
494 7
495 54
496 8
497 86
498 36
499 1
500 49
501 29
502 60
503 17
504 49
505 43
506 6
507 123
508 19
509 4
510 2
511 52
512 15
513 15
514 2
515 10
516 25
517 62
518 45
519 67
520 10
521 32
522 6
523 147
524 5
525 30
526 9
527 53
528 14
529 232
530 19
531 28
532 20
533 86
534 66
535 39
536 162
537 81
538 3
539 4
540 43
541 66
542 11
543 9
544 79
545 54
546 14
547 15
548 115
549 23
550 237
551 77
552 70
553 32
554 41
555 65
556 28
557 213
558 6
559 53
560 18
561 135
562 7
563 358
564 65
565 5
566 42
567 85
568 37
569 153
570 39
571 15
572 95
573 45
574 71
575 20
576 43
577 10
578 100
579 66
580 52
581 298
582 54
583 136
584 34
585 14
586 28
587 132
588 87
589 20
590 87
591 13
592 35
593 54
594 12
595 75
596 42
597 162
598 19
599 47
600 42
601 65
602 54
603 26
604 43
605 123
606 66
607 15
608 179
609 189
610 91
611 48
612 109
613 250
614 74
615 37
616 51
617 78
618 172
619 18
620 105
621 12
622 50
623 68
624 172
625 19
626 24
627 10
628 5
629 29
630 53
631 72
632 4
633 5
634 43
635 44
636 45
637 78
638 27
639 6
640 45
641 206
642 20
643 46
644 1
645 218
646 51
647 36
648 28
649 18
650 127
651 49
652 38
653 11
654 50
655 181
656 43
657 18
658 3
659 185
660 116
661 74
662 35
663 41
664 1
665 9
666 32
667 32
668 122
669 9
670 133
671 13
672 86
673 4
674 125
675 145
676 1
677 3
678 90
679 5
680 23
681 24
682 86
683 72
684 16
685 5
686 33
687 12
688 30
689 64
690 21
691 89
692 20
693 37
694 46
695 85
696 5
697 8
698 85
699 74
700 29
701 106
702 33
703 17
704 180
705 7
706 87
707 7
708 8
709 62
710 56
711 90
712 34
713 16
714 27
715 51
716 4
717 74
718 70
719 98
720 84
721 30
722 8
723 13
724 4
725 44
726 104
727 7
728 2
729 125
730 269
731 35
732 77
733 12
734 158
735 20
736 33
737 53
738 26
739 14
740 56
741 39
742 42
743 5
744 80
745 60
746 129
747 70
748 50
749 41
750 5
751 46
752 44
753 17
754 16
755 14
756 13
757 27
758 54
759 96
760 170
761 97
762 33
763 68
764 1
765 19
766 26
767 92
768 14
769 29
770 15
771 21
772 37
773 14
774 22
775 30
776 17
777 2
778 46
779 1
780 41
781 118
782 50
783 85
784 71
785 56
786 196
787 23
788 116
789 70
790 19
791 92
792 83
793 187
794 26
795 35
796 25
797 85
798 25
799 197
800 42
801 50
802 3
803 28
804 10
805 33
806 28
807 5
808 4
809 16
810 60
811 38
812 69
813 19
814 131
815 16
816 51
817 33
818 46
819 10
820 16
821 185
822 39
823 43
824 9
825 125
826 253
827 10
828 67
829 57
830 24
831 35
832 14
833 1
834 46
835 74
836 26
837 84
838 23
839 40
840 22
841 3
842 28
843 54
844 127
845 146
846 62
847 92
848 86
849 79
850 41
851 100
852 43
853 13
854 8
855 19
856 2
857 54
858 85
859 1
860 4
861 55
862 22
863 237
864 5
865 19
866 87
867 18
868 35
869 83
870 29
871 9
872 50
873 38
874 19
875 200
876 99
877 28
878 2
879 185
880 58
881 15
882 60
883 66
884 26
885 57
886 14
887 60
888 102
889 18
890 48
891 72
892 36
893 198
894 41
895 15
896 75
897 11
898 237
899 77
900 63
901 36
902 71
903 67
904 8
905 35
906 51
907 8
908 6
909 10
910 62
911 15
912 14
913 2
914 13
915 86
916 76
917 98
918 11
919 141
920 79
921 42
922 24
923 18
924 52
925 35
926 42
927 13
928 49
929 62
930 1
931 30
932 29
933 1
934 19
935 10
936 9
937 16
938 44
939 113
940 42
941 9
942 87
943 61
944 102
945 83
946 13
947 70
948 105
949 5
950 14
951 64
952 33
953 44
954 55
955 21
956 75
957 2
958 6
959 97
960 73
961 23
962 22
963 91
964 40
965 93
966 46
967 30
968 116
969 44
970 19
971 2
972 59
973 97
974 150
975 96
976 154
977 47
978 20
979 202
980 6
981 6
982 39
983 20
984 7
985 7
986 92
987 4
988 92
989 28
990 55
991 118
992 235
993 41
994 126
995 180
996 214
997 53
998 40
999 98
1000 64
1001 22
1002 49
1003 79
1004 202
1005 11
1006 45
1007 150
1008 100
1009 52
1010 90
1011 84
1012 35
1013 40
1014 77
1015 20
1016 14
1017 178
1018 56
1019 13
1020 107
1021 34
1022 185
1023 26
1024 73
1025 26
1026 1
1027 39
1028 17
1029 14
1030 25
1031 28
1032 41
1033 20
1034 28
1035 82
1036 28
1037 103
1038 9
1039 18
1040 1
1041 66
1042 37
1043 103
1044 133
1045 121
1046 5
1047 121
1048 12
1049 165
1050 77
1051 130
1052 65
1053 5
1054 32
1055 22
1056 58
1057 20
1058 32
1059 3
1060 32
1061 15
1062 14
1063 73
1064 63
1065 5
1066 13
1067 63
1068 31
1069 13
1070 41
1071 65
1072 91
1073 52
1074 53
1075 11
1076 117
1077 69
1078 26
1079 56
1080 62
1081 34
1082 14
1083 48
1084 35
1085 10
1086 1
1087 123
1088 21
1089 18
1090 52
1091 4
1092 78
1093 3
1094 36
1095 65
1096 49
1097 117
1098 26
1099 177
1100 8
1101 27
1102 2
1103 2
1104 84
1105 11
1106 22
1107 38
1108 24
1109 73
1110 44
1111 49
1112 9
1113 53
1114 1
1115 34
1116 6
1117 65
1118 35
1119 79
1120 39
1121 9
1122 5
1123 32
1124 26
1125 22
1126 108
1127 87
1128 12
1129 57
1130 4
1131 22
1132 88
1133 46
1134 53
1135 2
1136 26
1137 135
1138 204
1139 110
1140 45
1141 5
1142 202
1143 70
1144 5
1145 131
1146 24
1147 13
1148 6
1149 11
1150 29
1151 76
1152 73
1153 19
1154 100
1155 6
1156 56
1157 16
1158 9
1159 208
1160 11
1161 63
1162 33
1163 59
1164 40
1165 24
1166 28
1167 25
1168 45
1169 86
1170 64
1171 48
1172 222
1173 2
1174 70
1175 27
1176 23
1177 138
1178 6
1179 26
1180 56
1181 82
1182 46
1183 218
1184 8
1185 41
1186 31
1187 10
1188 76
1189 6
1190 12
1191 55
1192 24
1193 8
1194 39
1195 5
1196 6
1197 57
1198 101
1199 47
1200 54
1201 357
1202 45
1203 2
1204 18
1205 32
1206 1
1207 19
1208 10
1209 4
1210 68
1211 57
1212 79
1213 12
1214 2
1215 120
1216 93
1217 23
1218 18
1219 56
1220 1
1221 25
1222 22
1223 8
1224 16
1225 47
1226 171
1227 4
1228 22
1229 5
1230 68
1231 62
1232 16
1233 13
1234 32
1235 84
1236 4
1237 25
1238 18
1239 159
1240 6
1241 80
1242 57
1243 12
1244 18
1245 67
1246 55
1247 141
1248 22
1249 31
1250 20
1251 74
1252 227
1253 202
1254 64
1255 18
1256 3
1257 46
1258 30
1259 134
1260 1
1261 209
1262 17
1263 57
1264 80
1265 193
1266 40
1267 89
1268 44
1269 106
1270 13
1271 37
1272 2
1273 20
1274 53
1275 55
1276 122
1277 167
1278 68
1279 81
1280 97
1281 43
1282 29
1283 7
1284 107
1285 23
1286 143
1287 67
1288 13
1289 21
1290 8
1291 21
1292 25
1293 168
1294 55
1295 7
1296 27
1297 21
1298 8
1299 17
1300 63
1301 3
1302 62
1303 137
1304 40
1305 27
1306 44
1307 95
1308 13
1309 3
1310 61
1311 139
1312 61
1313 2
1314 69
1315 34
1316 27
1317 66
1318 22
1319 16
1320 2
1321 89
1322 38
1323 45
1324 27
1325 12
1326 45
1327 18
1328 78
1329 107
1330 15
1331 47
1332 79
1333 97
1334 29
1335 82
1336 17
1337 54
1338 58
1339 53
1340 60
1341 37
1342 32
1343 82
1344 7
1345 10
1346 42
1347 1
1348 87
1349 14
1350 54
1351 34
1352 109
1353 111
1354 69
1355 73
1356 15
1357 7
1358 121
1359 116
1360 91
1361 112
1362 27
1363 4
1364 66
1365 31
1366 64
1367 5
1368 92
1369 37
1370 7
1371 16
1372 82
1373 86
1374 54
1375 45
1376 61
1377 109
1378 78
1379 9
1380 98
1381 3
1382 13
1383 56
1384 46
1385 17
1386 55
1387 9
1388 4
1389 44
1390 67
1391 3
1392 57
1393 74
1394 1
1395 5
1396 10
1397 7
1398 168
1399 58
1400 72
1401 103
1402 97
1403 36
1404 9
1405 61
1406 21
1407 185
1408 83
1409 5
1410 59
1411 30
1412 1
1413 46
1414 15
1415 14
1416 73
1417 15
1418 17
1419 9
1420 20
1421 5
1422 34
1423 9
1424 17
1425 54
1426 19
1427 41
1428 12
1429 58
1430 76
1431 49
1432 227
1433 1
1434 1
1435 38
1436 79
1437 97
1438 30
1439 21
1440 104
1441 23
1442 31
1443 5
1444 11
1445 218
1446 105
1447 138
1448 154
1449 35
1450 270
1451 30
1452 73
1453 40
1454 1
1455 29
1456 73
1457 29
1458 12
1459 35
1460 156
1461 89
1462 159
1463 3
1464 60
1465 235
1466 123
1467 76
1468 31
1469 44
1470 137
1471 24
1472 35
1473 14
1474 25
1475 25
1476 10
1477 67
1478 185
1479 47
1480 70
1481 11
1482 14
1483 69
1484 35
1485 16
1486 219
1487 61
1488 41
1489 1
1490 59
1491 55
1492 43
1493 2
1494 26
1495 3
1496 13
1497 220
1498 217
1499 185
1500 128
1501 5
1502 43
1503 21
1504 16
1505 14
1506 80
1507 15
1508 28
1509 67
1510 42
1511 34
1512 106
1513 56
1514 76
1515 74
1516 20
1517 145
1518 4
1519 150
1520 9
1521 109
1522 61
1523 134
1524 107
1525 293
1526 45
1527 27
1528 36
1529 97
1530 100
1531 42
1532 37
1533 26
1534 5
1535 2
1536 98
1537 29
1538 4
1539 1
1540 76
1541 92
1542 158
1543 42
1544 11
1545 5
1546 25
1547 6
1548 30
1549 214
1550 47
1551 47
1552 6
1553 28
1554 76
1555 26
1556 1
1557 8
1558 3
1559 1
1560 67
1561 62
1562 170
1563 142
1564 9
1565 48
1566 4
1567 7
1568 127
1569 4
1570 56
1571 82
1572 444
1573 47
1574 81
1575 59
1576 42
1577 95
1578 122
1579 29
1580 5
1581 27
1582 5
1583 62
1584 37
1585 33
1586 90
1587 3
1588 15
1589 24
1590 12
1591 103
1592 1
1593 53
1594 29
1595 49
1596 170
1597 3
1598 8
1599 4
1600 42
1601 62
1602 56
1603 33
1604 47
1605 12
1606 23
1607 72
1608 20
1609 23
1610 1
1611 15
1612 134
1613 12
1614 41
1615 202
1616 10
1617 30
1618 37
1619 155
1620 51
1621 23
1622 64
1623 14
1624 46
1625 124
1626 18
1627 5
1628 4
1629 21
1630 22
1631 49
1632 40
1633 21
1634 13
1635 7
1636 80
1637 20
1638 13
1639 19
1640 60
1641 25
1642 35
1643 13
1644 108
1645 34
1646 87
1647 49
1648 15
1649 25
1650 161
1651 24
1652 5
1653 2
1654 40
1655 89
1656 19
1657 154
1658 45
1659 3
1660 62
1661 115
1662 146
1663 19
1664 26
1665 203
1666 166
1667 114
1668 13
1669 13
1670 13
1671 128
1672 4
1673 75
1674 38
1675 187
1676 33
1677 5
1678 7
1679 67
1680 17
1681 14
1682 26
1683 115
1684 29
1685 33
1686 20
1687 5
1688 20
1689 20
1690 81
1691 117
1692 20
1693 64
1694 11
1695 126
1696 25
1697 125
1698 106
1699 25
1700 215
1701 8
1702 82
1703 15
1704 33
1705 4
1706 6
1707 122
1708 94
1709 6
1710 37
1711 107
1712 121
1713 160
1714 29
1715 77
1716 18
1717 30
1718 135
1719 64
1720 135
1721 94
1722 36
1723 35
1724 4
1725 26
1726 5
1727 15
1728 135
1729 41
1730 15
1731 49
1732 329
1733 210
1734 31
1735 91
1736 90
1737 56
1738 143
1739 6
1740 67
1741 43
1742 13
1743 107
1744 47
1745 2
1746 132
1747 68
1748 8
1749 30
1750 22
1751 72
1752 28
1753 160
1754 4
1755 34
1756 174
1757 3
1758 4
1759 2
1760 75
1761 26
1762 9
1763 4
1764 16
1765 78
1766 7
1767 92
1768 14
1769 26
1770 43
1771 84
1772 6
1773 52
1774 16
1775 79
1776 15
1777 2
1778 13
1779 8
1780 1
1781 5
1782 15
1783 84
1784 37
1785 101
1786 11
1787 53
1788 33
1789 65
1790 13
1791 46
1792 48
1793 100
1794 109
1795 63
1796 40
1797 83
1798 19
1799 15
1800 93
1801 35
1802 94
1803 65
1804 119
1805 21
1806 91
1807 127
1808 3
1809 56
1810 2
1811 4
1812 114
1813 19
1814 47
1815 5
1816 6
1817 12
1818 58
1819 36
1820 42
1821 73
1822 111
1823 39
1824 112
1825 3
1826 27
1827 49
1828 44
1829 27
1830 221
1831 21
1832 30
1833 81
1834 41
1835 13
1836 1
1837 102
1838 34
1839 98
1840 52
1841 75
1842 24
1843 76
1844 10
1845 15
1846 176
1847 116
1848 86
1849 8
1850 64
1851 68
1852 89
1853 59
1854 18
1855 4
1856 76
1857 94
1858 4
1859 82
1860 25
1861 172
1862 72
1863 59
1864 211
1865 16
1866 15
1867 20
1868 14
1869 37
1870 117
1871 31
1872 86
1873 54
1874 3
1875 23
1876 97
1877 6
1878 183
1879 10
1880 21
1881 67
1882 83
1883 54
1884 32
1885 2
1886 19
1887 19
1888 4
1889 13
1890 44
1891 162
1892 35
1893 29
1894 131
1895 75
1896 235
1897 56
1898 12
1899 17
1900 106
1901 42
1902 117
1903 114
1904 18
1905 130
1906 37
1907 35
1908 261
1909 128
1910 73
1911 70
1912 94
1913 69
1914 9
1915 35
1916 334
1917 25
1918 6
1919 13
1920 9
1921 30
1922 58
1923 75
1924 2
1925 8
1926 54
1927 7
1928 20
1929 34
1930 107
1931 7
1932 56
1933 23
1934 110
1935 2
1936 84
1937 41
1938 188
1939 184
1940 44
1941 36
1942 24
1943 113
1944 9
1945 69
1946 85
1947 84
1948 43
1949 14
1950 30
1951 44
1952 114
1953 50
1954 173
1955 75
1956 82
1957 14
1958 95
1959 35
1960 16
1961 52
1962 20
1963 24
1964 11
1965 11
1966 5
1967 72
1968 46
1969 38
1970 29
1971 47
1972 34
1973 43
1974 78
1975 40
1976 107
1977 122
1978 52
1979 93
1980 12
1981 17
1982 99
1983 55
1984 30
1985 82
1986 68
1987 278
1988 13
1989 72
1990 9
1991 31
1992 4
1993 80
1994 65
1995 129
1996 95
1997 45
1998 2
1999 56
