0 53
1 75
2 54
3 15
4 72
5 121
6 11
7 48
8 3
9 39
10 79
11 69
12 63
13 37
14 11
15 16
16 111
17 7
18 98
19 38
20 69
21 60
22 5
23 15
24 2
25 91
26 11
27 95
28 49
29 36
30 82
31 38
32 29
33 132
34 49
35 3
36 22
37 26
38 71
39 87
40 36
41 36
42 46
43 97
44 62
45 21
46 11
47 49
48 2
49 38
50 113
51 21
52 86
53 46
54 89
55 302
56 101
57 2
58 20
59 57
60 54
61 4
62 2
63 328
64 122
65 81
66 82
67 76
68 34
69 77
70 262
71 1
72 14
73 16
74 106
75 33
76 7
77 10
78 18
79 36
80 59
81 9
82 100
83 19
84 18
85 6
86 401
87 60
88 16
89 46
90 30
91 67
92 183
93 103
94 31
95 244
96 77
97 12
98 45
99 135
100 49
101 24
102 90
103 48
104 108
105 18
106 41
107 11
108 42
109 58
110 117
111 5
112 17
113 35
114 58
115 258
116 24
117 46
118 67
119 20
120 154
121 6
122 243
123 98
124 35
125 80
126 19
127 89
128 27
129 8
130 113
131 14
132 2
133 71
134 92
135 22
136 59
137 49
138 116
139 28
140 27
141 80
142 21
143 37
144 155
145 12
146 48
147 67
148 111
149 139
150 32
151 38
152 8
153 68
154 4
155 39
156 4
157 6
158 8
159 64
160 147
161 87
162 47
163 15
164 134
165 51
166 129
167 98
168 100
169 187
170 15
171 323
172 22
173 37
174 208
175 1
176 81
177 100
178 245
179 66
180 40
181 28
182 176
183 306
184 112
185 17
186 15
187 129
188 373
189 17
190 104
191 13
192 77
193 47
194 150
195 1
196 35
197 75
198 167
199 3
200 78
201 62
202 42
203 286
204 61
205 54
206 100
207 26
208 53
209 15
210 99
211 7
212 7
213 6
214 24
215 34
216 100
217 11
218 37
219 81
220 85
221 48
222 127
223 153
224 80
225 52
226 42
227 11
228 53
229 78
230 6
231 184
232 166
233 36
234 16
235 101
236 26
237 86
238 32
239 43
240 66
241 69
242 28
243 89
244 212
245 67
246 193
247 36
248 56
249 45
250 99
251 69
252 24
253 198
254 149
255 667
256 560
257 122
258 44
259 260
260 7
261 51
262 113
263 131
264 25
265 44
266 453
267 238
268 191
269 134
270 252
271 99
272 201
273 25
274 58
275 195
276 210
277 297
278 235
279 56
280 206
281 14
282 10
283 136
284 475
285 74
286 59
287 280
288 31
289 11
290 10
291 387
292 238
293 133
294 200
295 118
296 113
297 56
298 2
299 61
300 46
301 362
302 180
303 81
304 144
305 171
306 217
307 21
308 167
309 198
310 16
311 59
312 9
313 12
314 22
315 123
316 39
317 179
318 196
319 133
320 211
321 203
322 68
323 11
324 969
325 124
326 96
327 153
328 41
329 549
330 94
331 12
332 76
333 126
334 134
335 199
336 106
337 12
338 203
339 386
340 5
341 25
342 351
343 475
344 30
345 62
346 67
347 96
348 619
349 665
350 42
351 104
352 215
353 30
354 136
355 20
356 260
357 193
358 588
359 92
360 83
361 94
362 137
363 115
364 32
365 73
366 26
367 114
368 65
369 113
370 40
371 47
372 359
373 44
374 66
375 28
376 35
377 443
378 52
379 217
380 171
381 40
382 253
383 163
384 239
385 44
386 134
387 99
388 292
389 201
390 172
391 154
392 30
393 288
394 6
395 420
396 2
397 14
398 78
399 61
400 135
401 64
402 80
403 227
404 131
405 186
406 202
407 161
408 9
409 5
410 212
411 227
412 174
413 37
414 92
415 180
416 40
417 261
418 255
419 52
420 336
421 31
422 43
423 8
424 16
425 12
426 45
427 202
428 99
429 63
430 180
431 47
432 18
433 32
434 2
435 55
436 95
437 18
438 187
439 178
440 84
441 37
442 35
443 239
444 161
445 51
446 9
447 275
448 292
449 26
450 203
451 106
452 91
453 213
454 43
455 119
456 551
457 72
458 12
459 151
460 94
461 51
462 29
463 38
464 241
465 40
466 103
467 428
468 19
469 41
470 7
471 57
472 112
473 143
474 185
475 203
476 60
477 24
478 410
479 14
480 40
481 323
482 8
483 147
484 25
485 156
486 56
487 222
488 4
489 15
490 38
491 64
492 150
493 24
494 355
495 170
496 174
497 49
498 144
499 76
500 245
501 10
502 110
503 171
504 154
505 127
506 209
507 156
508 105
509 125
510 54
511 13
512 121
513 111
514 96
515 95
516 33
517 46
518 166
519 44
520 51
521 104
522 238
523 17
524 225
525 61
526 73
527 30
528 3
529 34
530 46
531 36
532 47
533 80
534 236
535 533
536 6
537 65
538 308
539 243
540 27
541 99
542 3
543 20
544 16
545 245
546 269
547 10
548 169
549 404
550 293
551 66
552 188
553 38
554 126
555 178
556 42
557 18
558 115
559 11
560 41
561 101
562 23
563 179
564 79
565 16
566 82
567 272
568 50
569 192
570 35
571 58
572 84
573 134
574 17
575 63
576 15
577 37
578 11
579 24
580 14
581 34
582 51
583 157
584 174
585 387
586 243
587 54
588 178
589 25
590 38
591 73
592 55
593 106
594 76
595 222
596 341
597 244
598 187
599 199
600 254
601 208
602 135
603 120
604 160
605 82
606 241
607 122
608 141
609 53
610 68
611 665
612 144
613 11
614 185
615 203
616 61
617 208
618 397
619 16
620 231
621 266
622 274
623 408
624 33
625 482
626 53
627 97
628 168
629 143
630 100
631 601
632 56
633 285
634 175
635 66
636 253
637 219
638 9
639 168
640 307
641 68
642 63
643 12
644 245
645 155
646 47
647 75
648 26
649 216
650 26
651 113
652 103
653 152
654 75
655 160
656 19
657 29
658 208
659 122
660 75
661 88
662 127
663 109
664 69
665 67
666 178
667 8
668 125
669 10
670 338
671 240
672 6
673 16
674 4
675 71
676 161
677 683
678 2
679 45
680 64
681 365
682 5
683 125
684 83
685 160
686 150
687 21
688 56
689 384
690 45
691 69
692 663
693 27
694 185
695 450
696 97
697 35
698 125
699 149
700 157
701 191
702 64
703 255
704 46
705 13
706 22
707 275
708 34
709 68
710 193
711 18
712 508
713 206
714 278
715 628
716 37
717 57
718 725
719 185
720 69
721 290
722 172
723 131
724 186
725 335
726 40
727 75
728 45
729 36
730 61
731 126
732 42
733 96
734 19
735 174
736 93
737 138
738 154
739 206
740 10
741 53
742 154
743 118
744 35
745 53
746 48
747 50
748 71
749 324
750 43
751 61
752 190
753 292
754 2
755 61
756 78
757 82
758 29
759 19
760 588
761 45
762 183
763 456
764 265
765 163
766 225
767 322
768 22
769 168
770 185
771 49
772 4
773 83
774 32
775 12
776 41
777 486
778 211
779 73
780 153
781 217
782 565
783 168
784 114
785 137
786 106
787 21
788 94
789 98
790 150
791 186
792 73
793 85
794 21
795 36
796 147
797 22
798 216
799 16
800 156
801 203
802 33
803 27
804 146
805 625
806 205
807 29
808 344
809 101
810 55
811 151
812 183
813 82
814 96
815 68
816 22
817 84
818 17
819 35
820 276
821 114
822 453
823 241
824 4
825 160
826 163
827 263
828 163
829 43
830 117
831 41
832 69
833 507
834 256
835 145
836 157
837 120
838 304
839 101
840 86
841 205
842 32
843 89
844 189
845 25
846 30
847 64
848 3
849 43
850 227
851 13
852 73
853 2
854 450
855 34
856 139
857 108
858 176
859 233
860 17
861 500
862 106
863 146
864 6
865 366
866 209
867 209
868 288
869 104
870 78
871 46
872 147
873 107
874 55
875 57
876 13
877 54
878 20
879 101
880 197
881 43
882 341
883 49
884 11
885 244
886 183
887 151
888 270
889 372
890 19
891 30
892 140
893 9
894 153
895 45
896 72
897 22
898 207
899 31
900 100
901 86
902 82
903 121
904 158
905 51
906 73
907 86
908 11
909 34
910 51
911 82
912 26
913 107
914 41
915 339
916 140
917 253
918 127
919 240
920 178
921 304
922 150
923 55
924 16
925 41
926 54
927 139
928 99
929 12
930 113
931 28
932 309
933 14
934 311
935 159
936 182
937 114
938 323
939 64
940 75
941 291
942 91
943 66
944 272
945 375
946 13
947 334
948 184
949 193
950 154
951 300
952 39
953 316
954 119
955 44
956 120
957 105
958 53
959 79
960 88
961 170
962 54
963 125
964 6
965 10
966 114
967 215
968 25
969 160
970 75
971 50
972 15
973 128
974 65
975 137
976 105
977 389
978 40
979 146
980 64
981 162
982 28
983 246
984 242
985 196
986 130
987 128
988 155
989 145
990 33
991 45
992 105
993 69
994 59
995 284
996 15
997 105
998 170
999 164
1000 40
1001 359
1002 118
1003 63
1004 257
1005 445
1006 51
1007 2
1008 65
1009 14
1010 92
1011 261
1012 5
1013 4
1014 8
1015 40
1016 30
1017 7
1018 12
1019 238
1020 531
1021 42
1022 17
1023 128
1024 165
1025 1
1026 243
1027 183
1028 47
1029 62
1030 18
1031 39
1032 194
1033 118
1034 51
1035 297
1036 59
1037 106
1038 24
1039 512
1040 53
1041 51
1042 12
1043 225
1044 74
1045 85
1046 108
1047 52
1048 432
1049 39
1050 163
1051 24
1052 32
1053 251
1054 48
1055 46
1056 431
1057 119
1058 125
1059 60
1060 202
1061 14
1062 167
1063 31
1064 60
1065 8
1066 19
1067 57
1068 93
1069 8
1070 114
1071 86
1072 77
1073 92
1074 245
1075 174
1076 16
1077 48
1078 11
1079 82
1080 165
1081 54
1082 106
1083 50
1084 167
1085 35
1086 412
1087 40
1088 116
1089 77
1090 5
1091 68
1092 275
1093 597
1094 47
1095 446
1096 83
1097 50
1098 100
1099 148
1100 69
1101 136
1102 196
1103 22
1104 59
1105 28
1106 112
1107 5
1108 61
1109 34
1110 54
1111 189
1112 76
1113 76
1114 130
1115 175
1116 37
1117 34
1118 144
1119 6
1120 6
1121 22
1122 19
1123 110
1124 178
1125 610
1126 33
1127 271
1128 27
1129 26
1130 23
1131 311
1132 198
1133 117
1134 77
1135 49
1136 15
1137 94
1138 17
1139 190
1140 71
1141 16
1142 20
1143 28
1144 45
1145 29
1146 189
1147 164
1148 77
1149 73
1150 219
1151 302
1152 260
1153 49
1154 10
1155 12
1156 75
1157 112
1158 15
1159 84
1160 22
1161 93
1162 3
1163 428
1164 51
1165 42
1166 6
1167 177
1168 2
1169 25
1170 76
1171 2
1172 7
1173 75
1174 155
1175 173
1176 10
1177 148
1178 397
1179 226
1180 66
1181 30
1182 19
1183 96
1184 221
1185 24
1186 14
1187 96
1188 439
1189 145
1190 16
1191 17
1192 206
1193 107
1194 170
1195 77
1196 37
1197 322
1198 26
1199 36
1200 17
1201 194
1202 32
1203 22
1204 1
1205 11
1206 44
1207 116
1208 265
1209 568
1210 164
1211 6
1212 84
1213 188
1214 21
1215 13
1216 47
1217 51
1218 280
1219 138
1220 100
1221 368
1222 199
1223 101
1224 61
1225 127
1226 6
1227 104
1228 44
1229 343
1230 213
1231 64
1232 282
1233 511
1234 43
1235 14
1236 190
1237 66
1238 9
1239 46
1240 91
1241 6
1242 91
1243 88
1244 169
1245 28
1246 25
1247 93
1248 37
1249 54
1250 94
1251 50
1252 161
1253 52
1254 203
1255 159
1256 18
1257 731
1258 132
1259 27
1260 42
1261 154
1262 152
1263 91
1264 231
1265 49
1266 211
1267 37
1268 339
1269 15
1270 43
1271 502
1272 190
1273 149
1274 74
1275 13
1276 23
1277 69
1278 79
1279 83
1280 273
1281 29
1282 1190
1283 513
1284 43
1285 1
1286 50
1287 6
1288 231
1289 231
1290 6
1291 408
1292 299
1293 13
1294 12
1295 15
1296 270
1297 88
1298 185
1299 201
1300 89
1301 118
1302 54
1303 198
1304 318
1305 10
1306 30
1307 168
1308 364
1309 1
1310 107
1311 65
1312 16
1313 83
1314 142
1315 252
1316 130
1317 38
1318 65
1319 272
1320 99
1321 147
1322 271
1323 20
1324 37
1325 251
1326 67
1327 299
1328 95
1329 44
1330 14
1331 48
1332 21
1333 203
1334 13
1335 163
1336 81
1337 34
1338 54
1339 113
1340 22
1341 85
1342 63
1343 826
1344 519
1345 58
1346 238
1347 271
1348 5
1349 17
1350 114
1351 25
1352 91
1353 6
1354 43
1355 30
1356 192
1357 100
1358 67
1359 270
1360 121
1361 1
1362 451
1363 355
1364 32
1365 161
1366 330
1367 143
1368 141
1369 422
1370 40
1371 28
1372 52
1373 40
1374 188
1375 63
1376 22
1377 18
1378 97
1379 134
1380 53
1381 183
1382 123
1383 289
1384 105
1385 48
1386 59
1387 17
1388 113
1389 43
1390 42
1391 75
1392 497
1393 17
1394 65
1395 89
1396 51
1397 107
1398 25
1399 37
1400 614
1401 13
1402 234
1403 130
1404 142
1405 46
1406 99
1407 63
1408 3
1409 11
1410 51
1411 19
1412 14
1413 5
1414 114
1415 2
1416 83
1417 34
1418 5
1419 12
1420 253
1421 251
1422 312
1423 509
1424 83
1425 55
1426 8
1427 81
1428 8
1429 8
1430 33
1431 12
1432 122
1433 28
1434 70
1435 205
1436 5
1437 226
1438 57
1439 29
1440 17
1441 62
1442 8
1443 80
1444 21
1445 33
1446 70
1447 122
1448 16
1449 145
1450 161
1451 278
1452 365
1453 48
1454 105
1455 77
1456 157
1457 28
1458 17
1459 129
1460 23
1461 119
1462 44
1463 75
1464 42
1465 10
1466 5
1467 165
1468 73
1469 1
1470 276
1471 221
1472 35
1473 107
1474 313
1475 392
1476 43
1477 199
1478 258
1479 2
1480 51
1481 73
1482 222
1483 31
1484 60
1485 2
1486 300
1487 48
1488 238
1489 128
1490 22
1491 149
1492 91
1493 269
1494 509
1495 24
1496 7
1497 386
1498 157
1499 443
1500 269
1501 91
1502 487
1503 338
1504 203
1505 138
1506 274
1507 19
1508 58
1509 39
1510 69
1511 120
1512 645
1513 9
1514 51
1515 12
1516 464
1517 398
1518 5
1519 150
1520 20
1521 29
1522 4
1523 40
1524 3
1525 558
1526 174
1527 342
1528 60
1529 212
1530 16
1531 8
1532 4
1533 145
1534 675
1535 420
1536 275
1537 61
1538 144
1539 372
1540 14
1541 71
1542 37
1543 83
1544 46
1545 276
1546 325
1547 67
1548 99
1549 167
1550 53
1551 37
1552 72
1553 64
1554 15
1555 24
1556 40
1557 37
1558 8
1559 20
1560 119
1561 356
1562 38
1563 36
1564 38
1565 83
1566 50
1567 34
1568 5
1569 3
1570 127
1571 285
1572 427
1573 143
1574 216
1575 155
1576 50
1577 551
1578 115
1579 140
1580 239
1581 62
1582 131
1583 198
1584 157
1585 153
1586 95
1587 39
1588 55
1589 14
1590 286
1591 188
1592 14
1593 36
1594 114
1595 225
1596 388
1597 213
1598 184
1599 102
1600 101
1601 164
1602 5
1603 115
1604 361
1605 466
1606 101
1607 306
1608 699
1609 74
1610 46
1611 4
1612 49
1613 360
1614 213
1615 157
1616 298
1617 133
1618 249
1619 32
1620 92
1621 3
1622 35
1623 13
1624 16
1625 2
1626 70
1627 48
1628 201
1629 38
1630 130
1631 419
1632 65
1633 163
1634 216
1635 5
1636 1
1637 253
1638 152
1639 133
1640 218
1641 633
1642 274
1643 127
1644 56
1645 25
1646 63
1647 7
1648 59
1649 4
1650 242
1651 51
1652 2
1653 156
1654 366
1655 208
1656 32
1657 233
1658 244
1659 356
1660 23
1661 57
1662 48
1663 35
1664 274
1665 259
1666 99
1667 75
1668 35
1669 460
1670 18
1671 120
1672 93
1673 322
1674 67
1675 149
1676 41
1677 180
1678 433
1679 3
1680 43
1681 55
1682 38
1683 346
1684 86
1685 14
1686 131
1687 280
1688 140
1689 33
1690 93
1691 78
1692 240
1693 86
1694 17
1695 119
1696 60
1697 143
1698 72
1699 173
1700 270
1701 218
1702 4
1703 69
1704 263
1705 129
1706 69
1707 118
1708 34
1709 54
1710 45
1711 102
1712 75
1713 13
1714 21
1715 158
1716 194
1717 217
1718 4
1719 163
1720 95
1721 318
1722 160
1723 25
1724 289
1725 81
1726 6
1727 35
1728 21
1729 37
1730 82
1731 49
1732 60
1733 18
1734 80
1735 325
1736 151
1737 181
1738 108
1739 5
1740 165
1741 58
1742 10
1743 37
1744 423
1745 370
1746 15
1747 24
1748 44
1749 73
1750 29
1751 146
1752 84
1753 72
1754 36
1755 25
1756 6
1757 176
1758 81
1759 3
1760 509
1761 241
1762 27
1763 23
1764 75
1765 21
1766 92
1767 12
1768 52
1769 187
1770 98
1771 50
1772 118
1773 29
1774 55
1775 58
1776 158
1777 132
1778 109
1779 259
1780 335
1781 89
1782 10
1783 14
1784 44
1785 105
1786 22
1787 19
1788 8
1789 216
1790 62
1791 28
1792 659
1793 395
1794 16
1795 9
1796 50
1797 8
1798 100
1799 37
1800 19
1801 11
1802 21
1803 31
1804 60
1805 62
1806 86
1807 75
1808 186
1809 64
1810 15
1811 214
1812 64
1813 48
1814 84
1815 97
1816 72
1817 61
1818 165
1819 35
1820 115
1821 19
1822 125
1823 155
1824 110
1825 42
1826 4
1827 132
1828 74
1829 165
1830 73
1831 12
1832 321
1833 170
1834 68
1835 285
1836 156
1837 149
1838 55
1839 147
1840 106
1841 102
1842 17
1843 27
1844 59
1845 83
1846 287
1847 10
1848 18
1849 56
1850 43
1851 77
1852 169
1853 193
1854 72
1855 21
1856 160
1857 116
1858 12
1859 20
1860 435
1861 148
1862 96
1863 371
1864 231
1865 3
1866 62
1867 143
1868 194
1869 95
1870 224
1871 13
1872 90
1873 105
1874 172
1875 87
1876 126
1877 205
1878 6
1879 69
1880 83
1881 36
1882 5
1883 15
1884 53
1885 78
1886 15
1887 28
1888 107
1889 141
1890 54
1891 40
1892 62
1893 6
1894 130
1895 82
1896 62
1897 176
1898 155
1899 138
1900 32
1901 14
1902 61
1903 36
1904 12
1905 223
1906 15
1907 25
1908 83
1909 208
1910 286
1911 187
1912 404
1913 176
1914 109
1915 166
1916 72
1917 9
1918 313
1919 326
1920 352
1921 182
1922 210
1923 143
1924 123
1925 80
1926 120
1927 165
1928 105
1929 62
1930 167
1931 418
1932 153
1933 137
1934 64
1935 30
1936 20
1937 85
1938 2
1939 42
1940 29
1941 11
1942 106
1943 115
1944 213
1945 183
1946 28
1947 65
1948 201
1949 34
1950 182
1951 114
1952 4
1953 16
1954 225
1955 276
1956 108
1957 34
1958 368
1959 220
1960 75
1961 77
1962 145
1963 161
1964 23
1965 229
1966 30
1967 188
1968 246
1969 251
1970 350
1971 61
1972 93
1973 57
1974 14
1975 5
1976 128
1977 265
1978 106
1979 176
1980 8
1981 215
1982 62
1983 128
1984 35
1985 121
1986 105
1987 245
1988 93
1989 176
1990 11
1991 104
1992 30
1993 97
1994 201
1995 69
1996 66
1997 203
1998 7
1999 21
