0 54
1 32
2 43
3 45
4 108
5 40
6 14
7 32
8 22
9 283
10 44
11 38
12 90
13 90
14 28
15 2
16 63
17 74
18 37
19 14
20 3
21 63
22 34
23 39
24 27
25 10
26 28
27 40
28 189
29 173
30 22
31 32
32 59
33 58
34 1
35 53
36 80
37 24
38 14
39 59
40 141
41 23
42 62
43 70
44 91
45 2
46 164
47 125
48 35
49 27
50 170
51 40
52 34
53 9
54 29
55 53
56 26
57 65
58 4
59 49
60 18
61 149
62 4
63 67
64 68
65 198
66 287
67 70
68 179
69 26
70 9
71 43
72 51
73 60
74 10
75 29
76 264
77 10
78 17
79 4
80 19
81 4
82 6
83 135
84 52
85 26
86 3
87 34
88 65
89 27
90 102
91 3
92 9
93 10
94 12
95 17
96 49
97 35
98 94
99 19
100 24
101 28
102 32
103 45
104 13
105 122
106 7
107 36
108 20
109 34
110 40
111 25
112 93
113 26
114 6
115 95
116 71
117 47
118 78
119 14
120 6
121 46
122 38
123 1
124 169
125 2
126 9
127 2
128 60
129 42
130 33
131 26
132 63
133 24
134 4
135 21
136 51
137 128
138 51
139 238
140 91
141 182
142 105
143 4
144 163
145 36
146 50
147 26
148 33
149 228
150 99
151 35
152 196
153 33
154 43
155 11
156 17
157 56
158 48
159 68
160 65
161 7
162 15
163 190
164 17
165 45
166 77
167 199
168 157
169 116
170 74
171 249
172 183
173 108
174 61
175 34
176 3
177 61
178 168
179 119
180 39
181 132
182 39
183 36
184 82
185 169
186 98
187 26
188 96
189 42
190 73
191 59
192 178
193 85
194 44
195 54
196 38
197 70
198 60
199 48
200 16
201 196
202 127
203 24
204 43
205 38
206 43
207 64
208 25
209 13
210 26
211 150
212 155
213 8
214 33
215 85
216 16
217 104
218 186
219 139
220 62
221 7
222 78
223 187
224 113
225 133
226 45
227 99
228 27
229 91
230 60
231 39
232 57
233 31
234 185
235 1
236 19
237 46
238 17
239 42
240 66
241 354
242 82
243 231
244 212
245 299
246 1
247 11
248 10
249 103
250 263
251 18
252 34
253 19
254 58
255 35
256 57
257 114
258 6
259 148
260 102
261 23
262 43
263 10
264 21
265 101
266 2
267 55
268 35
269 97
270 6
271 76
272 9
273 88
274 30
275 134
276 79
277 50
278 163
279 97
280 25
281 70
282 4
283 25
284 259
285 72
286 37
287 126
288 96
289 22
290 16
291 127
292 17
293 43
294 114
295 31
296 55
297 233
298 89
299 29
300 74
301 85
302 156
303 18
304 71
305 1
306 40
307 93
308 157
309 46
310 7
311 1
312 16
313 20
314 113
315 168
316 130
317 7
318 91
319 32
320 205
321 114
322 70
323 10
324 70
325 15
326 30
327 13
328 90
329 95
330 182
331 74
332 46
333 209
334 100
335 88
336 10
337 59
338 103
339 20
340 141
341 15
342 88
343 163
344 6
345 136
346 36
347 120
348 140
349 111
350 83
351 33
352 61
353 34
354 121
355 157
356 49
357 110
358 260
359 95
360 58
361 29
362 67
363 33
364 127
365 20
366 64
367 120
368 201
369 50
370 47
371 188
372 15
373 155
374 32
375 69
376 34
377 9
378 28
379 20
380 1
381 57
382 95
383 37
384 262
385 73
386 95
387 137
388 27
389 99
390 116
391 214
392 81
393 299
394 8
395 24
396 18
397 40
398 87
399 118
400 19
401 139
402 82
403 28
404 132
405 66
406 387
407 68
408 41
409 28
410 139
411 46
412 71
413 15
414 59
415 94
416 15
417 4
418 3
419 119
420 39
421 473
422 156
423 23
424 43
425 171
426 31
427 5
428 27
429 224
430 144
431 39
432 83
433 65
434 130
435 36
436 22
437 54
438 180
439 13
440 70
441 69
442 64
443 119
444 47
445 49
446 49
447 48
448 134
449 450
450 114
451 101
452 219
453 201
454 39
455 88
456 161
457 47
458 502
459 47
460 120
461 67
462 61
463 120
464 130
465 16
466 328
467 15
468 20
469 141
470 140
471 132
472 41
473 109
474 54
475 27
476 84
477 114
478 44
479 138
480 59
481 46
482 27
483 47
484 30
485 69
486 347
487 58
488 295
489 354
490 150
491 16
492 63
493 98
494 39
495 35
496 20
497 111
498 94
499 59
500 9
501 52
502 22
503 46
504 7
505 221
506 6
507 21
508 42
509 59
510 100
511 39
512 161
513 110
514 20
515 136
516 451
517 233
518 153
519 98
520 174
521 337
522 65
523 263
524 146
525 13
526 283
527 28
528 19
529 182
530 248
531 187
532 290
533 191
534 79
535 320
536 33
537 22
538 62
539 417
540 151
541 88
542 141
543 98
544 17
545 119
546 11
547 49
548 107
549 102
550 39
551 37
552 25
553 258
554 48
555 10
556 78
557 385
558 11
559 180
560 178
561 28
562 59
563 125
564 117
565 13
566 128
567 51
568 19
569 68
570 67
571 11
572 27
573 8
574 114
575 10
576 95
577 33
578 8
579 243
580 71
581 178
582 332
583 459
584 40
585 73
586 258
587 363
588 59
589 171
590 127
591 33
592 2
593 274
594 328
595 38
596 59
597 72
598 152
599 43
600 236
601 39
602 4
603 579
604 100
605 229
606 23
607 241
608 29
609 62
610 42
611 397
612 180
613 144
614 17
615 120
616 231
617 33
618 3
619 22
620 24
621 233
622 36
623 87
624 150
625 28
626 15
627 85
628 23
629 1
630 69
631 42
632 232
633 167
634 37
635 54
636 138
637 180
638 24
639 107
640 73
641 31
642 470
643 56
644 121
645 72
646 71
647 391
648 56
649 59
650 300
651 19
652 164
653 82
654 65
655 79
656 79
657 132
658 19
659 46
660 2
661 103
662 39
663 4
664 163
665 73
666 209
667 4
668 28
669 74
670 62
671 23
672 224
673 11
674 26
675 18
676 56
677 186
678 45
679 5
680 382
681 52
682 37
683 247
684 37
685 91
686 81
687 119
688 38
689 15
690 34
691 19
692 3
693 170
694 16
695 40
696 13
697 179
698 14
699 8
700 126
701 31
702 13
703 67
704 122
705 4
706 103
707 10
708 219
709 7
710 60
711 9
712 84
713 240
714 47
715 8
716 335
717 35
718 35
719 13
720 35
721 113
722 72
723 19
724 29
725 119
726 19
727 45
728 53
729 29
730 35
731 19
732 163
733 187
734 45
735 106
736 57
737 14
738 178
739 156
740 60
741 27
742 28
743 131
744 96
745 74
746 18
747 282
748 104
749 437
750 235
751 170
752 213
753 224
754 615
755 174
756 38
757 29
758 41
759 224
760 93
761 195
762 67
763 100
764 31
765 46
766 14
767 66
768 97
769 338
770 16
771 81
772 52
773 205
774 110
775 181
776 137
777 94
778 179
779 39
780 595
781 96
782 71
783 183
784 95
785 62
786 54
787 84
788 149
789 43
790 135
791 387
792 14
793 23
794 72
795 83
796 63
797 7
798 68
799 186
800 22
801 226
802 186
803 70
804 68
805 405
806 24
807 3
808 363
809 501
810 212
811 168
812 33
813 19
814 38
815 45
816 10
817 28
818 77
819 36
820 117
821 134
822 61
823 25
824 213
825 84
826 76
827 317
828 396
829 25
830 95
831 67
832 358
833 57
834 52
835 269
836 26
837 38
838 10
839 8
840 106
841 131
842 161
843 601
844 40
845 579
846 207
847 211
848 147
849 84
850 415
851 2
852 64
853 25
854 8
855 170
856 30
857 174
858 48
859 161
860 22
861 327
862 184
863 172
864 8
865 215
866 14
867 31
868 74
869 46
870 19
871 168
872 18
873 9
874 21
875 9
876 172
877 2
878 30
879 16
880 28
881 118
882 39
883 4
884 131
885 83
886 82
887 38
888 58
889 58
890 74
891 181
892 94
893 71
894 390
895 28
896 134
897 130
898 29
899 14
900 12
901 121
902 39
903 163
904 11
905 152
906 2
907 18
908 23
909 49
910 78
911 180
912 12
913 98
914 115
915 5
916 227
917 402
918 90
919 181
920 136
921 9
922 280
923 14
924 66
925 88
926 16
927 11
928 72
929 46
930 104
931 15
932 159
933 135
934 130
935 3
936 93
937 33
938 22
939 169
940 19
941 10
942 46
943 214
944 9
945 263
946 68
947 107
948 33
949 182
950 19
951 285
952 57
953 48
954 33
955 58
956 147
957 116
958 195
959 5
960 311
961 14
962 315
963 100
964 49
965 206
966 31
967 40
968 187
969 71
970 85
971 222
972 107
973 76
974 87
975 28
976 43
977 8
978 26
979 80
980 18
981 11
982 12
983 60
984 62
985 187
986 95
987 24
988 51
989 19
990 50
991 142
992 3
993 52
994 45
995 109
996 132
997 38
998 168
999 1
1000 69
1001 235
1002 65
1003 201
1004 85
1005 279
1006 2
1007 201
1008 20
1009 39
1010 62
1011 62
1012 50
1013 8
1014 33
1015 127
1016 97
1017 399
1018 19
1019 290
1020 105
1021 255
1022 10
1023 141
1024 25
1025 163
1026 47
1027 32
1028 33
1029 92
1030 359
1031 33
1032 215
1033 100
1034 60
1035 263
1036 151
1037 224
1038 282
1039 2
1040 9
1041 68
1042 125
1043 44
1044 193
1045 74
1046 93
1047 4
1048 3
1049 21
1050 111
1051 75
1052 25
1053 353
1054 1
1055 203
1056 161
1057 61
1058 79
1059 20
1060 50
1061 77
1062 96
1063 137
1064 20
1065 54
1066 412
1067 152
1068 88
1069 18
1070 3
1071 6
1072 2
1073 76
1074 6
1075 36
1076 24
1077 29
1078 21
1079 102
1080 33
1081 19
1082 25
1083 10
1084 45
1085 40
1086 60
1087 141
1088 45
1089 248
1090 7
1091 109
1092 4
1093 18
1094 50
1095 7
1096 91
1097 57
1098 27
1099 210
1100 52
1101 2
1102 24
1103 51
1104 79
1105 3
1106 13
1107 16
1108 115
1109 30
1110 105
1111 115
1112 25
1113 40
1114 80
1115 44
1116 41
1117 62
1118 23
1119 35
1120 4
1121 344
1122 112
1123 8
1124 89
1125 101
1126 93
1127 136
1128 86
1129 81
1130 8
1131 8
1132 5
1133 7
1134 159
1135 77
1136 74
1137 81
1138 82
1139 2
1140 97
1141 39
1142 58
1143 16
1144 122
1145 58
1146 8
1147 15
1148 87
1149 3
1150 175
1151 37
1152 131
1153 19
1154 86
1155 80
1156 16
1157 56
1158 29
1159 10
1160 30
1161 11
1162 18
1163 27
1164 29
1165 136
1166 7
1167 1
1168 323
1169 177
1170 177
1171 29
1172 7
1173 84
1174 36
1175 114
1176 67
1177 145
1178 26
1179 24
1180 42
1181 4
1182 88
1183 7
1184 292
1185 78
1186 82
1187 132
1188 79
1189 32
1190 210
1191 169
1192 72
1193 7
1194 88
1195 28
1196 374
1197 99
1198 43
1199 15
1200 298
1201 42
1202 65
1203 122
1204 26
1205 52
1206 82
1207 9
1208 18
1209 38
1210 22
1211 234
1212 38
1213 300
1214 58
1215 188
1216 9
1217 259
1218 28
1219 22
1220 103
1221 68
1222 65
1223 34
1224 45
1225 42
1226 46
1227 89
1228 2
1229 9
1230 6
1231 10
1232 58
1233 110
1234 44
1235 2
1236 25
1237 37
1238 266
1239 31
1240 24
1241 246
1242 16
1243 69
1244 15
1245 18
1246 463
1247 112
1248 3
1249 336
1250 35
1251 53
1252 193
1253 3
1254 132
1255 4
1256 71
1257 395
1258 77
1259 71
1260 11
1261 3
1262 118
1263 209
1264 30
1265 78
1266 94
1267 73
1268 27
1269 87
1270 40
1271 94
1272 74
1273 7
1274 30
1275 37
1276 9
1277 134
1278 104
1279 285
1280 42
1281 258
1282 11
1283 73
1284 172
1285 12
1286 325
1287 127
1288 12
1289 31
1290 130
1291 63
1292 19
1293 11
1294 173
1295 573
1296 56
1297 26
1298 512
1299 90
1300 132
1301 4
1302 26
1303 41
1304 186
1305 15
1306 9
1307 190
1308 57
1309 36
1310 19
1311 194
1312 75
1313 20
1314 11
1315 170
1316 3
1317 74
1318 49
1319 15
1320 3
1321 60
1322 99
1323 2
1324 51
1325 222
1326 101
1327 11
1328 20
1329 54
1330 19
1331 196
1332 24
1333 11
1334 96
1335 52
1336 40
1337 2
1338 52
1339 62
1340 18
1341 52
1342 97
1343 19
1344 101
1345 66
1346 92
1347 114
1348 118
1349 24
1350 96
1351 63
1352 67
1353 12
1354 83
1355 352
1356 15
1357 109
1358 11
1359 54
1360 103
1361 5
1362 94
1363 44
1364 107
1365 17
1366 70
1367 103
1368 72
1369 5
1370 39
1371 9
1372 114
1373 156
1374 16
1375 29
1376 56
1377 301
1378 134
1379 148
1380 96
1381 47
1382 136
1383 133
1384 31
1385 13
1386 172
1387 19
1388 5
1389 84
1390 48
1391 14
1392 147
1393 19
1394 131
1395 103
1396 29
1397 29
1398 141
1399 46
1400 50
1401 113
1402 101
1403 109
1404 16
1405 11
1406 82
1407 44
1408 60
1409 99
1410 5
1411 75
1412 64
1413 4
1414 41
1415 28
1416 25
1417 163
1418 108
1419 11
1420 1
1421 49
1422 126
1423 54
1424 11
1425 4
1426 29
1427 143
1428 60
1429 198
1430 30
1431 74
1432 1
1433 22
1434 23
1435 61
1436 42
1437 30
1438 56
1439 498
1440 19
1441 99
1442 182
1443 203
1444 84
1445 130
1446 230
1447 50
1448 48
1449 54
1450 10
1451 8
1452 106
1453 119
1454 749
1455 18
1456 103
1457 303
1458 78
1459 88
1460 35
1461 35
1462 41
1463 100
1464 307
1465 158
1466 43
1467 5
1468 47
1469 195
1470 101
1471 313
1472 44
1473 3
1474 248
1475 106
1476 45
1477 25
1478 513
1479 107
1480 248
1481 21
1482 102
1483 112
1484 71
1485 478
1486 76
1487 258
1488 10
1489 31
1490 17
1491 22
1492 131
1493 25
1494 344
1495 290
1496 34
1497 119
1498 12
1499 61
1500 42
1501 47
1502 158
1503 15
1504 309
1505 207
1506 208
1507 126
1508 4
1509 83
1510 35
1511 71
1512 17
1513 116
1514 50
1515 255
1516 35
1517 32
1518 15
1519 50
1520 363
1521 48
1522 200
1523 41
1524 66
1525 84
1526 108
1527 73
1528 202
1529 42
1530 130
1531 9
1532 102
1533 1
1534 87
1535 64
1536 55
1537 130
1538 217
1539 18
1540 55
1541 333
1542 236
1543 21
1544 214
1545 10
1546 80
1547 103
1548 6
1549 161
1550 64
1551 61
1552 59
1553 265
1554 60
1555 52
1556 7
1557 21
1558 144
1559 24
1560 6
1561 46
1562 83
1563 201
1564 123
1565 12
1566 168
1567 105
1568 190
1569 206
1570 477
1571 198
1572 74
1573 71
1574 28
1575 55
1576 44
1577 132
1578 25
1579 69
1580 52
1581 79
1582 59
1583 83
1584 251
1585 106
1586 99
1587 91
1588 22
1589 163
1590 116
1591 161
1592 112
1593 81
1594 117
1595 95
1596 91
1597 101
1598 18
1599 96
1600 66
1601 29
1602 131
1603 242
1604 9
1605 3
1606 43
1607 33
1608 424
1609 71
1610 167
1611 67
1612 47
1613 24
1614 92
1615 138
1616 36
1617 77
1618 175
1619 79
1620 101
1621 146
1622 137
1623 31
1624 195
1625 65
1626 109
1627 80
1628 133
1629 15
1630 287
1631 293
1632 150
1633 183
1634 219
1635 180
1636 36
1637 110
1638 16
1639 92
1640 11
1641 119
1642 117
1643 23
1644 389
1645 116
1646 18
1647 217
1648 25
1649 81
1650 155
1651 84
1652 89
1653 17
1654 22
1655 24
1656 68
1657 442
1658 59
1659 177
1660 45
1661 8
1662 246
1663 38
1664 37
1665 13
1666 45
1667 148
1668 358
1669 29
1670 34
1671 13
1672 242
1673 140
1674 17
1675 52
1676 52
1677 28
1678 30
1679 79
1680 46
1681 59
1682 219
1683 40
1684 101
1685 249
1686 57
1687 438
1688 44
1689 92
1690 19
1691 366
1692 16
1693 142
1694 1
1695 63
1696 63
1697 175
1698 13
1699 51
1700 5
1701 94
1702 24
1703 20
1704 91
1705 72
1706 99
1707 73
1708 128
1709 131
1710 154
1711 62
1712 64
1713 106
1714 102
1715 24
1716 10
1717 118
1718 22
1719 93
1720 29
1721 176
1722 134
1723 9
1724 96
1725 30
1726 56
1727 13
1728 28
1729 44
1730 75
1731 132
1732 42
1733 44
1734 65
1735 43
1736 121
1737 65
1738 98
1739 62
1740 18
1741 156
1742 3
1743 133
1744 70
1745 89
1746 191
1747 20
1748 65
1749 25
1750 181
1751 119
1752 66
1753 29
1754 49
1755 13
1756 25
1757 84
1758 287
1759 105
1760 1
1761 220
1762 400
1763 1
1764 56
1765 95
1766 156
1767 1
1768 160
1769 74
1770 16
1771 236
1772 129
1773 21
1774 17
1775 22
1776 65
1777 407
1778 34
1779 146
1780 34
1781 60
1782 184
1783 246
1784 243
1785 13
1786 51
1787 5
1788 160
1789 61
1790 8
1791 17
1792 89
1793 27
1794 54
1795 272
1796 281
1797 162
1798 225
1799 36
1800 33
1801 158
1802 11
1803 290
1804 30
1805 46
1806 217
1807 53
1808 125
1809 27
1810 106
1811 21
1812 82
1813 130
1814 168
1815 17
1816 65
1817 185
1818 122
1819 69
1820 18
1821 104
1822 103
1823 84
1824 26
1825 163
1826 63
1827 78
1828 173
1829 159
1830 100
1831 127
1832 249
1833 11
1834 41
1835 6
1836 173
1837 221
1838 37
1839 101
1840 161
1841 105
1842 60
1843 19
1844 9
1845 36
1846 43
1847 29
1848 99
1849 24
1850 19
1851 9
1852 29
1853 88
1854 68
1855 118
1856 252
1857 38
1858 76
1859 60
1860 110
1861 47
1862 598
1863 5
1864 245
1865 354
1866 40
1867 251
1868 38
1869 117
1870 12
1871 10
1872 57
1873 193
1874 202
1875 137
1876 46
1877 23
1878 352
1879 56
1880 66
1881 8
1882 61
1883 95
1884 27
1885 267
1886 7
1887 28
1888 6
1889 162
1890 109
1891 66
1892 135
1893 58
1894 206
1895 98
1896 33
1897 29
1898 53
1899 284
1900 6
1901 293
1902 3
1903 35
1904 26
1905 1
1906 4
1907 50
1908 26
1909 6
1910 19
1911 27
1912 69
1913 31
1914 5
1915 6
1916 13
1917 26
1918 138
1919 131
1920 59
1921 31
1922 68
1923 44
1924 76
1925 176
1926 20
1927 80
1928 94
1929 144
1930 168
1931 87
1932 172
1933 1
1934 74
1935 8
1936 4
1937 11
1938 22
1939 12
1940 4
1941 100
1942 279
1943 23
1944 35
1945 18
1946 65
1947 174
1948 264
1949 252
1950 149
1951 130
1952 182
1953 127
1954 3
1955 102
1956 14
1957 98
1958 29
1959 9
1960 114
1961 157
1962 212
1963 17
1964 44
1965 11
1966 112
1967 259
1968 101
1969 129
1970 14
1971 199
1972 10
1973 201
1974 33
1975 10
1976 77
1977 46
1978 181
1979 37
1980 75
1981 94
1982 31
1983 92
1984 430
1985 688
1986 97
1987 6
1988 180
1989 2
1990 743
1991 556
1992 10
1993 62
1994 341
1995 79
1996 74
1997 51
1998 135
1999 4
