0 72
1 23
2 23
3 38
4 24
5 204
6 17
7 7
8 63
9 247
10 22
11 85
12 6
13 57
14 19
15 256
16 80
17 12
18 13
19 160
20 22
21 38
22 105
23 5
24 34
25 55
26 26
27 22
28 29
29 47
30 1
31 47
32 13
33 45
34 8
35 36
36 8
37 64
38 46
39 99
40 52
41 30
42 7
43 18
44 30
45 79
46 41
47 49
48 9
49 14
50 15
51 208
52 28
53 7
54 15
55 21
56 49
57 3
58 111
59 1
60 99
61 56
62 53
63 23
64 35
65 42
66 35
67 103
68 209
69 3
70 11
71 37
72 108
73 80
74 21
75 5
76 346
77 51
78 41
79 25
80 24
81 60
82 76
83 98
84 80
85 47
86 8
87 45
88 14
89 56
90 45
91 3
92 61
93 28
94 8
95 43
96 43
97 164
98 239
99 810
100 51
101 143
102 40
103 13
104 6
105 68
106 36
107 163
108 124
109 19
110 36
111 71
112 77
113 41
114 95
115 2
116 10
117 53
118 72
119 50
120 71
121 76
122 68
123 170
124 159
125 68
126 1
127 12
128 417
129 61
130 99
131 22
132 214
133 58
134 97
135 90
136 409
137 45
138 185
139 11
140 334
141 73
142 11
143 92
144 87
145 44
146 65
147 38
148 14
149 79
150 1
151 6
152 67
153 31
154 95
155 150
156 78
157 28
158 22
159 19
160 70
161 15
162 29
163 55
164 10
165 65
166 119
167 42
168 71
169 63
170 19
171 281
172 12
173 99
174 289
175 197
176 47
177 334
178 24
179 108
180 138
181 56
182 119
183 335
184 47
185 81
186 10
187 63
188 3
189 169
190 1
191 293
192 178
193 39
194 104
195 63
196 22
197 112
198 14
199 73
200 20
201 17
202 18
203 133
204 180
205 55
206 38
207 10
208 41
209 6
210 107
211 19
212 63
213 101
214 88
215 104
216 127
217 145
218 9
219 82
220 46
221 6
222 19
223 55
224 316
225 54
226 118
227 10
228 3
229 30
230 189
231 131
232 49
233 42
234 40
235 173
236 58
237 113
238 125
239 7
240 50
241 130
242 195
243 128
244 107
245 122
246 230
247 132
248 130
249 23
250 15
251 2
252 1
253 12
254 9
255 9
256 429
257 887
258 217
259 46
260 77
261 73
262 271
263 60
264 224
265 49
266 190
267 59
268 149
269 46
270 16
271 42
272 277
273 37
274 301
275 6
276 76
277 150
278 169
279 112
280 60
281 370
282 32
283 6
284 8
285 204
286 16
287 47
288 53
289 63
290 75
291 100
292 28
293 100
294 14
295 23
296 132
297 121
298 29
299 72
300 130
301 67
302 22
303 18
304 70
305 63
306 232
307 271
308 93
309 144
310 33
311 223
312 36
313 90
314 163
315 13
316 55
317 135
318 3
319 122
320 6
321 25
322 53
323 244
324 37
325 118
326 158
327 108
328 85
329 261
330 202
331 82
332 11
333 25
334 94
335 88
336 71
337 37
338 14
339 87
340 145
341 24
342 55
343 77
344 31
345 75
346 40
347 93
348 96
349 130
350 6
351 68
352 41
353 6
354 5
355 127
356 7
357 11
358 6
359 192
360 144
361 28
362 166
363 63
364 93
365 58
366 32
367 13
368 24
369 4
370 160
371 24
372 130
373 179
374 72
375 23
376 85
377 21
378 40
379 77
380 44
381 235
382 72
383 5
384 457
385 127
386 32
387 76
388 23
389 89
390 447
391 102
392 325
393 8
394 138
395 128
396 114
397 58
398 72
399 2
400 135
401 23
402 417
403 4
404 49
405 20
406 62
407 139
408 20
409 41
410 36
411 6
412 4
413 79
414 101
415 93
416 75
417 141
418 238
419 32
420 131
421 16
422 131
423 11
424 25
425 3
426 79
427 125
428 54
429 33
430 205
431 23
432 33
433 119
434 209
435 55
436 9
437 183
438 15
439 57
440 106
441 14
442 85
443 20
444 81
445 93
446 94
447 14
448 54
449 16
450 81
451 19
452 204
453 20
454 11
455 9
456 97
457 159
458 98
459 15
460 35
461 100
462 57
463 21
464 93
465 47
466 143
467 70
468 91
469 10
470 299
471 100
472 66
473 23
474 258
475 104
476 102
477 66
478 33
479 338
480 193
481 105
482 38
483 63
484 125
485 16
486 69
487 183
488 284
489 109
490 122
491 11
492 72
493 28
494 136
495 154
496 136
497 163
498 59
499 108
500 194
501 22
502 8
503 49
504 67
505 17
506 485
507 91
508 155
509 10
510 75
511 172
512 64
513 36
514 35
515 104
516 19
517 37
518 39
519 20
520 22
521 286
522 69
523 125
524 109
525 247
526 19
527 205
528 50
529 115
530 77
531 79
532 55
533 27
534 58
535 159
536 246
537 40
538 60
539 111
540 47
541 24
542 41
543 63
544 89
545 23
546 199
547 256
548 59
549 27
550 20
551 3
552 59
553 55
554 74
555 90
556 1
557 130
558 342
559 266
560 16
561 8
562 58
563 210
564 73
565 56
566 108
567 3
568 73
569 63
570 3
571 64
572 287
573 35
574 171
575 210
576 15
577 64
578 19
579 66
580 111
581 88
582 249
583 28
584 82
585 30
586 68
587 77
588 197
589 32
590 51
591 100
592 11
593 12
594 6
595 127
596 28
597 169
598 49
599 83
600 67
601 174
602 58
603 59
604 18
605 44
606 4
607 52
608 56
609 31
610 59
611 10
612 3
613 47
614 34
615 60
616 7
617 127
618 22
619 64
620 35
621 149
622 60
623 72
624 100
625 145
626 33
627 32
628 20
629 275
630 86
631 73
632 201
633 87
634 265
635 57
636 120
637 34
638 113
639 3
640 63
641 38
642 4
643 7
644 53
645 204
646 66
647 95
648 50
649 240
650 101
651 8
652 50
653 114
654 70
655 43
656 72
657 61
658 47
659 109
660 77
661 15
662 129
663 54
664 30
665 29
666 58
667 113
668 1
669 100
670 56
671 66
672 10
673 35
674 193
675 1
676 39
677 1
678 207
679 65
680 119
681 198
682 3
683 64
684 182
685 40
686 107
687 38
688 44
689 53
690 232
691 56
692 16
693 23
694 28
695 2
696 42
697 11
698 139
699 7
700 58
701 24
702 23
703 171
704 288
705 43
706 40
707 45
708 157
709 21
710 203
711 149
712 63
713 587
714 60
715 87
716 56
717 23
718 137
719 184
720 180
721 41
722 30
723 79
724 62
725 45
726 304
727 137
728 155
729 26
730 6
731 94
732 366
733 122
734 129
735 247
736 97
737 18
738 73
739 100
740 150
741 49
742 182
743 47
744 84
745 95
746 48
747 16
748 16
749 442
750 39
751 27
752 77
753 25
754 19
755 5
756 37
757 33
758 90
759 111
760 108
761 44
762 52
763 40
764 41
765 71
766 69
767 5
768 43
769 107
770 234
771 52
772 39
773 41
774 94
775 20
776 256
777 64
778 131
779 298
780 70
781 69
782 108
783 345
784 3
785 294
786 37
787 48
788 42
789 36
790 121
791 3
792 4
793 37
794 125
795 173
796 31
797 15
798 69
799 22
800 62
801 274
802 71
803 28
804 25
805 219
806 81
807 73
808 282
809 45
810 30
811 125
812 99
813 66
814 4
815 24
816 93
817 99
818 103
819 16
820 58
821 61
822 237
823 3
824 65
825 29
826 17
827 29
828 80
829 130
830 84
831 108
832 4
833 40
834 230
835 21
836 40
837 221
838 40
839 33
840 47
841 40
842 240
843 37
844 7
845 5
846 92
847 103
848 76
849 69
850 1
851 154
852 49
853 84
854 31
855 95
856 12
857 10
858 106
859 59
860 57
861 7
862 196
863 40
864 95
865 381
866 124
867 57
868 101
869 534
870 59
871 76
872 7
873 15
874 267
875 121
876 54
877 63
878 5
879 148
880 64
881 10
882 35
883 38
884 26
885 44
886 111
887 75
888 54
889 180
890 141
891 44
892 122
893 135
894 91
895 9
896 60
897 20
898 67
899 2
900 203
901 170
902 87
903 84
904 148
905 48
906 436
907 3
908 39
909 34
910 22
911 35
912 282
913 6
914 24
915 164
916 125
917 102
918 93
919 120
920 17
921 41
922 32
923 39
924 32
925 189
926 318
927 82
928 32
929 109
930 178
931 208
932 39
933 30
934 140
935 109
936 15
937 420
938 94
939 60
940 183
941 123
942 54
943 114
944 18
945 204
946 7
947 115
948 75
949 503
950 13
951 29
952 23
953 175
954 8
955 127
956 87
957 24
958 239
959 20
960 240
961 3
962 92
963 80
964 236
965 50
966 67
967 20
968 8
969 15
970 54
971 127
972 85
973 80
974 57
975 92
976 112
977 185
978 74
979 7
980 49
981 169
982 66
983 134
984 38
985 239
986 140
987 34
988 239
989 53
990 244
991 8
992 4
993 54
994 428
995 17
996 157
997 70
998 62
999 21
1000 10
1001 40
1002 7
1003 215
1004 104
1005 137
1006 60
1007 19
1008 97
1009 80
1010 303
1011 34
1012 7
1013 10
1014 246
1015 127
1016 161
1017 146
1018 30
1019 9
1020 416
1021 58
1022 65
1023 84
1024 31
1025 3
1026 9
1027 150
1028 14
1029 276
1030 122
1031 48
1032 182
1033 237
1034 73
1035 128
1036 150
1037 75
1038 34
1039 57
1040 89
1041 17
1042 337
1043 90
1044 18
1045 53
1046 17
1047 37
1048 198
1049 9
1050 97
1051 220
1052 240
1053 22
1054 33
1055 147
1056 97
1057 62
1058 164
1059 44
1060 21
1061 292
1062 20
1063 102
1064 177
1065 112
1066 2
1067 34
1068 171
1069 62
1070 113
1071 4
1072 80
1073 191
1074 233
1075 234
1076 180
1077 7
1078 16
1079 210
1080 100
1081 27
1082 46
1083 32
1084 116
1085 98
1086 117
1087 122
1088 38
1089 46
1090 110
1091 40
1092 31
1093 130
1094 59
1095 60
1096 46
1097 134
1098 136
1099 69
1100 200
1101 27
1102 83
1103 29
1104 16
1105 8
1106 31
1107 47
1108 146
1109 597
1110 38
1111 24
1112 18
1113 88
1114 54
1115 5
1116 110
1117 83
1118 16
1119 4
1120 40
1121 128
1122 91
1123 74
1124 150
1125 118
1126 282
1127 122
1128 11
1129 11
1130 156
1131 160
1132 33
1133 138
1134 2
1135 567
1136 116
1137 4
1138 31
1139 119
1140 10
1141 43
1142 28
1143 646
1144 86
1145 101
1146 18
1147 102
1148 63
1149 27
1150 33
1151 120
1152 110
1153 13
1154 33
1155 63
1156 3
1157 284
1158 204
1159 28
1160 28
1161 271
1162 166
1163 270
1164 203
1165 42
1166 63
1167 29
1168 131
1169 17
1170 318
1171 98
1172 106
1173 140
1174 90
1175 9
1176 32
1177 76
1178 82
1179 29
1180 23
1181 150
1182 188
1183 645
1184 167
1185 131
1186 96
1187 69
1188 44
1189 131
1190 43
1191 82
1192 139
1193 92
1194 86
1195 5
1196 365
1197 74
1198 15
1199 75
1200 51
1201 36
1202 214
1203 11
1204 18
1205 24
1206 5
1207 9
1208 28
1209 43
1210 28
1211 9
1212 61
1213 24
1214 97
1215 103
1216 80
1217 77
1218 30
1219 9
1220 75
1221 48
1222 171
1223 26
1224 17
1225 29
1226 7
1227 199
1228 108
1229 3
1230 10
1231 5
1232 73
1233 85
1234 94
1235 34
1236 4
1237 9
1238 5
1239 44
1240 68
1241 4
1242 497
1243 168
1244 239
1245 6
1246 34
1247 51
1248 74
1249 10
1250 123
1251 36
1252 81
1253 158
1254 178
1255 5
1256 127
1257 11
1258 94
1259 266
1260 184
1261 7
1262 71
1263 1
1264 5
1265 45
1266 27
1267 167
1268 159
1269 124
1270 35
1271 18
1272 65
1273 249
1274 96
1275 136
1276 346
1277 114
1278 94
1279 219
1280 21
1281 434
1282 90
1283 43
1284 66
1285 23
1286 4
1287 88
1288 33
1289 30
1290 1
1291 40
1292 94
1293 20
1294 83
1295 12
1296 62
1297 49
1298 3
1299 21
1300 271
1301 4
1302 66
1303 22
1304 20
1305 69
1306 234
1307 34
1308 13
1309 94
1310 19
1311 21
1312 161
1313 21
1314 67
1315 113
1316 27
1317 24
1318 67
1319 67
1320 109
1321 71
1322 83
1323 33
1324 75
1325 213
1326 60
1327 75
1328 107
1329 12
1330 111
1331 243
1332 22
1333 136
1334 7
1335 45
1336 98
1337 236
1338 178
1339 13
1340 45
1341 128
1342 81
1343 39
1344 31
1345 53
1346 106
1347 1
1348 168
1349 32
1350 24
1351 228
1352 251
1353 35
1354 349
1355 77
1356 13
1357 128
1358 109
1359 119
1360 20
1361 31
1362 239
1363 72
1364 90
1365 181
1366 73
1367 25
1368 49
1369 81
1370 12
1371 162
1372 36
1373 63
1374 111
1375 208
1376 105
1377 5
1378 48
1379 91
1380 101
1381 21
1382 27
1383 33
1384 35
1385 7
1386 88
1387 9
1388 23
1389 144
1390 9
1391 24
1392 340
1393 139
1394 6
1395 6
1396 271
1397 49
1398 195
1399 51
1400 77
1401 59
1402 91
1403 7
1404 9
1405 193
1406 135
1407 74
1408 26
1409 62
1410 317
1411 30
1412 20
1413 135
1414 48
1415 111
1416 2
1417 64
1418 28
1419 100
1420 56
1421 9
1422 229
1423 67
1424 33
1425 12
1426 45
1427 228
1428 67
1429 67
1430 37
1431 205
1432 169
1433 8
1434 31
1435 90
1436 11
1437 60
1438 43
1439 141
1440 85
1441 157
1442 109
1443 130
1444 91
1445 123
1446 42
1447 2
1448 54
1449 60
1450 43
1451 17
1452 33
1453 56
1454 246
1455 61
1456 52
1457 73
1458 161
1459 29
1460 33
1461 56
1462 60
1463 22
1464 143
1465 46
1466 215
1467 16
1468 33
1469 110
1470 105
1471 64
1472 269
1473 4
1474 4
1475 3
1476 194
1477 194
1478 192
1479 102
1480 145
1481 114
1482 1
1483 20
1484 109
1485 199
1486 68
1487 182
1488 97
1489 24
1490 27
1491 71
1492 73
1493 130
1494 88
1495 192
1496 26
1497 106
1498 90
1499 120
1500 193
1501 4
1502 449
1503 14
1504 71
1505 24
1506 98
1507 18
1508 208
1509 78
1510 6
1511 80
1512 85
1513 79
1514 20
1515 69
1516 25
1517 5
1518 48
1519 273
1520 26
1521 23
1522 101
1523 56
1524 13
1525 187
1526 84
1527 45
1528 223
1529 158
1530 86
1531 438
1532 24
1533 46
1534 119
1535 280
1536 314
1537 37
1538 81
1539 74
1540 62
1541 99
1542 50
1543 20
1544 30
1545 4
1546 45
1547 77
1548 86
1549 9
1550 81
1551 48
1552 22
1553 160
1554 265
1555 150
1556 22
1557 22
1558 132
1559 12
1560 234
1561 131
1562 20
1563 77
1564 54
1565 42
1566 211
1567 11
1568 140
1569 79
1570 4
1571 33
1572 28
1573 32
1574 15
1575 60
1576 172
1577 615
1578 108
1579 173
1580 111
1581 90
1582 191
1583 100
1584 188
1585 64
1586 23
1587 213
1588 29
1589 167
1590 2
1591 220
1592 132
1593 14
1594 76
1595 27
1596 7
1597 32
1598 3
1599 108
1600 25
1601 16
1602 320
1603 1
1604 67
1605 312
1606 81
1607 64
1608 132
1609 59
1610 17
1611 22
1612 79
1613 21
1614 162
1615 21
1616 5
1617 64
1618 17
1619 201
1620 99
1621 74
1622 97
1623 78
1624 151
1625 53
1626 11
1627 51
1628 49
1629 5
1630 184
1631 33
1632 326
1633 10
1634 69
1635 135
1636 165
1637 469
1638 60
1639 73
1640 65
1641 56
1642 55
1643 80
1644 40
1645 5
1646 65
1647 348
1648 3
1649 19
1650 50
1651 2
1652 1
1653 17
1654 114
1655 36
1656 7
1657 71
1658 45
1659 32
1660 23
1661 10
1662 92
1663 31
1664 13
1665 159
1666 137
1667 44
1668 229
1669 92
1670 20
1671 148
1672 25
1673 19
1674 388
1675 73
1676 168
1677 247
1678 9
1679 18
1680 38
1681 41
1682 143
1683 378
1684 42
1685 3
1686 94
1687 39
1688 38
1689 20
1690 23
1691 444
1692 35
1693 153
1694 87
1695 39
1696 189
1697 136
1698 101
1699 23
1700 40
1701 34
1702 124
1703 35
1704 47
1705 44
1706 158
1707 1
1708 24
1709 164
1710 22
1711 62
1712 124
1713 380
1714 99
1715 69
1716 154
1717 250
1718 136
1719 94
1720 221
1721 93
1722 41
1723 21
1724 360
1725 73
1726 128
1727 64
1728 90
1729 110
1730 184
1731 18
1732 306
1733 4
1734 18
1735 185
1736 100
1737 75
1738 406
1739 42
1740 58
1741 6
1742 151
1743 122
1744 92
1745 87
1746 23
1747 96
1748 22
1749 421
1750 5
1751 4
1752 13
1753 238
1754 53
1755 125
1756 72
1757 38
1758 45
1759 110
1760 177
1761 2
1762 574
1763 566
1764 53
1765 34
1766 54
1767 15
1768 718
1769 48
1770 23
1771 179
1772 288
1773 40
1774 79
1775 100
1776 8
1777 19
1778 156
1779 115
1780 31
1781 10
1782 2
1783 27
1784 78
1785 26
1786 17
1787 15
1788 43
1789 5
1790 79
1791 64
1792 144
1793 167
1794 76
1795 7
1796 13
1797 3
1798 186
1799 35
1800 47
1801 53
1802 131
1803 1
1804 31
1805 9
1806 19
1807 25
1808 157
1809 89
1810 22
1811 93
1812 110
1813 47
1814 157
1815 120
1816 50
1817 44
1818 43
1819 74
1820 37
1821 11
1822 19
1823 11
1824 101
1825 80
1826 16
1827 25
1828 23
1829 51
1830 53
1831 280
1832 74
1833 99
1834 145
1835 5
1836 26
1837 96
1838 4
1839 300
1840 60
1841 370
1842 30
1843 60
1844 231
1845 1
1846 27
1847 99
1848 16
1849 90
1850 36
1851 76
1852 146
1853 5
1854 61
1855 240
1856 6
1857 22
1858 53
1859 2
1860 41
1861 102
1862 236
1863 74
1864 5
1865 9
1866 50
1867 47
1868 86
1869 12
1870 6
1871 105
1872 105
1873 70
1874 4
1875 3
1876 34
1877 237
1878 111
1879 21
1880 184
1881 14
1882 84
1883 40
1884 538
1885 76
1886 123
1887 50
1888 1
1889 18
1890 46
1891 80
1892 69
1893 6
1894 124
1895 4
1896 14
1897 14
1898 16
1899 378
1900 9
1901 126
1902 218
1903 30
1904 59
1905 10
1906 117
1907 221
1908 19
1909 20
1910 12
1911 33
1912 100
1913 42
1914 326
1915 23
1916 112
1917 18
1918 266
1919 39
1920 13
1921 31
1922 36
1923 125
1924 50
1925 115
1926 37
1927 26
1928 121
1929 70
1930 68
1931 31
1932 5
1933 8
1934 20
1935 8
1936 133
1937 82
1938 75
1939 117
1940 275
1941 199
1942 119
1943 31
1944 79
1945 124
1946 62
1947 168
1948 84
1949 341
1950 76
1951 83
1952 131
1953 87
1954 78
1955 2
1956 14
1957 171
1958 5
1959 46
1960 5
1961 33
1962 5
1963 13
1964 34
1965 205
1966 226
1967 198
1968 78
1969 85
1970 34
1971 59
1972 2
1973 18
1974 17
1975 98
1976 225
1977 14
1978 14
1979 63
1980 112
1981 15
1982 44
1983 40
1984 1
1985 3
1986 101
1987 7
1988 86
1989 10
1990 58
1991 5
1992 63
1993 53
1994 84
1995 37
1996 145
1997 156
1998 103
1999 197
