0 91
1 94
2 28
3 36
4 220
5 24
6 36
7 27
8 29
9 9
10 2
11 151
12 5
13 57
14 54
15 89
16 37
17 23
18 42
19 11
20 22
21 22
22 60
23 87
24 116
25 27
26 3
27 221
28 22
29 29
30 64
31 41
32 13
33 39
34 16
35 64
36 23
37 3
38 25
39 26
40 229
41 53
42 6
43 40
44 146
45 13
46 49
47 122
48 79
49 39
50 34
51 226
52 320
53 64
54 41
55 21
56 48
57 46
58 47
59 45
60 25
61 12
62 69
63 2
64 3
65 17
66 26
67 52
68 11
69 80
70 26
71 57
72 37
73 99
74 20
75 5
76 3
77 1
78 68
79 25
80 149
81 18
82 30
83 20
84 120
85 89
86 140
87 240
88 36
89 99
90 59
91 28
92 124
93 140
94 44
95 117
96 100
97 10
98 15
99 8
100 146
101 893
102 38
103 134
104 95
105 11
106 30
107 238
108 35
109 227
110 54
111 73
112 287
113 155
114 38
115 143
116 110
117 13
118 279
119 53
120 5
121 114
122 371
123 175
124 4
125 30
126 98
127 60
128 6
129 46
130 37
131 33
132 3
133 52
134 10
135 62
136 3
137 3
138 27
139 194
140 42
141 25
142 1
143 71
144 46
145 15
146 63
147 45
148 34
149 186
150 11
151 3
152 49
153 8
154 190
155 129
156 72
157 24
158 154
159 814
160 94
161 185
162 53
163 37
164 297
165 371
166 98
167 11
168 42
169 172
170 17
171 54
172 216
173 51
174 166
175 18
176 33
177 80
178 213
179 97
180 12
181 26
182 64
183 150
184 157
185 514
186 89
187 155
188 378
189 30
190 2
191 99
192 95
193 119
194 78
195 86
196 17
197 61
198 150
199 85
200 98
201 56
202 5
203 4
204 163
205 44
206 80
207 90
208 49
209 47
210 145
211 589
212 195
213 27
214 88
215 395
216 131
217 1
218 174
219 125
220 44
221 121
222 17
223 21
224 154
225 104
226 223
227 71
228 364
229 21
230 21
231 24
232 187
233 243
234 29
235 200
236 69
237 103
238 219
239 1
240 125
241 316
242 49
243 237
244 9
245 76
246 599
247 344
248 61
249 228
250 149
251 194
252 179
253 40
254 262
255 3
256 208
257 171
258 97
259 225
260 2
261 113
262 16
263 35
264 43
265 116
266 32
267 128
268 59
269 157
270 112
271 80
272 27
273 39
274 158
275 115
276 166
277 9
278 59
279 54
280 31
281 296
282 81
283 13
284 19
285 258
286 73
287 162
288 2
289 27
290 13
291 39
292 89
293 12
294 128
295 78
296 29
297 2
298 89
299 5
300 26
301 141
302 151
303 112
304 65
305 20
306 176
307 1
308 479
309 27
310 74
311 222
312 91
313 8
314 159
315 33
316 512
317 41
318 114
319 61
320 142
321 26
322 273
323 63
324 185
325 108
326 154
327 39
328 108
329 28
330 64
331 8
332 21
333 60
334 73
335 52
336 4
337 123
338 36
339 76
340 46
341 42
342 40
343 208
344 3
345 73
346 19
347 197
348 14
349 108
350 55
351 55
352 78
353 41
354 17
355 19
356 5
357 196
358 268
359 17
360 58
361 69
362 63
363 31
364 46
365 123
366 113
367 20
368 29
369 61
370 57
371 80
372 5
373 84
374 329
375 11
376 4
377 54
378 247
379 10
380 105
381 105
382 107
383 127
384 13
385 8
386 20
387 71
388 132
389 73
390 112
391 22
392 87
393 79
394 157
395 33
396 36
397 15
398 569
399 8
400 146
401 131
402 115
403 357
404 79
405 46
406 339
407 131
408 164
409 35
410 87
411 391
412 63
413 60
414 129
415 33
416 211
417 109
418 333
419 161
420 205
421 12
422 14
423 57
424 15
425 244
426 139
427 107
428 68
429 57
430 68
431 5
432 20
433 126
434 160
435 91
436 40
437 53
438 30
439 8
440 160
441 120
442 442
443 20
444 34
445 11
446 7
447 96
448 166
449 7
450 48
451 14
452 9
453 75
454 70
455 35
456 5
457 94
458 232
459 126
460 611
461 27
462 19
463 132
464 71
465 254
466 118
467 25
468 10
469 116
470 422
471 2
472 393
473 116
474 32
475 30
476 2
477 136
478 5
479 30
480 33
481 21
482 49
483 157
484 24
485 5
486 27
487 36
488 89
489 21
490 67
491 110
492 106
493 122
494 312
495 58
496 270
497 47
498 137
499 122
500 62
501 311
502 15
503 35
504 115
505 195
506 207
507 75
508 50
509 22
510 33
511 77
512 100
513 38
514 37
515 84
516 63
517 97
518 180
519 2
520 1
521 67
522 243
523 85
524 26
525 235
526 144
527 94
528 7
529 71
530 69
531 137
532 174
533 13
534 195
535 95
536 63
537 80
538 22
539 103
540 17
541 4
542 128
543 133
544 109
545 160
546 57
547 73
548 23
549 132
550 90
551 1
552 154
553 89
554 52
555 24
556 15
557 57
558 68
559 71
560 167
561 264
562 2
563 15
564 200
565 113
566 92
567 107
568 65
569 62
570 37
571 125
572 27
573 61
574 84
575 89
576 68
577 44
578 261
579 89
580 18
581 51
582 312
583 204
584 93
585 41
586 2
587 62
588 33
589 35
590 27
591 47
592 46
593 50
594 104
595 64
596 17
597 16
598 352
599 69
600 282
601 295
602 400
603 180
604 57
605 58
606 178
607 54
608 70
609 127
610 332
611 30
612 61
613 244
614 16
615 20
616 281
617 54
618 21
619 110
620 240
621 330
622 241
623 2
624 13
625 296
626 144
627 106
628 22
629 117
630 129
631 21
632 162
633 15
634 90
635 46
636 518
637 152
638 83
639 13
640 154
641 75
642 55
643 77
644 16
645 88
646 50
647 10
648 45
649 13
650 544
651 25
652 76
653 13
654 11
655 57
656 162
657 120
658 26
659 154
660 106
661 16
662 48
663 62
664 133
665 63
666 478
667 1
668 60
669 372
670 76
671 103
672 129
673 153
674 216
675 416
676 123
677 75
678 76
679 22
680 117
681 117
682 14
683 139
684 194
685 9
686 22
687 27
688 154
689 46
690 114
691 16
692 49
693 378
694 273
695 120
696 256
697 20
698 188
699 92
700 40
701 97
702 169
703 67
704 72
705 50
706 137
707 66
708 23
709 44
710 116
711 68
712 98
713 57
714 73
715 101
716 21
717 31
718 43
719 8
720 59
721 176
722 34
723 54
724 6
725 128
726 48
727 135
728 29
729 72
730 61
731 59
732 14
733 51
734 89
735 45
736 91
737 75
738 55
739 27
740 16
741 29
742 69
743 179
744 19
745 16
746 16
747 11
748 9
749 17
750 270
751 84
752 11
753 10
754 21
755 27
756 31
757 3
758 72
759 69
760 95
761 38
762 69
763 294
764 27
765 38
766 9
767 387
768 58
769 10
770 16
771 59
772 95
773 40
774 60
775 29
776 17
777 19
778 40
779 10
780 13
781 164
782 67
783 7
784 51
785 41
786 20
787 52
788 19
789 106
790 10
791 6
792 49
793 139
794 41
795 121
796 35
797 48
798 34
799 82
800 63
801 16
802 5
803 242
804 80
805 61
806 16
807 123
808 78
809 97
810 140
811 124
812 39
813 77
814 47
815 43
816 11
817 43
818 90
819 175
820 178
821 91
822 28
823 17
824 44
825 16
826 96
827 237
828 133
829 22
830 34
831 26
832 29
833 87
834 9
835 6
836 4
837 35
838 34
839 9
840 53
841 29
842 51
843 61
844 60
845 5
846 24
847 6
848 7
849 87
850 30
851 33
852 75
853 119
854 91
855 18
856 60
857 40
858 15
859 34
860 1
861 390
862 11
863 21
864 90
865 10
866 147
867 128
868 30
869 92
870 101
871 54
872 49
873 204
874 46
875 62
876 10
877 45
878 261
879 147
880 173
881 148
882 37
883 80
884 50
885 24
886 124
887 206
888 137
889 75
890 67
891 91
892 70
893 210
894 27
895 34
896 30
897 185
898 74
899 139
900 213
901 111
902 65
903 10
904 122
905 45
906 35
907 63
908 29
909 53
910 214
911 52
912 44
913 173
914 259
915 120
916 42
917 36
918 71
919 86
920 41
921 165
922 209
923 194
924 134
925 29
926 140
927 2
928 35
929 2
930 210
931 91
932 40
933 78
934 35
935 15
936 187
937 45
938 73
939 175
940 7
941 50
942 5
943 88
944 82
945 14
946 13
947 17
948 126
949 53
950 41
951 41
952 19
953 29
954 44
955 1
956 32
957 52
958 31
959 8
960 20
961 24
962 43
963 75
964 279
965 40
966 148
967 53
968 63
969 30
970 13
971 44
972 73
973 41
974 1
975 14
976 54
977 28
978 145
979 30
980 15
981 95
982 51
983 11
984 11
985 187
986 11
987 106
988 82
989 47
990 25
991 4
992 140
993 59
994 66
995 38
996 4
997 4
998 42
999 74
1000 31
1001 6
1002 102
1003 22
1004 11
1005 126
1006 37
1007 56
1008 8
1009 20
1010 11
1011 12
1012 21
1013 81
1014 10
1015 71
1016 350
1017 7
1018 12
1019 22
1020 127
1021 76
1022 16
1023 81
1024 8
1025 33
1026 23
1027 6
1028 11
1029 94
1030 56
1031 8
1032 3
1033 43
1034 15
1035 10
1036 54
1037 36
1038 48
1039 41
1040 37
1041 8
1042 66
1043 12
1044 68
1045 5
1046 84
1047 30
1048 11
1049 8
1050 95
1051 16
1052 117
1053 29
1054 8
1055 231
1056 86
1057 15
1058 77
1059 23
1060 93
1061 62
1062 14
1063 8
1064 120
1065 180
1066 33
1067 14
1068 60
1069 61
1070 21
1071 39
1072 23
1073 32
1074 160
1075 67
1076 4
1077 443
1078 7
1079 11
1080 12
1081 250
1082 11
1083 12
1084 12
1085 57
1086 13
1087 171
1088 68
1089 81
1090 96
1091 59
1092 77
1093 54
1094 20
1095 52
1096 88
1097 78
1098 54
1099 28
1100 117
1101 84
1102 9
1103 7
1104 132
1105 28
1106 125
1107 58
1108 20
1109 66
1110 5
1111 6
1112 64
1113 25
1114 3
1115 42
1116 97
1117 153
1118 19
1119 19
1120 62
1121 12
1122 26
1123 61
1124 15
1125 2
1126 33
1127 23
1128 85
1129 42
1130 17
1131 91
1132 82
1133 53
1134 3
1135 50
1136 21
1137 142
1138 74
1139 56
1140 71
1141 4
1142 30
1143 83
1144 74
1145 5
1146 135
1147 42
1148 27
1149 6
1150 11
1151 40
1152 4
1153 48
1154 16
1155 14
1156 23
1157 5
1158 40
1159 89
1160 157
1161 105
1162 93
1163 131
1164 51
1165 30
1166 23
1167 3
1168 16
1169 52
1170 92
1171 69
1172 124
1173 3
1174 129
1175 109
1176 16
1177 176
1178 72
1179 62
1180 1
1181 234
1182 100
1183 30
1184 125
1185 18
1186 10
1187 24
1188 20
1189 13
1190 162
1191 6
1192 30
1193 22
1194 32
1195 61
1196 24
1197 86
1198 109
1199 47
1200 20
1201 41
1202 14
1203 28
1204 17
1205 44
1206 47
1207 79
1208 69
1209 103
1210 32
1211 41
1212 24
1213 107
1214 42
1215 24
1216 100
1217 29
1218 45
1219 43
1220 9
1221 88
1222 58
1223 10
1224 45
1225 13
1226 186
1227 28
1228 177
1229 147
1230 95
1231 51
1232 62
1233 238
1234 16
1235 3
1236 25
1237 61
1238 32
1239 93
1240 7
1241 39
1242 2
1243 40
1244 144
1245 30
1246 33
1247 31
1248 80
1249 26
1250 21
1251 5
1252 1
1253 39
1254 16
1255 58
1256 9
1257 5
1258 23
1259 20
1260 2
1261 326
1262 278
1263 39
1264 175
1265 15
1266 101
1267 34
1268 28
1269 2
1270 10
1271 3
1272 36
1273 18
1274 42
1275 37
1276 49
1277 6
1278 12
1279 70
1280 40
1281 25
1282 34
1283 233
1284 21
1285 4
1286 66
1287 39
1288 29
1289 73
1290 3
1291 11
1292 18
1293 135
1294 60
1295 36
1296 13
1297 45
1298 43
1299 3
1300 10
1301 32
1302 25
1303 38
1304 27
1305 38
1306 5
1307 23
1308 8
1309 83
1310 10
1311 11
1312 34
1313 20
1314 10
1315 11
1316 161
1317 18
1318 19
1319 1
1320 48
1321 96
1322 29
1323 15
1324 44
1325 304
1326 81
1327 69
1328 3
1329 24
1330 81
1331 106
1332 72
1333 88
1334 241
1335 13
1336 83
1337 6
1338 30
1339 73
1340 116
1341 106
1342 36
1343 122
1344 37
1345 11
1346 28
1347 88
1348 5
1349 217
1350 37
1351 43
1352 91
1353 84
1354 38
1355 36
1356 172
1357 69
1358 44
1359 60
1360 6
1361 36
1362 78
1363 46
1364 9
1365 80
1366 175
1367 57
1368 5
1369 27
1370 9
1371 131
1372 22
1373 150
1374 79
1375 17
1376 17
1377 54
1378 15
1379 268
1380 77
1381 25
1382 10
1383 62
1384 97
1385 27
1386 211
1387 11
1388 37
1389 66
1390 53
1391 38
1392 62
1393 36
1394 22
1395 15
1396 16
1397 24
1398 31
1399 29
1400 57
1401 19
1402 2
1403 10
1404 113
1405 7
1406 222
1407 27
1408 7
1409 81
1410 82
1411 48
1412 215
1413 77
1414 8
1415 173
1416 140
1417 45
1418 65
1419 83
1420 34
1421 4
1422 13
1423 2
1424 272
1425 47
1426 10
1427 10
1428 22
1429 35
1430 14
1431 34
1432 57
1433 3
1434 17
1435 72
1436 8
1437 21
1438 7
1439 2
1440 89
1441 18
1442 12
1443 37
1444 94
1445 21
1446 2
1447 77
1448 9
1449 3
1450 38
1451 87
1452 56
1453 33
1454 59
1455 73
1456 36
1457 65
1458 81
1459 219
1460 28
1461 13
1462 3
1463 73
1464 104
1465 43
1466 11
1467 40
1468 16
1469 132
1470 38
1471 147
1472 47
1473 63
1474 116
1475 124
1476 103
1477 314
1478 23
1479 45
1480 52
1481 111
1482 149
1483 28
1484 11
1485 56
1486 16
1487 27
1488 72
1489 26
1490 73
1491 117
1492 43
1493 88
1494 24
1495 10
1496 29
1497 6
1498 6
1499 23
1500 273
1501 1
1502 87
1503 90
1504 2
1505 1
1506 16
1507 144
1508 68
1509 3
1510 40
1511 53
1512 21
1513 7
1514 28
1515 84
1516 107
1517 12
1518 140
1519 22
1520 35
1521 65
1522 7
1523 39
1524 110
1525 18
1526 96
1527 16
1528 32
1529 98
1530 16
1531 50
1532 5
1533 89
1534 29
1535 8
1536 37
1537 55
1538 11
1539 43
1540 34
1541 14
1542 23
1543 102
1544 92
1545 67
1546 125
1547 38
1548 244
1549 25
1550 49
1551 44
1552 70
1553 32
1554 14
1555 22
1556 39
1557 32
1558 52
1559 42
1560 8
1561 22
1562 14
1563 52
1564 45
1565 15
1566 52
1567 282
1568 1
1569 121
1570 69
1571 54
1572 70
1573 10
1574 169
1575 7
1576 50
1577 46
1578 54
1579 1
1580 119
1581 37
1582 44
1583 53
1584 7
1585 22
1586 82
1587 48
1588 23
1589 19
1590 47
1591 54
1592 24
1593 51
1594 93
1595 37
1596 20
1597 1
1598 82
1599 59
1600 88
1601 64
1602 79
1603 9
1604 70
1605 11
1606 27
1607 16
1608 9
1609 7
1610 8
1611 9
1612 40
1613 7
1614 18
1615 25
1616 15
1617 147
1618 68
1619 22
1620 18
1621 96
1622 33
1623 14
1624 76
1625 107
1626 41
1627 104
1628 48
1629 1
1630 37
1631 3
1632 12
1633 100
1634 24
1635 61
1636 57
1637 37
1638 30
1639 10
1640 5
1641 52
1642 45
1643 30
1644 23
1645 56
1646 42
1647 70
1648 21
1649 13
1650 51
1651 163
1652 155
1653 54
1654 31
1655 64
1656 6
1657 63
1658 51
1659 1
1660 37
1661 2
1662 37
1663 59
1664 14
1665 69
1666 34
1667 13
1668 7
1669 75
1670 6
1671 52
1672 32
1673 2
1674 6
1675 15
1676 14
1677 38
1678 17
1679 8
1680 90
1681 6
1682 14
1683 64
1684 19
1685 6
1686 21
1687 11
1688 27
1689 15
1690 9
1691 171
1692 44
1693 188
1694 13
1695 432
1696 25
1697 12
1698 24
1699 25
1700 14
1701 123
1702 33
1703 203
1704 117
1705 54
1706 138
1707 13
1708 144
1709 50
1710 27
1711 4
1712 37
1713 55
1714 51
1715 10
1716 51
1717 36
1718 123
1719 29
1720 16
1721 6
1722 8
1723 71
1724 38
1725 58
1726 2
1727 84
1728 78
1729 58
1730 41
1731 47
1732 102
1733 35
1734 9
1735 41
1736 32
1737 144
1738 52
1739 1
1740 34
1741 19
1742 3
1743 63
1744 75
1745 131
1746 76
1747 73
1748 118
1749 71
1750 1
1751 98
1752 4
1753 100
1754 205
1755 154
1756 3
1757 2
1758 13
1759 3
1760 7
1761 35
1762 37
1763 38
1764 1
1765 12
1766 20
1767 84
1768 61
1769 50
1770 49
1771 4
1772 39
1773 29
1774 26
1775 17
1776 7
1777 13
1778 19
1779 10
1780 211
1781 48
1782 30
1783 22
1784 38
1785 125
1786 4
1787 84
1788 26
1789 114
1790 85
1791 74
1792 19
1793 69
1794 5
1795 47
1796 53
1797 13
1798 73
1799 20
1800 5
1801 73
1802 67
1803 138
1804 56
1805 154
1806 13
1807 60
1808 11
1809 13
1810 3
1811 119
1812 43
1813 10
1814 93
1815 48
1816 20
1817 222
1818 5
1819 37
1820 10
1821 154
1822 8
1823 67
1824 42
1825 8
1826 96
1827 20
1828 184
1829 58
1830 117
1831 21
1832 75
1833 51
1834 15
1835 84
1836 169
1837 21
1838 1
1839 85
1840 144
1841 111
1842 71
1843 9
1844 178
1845 46
1846 47
1847 64
1848 5
1849 128
1850 18
1851 81
1852 52
1853 29
1854 70
1855 56
1856 56
1857 18
1858 92
1859 30
1860 199
1861 7
1862 25
1863 13
1864 74
1865 1
1866 106
1867 120
1868 41
1869 20
1870 11
1871 53
1872 13
1873 18
1874 119
1875 21
1876 26
1877 20
1878 112
1879 38
1880 76
1881 32
1882 52
1883 10
1884 42
1885 17
1886 63
1887 138
1888 37
1889 29
1890 54
1891 73
1892 3
1893 4
1894 154
1895 14
1896 44
1897 18
1898 64
1899 29
1900 10
1901 85
1902 33
1903 54
1904 40
1905 14
1906 3
1907 50
1908 4
1909 61
1910 3
1911 189
1912 8
1913 35
1914 50
1915 17
1916 80
1917 10
1918 172
1919 115
1920 45
1921 24
1922 170
1923 161
1924 9
1925 38
1926 93
1927 44
1928 56
1929 86
1930 35
1931 23
1932 41
1933 128
1934 27
1935 199
1936 80
1937 24
1938 36
1939 16
1940 134
1941 56
1942 15
1943 20
1944 14
1945 119
1946 46
1947 30
1948 34
1949 15
1950 43
1951 24
1952 11
1953 18
1954 10
1955 29
1956 11
1957 201
1958 83
1959 52
1960 4
1961 135
1962 6
1963 94
1964 39
1965 43
1966 7
1967 28
1968 62
1969 4
1970 73
1971 45
1972 236
1973 136
1974 90
1975 133
1976 37
1977 76
1978 35
1979 40
1980 68
1981 47
1982 56
1983 5
1984 51
1985 30
1986 20
1987 97
1988 101
1989 37
1990 83
1991 98
1992 149
1993 11
1994 12
1995 4
1996 9
1997 59
1998 30
1999 7
