0 33
1 15
2 14
3 15
4 107
5 28
6 21
7 124
8 6
9 108
10 38
11 19
12 148
13 58
14 56
15 53
16 8
17 4
18 67
19 13
20 1
21 29
22 127
23 150
24 28
25 9
26 57
27 34
28 76
29 50
30 18
31 23
32 83
33 108
34 4
35 45
36 25
37 124
38 92
39 95
40 18
41 147
42 43
43 7
44 142
45 3
46 36
47 27
48 2
49 6
50 27
51 85
52 95
53 92
54 104
55 120
56 32
57 13
58 120
59 185
60 58
61 28
62 67
63 34
64 11
65 19
66 64
67 77
68 97
69 31
70 72
71 52
72 88
73 29
74 96
75 31
76 75
77 137
78 146
79 31
80 17
81 35
82 326
83 130
84 32
85 329
86 64
87 5
88 42
89 115
90 50
91 135
92 32
93 4
94 90
95 109
96 127
97 40
98 197
99 102
100 25
101 12
102 20
103 138
104 91
105 60
106 18
107 20
108 62
109 8
110 46
111 68
112 122
113 107
114 11
115 37
116 24
117 148
118 53
119 25
120 61
121 74
122 38
123 83
124 114
125 88
126 22
127 15
128 84
129 44
130 160
131 73
132 148
133 131
134 22
135 66
136 185
137 37
138 281
139 3
140 152
141 42
142 5
143 27
144 14
145 54
146 55
147 59
148 135
149 168
150 9
151 109
152 114
153 54
154 94
155 125
156 93
157 42
158 134
159 67
160 250
161 19
162 314
163 1
164 144
165 252
166 104
167 63
168 129
169 19
170 106
171 196
172 130
173 581
174 501
175 87
176 64
177 266
178 76
179 212
180 23
181 96
182 80
183 57
184 126
185 177
186 109
187 92
188 22
189 270
190 52
191 117
192 108
193 41
194 12
195 84
196 30
197 248
198 38
199 68
200 35
201 93
202 344
203 133
204 37
205 144
206 3
207 14
208 3
209 215
210 28
211 112
212 145
213 559
214 79
215 105
216 5
217 17
218 16
219 73
220 108
221 88
222 128
223 66
224 2
225 185
226 161
227 15
228 204
229 64
230 24
231 20
232 108
233 2
234 52
235 5
236 42
237 22
238 99
239 82
240 26
241 260
242 263
243 61
244 26
245 63
246 110
247 22
248 11
249 208
250 94
251 19
252 15
253 12
254 82
255 118
256 61
257 58
258 31
259 54
260 31
261 57
262 31
263 52
264 27
265 96
266 108
267 40
268 260
269 42
270 151
271 89
272 232
273 79
274 60
275 47
276 82
277 146
278 211
279 9
280 30
281 4
282 122
283 468
284 282
285 75
286 40
287 81
288 48
289 2
290 37
291 132
292 137
293 80
294 90
295 9
296 68
297 7
298 163
299 53
300 8
301 10
302 171
303 160
304 57
305 31
306 54
307 244
308 7
309 50
310 1
311 262
312 37
313 127
314 52
315 124
316 190
317 44
318 21
319 15
320 11
321 85
322 31
323 237
324 341
325 5
326 32
327 36
328 101
329 115
330 18
331 155
332 86
333 83
334 17
335 108
336 170
337 123
338 59
339 79
340 39
341 147
342 66
343 159
344 81
345 199
346 116
347 190
348 8
349 48
350 39
351 71
352 84
353 115
354 95
355 474
356 116
357 105
358 238
359 18
360 10
361 53
362 132
363 3
364 133
365 30
366 77
367 25
368 396
369 279
370 61
371 65
372 149
373 112
374 208
375 17
376 265
377 160
378 3
379 110
380 13
381 90
382 69
383 39
384 22
385 31
386 534
387 19
388 257
389 114
390 119
391 34
392 135
393 156
394 32
395 15
396 27
397 417
398 38
399 5
400 14
401 174
402 224
403 30
404 25
405 39
406 44
407 344
408 2
409 103
410 48
411 20
412 75
413 176
414 4
415 234
416 92
417 240
418 13
419 198
420 376
421 29
422 104
423 22
424 245
425 27
426 45
427 187
428 79
429 117
430 14
431 69
432 766
433 291
434 53
435 205
436 69
437 250
438 15
439 25
440 99
441 71
442 27
443 187
444 28
445 51
446 107
447 52
448 121
449 361
450 13
451 433
452 3
453 40
454 53
455 100
456 122
457 89
458 12
459 69
460 195
461 267
462 10
463 160
464 199
465 62
466 127
467 6
468 142
469 50
470 101
471 93
472 4
473 123
474 22
475 19
476 64
477 102
478 27
479 16
480 145
481 97
482 61
483 47
484 4
485 57
486 74
487 19
488 10
489 19
490 294
491 58
492 200
493 214
494 45
495 335
496 5
497 102
498 52
499 25
500 13
501 62
502 130
503 27
504 389
505 8
506 81
507 64
508 315
509 262
510 238
511 16
512 51
513 260
514 143
515 27
516 54
517 90
518 62
519 261
520 316
521 360
522 704
523 23
524 120
525 36
526 398
527 77
528 25
529 62
530 158
531 120
532 120
533 54
534 1
535 154
536 46
537 87
538 172
539 63
540 15
541 11
542 43
543 195
544 60
545 65
546 6
547 133
548 47
549 459
550 13
551 217
552 186
553 54
554 181
555 104
556 142
557 71
558 203
559 68
560 4
561 48
562 2
563 66
564 2
565 271
566 82
567 172
568 325
569 69
570 4
571 37
572 283
573 238
574 192
575 179
576 407
577 90
578 24
579 61
580 6
581 21
582 230
583 23
584 11
585 84
586 493
587 333
588 144
589 186
590 99
591 121
592 86
593 225
594 428
595 22
596 102
597 148
598 127
599 41
600 370
601 188
602 77
603 37
604 48
605 159
606 47
607 42
608 27
609 104
610 81
611 5
612 515
613 329
614 86
615 63
616 138
617 238
618 134
619 67
620 30
621 166
622 33
623 49
624 269
625 68
626 280
627 280
628 23
629 110
630 13
631 228
632 82
633 64
634 35
635 43
636 3
637 108
638 162
639 134
640 24
641 98
642 2
643 2
644 80
645 86
646 60
647 77
648 231
649 31
650 69
651 50
652 129
653 34
654 16
655 27
656 205
657 3
658 225
659 182
660 90
661 90
662 35
663 109
664 31
665 161
666 104
667 141
668 9
669 219
670 122
671 135
672 59
673 84
674 91
675 65
676 61
677 12
678 37
679 189
680 82
681 8
682 35
683 48
684 17
685 28
686 70
687 48
688 76
689 14
690 165
691 83
692 58
693 7
694 13
695 86
696 58
697 163
698 86
699 134
700 114
701 165
702 115
703 85
704 7
705 152
706 23
707 122
708 38
709 226
710 111
711 87
712 45
713 7
714 4
715 17
716 17
717 98
718 415
719 122
720 24
721 18
722 37
723 12
724 440
725 92
726 22
727 163
728 22
729 340
730 37
731 136
732 137
733 22
734 94
735 32
736 112
737 14
738 110
739 34
740 117
741 35
742 122
743 75
744 85
745 6
746 309
747 35
748 4
749 32
750 35
751 33
752 36
753 50
754 56
755 50
756 7
757 25
758 271
759 228
760 46
761 310
762 185
763 216
764 108
765 83
766 57
767 136
768 82
769 22
770 5
771 23
772 101
773 59
774 100
775 128
776 79
777 73
778 165
779 125
780 3
781 159
782 207
783 190
784 92
785 31
786 82
787 25
788 52
789 406
790 30
791 10
792 181
793 29
794 34
795 4
796 239
797 157
798 9
799 285
800 45
801 76
802 46
803 117
804 95
805 13
806 85
807 52
808 20
809 24
810 55
811 93
812 6
813 123
814 28
815 9
816 93
817 195
818 11
819 108
820 100
821 72
822 8
823 190
824 302
825 5
826 58
827 22
828 184
829 28
830 35
831 24
832 71
833 21
834 35
835 141
836 16
837 80
838 50
839 7
840 15
841 91
842 92
843 57
844 16
845 83
846 36
847 67
848 278
849 70
850 105
851 41
852 15
853 20
854 127
855 20
856 62
857 42
858 25
859 83
860 20
861 99
862 117
863 61
864 149
865 56
866 39
867 36
868 40
869 56
870 152
871 45
872 18
873 1
874 59
875 68
876 42
877 54
878 59
879 48
880 4
881 140
882 80
883 63
884 23
885 31
886 118
887 116
888 58
889 64
890 6
891 355
892 22
893 39
894 34
895 92
896 15
897 76
898 42
899 182
900 5
901 226
902 29
903 72
904 24
905 26
906 38
907 41
908 8
909 40
910 48
911 23
912 239
913 37
914 82
915 110
916 142
917 1
918 25
919 16
920 72
921 136
922 122
923 17
924 57
925 19
926 89
927 24
928 13
929 11
930 14
931 58
932 10
933 137
934 37
935 439
936 29
937 159
938 137
939 17
940 5
941 30
942 14
943 51
944 1
945 29
946 20
947 211
948 54
949 36
950 80
951 256
952 93
953 145
954 123
955 145
956 113
957 249
958 176
959 11
960 21
961 63
962 165
963 145
964 33
965 148
966 152
967 166
968 109
969 74
970 281
971 55
972 27
973 16
974 261
975 24
976 265
977 82
978 94
979 48
980 194
981 36
982 52
983 50
984 12
985 86
986 8
987 154
988 134
989 7
990 28
991 73
992 24
993 144
994 249
995 39
996 41
997 129
998 351
999 98
1000 94
1001 253
1002 14
1003 153
1004 118
1005 29
1006 35
1007 64
1008 79
1009 72
1010 37
1011 17
1012 125
1013 57
1014 139
1015 174
1016 274
1017 27
1018 18
1019 46
1020 13
1021 57
1022 22
1023 4
1024 33
1025 105
1026 57
1027 283
1028 84
1029 72
1030 22
1031 59
1032 73
1033 80
1034 9
1035 104
1036 11
1037 126
1038 99
1039 548
1040 65
1041 49
1042 51
1043 89
1044 27
1045 173
1046 156
1047 34
1048 43
1049 41
1050 156
1051 137
1052 75
1053 79
1054 347
1055 107
1056 27
1057 142
1058 147
1059 89
1060 219
1061 76
1062 44
1063 3
1064 1
1065 40
1066 102
1067 53
1068 95
1069 87
1070 18
1071 6
1072 19
1073 77
1074 72
1075 154
1076 214
1077 40
1078 3
1079 70
1080 308
1081 86
1082 41
1083 11
1084 67
1085 42
1086 34
1087 39
1088 28
1089 42
1090 39
1091 84
1092 2
1093 23
1094 41
1095 19
1096 29
1097 31
1098 58
1099 195
1100 71
1101 61
1102 20
1103 40
1104 6
1105 205
1106 14
1107 35
1108 48
1109 117
1110 2
1111 220
1112 9
1113 40
1114 186
1115 40
1116 4
1117 76
1118 182
1119 159
1120 22
1121 183
1122 23
1123 38
1124 26
1125 132
1126 174
1127 168
1128 22
1129 36
1130 5
1131 13
1132 34
1133 36
1134 23
1135 18
1136 8
1137 9
1138 21
1139 425
1140 22
1141 89
1142 40
1143 121
1144 28
1145 70
1146 237
1147 15
1148 13
1149 162
1150 12
1151 154
1152 29
1153 53
1154 163
1155 37
1156 89
1157 36
1158 104
1159 71
1160 7
1161 167
1162 42
1163 5
1164 13
1165 101
1166 237
1167 70
1168 93
1169 16
1170 73
1171 25
1172 12
1173 32
1174 4
1175 24
1176 20
1177 12
1178 162
1179 96
1180 37
1181 59
1182 118
1183 339
1184 142
1185 122
1186 50
1187 34
1188 8
1189 101
1190 20
1191 20
1192 40
1193 57
1194 9
1195 6
1196 41
1197 41
1198 284
1199 234
1200 39
1201 55
1202 4
1203 80
1204 249
1205 10
1206 412
1207 15
1208 165
1209 7
1210 117
1211 125
1212 37
1213 62
1214 6
1215 119
1216 3
1217 78
1218 36
1219 603
1220 159
1221 17
1222 216
1223 86
1224 181
1225 20
1226 34
1227 4
1228 30
1229 16
1230 41
1231 31
1232 49
1233 20
1234 9
1235 152
1236 82
1237 115
1238 138
1239 17
1240 223
1241 12
1242 72
1243 63
1244 1
1245 52
1246 50
1247 92
1248 70
1249 32
1250 30
1251 74
1252 64
1253 90
1254 49
1255 148
1256 214
1257 47
1258 128
1259 208
1260 3
1261 4
1262 141
1263 21
1264 120
1265 37
1266 37
1267 74
1268 104
1269 36
1270 141
1271 112
1272 77
1273 69
1274 24
1275 34
1276 43
1277 124
1278 6
1279 20
1280 17
1281 100
1282 43
1283 15
1284 38
1285 334
1286 146
1287 23
1288 16
1289 137
1290 45
1291 34
1292 186
1293 84
1294 67
1295 31
1296 183
1297 15
1298 144
1299 49
1300 112
1301 281
1302 19
1303 99
1304 134
1305 160
1306 41
1307 6
1308 129
1309 1
1310 150
1311 20
1312 10
1313 92
1314 46
1315 38
1316 60
1317 325
1318 35
1319 43
1320 23
1321 27
1322 140
1323 24
1324 259
1325 41
1326 75
1327 67
1328 85
1329 46
1330 27
1331 34
1332 134
1333 30
1334 9
1335 18
1336 191
1337 6
1338 16
1339 79
1340 29
1341 12
1342 212
1343 25
1344 151
1345 22
1346 111
1347 22
1348 33
1349 112
1350 334
1351 6
1352 133
1353 211
1354 25
1355 495
1356 4
1357 54
1358 11
1359 16
1360 90
1361 8
1362 61
1363 9
1364 143
1365 8
1366 179
1367 127
1368 51
1369 124
1370 719
1371 37
1372 121
1373 123
1374 175
1375 46
1376 42
1377 28
1378 114
1379 116
1380 61
1381 18
1382 45
1383 86
1384 121
1385 4
1386 34
1387 201
1388 85
1389 100
1390 115
1391 144
1392 4
1393 137
1394 153
1395 23
1396 129
1397 257
1398 101
1399 136
1400 25
1401 105
1402 81
1403 79
1404 52
1405 5
1406 108
1407 39
1408 122
1409 20
1410 21
1411 67
1412 91
1413 358
1414 26
1415 22
1416 25
1417 40
1418 51
1419 5
1420 37
1421 11
1422 21
1423 82
1424 24
1425 29
1426 25
1427 39
1428 63
1429 127
1430 96
1431 136
1432 24
1433 9
1434 114
1435 15
1436 152
1437 130
1438 15
1439 169
1440 28
1441 20
1442 74
1443 49
1444 189
1445 3
1446 27
1447 175
1448 43
1449 504
1450 14
1451 224
1452 44
1453 83
1454 16
1455 11
1456 3
1457 24
1458 98
1459 110
1460 240
1461 40
1462 83
1463 119
1464 296
1465 61
1466 139
1467 122
1468 69
1469 173
1470 20
1471 20
1472 53
1473 64
1474 192
1475 184
1476 59
1477 19
1478 26
1479 136
1480 2
1481 41
1482 55
1483 38
1484 13
1485 98
1486 55
1487 4
1488 10
1489 62
1490 100
1491 18
1492 73
1493 37
1494 8
1495 98
1496 110
1497 115
1498 24
1499 50
1500 25
1501 71
1502 125
1503 2
1504 18
1505 23
1506 134
1507 33
1508 32
1509 28
1510 143
1511 174
1512 19
1513 2
1514 68
1515 323
1516 118
1517 129
1518 58
1519 50
1520 22
1521 1
1522 93
1523 19
1524 80
1525 40
1526 34
1527 34
1528 6
1529 51
1530 106
1531 91
1532 27
1533 181
1534 57
1535 2
1536 61
1537 56
1538 67
1539 89
1540 128
1541 77
1542 155
1543 7
1544 60
1545 14
1546 59
1547 59
1548 6
1549 415
1550 135
1551 3
1552 35
1553 22
1554 97
1555 28
1556 192
1557 109
1558 61
1559 28
1560 9
1561 50
1562 144
1563 5
1564 11
1565 104
1566 2
1567 60
1568 71
1569 133
1570 54
1571 137
1572 29
1573 50
1574 48
1575 46
1576 11
1577 113
1578 25
1579 17
1580 97
1581 21
1582 15
1583 28
1584 16
1585 18
1586 90
1587 74
1588 82
1589 191
1590 367
1591 106
1592 130
1593 63
1594 131
1595 251
1596 70
1597 14
1598 111
1599 57
1600 67
1601 70
1602 12
1603 84
1604 80
1605 309
1606 2
1607 48
1608 47
1609 44
1610 137
1611 77
1612 215
1613 69
1614 264
1615 250
1616 44
1617 14
1618 242
1619 99
1620 19
1621 310
1622 339
1623 55
1624 15
1625 26
1626 127
1627 437
1628 74
1629 21
1630 12
1631 22
1632 30
1633 118
1634 129
1635 50
1636 163
1637 16
1638 8
1639 69
1640 34
1641 12
1642 4
1643 60
1644 111
1645 32
1646 81
1647 302
1648 153
1649 59
1650 41
1651 1
1652 287
1653 160
1654 12
1655 20
1656 56
1657 66
1658 69
1659 101
1660 89
1661 201
1662 20
1663 16
1664 6
1665 21
1666 67
1667 122
1668 47
1669 81
1670 238
1671 34
1672 37
1673 171
1674 58
1675 16
1676 55
1677 102
1678 48
1679 2
1680 82
1681 33
1682 28
1683 20
1684 187
1685 5
1686 129
1687 45
1688 55
1689 30
1690 196
1691 27
1692 7
1693 3
1694 46
1695 29
1696 25
1697 38
1698 31
1699 109
1700 308
1701 4
1702 256
1703 2
1704 2
1705 14
1706 183
1707 56
1708 46
1709 52
1710 33
1711 129
1712 206
1713 34
1714 119
1715 70
1716 28
1717 196
1718 71
1719 2
1720 4
1721 138
1722 246
1723 160
1724 117
1725 57
1726 125
1727 75
1728 6
1729 39
1730 133
1731 364
1732 169
1733 105
1734 13
1735 97
1736 193
1737 76
1738 37
1739 35
1740 19
1741 41
1742 84
1743 20
1744 126
1745 3
1746 9
1747 195
1748 97
1749 14
1750 2
1751 4
1752 38
1753 36
1754 54
1755 57
1756 36
1757 9
1758 111
1759 12
1760 46
1761 5
1762 155
1763 12
1764 17
1765 6
1766 31
1767 41
1768 25
1769 23
1770 28
1771 81
1772 63
1773 25
1774 78
1775 2
1776 19
1777 5
1778 51
1779 51
1780 255
1781 20
1782 502
1783 313
1784 310
1785 44
1786 7
1787 127
1788 12
1789 64
1790 155
1791 15
1792 118
1793 102
1794 103
1795 23
1796 103
1797 73
1798 10
1799 15
1800 30
1801 29
1802 22
1803 67
1804 79
1805 7
1806 22
1807 113
1808 113
1809 108
1810 86
1811 136
1812 10
1813 31
1814 166
1815 43
1816 122
1817 30
1818 211
1819 62
1820 20
1821 2
1822 39
1823 146
1824 140
1825 81
1826 3
1827 38
1828 205
1829 92
1830 66
1831 12
1832 63
1833 91
1834 13
1835 291
1836 203
1837 107
1838 34
1839 91
1840 469
1841 73
1842 164
1843 4
1844 84
1845 188
1846 20
1847 2
1848 10
1849 154
1850 33
1851 6
1852 53
1853 23
1854 64
1855 20
1856 38
1857 178
1858 18
1859 12
1860 128
1861 39
1862 183
1863 305
1864 35
1865 106
1866 168
1867 56
1868 181
1869 78
1870 82
1871 35
1872 24
1873 8
1874 50
1875 61
1876 33
1877 46
1878 143
1879 8
1880 110
1881 223
1882 193
1883 21
1884 38
1885 426
1886 39
1887 68
1888 11
1889 12
1890 112
1891 17
1892 103
1893 58
1894 85
1895 32
1896 71
1897 41
1898 149
1899 142
1900 611
1901 19
1902 114
1903 181
1904 54
1905 18
1906 140
1907 126
1908 90
1909 5
1910 23
1911 224
1912 80
1913 19
1914 46
1915 24
1916 105
1917 176
1918 27
1919 152
1920 8
1921 11
1922 18
1923 266
1924 37
1925 157
1926 11
1927 158
1928 42
1929 2
1930 6
1931 89
1932 148
1933 22
1934 42
1935 22
1936 2
1937 124
1938 177
1939 19
1940 207
1941 1
1942 95
1943 127
1944 38
1945 40
1946 8
1947 62
1948 11
1949 78
1950 69
1951 99
1952 16
1953 4
1954 47
1955 10
1956 55
1957 11
1958 158
1959 68
1960 19
1961 98
1962 65
1963 72
1964 2
1965 236
1966 138
1967 27
1968 77
1969 145
1970 41
1971 141
1972 26
1973 7
1974 43
1975 51
1976 6
1977 125
1978 39
1979 61
1980 206
1981 49
1982 15
1983 14
1984 19
1985 221
1986 34
1987 69
1988 96
1989 18
1990 119
1991 85
1992 36
1993 89
1994 5
1995 127
1996 169
1997 180
1998 142
1999 4
