0 58
1 22
2 4
3 5
4 57
5 42
6 112
7 33
8 42
9 24
10 38
11 3
12 106
13 5
14 12
15 113
16 42
17 108
18 28
19 27
20 58
21 278
22 113
23 101
24 15
25 9
26 74
27 15
28 83
29 51
30 167
31 44
32 174
33 189
34 67
35 123
36 54
37 155
38 6
39 112
40 146
41 361
42 262
43 225
44 120
45 415
46 30
47 45
48 87
49 53
50 85
51 28
52 191
53 21
54 23
55 155
56 68
57 22
58 59
59 9
60 230
61 170
62 82
63 244
64 16
65 30
66 122
67 103
68 37
69 159
70 11
71 39
72 218
73 30
74 62
75 149
76 147
77 69
78 146
79 30
80 10
81 30
82 653
83 20
84 199
85 87
86 22
87 84
88 12
89 112
90 52
91 81
92 57
93 53
94 11
95 308
96 6
97 33
98 13
99 30
100 278
101 71
102 294
103 29
104 346
105 1
106 205
107 262
108 123
109 192
110 44
111 65
112 67
113 141
114 107
115 365
116 184
117 91
118 27
119 177
120 12
121 7
122 15
123 37
124 69
125 71
126 105
127 59
128 77
129 7
130 286
131 6
132 137
133 24
134 35
135 52
136 6
137 31
138 170
139 38
140 74
141 491
142 47
143 12
144 34
145 138
146 102
147 262
148 30
149 128
150 124
151 70
152 23
153 173
154 24
155 8
156 95
157 28
158 84
159 14
160 132
161 102
162 240
163 105
164 98
165 112
166 11
167 65
168 277
169 68
170 61
171 132
172 144
173 50
174 153
175 387
176 95
177 218
178 849
179 350
180 339
181 229
182 95
183 274
184 347
185 109
186 188
187 22
188 385
189 74
190 89
191 164
192 50
193 143
194 464
195 78
196 660
197 126
198 538
199 61
200 72
201 70
202 184
203 431
204 91
205 162
206 17
207 260
208 182
209 278
210 34
211 15
212 319
213 350
214 306
215 125
216 10
217 34
218 32
219 14
220 199
221 151
222 95
223 23
224 493
225 553
226 184
227 20
228 67
229 151
230 120
231 253
232 7
233 183
234 94
235 327
236 316
237 2
238 179
239 122
240 315
241 56
242 319
243 7
244 146
245 93
246 16
247 317
248 37
249 199
250 33
251 168
252 11
253 255
254 150
255 48
256 60
257 584
258 217
259 309
260 44
261 76
262 254
263 220
264 904
265 25
266 49
267 166
268 206
269 57
270 150
271 147
272 223
273 144
274 260
275 20
276 31
277 271
278 49
279 53
280 76
281 52
282 116
283 38
284 142
285 18
286 129
287 34
288 34
289 76
290 56
291 120
292 192
293 424
294 53
295 32
296 102
297 253
298 74
299 92
300 460
301 66
302 109
303 218
304 140
305 163
306 30
307 41
308 37
309 50
310 13
311 36
312 578
313 39
314 156
315 118
316 291
317 114
318 612
319 156
320 48
321 460
322 369
323 114
324 11
325 310
326 404
327 396
328 149
329 30
330 76
331 7
332 178
333 113
334 117
335 98
336 139
337 287
338 86
339 562
340 381
341 103
342 102
343 38
344 141
345 96
346 163
347 463
348 126
349 96
350 43
351 18
352 202
353 80
354 25
355 291
356 582
357 397
358 518
359 405
360 403
361 19
362 75
363 42
364 207
365 21
366 55
367 34
368 33
369 382
370 13
371 69
372 6
373 222
374 64
375 147
376 101
377 332
378 147
379 265
380 348
381 154
382 39
383 238
384 175
385 427
386 260
387 2
388 2
389 169
390 414
391 276
392 10
393 130
394 83
395 135
396 896
397 107
398 270
399 94
400 131
401 365
402 67
403 138
404 9
405 713
406 4
407 49
408 201
409 425
410 176
411 21
412 88
413 261
414 14
415 333
416 18
417 11
418 72
419 247
420 169
421 71
422 337
423 68
424 38
425 177
426 250
427 19
428 31
429 198
430 401
431 193
432 74
433 125
434 194
435 445
436 321
437 10
438 94
439 228
440 143
441 572
442 259
443 36
444 685
445 147
446 103
447 193
448 258
449 144
450 169
451 62
452 208
453 248
454 30
455 225
456 121
457 136
458 402
459 33
460 6
461 17
462 506
463 397
464 121
465 155
466 60
467 259
468 99
469 136
470 5
471 60
472 224
473 127
474 437
475 184
476 270
477 163
478 133
479 250
480 64
481 301
482 170
483 219
484 219
485 117
486 275
487 88
488 264
489 335
490 361
491 178
492 8
493 22
494 182
495 138
496 26
497 35
498 521
499 57
500 167
501 317
502 392
503 13
504 69
505 410
506 34
507 173
508 182
509 18
510 82
511 758
512 184
513 202
514 434
515 43
516 59
517 186
518 132
519 236
520 79
521 29
522 48
523 28
524 138
525 3
526 45
527 275
528 147
529 78
530 438
531 196
532 99
533 230
534 95
535 212
536 10
537 64
538 51
539 155
540 80
541 25
542 223
543 11
544 157
545 215
546 190
547 183
548 191
549 17
550 901
551 124
552 68
553 411
554 110
555 83
556 90
557 30
558 117
559 123
560 20
561 209
562 8
563 129
564 165
565 125
566 64
567 49
568 147
569 57
570 32
571 19
572 1
573 67
574 296
575 2
576 104
577 16
578 19
579 159
580 10
581 26
582 15
583 77
584 88
585 7
586 378
587 488
588 228
589 725
590 461
591 356
592 28
593 403
594 167
595 78
596 179
597 512
598 11
599 49
600 147
601 123
602 691
603 271
604 487
605 130
606 802
607 45
608 611
609 58
610 43
611 269
612 39
613 118
614 243
615 392
616 31
617 57
618 186
619 1007
620 169
621 579
622 377
623 108
624 286
625 446
626 362
627 598
628 849
629 75
630 827
631 766
632 98
633 225
634 308
635 878
636 756
637 10
638 340
639 570
640 33
641 8
642 188
643 219
644 316
645 135
646 164
647 6
648 1088
649 1028
650 24
651 405
652 91
653 24
654 64
655 202
656 672
657 1365
658 245
659 100
660 136
661 369
662 384
663 445
664 476
665 121
666 379
667 141
668 467
669 360
670 360
671 289
672 468
673 277
674 319
675 80
676 16
677 683
678 513
679 366
680 78
681 30
682 67
683 82
684 215
685 41
686 329
687 292
688 158
689 110
690 500
691 43
692 377
693 292
694 269
695 295
696 58
697 39
698 29
699 105
700 86
701 356
702 121
703 745
704 107
705 35
706 4
707 479
708 426
709 536
710 206
711 48
712 208
713 163
714 194
715 424
716 176
717 43
718 221
719 322
720 146
721 37
722 152
723 160
724 70
725 76
726 12
727 18
728 130
729 49
730 341
731 887
732 767
733 381
734 46
735 101
736 42
737 105
738 378
739 245
740 328
741 285
742 256
743 42
744 6
745 114
746 189
747 44
748 26
749 106
750 278
751 37
752 1
753 65
754 101
755 127
756 114
757 32
758 175
759 278
760 203
761 145
762 171
763 15
764 308
765 325
766 228
767 16
768 23
769 345
770 56
771 501
772 243
773 181
774 27
775 325
776 539
777 425
778 350
779 104
780 119
781 120
782 561
783 185
784 75
785 33
786 66
787 157
788 17
789 307
790 287
791 252
792 33
793 551
794 7
795 64
796 208
797 343
798 91
799 334
800 561
801 206
802 87
803 232
804 35
805 51
806 27
807 178
808 140
809 30
810 142
811 22
812 39
813 226
814 305
815 138
816 5
817 41
818 429
819 104
820 334
821 108
822 217
823 230
824 176
825 91
826 100
827 296
828 279
829 486
830 434
831 238
832 42
833 86
834 9
835 55
836 20
837 428
838 322
839 286
840 546
841 2726
842 214
843 572
844 111
845 11
846 103
847 233
848 62
849 101
850 462
851 310
852 196
853 227
854 64
855 207
856 269
857 21
858 135
859 59
860 304
861 124
862 168
863 216
864 100
865 260
866 223
867 42
868 51
869 208
870 39
871 14
872 640
873 145
874 246
875 171
876 304
877 496
878 62
879 88
880 91
881 102
882 14
883 443
884 37
885 169
886 88
887 216
888 74
889 731
890 261
891 395
892 209
893 392
894 445
895 102
896 513
897 929
898 116
899 133
900 538
901 53
902 56
903 109
904 40
905 82
906 1309
907 345
908 47
909 19
910 131
911 11
912 159
913 30
914 419
915 39
916 18
917 340
918 501
919 100
920 19
921 570
922 195
923 4
924 300
925 44
926 52
927 269
928 546
929 37
930 30
931 11
932 292
933 145
934 48
935 102
936 308
937 71
938 111
939 173
940 8
941 20
942 16
943 390
944 367
945 113
946 121
947 28
948 175
949 108
950 168
951 42
952 121
953 19
954 305
955 558
956 132
957 648
958 39
959 87
960 11
961 322
962 227
963 209
964 207
965 446
966 84
967 526
968 98
969 422
970 173
971 78
972 135
973 103
974 104
975 483
976 36
977 254
978 402
979 177
980 184
981 410
982 190
983 680
984 45
985 53
986 403
987 326
988 64
989 328
990 226
991 74
992 254
993 76
994 47
995 2
996 116
997 158
998 65
999 586
1000 56
1001 427
1002 102
1003 421
1004 421
1005 180
1006 214
1007 281
1008 207
1009 286
1010 72
1011 745
1012 66
1013 28
1014 272
1015 175
1016 22
1017 287
1018 239
1019 290
1020 71
1021 60
1022 45
1023 282
1024 85
1025 12
1026 373
1027 131
1028 74
1029 40
1030 239
1031 74
1032 161
1033 16
1034 495
1035 19
1036 629
1037 28
1038 165
1039 20
1040 122
1041 1105
1042 362
1043 294
1044 73
1045 319
1046 132
1047 1
1048 6
1049 313
1050 663
1051 415
1052 199
1053 170
1054 57
1055 253
1056 35
1057 62
1058 140
1059 152
1060 177
1061 110
1062 70
1063 244
1064 20
1065 347
1066 498
1067 140
1068 464
1069 33
1070 17
1071 128
1072 90
1073 60
1074 128
1075 13
1076 236
1077 55
1078 167
1079 313
1080 17
1081 55
1082 251
1083 124
1084 94
1085 57
1086 76
1087 84
1088 110
1089 12
1090 400
1091 320
1092 55
1093 382
1094 73
1095 293
1096 421
1097 130
1098 120
1099 335
1100 189
1101 4
1102 176
1103 31
1104 396
1105 107
1106 353
1107 293
1108 117
1109 20
1110 243
1111 130
1112 1
1113 136
1114 221
1115 207
1116 105
1117 333
1118 174
1119 38
1120 88
1121 32
1122 3
1123 851
1124 91
1125 184
1126 12
1127 177
1128 101
1129 124
1130 394
1131 20
1132 230
1133 148
1134 473
1135 551
1136 684
1137 583
1138 269
1139 136
1140 20
1141 129
1142 9
1143 584
1144 477
1145 156
1146 148
1147 191
1148 192
1149 82
1150 177
1151 3
1152 104
1153 133
1154 709
1155 65
1156 196
1157 385
1158 351
1159 492
1160 109
1161 450
1162 60
1163 77
1164 76
1165 150
1166 159
1167 113
1168 207
1169 284
1170 460
1171 144
1172 415
1173 111
1174 319
1175 79
1176 160
1177 449
1178 115
1179 177
1180 305
1181 462
1182 52
1183 35
1184 33
1185 241
1186 36
1187 67
1188 274
1189 71
1190 145
1191 26
1192 144
1193 5
1194 50
1195 216
1196 36
1197 243
1198 50
1199 505
1200 473
1201 88
1202 235
1203 151
1204 133
1205 20
1206 227
1207 38
1208 72
1209 588
1210 305
1211 71
1212 1071
1213 474
1214 276
1215 103
1216 301
1217 1036
1218 40
1219 162
1220 1192
1221 180
1222 285
1223 34
1224 146
1225 36
1226 71
1227 142
1228 235
1229 196
1230 59
1231 137
1232 811
1233 206
1234 94
1235 36
1236 212
1237 980
1238 117
1239 146
1240 192
1241 138
1242 954
1243 27
1244 65
1245 175
1246 150
1247 123
1248 62
1249 140
1250 149
1251 299
1252 394
1253 37
1254 179
1255 100
1256 1031
1257 699
1258 418
1259 58
1260 11
1261 207
1262 333
1263 31
1264 111
1265 232
1266 14
1267 371
1268 230
1269 232
1270 166
1271 169
1272 333
1273 440
1274 154
1275 112
1276 299
1277 25
1278 234
1279 100
1280 383
1281 49
1282 295
1283 274
1284 64
1285 660
1286 220
1287 323
1288 175
1289 449
1290 65
1291 30
1292 20
1293 112
1294 72
1295 71
1296 238
1297 118
1298 748
1299 70
1300 475
1301 180
1302 209
1303 47
1304 871
1305 188
1306 384
1307 220
1308 53
1309 34
1310 126
1311 9
1312 41
1313 110
1314 79
1315 18
1316 29
1317 394
1318 611
1319 356
1320 362
1321 277
1322 26
1323 4
1324 271
1325 126
1326 64
1327 347
1328 356
1329 29
1330 138
1331 13
1332 105
1333 81
1334 47
1335 47
1336 410
1337 21
1338 17
1339 98
1340 9
1341 31
1342 515
1343 65
1344 24
1345 49
1346 484
1347 56
1348 557
1349 200
1350 138
1351 85
1352 82
1353 153
1354 198
1355 189
1356 60
1357 195
1358 119
1359 314
1360 17
1361 334
1362 115
1363 489
1364 184
1365 138
1366 85
1367 20
1368 75
1369 219
1370 298
1371 395
1372 46
1373 64
1374 92
1375 151
1376 114
1377 265
1378 110
1379 159
1380 42
1381 31
1382 1038
1383 91
1384 83
1385 163
1386 54
1387 6
1388 32
1389 360
1390 116
1391 120
1392 11
1393 261
1394 279
1395 113
1396 30
1397 193
1398 21
1399 33
1400 436
1401 62
1402 106
1403 302
1404 209
1405 80
1406 143
1407 34
1408 160
1409 19
1410 176
1411 75
1412 283
1413 17
1414 45
1415 117
1416 248
1417 101
1418 158
1419 92
1420 293
1421 12
1422 68
1423 325
1424 505
1425 541
1426 106
1427 74
1428 92
1429 248
1430 38
1431 6
1432 215
1433 28
1434 575
1435 110
1436 148
1437 22
1438 154
1439 145
1440 471
1441 187
1442 141
1443 97
1444 229
1445 240
1446 409
1447 210
1448 103
1449 54
1450 332
1451 115
1452 44
1453 421
1454 24
1455 43
1456 1
1457 302
1458 211
1459 90
1460 744
1461 180
1462 89
1463 211
1464 269
1465 23
1466 229
1467 58
1468 160
1469 286
1470 4
1471 339
1472 288
1473 99
1474 28
1475 177
1476 165
1477 265
1478 219
1479 165
1480 293
1481 77
1482 964
1483 27
1484 310
1485 50
1486 780
1487 27
1488 4
1489 568
1490 29
1491 180
1492 928
1493 88
1494 3
1495 282
1496 220
1497 157
1498 68
1499 249
1500 26
1501 200
1502 60
1503 755
1504 415
1505 643
1506 155
1507 112
1508 790
1509 302
1510 223
1511 181
1512 124
1513 752
1514 25
1515 100
1516 171
1517 46
1518 283
1519 5
1520 56
1521 102
1522 285
1523 247
1524 302
1525 42
1526 420
1527 65
1528 455
1529 18
1530 186
1531 98
1532 275
1533 152
1534 76
1535 38
1536 147
1537 39
1538 98
1539 80
1540 45
1541 206
1542 163
1543 178
1544 380
1545 166
1546 165
1547 21
1548 36
1549 62
1550 118
1551 279
1552 36
1553 157
1554 65
1555 56
1556 42
1557 74
1558 35
1559 113
1560 263
1561 480
1562 47
1563 48
1564 154
1565 207
1566 103
1567 57
1568 419
1569 38
1570 102
1571 143
1572 153
1573 468
1574 272
1575 522
1576 74
1577 82
1578 63
1579 52
1580 62
1581 42
1582 391
1583 81
1584 47
1585 82
1586 431
1587 51
1588 23
1589 38
1590 10
1591 250
1592 388
1593 65
1594 254
1595 192
1596 141
1597 5
1598 20
1599 23
1600 120
1601 77
1602 260
1603 585
1604 75
1605 179
1606 184
1607 88
1608 256
1609 158
1610 262
1611 124
1612 60
1613 52
1614 171
1615 171
1616 353
1617 346
1618 22
1619 12
1620 42
1621 263
1622 118
1623 688
1624 74
1625 7
1626 16
1627 172
1628 17
1629 138
1630 267
1631 159
1632 123
1633 45
1634 118
1635 442
1636 118
1637 191
1638 34
1639 49
1640 271
1641 59
1642 93
1643 189
1644 358
1645 138
1646 95
1647 277
1648 100
1649 51
1650 1
1651 34
1652 235
1653 162
1654 6
1655 13
1656 143
1657 2
1658 122
1659 1
1660 72
1661 159
1662 347
1663 423
1664 113
1665 19
1666 103
1667 6
1668 57
1669 61
1670 2
1671 125
1672 354
1673 93
1674 142
1675 268
1676 280
1677 113
1678 1
1679 2
1680 340
1681 100
1682 114
1683 201
1684 2
1685 30
1686 42
1687 44
1688 41
1689 53
1690 778
1691 17
1692 830
1693 14
1694 149
1695 51
1696 144
1697 1037
1698 151
1699 178
1700 40
1701 200
1702 210
1703 36
1704 252
1705 16
1706 232
1707 38
1708 487
1709 125
1710 66
1711 27
1712 327
1713 85
1714 120
1715 27
1716 215
1717 22
1718 131
1719 186
1720 251
1721 14
1722 166
1723 128
1724 185
1725 110
1726 104
1727 208
1728 118
1729 163
1730 284
1731 12
1732 214
1733 7
1734 83
1735 217
1736 170
1737 260
1738 136
1739 135
1740 160
1741 26
1742 54
1743 59
1744 106
1745 253
1746 418
1747 65
1748 67
1749 43
1750 74
1751 175
1752 11
1753 114
1754 38
1755 16
1756 603
1757 294
1758 168
1759 254
1760 190
1761 24
1762 161
1763 28
1764 192
1765 175
1766 53
1767 85
1768 390
1769 132
1770 255
1771 200
1772 26
1773 34
1774 154
1775 27
1776 172
1777 151
1778 131
1779 16
1780 20
1781 161
1782 55
1783 106
1784 51
1785 163
1786 48
1787 103
1788 15
1789 436
1790 36
1791 4
1792 231
1793 84
1794 9
1795 33
1796 169
1797 71
1798 17
1799 59
1800 214
1801 56
1802 13
1803 72
1804 36
1805 588
1806 81
1807 21
1808 80
1809 537
1810 169
1811 44
1812 266
1813 312
1814 191
1815 190
1816 199
1817 92
1818 292
1819 74
1820 39
1821 303
1822 240
1823 45
1824 47
1825 178
1826 147
1827 311
1828 192
1829 9
1830 209
1831 142
1832 26
1833 213
1834 237
1835 118
1836 72
1837 11
1838 65
1839 193
1840 286
1841 173
1842 78
1843 189
1844 111
1845 237
1846 64
1847 302
1848 446
1849 227
1850 327
1851 61
1852 170
1853 122
1854 90
1855 34
1856 31
1857 86
1858 187
1859 106
1860 15
1861 22
1862 386
1863 65
1864 201
1865 142
1866 55
1867 311
1868 11
1869 79
1870 57
1871 138
1872 444
1873 8
1874 17
1875 68
1876 9
1877 82
1878 41
1879 74
1880 26
1881 3
1882 595
1883 189
1884 546
1885 371
1886 421
1887 143
1888 53
1889 243
1890 259
1891 52
1892 247
1893 58
1894 85
1895 135
1896 944
1897 60
1898 176
1899 71
1900 383
1901 280
1902 19
1903 902
1904 89
1905 68
1906 386
1907 494
1908 49
1909 282
1910 2
1911 51
1912 1024
1913 50
1914 101
1915 16
1916 4
1917 158
1918 172
1919 314
1920 260
1921 133
1922 260
1923 263
1924 25
1925 23
1926 174
1927 73
1928 11
1929 188
1930 164
1931 72
1932 12
1933 21
1934 203
1935 102
1936 461
1937 452
1938 14
1939 39
1940 1
1941 150
1942 9
1943 137
1944 247
1945 251
1946 201
1947 352
1948 234
1949 164
1950 106
1951 35
1952 50
1953 1
1954 179
1955 75
1956 234
1957 390
1958 22
1959 75
1960 215
1961 7
1962 356
1963 68
1964 160
1965 56
1966 264
1967 73
1968 392
1969 35
1970 16
1971 75
1972 62
1973 81
1974 98
1975 118
1976 12
1977 88
1978 380
1979 189
1980 392
1981 322
1982 96
1983 1
1984 452
1985 91
1986 63
1987 15
1988 670
1989 94
1990 77
1991 231
1992 706
1993 273
1994 262
1995 2
1996 116
1997 59
1998 54
1999 15
