0 32
1 9
2 28
3 148
4 17
5 57
6 119
7 244
8 26
9 106
10 158
11 21
12 233
13 109
14 260
15 103
16 203
17 139
18 50
19 203
20 346
21 11
22 78
23 120
24 33
25 296
26 423
27 52
28 477
29 62
30 10
31 18
32 160
33 17
34 170
35 66
36 68
37 209
38 15
39 16
40 14
41 333
42 156
43 10
44 2
45 118
46 19
47 19
48 63
49 178
50 130
51 436
52 315
53 270
54 24
55 61
56 105
57 45
58 51
59 113
60 29
61 22
62 130
63 8
64 106
65 389
66 19
67 401
68 294
69 34
70 116
71 78
72 187
73 61
74 91
75 261
76 71
77 68
78 236
79 266
80 15
81 8
82 21
83 241
84 333
85 102
86 91
87 116
88 108
89 211
90 12
91 52
92 134
93 12
94 38
95 51
96 37
97 61
98 26
99 8
100 54
101 28
102 139
103 189
104 340
105 544
106 236
107 72
108 240
109 384
110 447
111 666
112 32
113 166
114 262
115 743
116 164
117 10
118 417
119 391
120 127
121 300
122 252
123 35
124 56
125 237
126 6
127 25
128 95
129 632
130 35
131 238
132 83
133 8
134 81
135 179
136 43
137 102
138 418
139 4
140 197
141 3
142 134
143 30
144 91
145 101
146 3
147 404
148 205
149 87
150 66
151 279
152 157
153 186
154 73
155 154
156 1024
157 264
158 259
159 106
160 436
161 4
162 52
163 169
164 139
165 21
166 482
167 65
168 154
169 237
170 123
171 117
172 42
173 66
174 25
175 47
176 24
177 531
178 131
179 25
180 49
181 196
182 12
183 123
184 114
185 58
186 488
187 76
188 446
189 5
190 89
191 2
192 212
193 13
194 10
195 385
196 212
197 143
198 60
199 1463
200 86
201 62
202 159
203 127
204 153
205 127
206 91
207 20
208 171
209 11
210 409
211 47
212 3
213 142
214 357
215 91
216 151
217 170
218 14
219 246
220 111
221 267
222 391
223 28
224 8
225 142
226 5
227 373
228 232
229 281
230 328
231 46
232 958
233 34
234 146
235 51
236 788
237 448
238 195
239 64
240 25
241 23
242 586
243 125
244 55
245 425
246 472
247 16
248 668
249 311
250 97
251 274
252 86
253 313
254 81
255 28
256 238
257 217
258 143
259 66
260 75
261 159
262 282
263 31
264 21
265 260
266 174
267 65
268 82
269 171
270 143
271 19
272 427
273 729
274 1272
275 116
276 130
277 95
278 684
279 197
280 245
281 366
282 210
283 71
284 108
285 47
286 210
287 26
288 72
289 19
290 181
291 1161
292 330
293 154
294 35
295 1209
296 148
297 220
298 214
299 2
300 138
301 278
302 153
303 7
304 128
305 16
306 59
307 290
308 333
309 96
310 196
311 160
312 114
313 442
314 12
315 40
316 260
317 5
318 37
319 591
320 150
321 286
322 256
323 112
324 51
325 262
326 183
327 75
328 46
329 8
330 47
331 294
332 49
333 805
334 109
335 234
336 52
337 316
338 291
339 96
340 162
341 148
342 406
343 272
344 508
345 40
346 80
347 54
348 872
349 601
350 260
351 515
352 71
353 85
354 74
355 57
356 31
357 5
358 2
359 1060
360 224
361 1026
362 309
363 229
364 75
365 515
366 764
367 628
368 501
369 275
370 2
371 325
372 334
373 100
374 796
375 117
376 230
377 25
378 69
379 233
380 1262
381 35
382 109
383 22
384 392
385 227
386 75
387 202
388 44
389 176
390 59
391 51
392 118
393 83
394 51
395 479
396 289
397 211
398 128
399 120
400 394
401 24
402 101
403 62
404 279
405 208
406 210
407 226
408 219
409 1087
410 230
411 41
412 864
413 137
414 68
415 577
416 6
417 2
418 78
419 424
420 285
421 255
422 31
423 67
424 355
425 4
426 115
427 22
428 187
429 272
430 267
431 22
432 69
433 83
434 41
435 68
436 18
437 15
438 537
439 106
440 91
441 394
442 182
443 60
444 568
445 163
446 75
447 190
448 29
449 159
450 164
451 24
452 69
453 38
454 64
455 481
456 186
457 137
458 280
459 86
460 60
461 224
462 109
463 211
464 262
465 285
466 104
467 177
468 773
469 376
470 226
471 57
472 65
473 88
474 329
475 25
476 578
477 90
478 49
479 78
480 809
481 55
482 27
483 107
484 470
485 47
486 447
487 13
488 34
489 377
490 213
491 86
492 154
493 370
494 396
495 15
496 67
497 372
498 406
499 233
500 47
501 239
502 97
503 307
504 103
505 9
506 151
507 95
508 57
509 5
510 53
511 116
512 185
513 33
514 82
515 467
516 75
517 479
518 11
519 153
520 316
521 92
522 16
523 926
524 65
525 16
526 245
527 76
528 15
529 65
530 320
531 191
532 52
533 11
534 371
535 248
536 302
537 14
538 346
539 5
540 77
541 208
542 142
543 450
544 41
545 92
546 38
547 70
548 384
549 224
550 191
551 165
552 2
553 475
554 401
555 666
556 132
557 333
558 133
559 177
560 168
561 165
562 334
563 331
564 67
565 6
566 54
567 82
568 188
569 62
570 132
571 150
572 181
573 336
574 65
575 74
576 57
577 60
578 12
579 173
580 233
581 13
582 262
583 93
584 62
585 167
586 365
587 199
588 341
589 143
590 309
591 24
592 374
593 29
594 165
595 237
596 30
597 509
598 22
599 12
600 123
601 133
602 26
603 20
604 273
605 74
606 230
607 88
608 487
609 87
610 93
611 97
612 106
613 156
614 34
615 4
616 174
617 485
618 240
619 159
620 48
621 176
622 65
623 116
624 156
625 105
626 143
627 265
628 115
629 71
630 81
631 15
632 141
633 519
634 93
635 10
636 94
637 29
638 16
639 257
640 5
641 50
642 30
643 308
644 3
645 38
646 221
647 303
648 162
649 52
650 106
651 133
652 254
653 183
654 119
655 135
656 125
657 634
658 142
659 251
660 131
661 54
662 62
663 61
664 174
665 166
666 12
667 165
668 666
669 261
670 501
671 97
672 22
673 361
674 109
675 92
676 114
677 242
678 31
679 208
680 220
681 251
682 270
683 11
684 83
685 119
686 128
687 94
688 10
689 134
690 68
691 141
692 20
693 137
694 5
695 133
696 251
697 12
698 6
699 144
700 337
701 71
702 117
703 19
704 298
705 32
706 9
707 42
708 41
709 488
710 236
711 141
712 40
713 75
714 73
715 14
716 206
717 19
718 413
719 145
720 274
721 50
722 179
723 62
724 91
725 100
726 49
727 32
728 641
729 208
730 377
731 80
732 32
733 64
734 511
735 166
736 192
737 112
738 78
739 63
740 154
741 138
742 9
743 20
744 108
745 5
746 8
747 36
748 9
749 67
750 8
751 145
752 186
753 83
754 157
755 193
756 120
757 50
758 39
759 121
760 33
761 6
762 187
763 68
764 76
765 48
766 223
767 461
768 13
769 33
770 80
771 12
772 109
773 33
774 19
775 589
776 87
777 90
778 60
779 227
780 248
781 59
782 288
783 79
784 50
785 254
786 118
787 10
788 48
789 103
790 51
791 165
792 141
793 7
794 56
795 129
796 40
797 271
798 137
799 385
800 359
801 57
802 112
803 13
804 141
805 186
806 105
807 260
808 92
809 253
810 54
811 214
812 127
813 264
814 244
815 492
816 75
817 43
818 23
819 59
820 45
821 247
822 133
823 49
824 15
825 398
826 50
827 121
828 1
829 214
830 96
831 119
832 571
833 296
834 113
835 19
836 15
837 177
838 197
839 109
840 80
841 9
842 106
843 71
844 102
845 175
846 34
847 89
848 154
849 135
850 162
851 97
852 44
853 413
854 5
855 9
856 43
857 65
858 149
859 24
860 48
861 31
862 60
863 269
864 61
865 39
866 65
867 22
868 24
869 158
870 125
871 35
872 16
873 32
874 183
875 57
876 253
877 109
878 54
879 39
880 2
881 386
882 117
883 98
884 211
885 240
886 141
887 151
888 37
889 82
890 18
891 26
892 40
893 19
894 11
895 138
896 96
897 210
898 119
899 195
900 194
901 157
902 31
903 501
904 84
905 191
906 76
907 110
908 75
909 164
910 790
911 11
912 44
913 321
914 141
915 56
916 83
917 241
918 6
919 96
920 113
921 9
922 20
923 36
924 218
925 523
926 216
927 225
928 203
929 22
930 10
931 1
932 108
933 45
934 17
935 71
936 21
937 45
938 509
939 18
940 47
941 56
942 168
943 86
944 10
945 210
946 614
947 139
948 24
949 204
950 311
951 275
952 165
953 11
954 46
955 4
956 39
957 18
958 279
959 41
960 8
961 220
962 26
963 100
964 86
965 123
966 336
967 170
968 51
969 135
970 470
971 31
972 49
973 211
974 184
975 179
976 104
977 225
978 194
979 300
980 269
981 17
982 651
983 182
984 15
985 36
986 13
987 293
988 93
989 1376
990 27
991 73
992 236
993 96
994 1
995 146
996 119
997 103
998 122
999 190
1000 5
1001 266
1002 717
1003 72
1004 229
1005 103
1006 564
1007 59
1008 637
1009 75
1010 100
1011 107
1012 144
1013 103
1014 36
1015 276
1016 196
1017 18
1018 484
1019 258
1020 185
1021 46
1022 87
1023 38
1024 202
1025 11
1026 139
1027 239
1028 73
1029 291
1030 9
1031 367
1032 294
1033 119
1034 83
1035 161
1036 154
1037 423
1038 10
1039 119
1040 7
1041 106
1042 137
1043 141
1044 65
1045 106
1046 17
1047 34
1048 482
1049 174
1050 192
1051 6
1052 142
1053 70
1054 327
1055 337
1056 61
1057 92
1058 81
1059 30
1060 270
1061 624
1062 41
1063 845
1064 97
1065 301
1066 724
1067 98
1068 96
1069 442
1070 1
1071 16
1072 74
1073 162
1074 30
1075 91
1076 150
1077 379
1078 12
1079 543
1080 17
1081 77
1082 712
1083 54
1084 590
1085 13
1086 39
1087 19
1088 316
1089 134
1090 94
1091 29
1092 15
1093 306
1094 17
1095 24
1096 111
1097 119
1098 114
1099 446
1100 3
1101 97
1102 123
1103 105
1104 166
1105 70
1106 210
1107 375
1108 278
1109 571
1110 135
1111 165
1112 99
1113 335
1114 25
1115 4
1116 70
1117 3
1118 73
1119 105
1120 40
1121 356
1122 32
1123 246
1124 11
1125 114
1126 214
1127 603
1128 664
1129 187
1130 50
1131 147
1132 216
1133 343
1134 170
1135 36
1136 50
1137 97
1138 197
1139 222
1140 183
1141 144
1142 154
1143 284
1144 7
1145 241
1146 82
1147 101
1148 22
1149 33
1150 64
1151 88
1152 23
1153 153
1154 79
1155 575
1156 2
1157 126
1158 117
1159 72
1160 176
1161 133
1162 655
1163 157
1164 330
1165 378
1166 84
1167 174
1168 67
1169 15
1170 580
1171 87
1172 65
1173 154
1174 128
1175 79
1176 280
1177 101
1178 392
1179 310
1180 158
1181 346
1182 29
1183 314
1184 25
1185 150
1186 15
1187 16
1188 107
1189 276
1190 349
1191 142
1192 395
1193 48
1194 94
1195 70
1196 59
1197 243
1198 81
1199 24
1200 63
1201 62
1202 332
1203 49
1204 104
1205 64
1206 248
1207 237
1208 689
1209 11
1210 35
1211 72
1212 41
1213 262
1214 158
1215 5
1216 60
1217 6
1218 43
1219 304
1220 67
1221 305
1222 9
1223 10
1224 35
1225 702
1226 191
1227 231
1228 129
1229 332
1230 465
1231 52
1232 80
1233 120
1234 439
1235 50
1236 156
1237 570
1238 73
1239 19
1240 217
1241 92
1242 8
1243 10
1244 503
1245 329
1246 151
1247 103
1248 176
1249 110
1250 56
1251 315
1252 472
1253 151
1254 105
1255 220
1256 479
1257 859
1258 31
1259 76
1260 64
1261 165
1262 4
1263 228
1264 282
1265 302
1266 106
1267 71
1268 296
1269 21
1270 150
1271 150
1272 84
1273 71
1274 53
1275 325
1276 225
1277 18
1278 52
1279 553
1280 7
1281 141
1282 21
1283 357
1284 95
1285 598
1286 383
1287 335
1288 24
1289 445
1290 24
1291 211
1292 45
1293 165
1294 34
1295 225
1296 338
1297 29
1298 617
1299 46
1300 297
1301 101
1302 251
1303 282
1304 37
1305 61
1306 547
1307 176
1308 88
1309 164
1310 526
1311 13
1312 433
1313 247
1314 66
1315 175
1316 31
1317 43
1318 302
1319 11
1320 245
1321 280
1322 203
1323 200
1324 291
1325 44
1326 169
1327 174
1328 270
1329 16
1330 914
1331 207
1332 49
1333 225
1334 10
1335 331
1336 533
1337 469
1338 150
1339 19
1340 14
1341 202
1342 19
1343 103
1344 495
1345 61
1346 185
1347 46
1348 50
1349 148
1350 208
1351 66
1352 741
1353 14
1354 106
1355 89
1356 687
1357 15
1358 439
1359 98
1360 172
1361 25
1362 47
1363 148
1364 112
1365 588
1366 124
1367 422
1368 432
1369 256
1370 328
1371 253
1372 262
1373 304
1374 24
1375 132
1376 42
1377 198
1378 250
1379 11
1380 27
1381 49
1382 39
1383 6
1384 799
1385 287
1386 66
1387 361
1388 116
1389 133
1390 10
1391 123
1392 13
1393 98
1394 378
1395 145
1396 196
1397 76
1398 294
1399 6
1400 237
1401 254
1402 49
1403 341
1404 279
1405 1
1406 582
1407 513
1408 245
1409 624
1410 98
1411 123
1412 502
1413 101
1414 155
1415 91
1416 315
1417 32
1418 86
1419 72
1420 216
1421 91
1422 220
1423 57
1424 205
1425 34
1426 6
1427 429
1428 59
1429 613
1430 21
1431 466
1432 18
1433 47
1434 106
1435 33
1436 888
1437 39
1438 257
1439 56
1440 144
1441 377
1442 68
1443 47
1444 58
1445 24
1446 662
1447 22
1448 393
1449 31
1450 55
1451 249
1452 229
1453 107
1454 48
1455 25
1456 10
1457 246
1458 216
1459 47
1460 169
1461 367
1462 139
1463 225
1464 22
1465 131
1466 45
1467 323
1468 2
1469 102
1470 135
1471 138
1472 255
1473 156
1474 59
1475 180
1476 17
1477 30
1478 39
1479 2
1480 55
1481 118
1482 146
1483 189
1484 35
1485 42
1486 176
1487 128
1488 48
1489 711
1490 442
1491 52
1492 188
1493 81
1494 394
1495 64
1496 233
1497 548
1498 20
1499 2
1500 11
1501 2
1502 12
1503 313
1504 105
1505 17
1506 144
1507 110
1508 260
1509 310
1510 46
1511 204
1512 80
1513 183
1514 140
1515 118
1516 18
1517 28
1518 47
1519 120
1520 433
1521 23
1522 160
1523 12
1524 160
1525 249
1526 145
1527 266
1528 113
1529 11
1530 4
1531 18
1532 395
1533 8
1534 97
1535 131
1536 31
1537 21
1538 92
1539 137
1540 209
1541 253
1542 403
1543 184
1544 176
1545 22
1546 211
1547 49
1548 487
1549 157
1550 7
1551 197
1552 152
1553 126
1554 60
1555 31
1556 512
1557 93
1558 106
1559 219
1560 295
1561 190
1562 396
1563 89
1564 13
1565 1
1566 223
1567 15
1568 116
1569 25
1570 101
1571 545
1572 269
1573 56
1574 17
1575 155
1576 43
1577 307
1578 223
1579 43
1580 265
1581 784
1582 15
1583 274
1584 104
1585 208
1586 364
1587 72
1588 33
1589 420
1590 29
1591 141
1592 1
1593 33
1594 50
1595 134
1596 196
1597 55
1598 45
1599 47
1600 37
1601 87
1602 280
1603 179
1604 245
1605 44
1606 119
1607 99
1608 125
1609 127
1610 393
1611 490
1612 104
1613 5
1614 37
1615 166
1616 52
1617 29
1618 82
1619 207
1620 57
1621 121
1622 88
1623 17
1624 166
1625 206
1626 95
1627 566
1628 247
1629 517
1630 87
1631 306
1632 95
1633 149
1634 505
1635 499
1636 202
1637 50
1638 101
1639 305
1640 53
1641 144
1642 523
1643 181
1644 248
1645 68
1646 419
1647 19
1648 109
1649 25
1650 59
1651 235
1652 83
1653 97
1654 9
1655 359
1656 30
1657 88
1658 441
1659 147
1660 332
1661 113
1662 64
1663 318
1664 250
1665 236
1666 167
1667 207
1668 88
1669 234
1670 151
1671 124
1672 16
1673 695
1674 69
1675 2
1676 120
1677 159
1678 32
1679 214
1680 242
1681 127
1682 534
1683 113
1684 141
1685 77
1686 70
1687 273
1688 259
1689 173
1690 24
1691 121
1692 92
1693 30
1694 7
1695 54
1696 89
1697 87
1698 38
1699 343
1700 213
1701 91
1702 13
1703 165
1704 33
1705 192
1706 176
1707 128
1708 4
1709 18
1710 73
1711 28
1712 50
1713 118
1714 51
1715 197
1716 227
1717 460
1718 247
1719 61
1720 489
1721 96
1722 86
1723 28
1724 194
1725 551
1726 41
1727 69
1728 210
1729 162
1730 81
1731 120
1732 43
1733 52
1734 7
1735 217
1736 829
1737 102
1738 168
1739 131
1740 82
1741 31
1742 51
1743 295
1744 24
1745 124
1746 155
1747 399
1748 70
1749 619
1750 136
1751 1137
1752 30
1753 291
1754 29
1755 42
1756 94
1757 46
1758 27
1759 187
1760 176
1761 14
1762 15
1763 294
1764 62
1765 87
1766 506
1767 8
1768 170
1769 132
1770 85
1771 56
1772 1
1773 79
1774 73
1775 401
1776 15
1777 312
1778 295
1779 92
1780 366
1781 121
1782 102
1783 398
1784 146
1785 235
1786 235
1787 364
1788 5
1789 617
1790 46
1791 47
1792 2
1793 62
1794 76
1795 106
1796 163
1797 117
1798 147
1799 112
1800 136
1801 40
1802 20
1803 276
1804 53
1805 33
1806 187
1807 79
1808 324
1809 32
1810 91
1811 146
1812 29
1813 179
1814 367
1815 149
1816 17
1817 744
1818 186
1819 6
1820 22
1821 277
1822 18
1823 81
1824 14
1825 253
1826 85
1827 122
1828 193
1829 196
1830 65
1831 23
1832 156
1833 249
1834 382
1835 201
1836 292
1837 144
1838 152
1839 37
1840 73
1841 12
1842 100
1843 40
1844 169
1845 80
1846 229
1847 328
1848 46
1849 259
1850 308
1851 154
1852 27
1853 645
1854 203
1855 428
1856 340
1857 104
1858 53
1859 50
1860 66
1861 1559
1862 299
1863 883
1864 229
1865 111
1866 338
1867 114
1868 320
1869 1028
1870 531
1871 681
1872 69
1873 155
1874 89
1875 486
1876 9
1877 71
1878 537
1879 229
1880 2039
1881 275
1882 147
1883 183
1884 205
1885 103
1886 1030
1887 242
1888 168
1889 35
1890 1040
1891 33
1892 73
1893 154
1894 93
1895 90
1896 38
1897 610
1898 485
1899 175
1900 376
1901 1162
1902 153
1903 98
1904 60
1905 237
1906 628
1907 262
1908 104
1909 130
1910 88
1911 13
1912 47
1913 265
1914 306
1915 950
1916 325
1917 1403
1918 291
1919 119
1920 41
1921 74
1922 72
1923 586
1924 174
1925 129
1926 237
1927 351
1928 815
1929 230
1930 5
1931 29
1932 204
1933 493
1934 4
1935 137
1936 77
1937 44
1938 298
1939 97
1940 152
1941 69
1942 36
1943 65
1944 43
1945 20
1946 578
1947 101
1948 633
1949 159
1950 49
1951 230
1952 589
1953 1156
1954 346
1955 399
1956 93
1957 195
1958 74
1959 553
1960 36
1961 133
1962 1
1963 138
1964 486
1965 189
1966 16
1967 316
1968 414
1969 39
1970 241
1971 177
1972 64
1973 194
1974 59
1975 115
1976 91
1977 189
1978 231
1979 386
1980 209
1981 520
1982 94
1983 271
1984 563
1985 158
1986 242
1987 463
1988 32
1989 254
1990 715
1991 239
1992 190
1993 29
1994 536
1995 28
1996 57
1997 113
1998 315
1999 97
