0 7
1 33
2 21
3 40
4 2
5 1
6 5
7 24
8 4
9 44
10 3
11 37
12 49
13 26
14 110
15 77
16 29
17 18
18 58
19 6
20 62
21 37
22 24
23 32
24 75
25 29
26 23
27 41
28 86
29 35
30 44
31 13
32 6
33 24
34 41
35 2
36 8
37 54
38 39
39 72
40 71
41 13
42 72
43 98
44 49
45 52
46 14
47 29
48 117
49 5
50 6
51 11
52 91
53 7
54 31
55 27
56 6
57 23
58 12
59 113
60 68
61 177
62 26
63 31
64 34
65 43
66 30
67 197
68 77
69 14
70 42
71 10
72 7
73 145
74 96
75 12
76 4
77 87
78 11
79 132
80 16
81 11
82 47
83 94
84 67
85 88
86 22
87 44
88 33
89 32
90 10
91 42
92 75
93 135
94 63
95 72
96 123
97 9
98 26
99 127
100 105
101 42
102 1
103 3
104 5
105 53
106 64
107 28
108 6
109 92
110 44
111 56
112 347
113 16
114 5
115 139
116 46
117 40
118 96
119 159
120 101
121 496
122 34
123 180
124 134
125 36
126 80
127 95
128 26
129 22
130 79
131 1
132 120
133 20
134 19
135 33
136 45
137 58
138 136
139 26
140 32
141 90
142 67
143 11
144 43
145 23
146 20
147 90
148 9
149 11
150 18
151 31
152 18
153 20
154 75
155 174
156 184
157 32
158 16
159 39
160 53
161 21
162 76
163 101
164 48
165 28
166 62
167 56
168 23
169 182
170 78
171 26
172 117
173 31
174 81
175 22
176 5
177 16
178 51
179 3
180 1
181 4
182 35
183 82
184 141
185 52
186 255
187 108
188 14
189 13
190 31
191 38
192 91
193 35
194 17
195 17
196 20
197 89
198 52
199 23
200 33
201 31
202 122
203 138
204 59
205 61
206 59
207 64
208 6
209 69
210 5
211 7
212 18
213 62
214 14
215 99
216 95
217 22
218 4
219 73
220 58
221 37
222 112
223 146
224 53
225 4
226 12
227 8
228 39
229 6
230 142
231 16
232 61
233 66
234 70
235 144
236 6
237 34
238 30
239 13
240 22
241 43
242 69
243 116
244 43
245 80
246 36
247 86
248 23
249 20
250 67
251 15
252 42
253 7
254 46
255 18
256 6
257 73
258 39
259 32
260 26
261 110
262 82
263 94
264 1
265 167
266 14
267 7
268 30
269 11
270 32
271 3
272 73
273 51
274 64
275 92
276 17
277 5
278 45
279 59
280 45
281 34
282 111
283 30
284 29
285 70
286 98
287 16
288 14
289 15
290 2
291 9
292 39
293 15
294 15
295 26
296 63
297 27
298 10
299 64
300 49
301 1
302 60
303 6
304 29
305 19
306 164
307 8
308 39
309 115
310 19
311 62
312 25
313 71
314 6
315 55
316 54
317 25
318 42
319 35
320 21
321 74
322 15
323 15
324 60
325 10
326 215
327 24
328 3
329 15
330 28
331 45
332 19
333 38
334 33
335 116
336 107
337 108
338 94
339 12
340 61
341 59
342 29
343 21
344 34
345 10
346 75
347 51
348 82
349 66
350 5
351 7
352 151
353 35
354 44
355 70
356 53
357 11
358 33
359 13
360 118
361 103
362 61
363 19
364 24
365 35
366 4
367 130
368 27
369 71
370 16
371 22
372 70
373 15
374 177
375 197
376 22
377 17
378 29
379 7
380 7
381 4
382 131
383 45
384 24
385 34
386 9
387 96
388 30
389 40
390 75
391 56
392 127
393 93
394 20
395 8
396 46
397 49
398 123
399 24
400 14
401 1
402 69
403 8
404 100
405 121
406 57
407 14
408 10
409 75
410 66
411 67
412 33
413 16
414 13
415 49
416 76
417 119
418 12
419 23
420 3
421 39
422 10
423 83
424 35
425 23
426 44
427 82
428 23
429 2
430 35
431 20
432 17
433 17
434 30
435 31
436 7
437 12
438 18
439 97
440 57
441 11
442 11
443 9
444 13
445 9
446 25
447 1
448 64
449 12
450 354
451 30
452 17
453 5
454 56
455 146
456 79
457 38
458 28
459 24
460 61
461 224
462 32
463 181
464 38
465 161
466 39
467 18
468 152
469 91
470 11
471 9
472 13
473 232
474 15
475 174
476 88
477 17
478 67
479 26
480 19
481 58
482 33
483 88
484 128
485 231
486 68
487 21
488 7
489 22
490 18
491 92
492 29
493 25
494 24
495 130
496 30
497 114
498 102
499 5
500 15
501 46
502 28
503 20
504 39
505 148
506 36
507 63
508 56
509 144
510 103
511 59
512 81
513 87
514 1
515 45
516 9
517 3
518 92
519 139
520 19
521 18
522 10
523 12
524 22
525 27
526 36
527 31
528 14
529 18
530 1
531 152
532 67
533 46
534 91
535 18
536 38
537 77
538 1
539 21
540 101
541 16
542 75
543 3
544 33
545 129
546 7
547 52
548 36
549 244
550 43
551 18
552 2
553 28
554 13
555 45
556 12
557 67
558 41
559 65
560 107
561 8
562 23
563 31
564 94
565 7
566 33
567 63
568 5
569 48
570 43
571 45
572 28
573 20
574 33
575 21
576 9
577 55
578 66
579 110
580 57
581 11
582 79
583 23
584 90
585 200
586 8
587 96
588 13
589 11
590 17
591 10
592 26
593 10
594 47
595 43
596 22
597 6
598 49
599 125
600 79
601 231
602 114
603 22
604 52
605 242
606 154
607 81
608 77
609 143
610 62
611 80
612 38
613 117
614 100
615 55
616 151
617 23
618 13
619 72
620 132
621 94
622 37
623 118
624 2
625 185
626 56
627 61
628 226
629 80
630 9
631 20
632 13
633 124
634 3
635 27
636 18
637 20
638 8
639 17
640 11
641 15
642 78
643 5
644 37
645 196
646 66
647 44
648 63
649 45
650 11
651 27
652 60
653 20
654 43
655 17
656 65
657 6
658 37
659 47
660 19
661 12
662 78
663 27
664 127
665 24
666 4
667 19
668 18
669 164
670 28
671 3
672 41
673 94
674 97
675 56
676 7
677 60
678 3
679 212
680 55
681 59
682 115
683 1
684 264
685 13
686 117
687 84
688 2
689 22
690 8
691 12
692 71
693 80
694 123
695 151
696 22
697 34
698 56
699 27
700 205
701 128
702 24
703 19
704 7
705 139
706 33
707 30
708 77
709 11
710 139
711 70
712 169
713 35
714 17
715 70
716 14
717 33
718 90
719 109
720 336
721 17
722 81
723 12
724 9
725 93
726 244
727 60
728 2
729 64
730 23
731 233
732 12
733 86
734 40
735 115
736 14
737 29
738 32
739 4
740 50
741 44
742 190
743 33
744 195
745 1
746 102
747 22
748 156
749 107
750 37
751 95
752 2
753 18
754 34
755 69
756 172
757 91
758 29
759 62
760 142
761 15
762 350
763 50
764 43
765 119
766 20
767 131
768 54
769 77
770 18
771 42
772 101
773 98
774 75
775 43
776 5
777 40
778 52
779 13
780 49
781 76
782 2
783 9
784 77
785 11
786 33
787 24
788 90
789 35
790 5
791 172
792 75
793 98
794 25
795 36
796 14
797 28
798 46
799 31
800 2
801 9
802 106
803 76
804 17
805 70
806 6
807 23
808 8
809 71
810 27
811 16
812 56
813 11
814 2
815 12
816 88
817 103
818 37
819 23
820 125
821 22
822 18
823 20
824 132
825 68
826 29
827 77
828 2
829 5
830 86
831 51
832 83
833 19
834 14
835 37
836 47
837 76
838 54
839 25
840 28
841 5
842 46
843 68
844 89
845 9
846 131
847 51
848 27
849 36
850 2
851 10
852 8
853 50
854 109
855 1
856 90
857 24
858 91
859 72
860 65
861 218
862 112
863 29
864 29
865 66
866 23
867 97
868 97
869 55
870 8
871 28
872 78
873 68
874 29
875 62
876 90
877 44
878 70
879 5
880 76
881 1
882 70
883 80
884 65
885 30
886 128
887 22
888 3
889 21
890 177
891 62
892 133
893 13
894 33
895 16
896 140
897 3
898 34
899 91
900 55
901 129
902 11
903 45
904 67
905 86
906 76
907 16
908 94
909 2
910 241
911 29
912 14
913 20
914 11
915 25
916 90
917 15
918 63
919 5
920 4
921 148
922 1
923 96
924 38
925 22
926 18
927 23
928 1
929 18
930 7
931 8
932 8
933 13
934 25
935 65
936 22
937 2
938 33
939 10
940 65
941 69
942 5
943 14
944 48
945 6
946 21
947 92
948 7
949 110
950 28
951 24
952 205
953 128
954 26
955 4
956 41
957 72
958 4
959 38
960 138
961 34
962 45
963 45
964 62
965 10
966 20
967 79
968 2
969 161
970 31
971 14
972 4
973 3
974 49
975 37
976 23
977 69
978 87
979 120
980 96
981 121
982 143
983 108
984 27
985 7
986 96
987 7
988 46
989 50
990 51
991 28
992 53
993 31
994 21
995 47
996 53
997 81
998 10
999 38
1000 181
1001 105
1002 19
1003 109
1004 277
1005 100
1006 9
1007 61
1008 94
1009 313
1010 52
1011 30
1012 121
1013 18
1014 5
1015 10
1016 166
1017 9
1018 49
1019 281
1020 32
1021 80
1022 19
1023 1
1024 45
1025 9
1026 35
1027 36
1028 61
1029 108
1030 12
1031 4
1032 10
1033 48
1034 46
1035 12
1036 137
1037 46
1038 4
1039 116
1040 9
1041 30
1042 147
1043 61
1044 103
1045 29
1046 34
1047 95
1048 43
1049 22
1050 13
1051 32
1052 79
1053 14
1054 57
1055 42
1056 62
1057 8
1058 126
1059 111
1060 41
1061 35
1062 30
1063 114
1064 18
1065 5
1066 178
1067 20
1068 7
1069 19
1070 3
1071 19
1072 21
1073 16
1074 29
1075 22
1076 110
1077 104
1078 266
1079 7
1080 34
1081 59
1082 50
1083 31
1084 7
1085 6
1086 14
1087 19
1088 68
1089 17
1090 45
1091 6
1092 38
1093 90
1094 45
1095 9
1096 81
1097 70
1098 17
1099 91
1100 33
1101 115
1102 84
1103 115
1104 66
1105 6
1106 20
1107 105
1108 5
1109 17
1110 21
1111 20
1112 12
1113 6
1114 12
1115 30
1116 103
1117 17
1118 154
1119 1
1120 290
1121 10
1122 102
1123 24
1124 78
1125 130
1126 149
1127 46
1128 112
1129 15
1130 125
1131 53
1132 21
1133 80
1134 117
1135 164
1136 124
1137 56
1138 177
1139 58
1140 46
1141 6
1142 8
1143 43
1144 110
1145 29
1146 100
1147 11
1148 3
1149 24
1150 10
1151 8
1152 4
1153 49
1154 19
1155 86
1156 58
1157 19
1158 56
1159 12
1160 12
1161 71
1162 90
1163 18
1164 326
1165 95
1166 3
1167 40
1168 65
1169 165
1170 20
1171 17
1172 5
1173 62
1174 64
1175 20
1176 44
1177 103
1178 25
1179 9
1180 35
1181 108
1182 318
1183 8
1184 11
1185 4
1186 65
1187 193
1188 120
1189 44
1190 8
1191 12
1192 15
1193 131
1194 134
1195 205
1196 3
1197 16
1198 16
1199 59
1200 61
1201 2
1202 59
1203 1
1204 5
1205 64
1206 5
1207 2
1208 16
1209 19
1210 9
1211 50
1212 85
1213 51
1214 16
1215 30
1216 20
1217 22
1218 72
1219 21
1220 151
1221 22
1222 17
1223 16
1224 18
1225 30
1226 126
1227 48
1228 32
1229 49
1230 63
1231 224
1232 35
1233 62
1234 12
1235 1
1236 32
1237 21
1238 46
1239 97
1240 20
1241 124
1242 90
1243 74
1244 63
1245 19
1246 21
1247 17
1248 30
1249 93
1250 75
1251 4
1252 262
1253 14
1254 19
1255 195
1256 24
1257 12
1258 4
1259 75
1260 39
1261 124
1262 24
1263 21
1264 54
1265 106
1266 118
1267 21
1268 12
1269 169
1270 78
1271 51
1272 20
1273 30
1274 14
1275 4
1276 10
1277 38
1278 8
1279 127
1280 15
1281 20
1282 110
1283 10
1284 43
1285 8
1286 18
1287 90
1288 8
1289 36
1290 30
1291 19
1292 17
1293 8
1294 19
1295 18
1296 40
1297 24
1298 32
1299 67
1300 58
1301 42
1302 9
1303 17
1304 37
1305 30
1306 37
1307 49
1308 2
1309 38
1310 14
1311 89
1312 8
1313 3
1314 22
1315 18
1316 9
1317 57
1318 108
1319 3
1320 36
1321 40
1322 4
1323 74
1324 46
1325 80
1326 42
1327 21
1328 33
1329 14
1330 18
1331 6
1332 4
1333 77
1334 70
1335 48
1336 16
1337 8
1338 3
1339 18
1340 33
1341 21
1342 30
1343 67
1344 1
1345 40
1346 13
1347 11
1348 17
1349 40
1350 7
1351 95
1352 6
1353 28
1354 34
1355 17
1356 99
1357 30
1358 4
1359 12
1360 36
1361 45
1362 45
1363 52
1364 109
1365 124
1366 38
1367 55
1368 1
1369 49
1370 9
1371 18
1372 107
1373 16
1374 4
1375 64
1376 18
1377 8
1378 20
1379 6
1380 72
1381 85
1382 20
1383 36
1384 55
1385 120
1386 35
1387 10
1388 63
1389 33
1390 2
1391 33
1392 20
1393 11
1394 118
1395 112
1396 102
1397 55
1398 40
1399 352
1400 151
1401 49
1402 4
1403 24
1404 44
1405 56
1406 57
1407 39
1408 18
1409 15
1410 116
1411 3
1412 62
1413 13
1414 1
1415 22
1416 153
1417 100
1418 79
1419 14
1420 12
1421 27
1422 72
1423 22
1424 19
1425 15
1426 1
1427 6
1428 14
1429 39
1430 95
1431 64
1432 107
1433 62
1434 29
1435 2
1436 23
1437 33
1438 83
1439 44
1440 30
1441 28
1442 3
1443 128
1444 64
1445 66
1446 24
1447 9
1448 50
1449 21
1450 124
1451 27
1452 8
1453 30
1454 119
1455 6
1456 25
1457 100
1458 17
1459 47
1460 56
1461 42
1462 37
1463 36
1464 26
1465 17
1466 8
1467 28
1468 2
1469 72
1470 64
1471 169
1472 20
1473 18
1474 47
1475 5
1476 8
1477 55
1478 28
1479 3
1480 50
1481 130
1482 20
1483 82
1484 37
1485 17
1486 62
1487 67
1488 21
1489 11
1490 14
1491 42
1492 46
1493 22
1494 78
1495 24
1496 71
1497 5
1498 3
1499 39
1500 169
1501 103
1502 2
1503 10
1504 19
1505 1
1506 15
1507 66
1508 20
1509 19
1510 23
1511 18
1512 71
1513 25
1514 6
1515 30
1516 7
1517 24
1518 80
1519 21
1520 24
1521 91
1522 115
1523 4
1524 196
1525 18
1526 33
1527 23
1528 36
1529 96
1530 36
1531 62
1532 157
1533 68
1534 43
1535 6
1536 26
1537 15
1538 80
1539 23
1540 25
1541 18
1542 2
1543 3
1544 73
1545 4
1546 23
1547 4
1548 39
1549 75
1550 7
1551 55
1552 13
1553 101
1554 45
1555 82
1556 19
1557 51
1558 31
1559 96
1560 30
1561 14
1562 97
1563 122
1564 5
1565 12
1566 23
1567 4
1568 39
1569 28
1570 40
1571 4
1572 83
1573 135
1574 6
1575 21
1576 10
1577 2
1578 8
1579 3
1580 7
1581 46
1582 145
1583 53
1584 166
1585 123
1586 9
1587 83
1588 7
1589 12
1590 43
1591 7
1592 3
1593 1
1594 39
1595 126
1596 80
1597 118
1598 98
1599 45
1600 17
1601 17
1602 80
1603 3
1604 72
1605 7
1606 32
1607 1
1608 18
1609 39
1610 35
1611 29
1612 34
1613 9
1614 1
1615 4
1616 12
1617 100
1618 100
1619 6
1620 40
1621 71
1622 7
1623 5
1624 34
1625 12
1626 224
1627 16
1628 30
1629 14
1630 25
1631 33
1632 27
1633 133
1634 7
1635 168
1636 167
1637 18
1638 48
1639 163
1640 20
1641 20
1642 1
1643 12
1644 17
1645 7
1646 66
1647 5
1648 8
1649 58
1650 29
1651 69
1652 49
1653 24
1654 98
1655 165
1656 189
1657 68
1658 39
1659 74
1660 1
1661 90
1662 74
1663 2
1664 2
1665 12
1666 119
1667 239
1668 27
1669 10
1670 86
1671 146
1672 61
1673 126
1674 1
1675 99
1676 15
1677 29
1678 243
1679 1
1680 24
1681 46
1682 11
1683 16
1684 1
1685 44
1686 96
1687 10
1688 19
1689 72
1690 16
1691 18
1692 5
1693 1
1694 220
1695 74
1696 36
1697 103
1698 60
1699 183
1700 53
1701 54
1702 28
1703 5
1704 59
1705 5
1706 136
1707 67
1708 83
1709 300
1710 6
1711 74
1712 99
1713 46
1714 65
1715 22
1716 44
1717 3
1718 33
1719 157
1720 61
1721 28
1722 8
1723 85
1724 45
1725 5
1726 13
1727 121
1728 21
1729 88
1730 150
1731 10
1732 115
1733 42
1734 55
1735 27
1736 105
1737 59
1738 29
1739 20
1740 7
1741 55
1742 167
1743 12
1744 57
1745 27
1746 44
1747 19
1748 97
1749 168
1750 12
1751 25
1752 81
1753 19
1754 35
1755 6
1756 152
1757 30
1758 73
1759 51
1760 14
1761 46
1762 17
1763 6
1764 77
1765 15
1766 24
1767 10
1768 5
1769 99
1770 98
1771 136
1772 30
1773 17
1774 146
1775 23
1776 97
1777 14
1778 52
1779 17
1780 51
1781 175
1782 13
1783 31
1784 23
1785 40
1786 77
1787 7
1788 49
1789 46
1790 9
1791 13
1792 239
1793 10
1794 28
1795 1
1796 34
1797 58
1798 42
1799 168
1800 15
1801 32
1802 24
1803 130
1804 23
1805 34
1806 36
1807 18
1808 18
1809 11
1810 71
1811 8
1812 84
1813 18
1814 22
1815 17
1816 8
1817 93
1818 3
1819 40
1820 19
1821 89
1822 231
1823 22
1824 76
1825 65
1826 78
1827 186
1828 10
1829 27
1830 36
1831 65
1832 37
1833 192
1834 270
1835 18
1836 10
1837 1
1838 61
1839 130
1840 23
1841 28
1842 14
1843 114
1844 8
1845 11
1846 258
1847 24
1848 3
1849 214
1850 191
1851 199
1852 232
1853 168
1854 8
1855 91
1856 59
1857 56
1858 125
1859 81
1860 324
1861 25
1862 6
1863 8
1864 199
1865 139
1866 1
1867 154
1868 242
1869 53
1870 97
1871 207
1872 89
1873 166
1874 86
1875 46
1876 131
1877 16
1878 301
1879 2
1880 42
1881 125
1882 22
1883 15
1884 155
1885 87
1886 44
1887 83
1888 105
1889 180
1890 29
1891 14
1892 16
1893 45
1894 59
1895 9
1896 14
1897 47
1898 530
1899 143
1900 88
1901 352
1902 33
1903 71
1904 370
1905 478
1906 209
1907 88
1908 90
1909 68
1910 30
1911 813
1912 61
1913 339
1914 136
1915 56
1916 164
1917 142
1918 47
1919 3
1920 124
1921 45
1922 27
1923 44
1924 105
1925 14
1926 269
1927 368
1928 50
1929 105
1930 23
1931 7
1932 11
1933 19
1934 47
1935 29
1936 68
1937 31
1938 102
1939 2
1940 58
1941 10
1942 55
1943 50
1944 101
1945 34
1946 6
1947 49
1948 34
1949 123
1950 4
1951 97
1952 58
1953 19
1954 28
1955 24
1956 192
1957 21
1958 102
1959 88
1960 278
1961 167
1962 262
1963 37
1964 15
1965 61
1966 18
1967 63
1968 143
1969 7
1970 80
1971 4
1972 27
1973 95
1974 11
1975 238
1976 112
1977 173
1978 253
1979 280
1980 3
1981 50
1982 114
1983 48
1984 49
1985 30
1986 31
1987 10
1988 84
1989 274
1990 31
1991 31
1992 10
1993 8
1994 29
1995 11
1996 63
1997 59
1998 18
1999 118
