0 0.505859
10 0.480469
20 0.505859
30 0.492188
40 0.521484
50 0.509766
60 0.548828
70 0.520508
80 0.520508
90 0.521484
100 0.534180
110 0.502930
120 0.516602
130 0.550781
140 0.499023
150 0.488281
160 0.489258
170 0.518555
180 0.519531
190 0.517578
200 0.492188
210 0.530273
220 0.515625
230 0.493164
240 0.524414
250 0.543945
260 0.526367
270 0.517578
280 0.491211
290 0.523438
300 0.534180
310 0.533203
320 0.484375
330 0.490234
340 0.513672
350 0.515625
360 0.499023
370 0.543945
380 0.534180
390 0.529297
400 0.532227
410 0.551758
420 0.506836
430 0.536133
440 0.561523
450 0.505859
460 0.483398
470 0.534180
480 0.490234
490 0.541016
500 0.544922
510 0.527344
520 0.542969
530 0.560547
540 0.563477
550 0.539062
560 0.541992
570 0.551758
580 0.530273
590 0.566406
600 0.562500
610 0.577148
620 0.527344
630 0.527344
640 0.533203
650 0.555664
660 0.546875
670 0.562500
680 0.542969
690 0.546875
700 0.541992
710 0.582031
720 0.594727
730 0.559570
740 0.533203
750 0.541016
760 0.531250
770 0.524414
780 0.575195
790 0.569336
800 0.558594
810 0.550781
820 0.547852
830 0.571289
840 0.529297
850 0.529297
860 0.507812
870 0.529297
880 0.537109
890 0.546875
900 0.526367
910 0.562500
920 0.583984
930 0.541016
940 0.579102
950 0.581055
960 0.591797
970 0.558594
980 0.541992
990 0.522461
1000 0.546875
1010 0.583008
1020 0.538086
1030 0.538086
1040 0.531250
1050 0.557617
1060 0.536133
1070 0.543945
1080 0.581055
1090 0.560547
1100 0.552734
1110 0.560547
1120 0.570312
1130 0.553711
1140 0.555664
1150 0.558594
1160 0.617188
1170 0.558594
1180 0.565430
1190 0.568359
1200 0.561523
1210 0.577148
1220 0.556641
1230 0.551758
1240 0.584961
1250 0.608398
1260 0.566406
1270 0.511719
1280 0.570312
1290 0.532227
1300 0.576172
1310 0.605469
1320 0.578125
1330 0.595703
1340 0.590820
1350 0.571289
1360 0.526367
1370 0.578125
1380 0.588867
1390 0.540039
1400 0.585938
1410 0.536133
1420 0.562500
1430 0.574219
1440 0.581055
1450 0.561523
1460 0.583984
1470 0.549805
1480 0.578125
1490 0.603516
1500 0.586914
1510 0.541016
1520 0.604492
1530 0.573242
1540 0.575195
1550 0.606445
1560 0.584961
1570 0.569336
1580 0.576172
1590 0.583984
1600 0.575195
1610 0.562500
1620 0.579102
1630 0.617188
1640 0.583008
1650 0.614258
1660 0.557617
1670 0.576172
1680 0.580078
1690 0.559570
1700 0.600586
1710 0.587891
1720 0.560547
1730 0.604492
1740 0.612305
1750 0.551758
1760 0.604492
1770 0.600586
1780 0.572266
1790 0.607422
1800 0.571289
1810 0.581055
1820 0.571289
1830 0.568359
1840 0.602539
1850 0.607422
1860 0.572266
1870 0.596680
1880 0.579102
1890 0.566406
1900 0.546875
1910 0.583984
1920 0.614258
1930 0.614258
1940 0.562500
1950 0.559570
1960 0.564453
1970 0.553711
1980 0.545898
1990 0.581055
