0 0.441406
10 0.461914
20 0.524414
30 0.539062
40 0.483398
50 0.556641
60 0.526367
70 0.554688
80 0.507812
90 0.532227
100 0.513672
110 0.485352
120 0.486328
130 0.469727
140 0.539062
150 0.520508
160 0.495117
170 0.513672
180 0.492188
190 0.515625
200 0.514648
210 0.535156
220 0.518555
230 0.552734
240 0.513672
250 0.511719
260 0.534180
270 0.512695
280 0.560547
290 0.544922
300 0.555664
310 0.572266
320 0.549805
330 0.503906
340 0.540039
350 0.552734
360 0.560547
370 0.526367
380 0.583984
390 0.546875
400 0.589844
410 0.556641
420 0.553711
430 0.548828
440 0.556641
450 0.583008
460 0.549805
470 0.536133
480 0.541992
490 0.551758
500 0.563477
510 0.534180
520 0.576172
530 0.552734
540 0.554688
550 0.541992
560 0.536133
570 0.554688
580 0.568359
590 0.537109
600 0.574219
610 0.583984
620 0.568359
630 0.551758
640 0.548828
650 0.566406
660 0.589844
670 0.542969
680 0.559570
690 0.589844
700 0.582031
710 0.582031
720 0.567383
730 0.540039
740 0.576172
750 0.596680
760 0.580078
770 0.569336
780 0.582031
790 0.587891
800 0.542969
810 0.549805
820 0.542969
830 0.535156
840 0.528320
850 0.577148
860 0.542969
870 0.562500
880 0.556641
890 0.558594
900 0.575195
910 0.526367
920 0.577148
930 0.593750
940 0.555664
950 0.551758
960 0.585938
970 0.556641
980 0.578125
990 0.576172
1000 0.527344
1010 0.594727
1020 0.585938
1030 0.574219
1040 0.564453
1050 0.555664
1060 0.597656
1070 0.580078
1080 0.528320
1090 0.581055
1100 0.596680
1110 0.605469
1120 0.585938
1130 0.590820
1140 0.588867
1150 0.632812
1160 0.606445
1170 0.588867
1180 0.612305
1190 0.572266
1200 0.612305
1210 0.571289
1220 0.548828
1230 0.585938
1240 0.595703
1250 0.593750
1260 0.585938
1270 0.578125
1280 0.580078
1290 0.575195
1300 0.598633
1310 0.561523
1320 0.585938
1330 0.588867
1340 0.556641
1350 0.593750
1360 0.615234
1370 0.593750
1380 0.610352
1390 0.633789
1400 0.585938
1410 0.583984
1420 0.571289
1430 0.541016
1440 0.582031
1450 0.589844
1460 0.541992
1470 0.585938
1480 0.558594
1490 0.573242
1500 0.574219
1510 0.566406
1520 0.540039
1530 0.618164
1540 0.583984
1550 0.584961
1560 0.590820
1570 0.587891
1580 0.604492
1590 0.596680
1600 0.577148
1610 0.582031
1620 0.596680
1630 0.580078
1640 0.578125
1650 0.570312
1660 0.596680
1670 0.573242
1680 0.604492
1690 0.639648
1700 0.582031
1710 0.590820
1720 0.567383
1730 0.571289
1740 0.583984
1750 0.573242
1760 0.589844
1770 0.563477
1780 0.581055
1790 0.586914
1800 0.568359
1810 0.571289
1820 0.571289
1830 0.634766
1840 0.573242
1850 0.587891
1860 0.580078
1870 0.585938
1880 0.583008
1890 0.551758
1900 0.581055
1910 0.583008
1920 0.580078
1930 0.575195
1940 0.603516
1950 0.583984
1960 0.550781
1970 0.562500
1980 0.560547
1990 0.569336
