0 0.503906
10 0.528320
20 0.517578
30 0.551758
40 0.505859
50 0.506836
60 0.520508
70 0.547852
80 0.582031
90 0.577148
100 0.590820
110 0.561523
120 0.564453
130 0.616211
140 0.569336
150 0.575195
160 0.623047
170 0.591797
180 0.629883
190 0.652344
200 0.628906
210 0.646484
220 0.609375
230 0.672852
240 0.626953
250 0.640625
260 0.641602
270 0.655273
280 0.634766
290 0.647461
300 0.637695
310 0.640625
320 0.645508
330 0.628906
340 0.632812
350 0.654297
360 0.637695
370 0.648438
380 0.627930
390 0.674805
400 0.643555
410 0.635742
420 0.655273
430 0.651367
440 0.629883
450 0.660156
460 0.656250
470 0.662109
480 0.631836
490 0.659180
500 0.636719
510 0.624023
520 0.663086
530 0.638672
540 0.659180
550 0.651367
560 0.672852
570 0.653320
580 0.633789
590 0.652344
600 0.647461
610 0.670898
620 0.677734
630 0.641602
640 0.667969
650 0.663086
660 0.635742
670 0.690430
680 0.700195
690 0.690430
700 0.664062
710 0.712891
720 0.698242
730 0.675781
740 0.673828
750 0.663086
760 0.644531
770 0.710938
780 0.664062
790 0.682617
800 0.652344
810 0.659180
820 0.650391
830 0.665039
840 0.669922
850 0.617188
860 0.678711
870 0.666992
880 0.680664
890 0.682617
900 0.625000
910 0.705078
920 0.685547
930 0.691406
940 0.672852
950 0.666016
960 0.679688
970 0.683594
980 0.693359
990 0.699219
1000 0.687500
1010 0.658203
1020 0.670898
1030 0.676758
1040 0.679688
1050 0.686523
1060 0.680664
1070 0.666016
1080 0.701172
1090 0.664062
1100 0.652344
1110 0.709961
1120 0.700195
1130 0.678711
1140 0.654297
1150 0.677734
1160 0.693359
1170 0.693359
1180 0.684570
1190 0.684570
1200 0.696289
1210 0.710938
1220 0.661133
1230 0.697266
1240 0.696289
1250 0.692383
1260 0.666016
1270 0.662109
1280 0.721680
1290 0.680664
1300 0.660156
1310 0.666016
1320 0.689453
1330 0.686523
1340 0.667969
1350 0.675781
1360 0.687500
1370 0.688477
1380 0.705078
1390 0.690430
1400 0.669922
1410 0.656250
1420 0.675781
1430 0.685547
1440 0.674805
1450 0.683594
1460 0.668945
1470 0.691406
1480 0.673828
1490 0.665039
1500 0.691406
1510 0.660156
1520 0.665039
1530 0.685547
1540 0.686523
1550 0.686523
1560 0.679688
1570 0.655273
1580 0.665039
1590 0.678711
1600 0.692383
1610 0.670898
1620 0.665039
1630 0.678711
1640 0.699219
1650 0.676758
1660 0.675781
1670 0.687500
1680 0.661133
1690 0.689453
1700 0.674805
1710 0.675781
1720 0.665039
1730 0.713867
1740 0.694336
1750 0.668945
1760 0.632812
1770 0.692383
1780 0.659180
1790 0.659180
1800 0.666016
1810 0.625000
1820 0.680664
1830 0.642578
1840 0.680664
1850 0.684570
1860 0.638672
1870 0.690430
1880 0.667969
1890 0.679688
1900 0.661133
1910 0.666992
1920 0.667969
1930 0.674805
1940 0.672852
1950 0.703125
1960 0.671875
1970 0.643555
1980 0.646484
1990 0.684570
