0 0.523438
10 0.466797
20 0.546875
30 0.527344
40 0.541016
50 0.558594
60 0.584961
70 0.556641
80 0.570312
90 0.579102
100 0.616211
110 0.579102
120 0.568359
130 0.595703
140 0.559570
150 0.582031
160 0.604492
170 0.599609
180 0.583984
190 0.563477
200 0.605469
210 0.585938
220 0.567383
230 0.586914
240 0.568359
250 0.591797
260 0.552734
270 0.574219
280 0.566406
290 0.557617
300 0.537109
310 0.628906
320 0.580078
330 0.577148
340 0.605469
350 0.579102
360 0.554688
370 0.595703
380 0.581055
390 0.585938
400 0.571289
410 0.595703
420 0.599609
430 0.593750
440 0.572266
450 0.595703
460 0.560547
470 0.585938
480 0.573242
490 0.528320
500 0.611328
510 0.586914
520 0.588867
530 0.618164
540 0.625000
550 0.585938
560 0.610352
570 0.636719
580 0.632812
590 0.590820
600 0.575195
610 0.616211
620 0.630859
630 0.652344
640 0.617188
650 0.628906
660 0.609375
670 0.601562
680 0.619141
690 0.614258
700 0.602539
710 0.617188
720 0.624023
730 0.601562
740 0.615234
750 0.624023
760 0.620117
770 0.620117
780 0.616211
790 0.621094
800 0.657227
810 0.626953
820 0.611328
830 0.627930
840 0.597656
850 0.619141
860 0.648438
870 0.633789
880 0.612305
890 0.626953
900 0.666992
910 0.622070
920 0.631836
930 0.625000
940 0.631836
950 0.639648
960 0.610352
970 0.607422
980 0.621094
990 0.659180
1000 0.630859
1010 0.648438
1020 0.666016
1030 0.643555
1040 0.634766
1050 0.626953
1060 0.629883
1070 0.652344
1080 0.626953
1090 0.617188
1100 0.642578
1110 0.641602
1120 0.629883
1130 0.656250
1140 0.656250
1150 0.640625
1160 0.656250
1170 0.606445
1180 0.616211
1190 0.658203
1200 0.651367
1210 0.639648
1220 0.609375
1230 0.600586
1240 0.618164
1250 0.619141
1260 0.627930
1270 0.667969
1280 0.618164
1290 0.620117
1300 0.610352
1310 0.651367
1320 0.617188
1330 0.623047
1340 0.647461
1350 0.656250
1360 0.673828
1370 0.616211
1380 0.629883
1390 0.643555
1400 0.651367
1410 0.642578
1420 0.626953
1430 0.660156
1440 0.608398
1450 0.630859
1460 0.630859
1470 0.612305
1480 0.637695
1490 0.618164
1500 0.639648
1510 0.652344
1520 0.644531
1530 0.669922
1540 0.616211
1550 0.625000
1560 0.645508
1570 0.617188
1580 0.639648
1590 0.656250
1600 0.640625
1610 0.638672
1620 0.644531
1630 0.614258
1640 0.644531
1650 0.611328
1660 0.616211
1670 0.626953
1680 0.596680
1690 0.599609
1700 0.668945
1710 0.643555
1720 0.638672
1730 0.617188
1740 0.622070
1750 0.613281
1760 0.622070
1770 0.633789
1780 0.620117
1790 0.637695
1800 0.690430
1810 0.638672
1820 0.648438
1830 0.644531
1840 0.666992
1850 0.615234
1860 0.684570
1870 0.651367
1880 0.628906
1890 0.669922
1900 0.655273
1910 0.637695
1920 0.655273
1930 0.671875
1940 0.652344
1950 0.657227
1960 0.654297
1970 0.645508
1980 0.629883
1990 0.666992
