0 0.492188
10 0.559570
20 0.553711
30 0.618164
40 0.590820
50 0.588867
60 0.615234
70 0.584961
80 0.628906
90 0.656250
100 0.664062
110 0.649414
120 0.648438
130 0.626953
140 0.622070
150 0.628906
160 0.633789
170 0.595703
180 0.579102
190 0.663086
200 0.594727
210 0.622070
220 0.650391
230 0.656250
240 0.634766
250 0.624023
260 0.660156
270 0.680664
280 0.667969
290 0.660156
300 0.691406
310 0.679688
320 0.683594
330 0.684570
340 0.708008
350 0.710938
360 0.659180
370 0.658203
380 0.671875
390 0.675781
400 0.667969
410 0.677734
420 0.696289
430 0.699219
440 0.679688
450 0.684570
460 0.685547
470 0.656250
480 0.683594
490 0.676758
500 0.689453
510 0.666016
520 0.698242
530 0.725586
540 0.679688
550 0.689453
560 0.697266
570 0.704102
580 0.678711
590 0.698242
600 0.681641
610 0.673828
620 0.688477
630 0.708984
640 0.674805
650 0.682617
660 0.704102
670 0.701172
680 0.726562
690 0.707031
700 0.708984
710 0.682617
720 0.675781
730 0.676758
740 0.705078
750 0.699219
760 0.697266
770 0.714844
780 0.657227
790 0.671875
800 0.690430
810 0.692383
820 0.715820
830 0.720703
840 0.716797
850 0.686523
860 0.711914
870 0.715820
880 0.715820
890 0.708984
900 0.705078
910 0.713867
920 0.718750
930 0.696289
940 0.716797
950 0.688477
960 0.715820
970 0.702148
980 0.694336
990 0.666992
1000 0.715820
1010 0.708984
1020 0.701172
1030 0.713867
1040 0.702148
1050 0.716797
1060 0.683594
1070 0.714844
1080 0.704102
1090 0.717773
1100 0.701172
1110 0.710938
1120 0.707031
1130 0.691406
1140 0.673828
1150 0.699219
1160 0.682617
1170 0.706055
1180 0.726562
1190 0.692383
1200 0.709961
1210 0.718750
1220 0.692383
1230 0.692383
1240 0.688477
1250 0.701172
1260 0.699219
1270 0.698242
1280 0.686523
1290 0.728516
1300 0.705078
1310 0.713867
1320 0.715820
1330 0.699219
1340 0.697266
1350 0.721680
1360 0.691406
1370 0.705078
1380 0.695312
1390 0.714844
1400 0.688477
1410 0.693359
1420 0.708008
1430 0.721680
1440 0.729492
1450 0.718750
1460 0.715820
1470 0.706055
1480 0.696289
1490 0.686523
1500 0.710938
1510 0.689453
1520 0.713867
1530 0.712891
1540 0.704102
1550 0.712891
1560 0.726562
1570 0.708008
1580 0.717773
1590 0.740234
1600 0.713867
1610 0.708008
1620 0.743164
1630 0.696289
1640 0.711914
1650 0.694336
1660 0.705078
1670 0.691406
1680 0.700195
1690 0.680664
1700 0.696289
1710 0.723633
1720 0.725586
1730 0.733398
1740 0.706055
1750 0.713867
1760 0.724609
1770 0.692383
1780 0.723633
1790 0.751953
1800 0.711914
1810 0.716797
1820 0.706055
1830 0.738281
1840 0.718750
1850 0.753906
1860 0.710938
1870 0.692383
1880 0.702148
1890 0.706055
1900 0.715820
1910 0.693359
1920 0.721680
1930 0.745117
1940 0.712891
1950 0.723633
1960 0.723633
1970 0.714844
1980 0.724609
1990 0.702148
