0 0.527344
10 0.518555
20 0.529297
30 0.522461
40 0.473633
50 0.488281
60 0.505859
70 0.472656
80 0.499023
90 0.500000
100 0.551758
110 0.553711
120 0.513672
130 0.541016
140 0.504883
150 0.550781
160 0.543945
170 0.514648
180 0.525391
190 0.509766
200 0.521484
210 0.554688
220 0.564453
230 0.523438
240 0.557617
250 0.526367
260 0.547852
270 0.523438
280 0.547852
290 0.536133
300 0.563477
310 0.539062
320 0.569336
330 0.500977
340 0.500977
350 0.502930
360 0.541016
370 0.512695
380 0.483398
390 0.528320
400 0.531250
410 0.501953
420 0.512695
430 0.506836
440 0.515625
450 0.553711
460 0.541992
470 0.531250
480 0.546875
490 0.543945
500 0.594727
510 0.534180
520 0.583008
530 0.569336
540 0.522461
550 0.566406
560 0.579102
570 0.549805
580 0.586914
590 0.574219
600 0.560547
610 0.538086
620 0.543945
630 0.574219
640 0.585938
650 0.594727
660 0.558594
670 0.582031
680 0.593750
690 0.592773
700 0.596680
710 0.584961
720 0.566406
730 0.564453
740 0.514648
750 0.557617
760 0.545898
770 0.563477
780 0.546875
790 0.537109
800 0.577148
810 0.569336
820 0.541016
830 0.550781
840 0.547852
850 0.567383
860 0.533203
870 0.548828
880 0.531250
890 0.536133
900 0.524414
910 0.541992
920 0.539062
930 0.544922
940 0.512695
950 0.565430
960 0.541016
970 0.516602
980 0.572266
990 0.527344
1000 0.547852
1010 0.541992
1020 0.524414
1030 0.535156
1040 0.583984
1050 0.600586
1060 0.541992
1070 0.545898
1080 0.558594
1090 0.566406
1100 0.577148
1110 0.559570
1120 0.515625
1130 0.509766
1140 0.540039
1150 0.556641
1160 0.526367
1170 0.523438
1180 0.525391
1190 0.513672
1200 0.569336
1210 0.560547
1220 0.577148
1230 0.549805
1240 0.531250
1250 0.522461
1260 0.529297
1270 0.545898
1280 0.546875
1290 0.546875
1300 0.511719
1310 0.559570
1320 0.551758
1330 0.521484
1340 0.523438
1350 0.525391
1360 0.556641
1370 0.532227
1380 0.527344
1390 0.531250
1400 0.529297
1410 0.529297
1420 0.535156
1430 0.537109
1440 0.537109
1450 0.558594
1460 0.535156
1470 0.529297
1480 0.548828
1490 0.512695
1500 0.535156
1510 0.526367
1520 0.515625
1530 0.564453
1540 0.541992
1550 0.533203
1560 0.536133
1570 0.516602
1580 0.544922
1590 0.522461
1600 0.529297
1610 0.513672
1620 0.567383
1630 0.554688
1640 0.559570
1650 0.569336
1660 0.564453
1670 0.547852
1680 0.554688
1690 0.575195
1700 0.580078
1710 0.546875
1720 0.565430
1730 0.547852
1740 0.588867
1750 0.569336
1760 0.606445
1770 0.590820
1780 0.595703
1790 0.577148
1800 0.573242
1810 0.571289
1820 0.575195
1830 0.575195
1840 0.563477
1850 0.545898
1860 0.538086
1870 0.542969
1880 0.566406
1890 0.574219
1900 0.533203
1910 0.553711
1920 0.543945
1930 0.527344
1940 0.553711
1950 0.551758
1960 0.572266
1970 0.582031
1980 0.549805
1990 0.570312
