0 0.482422
10 0.492188
20 0.529297
30 0.527344
40 0.532227
50 0.517578
60 0.549805
70 0.571289
80 0.558594
90 0.551758
100 0.522461
110 0.542969
120 0.516602
130 0.513672
140 0.497070
150 0.506836
160 0.523438
170 0.532227
180 0.570312
190 0.556641
200 0.546875
210 0.519531
220 0.556641
230 0.530273
240 0.515625
250 0.558594
260 0.541016
270 0.511719
280 0.520508
290 0.554688
300 0.552734
310 0.538086
320 0.562500
330 0.546875
340 0.537109
350 0.564453
360 0.582031
370 0.585938
380 0.584961
390 0.541992
400 0.557617
410 0.582031
420 0.528320
430 0.548828
440 0.554688
450 0.568359
460 0.567383
470 0.566406
480 0.535156
490 0.583008
500 0.573242
510 0.555664
520 0.572266
530 0.573242
540 0.560547
550 0.548828
560 0.571289
570 0.551758
580 0.557617
590 0.543945
600 0.552734
610 0.577148
620 0.545898
630 0.554688
640 0.550781
650 0.570312
660 0.590820
670 0.546875
680 0.548828
690 0.584961
700 0.577148
710 0.576172
720 0.557617
730 0.570312
740 0.545898
750 0.554688
760 0.573242
770 0.551758
780 0.555664
790 0.590820
800 0.583008
810 0.577148
820 0.579102
830 0.595703
840 0.558594
850 0.555664
860 0.583984
870 0.571289
880 0.596680
890 0.586914
900 0.585938
910 0.582031
920 0.595703
930 0.602539
940 0.588867
950 0.584961
960 0.584961
970 0.595703
980 0.568359
990 0.549805
1000 0.541016
1010 0.546875
1020 0.569336
1030 0.590820
1040 0.537109
1050 0.543945
1060 0.564453
1070 0.546875
1080 0.588867
1090 0.570312
1100 0.606445
1110 0.568359
1120 0.530273
1130 0.596680
1140 0.597656
1150 0.593750
1160 0.567383
1170 0.576172
1180 0.592773
1190 0.595703
1200 0.554688
1210 0.607422
1220 0.625977
1230 0.594727
1240 0.594727
1250 0.577148
1260 0.588867
1270 0.601562
1280 0.595703
1290 0.592773
1300 0.599609
1310 0.595703
1320 0.603516
1330 0.569336
1340 0.583984
1350 0.562500
1360 0.600586
1370 0.595703
1380 0.620117
1390 0.553711
1400 0.559570
1410 0.585938
1420 0.611328
1430 0.586914
1440 0.568359
1450 0.592773
1460 0.580078
1470 0.599609
1480 0.589844
1490 0.585938
1500 0.599609
1510 0.580078
1520 0.596680
1530 0.598633
1540 0.592773
1550 0.559570
1560 0.570312
1570 0.554688
1580 0.566406
1590 0.576172
1600 0.545898
1610 0.566406
1620 0.581055
1630 0.566406
1640 0.599609
1650 0.556641
1660 0.591797
1670 0.571289
1680 0.568359
1690 0.594727
1700 0.568359
1710 0.586914
1720 0.613281
1730 0.593750
1740 0.558594
1750 0.591797
1760 0.566406
1770 0.604492
1780 0.583984
1790 0.587891
1800 0.597656
1810 0.620117
1820 0.578125
1830 0.606445
1840 0.583008
1850 0.587891
1860 0.569336
1870 0.587891
1880 0.559570
1890 0.591797
1900 0.580078
1910 0.612305
1920 0.565430
1930 0.588867
1940 0.609375
1950 0.580078
1960 0.619141
1970 0.559570
1980 0.567383
1990 0.592773
