0 0.513672
10 0.474609
20 0.535156
30 0.572266
40 0.557617
50 0.517578
60 0.521484
70 0.539062
80 0.528320
90 0.547852
100 0.516602
110 0.514648
120 0.513672
130 0.559570
140 0.531250
150 0.535156
160 0.532227
170 0.529297
180 0.537109
190 0.561523
200 0.522461
210 0.521484
220 0.507812
230 0.482422
240 0.517578
250 0.503906
260 0.507812
270 0.544922
280 0.567383
290 0.503906
300 0.548828
310 0.534180
320 0.568359
330 0.573242
340 0.562500
350 0.520508
360 0.552734
370 0.570312
380 0.530273
390 0.530273
400 0.496094
410 0.528320
420 0.532227
430 0.539062
440 0.533203
450 0.536133
460 0.515625
470 0.539062
480 0.503906
490 0.501953
500 0.515625
510 0.500977
520 0.499023
530 0.542969
540 0.513672
550 0.486328
560 0.500977
570 0.479492
580 0.500977
590 0.527344
600 0.540039
610 0.500977
620 0.534180
630 0.522461
640 0.516602
650 0.519531
660 0.519531
670 0.574219
680 0.557617
690 0.550781
700 0.532227
710 0.542969
720 0.535156
730 0.583008
740 0.555664
750 0.570312
760 0.572266
770 0.589844
780 0.541992
790 0.541016
800 0.547852
810 0.541016
820 0.562500
830 0.586914
840 0.562500
850 0.565430
860 0.533203
870 0.519531
880 0.572266
890 0.558594
900 0.577148
910 0.548828
920 0.546875
930 0.551758
940 0.528320
950 0.560547
960 0.552734
970 0.543945
980 0.544922
990 0.572266
1000 0.545898
1010 0.541016
1020 0.529297
1030 0.537109
1040 0.536133
1050 0.531250
1060 0.525391
1070 0.518555
1080 0.563477
1090 0.539062
1100 0.590820
1110 0.542969
1120 0.566406
1130 0.543945
1140 0.567383
1150 0.541992
1160 0.583984
1170 0.531250
1180 0.527344
1190 0.566406
1200 0.570312
1210 0.524414
1220 0.543945
1230 0.526367
1240 0.532227
1250 0.521484
1260 0.555664
1270 0.542969
1280 0.554688
1290 0.555664
1300 0.547852
1310 0.567383
1320 0.563477
1330 0.561523
1340 0.575195
1350 0.565430
1360 0.548828
1370 0.523438
1380 0.515625
1390 0.545898
1400 0.544922
1410 0.546875
1420 0.528320
1430 0.562500
1440 0.528320
1450 0.560547
1460 0.586914
1470 0.540039
1480 0.555664
1490 0.538086
1500 0.547852
1510 0.553711
1520 0.557617
1530 0.556641
1540 0.553711
1550 0.543945
1560 0.560547
1570 0.566406
1580 0.571289
1590 0.549805
1600 0.578125
1610 0.591797
1620 0.608398
1630 0.592773
1640 0.541992
1650 0.559570
1660 0.543945
1670 0.560547
1680 0.539062
1690 0.544922
1700 0.577148
1710 0.569336
1720 0.595703
1730 0.586914
1740 0.553711
1750 0.583984
1760 0.525391
1770 0.514648
1780 0.566406
1790 0.569336
1800 0.555664
1810 0.562500
1820 0.569336
1830 0.506836
1840 0.529297
1850 0.527344
1860 0.551758
1870 0.509766
1880 0.521484
1890 0.530273
1900 0.561523
1910 0.556641
1920 0.563477
1930 0.580078
1940 0.558594
1950 0.559570
1960 0.582031
1970 0.561523
1980 0.569336
1990 0.569336
