0 0.507812
10 0.462891
20 0.526367
30 0.487305
40 0.502930
50 0.518555
60 0.522461
70 0.512695
80 0.583984
90 0.572266
100 0.544922
110 0.552734
120 0.572266
130 0.534180
140 0.566406
150 0.548828
160 0.571289
170 0.536133
180 0.531250
190 0.533203
200 0.504883
210 0.552734
220 0.559570
230 0.583984
240 0.577148
250 0.555664
260 0.528320
270 0.547852
280 0.548828
290 0.523438
300 0.545898
310 0.548828
320 0.554688
330 0.538086
340 0.515625
350 0.514648
360 0.547852
370 0.587891
380 0.543945
390 0.540039
400 0.527344
410 0.563477
420 0.547852
430 0.560547
440 0.552734
450 0.565430
460 0.520508
470 0.565430
480 0.591797
490 0.564453
500 0.559570
510 0.545898
520 0.511719
530 0.535156
540 0.528320
550 0.549805
560 0.538086
570 0.541016
580 0.563477
590 0.579102
600 0.575195
610 0.550781
620 0.553711
630 0.553711
640 0.547852
650 0.541016
660 0.562500
670 0.541016
680 0.555664
690 0.541992
700 0.591797
710 0.574219
720 0.555664
730 0.556641
740 0.532227
750 0.563477
760 0.519531
770 0.551758
780 0.572266
790 0.552734
800 0.534180
810 0.529297
820 0.578125
830 0.528320
840 0.562500
850 0.568359
860 0.573242
870 0.553711
880 0.551758
890 0.555664
900 0.542969
910 0.570312
920 0.543945
930 0.547852
940 0.545898
950 0.604492
960 0.528320
970 0.557617
980 0.564453
990 0.555664
1000 0.568359
1010 0.568359
1020 0.577148
1030 0.560547
1040 0.536133
1050 0.561523
1060 0.571289
1070 0.553711
1080 0.576172
1090 0.559570
1100 0.550781
1110 0.573242
1120 0.572266
1130 0.544922
1140 0.604492
1150 0.555664
1160 0.588867
1170 0.572266
1180 0.574219
1190 0.551758
1200 0.552734
1210 0.507812
1220 0.534180
1230 0.580078
1240 0.611328
1250 0.551758
1260 0.540039
1270 0.543945
1280 0.569336
1290 0.537109
1300 0.533203
1310 0.546875
1320 0.522461
1330 0.526367
1340 0.562500
1350 0.558594
1360 0.542969
1370 0.568359
1380 0.540039
1390 0.557617
1400 0.550781
1410 0.544922
1420 0.579102
1430 0.548828
1440 0.496094
1450 0.521484
1460 0.558594
1470 0.595703
1480 0.566406
1490 0.551758
1500 0.552734
1510 0.544922
1520 0.567383
1530 0.587891
1540 0.570312
1550 0.534180
1560 0.556641
1570 0.562500
1580 0.578125
1590 0.580078
1600 0.569336
1610 0.551758
1620 0.550781
1630 0.529297
1640 0.597656
1650 0.544922
1660 0.569336
1670 0.585938
1680 0.573242
1690 0.565430
1700 0.563477
1710 0.561523
1720 0.583008
1730 0.546875
1740 0.537109
1750 0.544922
1760 0.571289
1770 0.598633
1780 0.570312
1790 0.601562
1800 0.527344
1810 0.561523
1820 0.563477
1830 0.540039
1840 0.583008
1850 0.590820
1860 0.574219
1870 0.590820
1880 0.570312
1890 0.585938
1900 0.584961
1910 0.584961
1920 0.610352
1930 0.570312
1940 0.572266
1950 0.586914
1960 0.619141
1970 0.585938
1980 0.541992
1990 0.582031
