0 0.490234
10 0.562500
20 0.501953
30 0.507812
40 0.493164
50 0.489258
60 0.530273
70 0.537109
80 0.534180
90 0.556641
100 0.529297
110 0.522461
120 0.533203
130 0.515625
140 0.515625
150 0.502930
160 0.502930
170 0.531250
180 0.515625
190 0.540039
200 0.533203
210 0.541992
220 0.562500
230 0.543945
240 0.527344
250 0.521484
260 0.484375
270 0.541016
280 0.473633
290 0.521484
300 0.527344
310 0.541016
320 0.512695
330 0.505859
340 0.517578
350 0.510742
360 0.517578
370 0.552734
380 0.557617
390 0.533203
400 0.519531
410 0.530273
420 0.544922
430 0.545898
440 0.521484
450 0.532227
460 0.558594
470 0.531250
480 0.538086
490 0.553711
500 0.541992
510 0.528320
520 0.518555
530 0.548828
540 0.572266
550 0.563477
560 0.567383
570 0.563477
580 0.539062
590 0.546875
600 0.558594
610 0.555664
620 0.501953
630 0.545898
640 0.534180
650 0.562500
660 0.575195
670 0.567383
680 0.528320
690 0.537109
700 0.571289
710 0.536133
720 0.555664
730 0.587891
740 0.551758
750 0.536133
760 0.578125
770 0.543945
780 0.549805
790 0.563477
800 0.547852
810 0.557617
820 0.561523
830 0.554688
840 0.530273
850 0.536133
860 0.534180
870 0.535156
880 0.537109
890 0.562500
900 0.520508
910 0.524414
920 0.560547
930 0.501953
940 0.555664
950 0.571289
960 0.548828
970 0.529297
980 0.519531
990 0.542969
1000 0.565430
1010 0.508789
1020 0.534180
1030 0.583984
1040 0.539062
1050 0.550781
1060 0.576172
1070 0.536133
1080 0.539062
1090 0.549805
1100 0.563477
1110 0.509766
1120 0.536133
1130 0.529297
1140 0.555664
1150 0.551758
1160 0.519531
1170 0.538086
1180 0.521484
1190 0.548828
1200 0.537109
1210 0.540039
1220 0.567383
1230 0.583008
1240 0.569336
1250 0.525391
1260 0.555664
1270 0.538086
1280 0.558594
1290 0.524414
1300 0.529297
1310 0.513672
1320 0.551758
1330 0.541016
1340 0.562500
1350 0.562500
1360 0.555664
1370 0.554688
1380 0.558594
1390 0.561523
1400 0.550781
1410 0.550781
1420 0.561523
1430 0.541016
1440 0.524414
1450 0.547852
1460 0.583008
1470 0.563477
1480 0.553711
1490 0.563477
1500 0.555664
1510 0.529297
1520 0.550781
1530 0.567383
1540 0.575195
1550 0.550781
1560 0.526367
1570 0.548828
1580 0.551758
1590 0.546875
1600 0.557617
1610 0.552734
1620 0.562500
1630 0.543945
1640 0.560547
1650 0.548828
1660 0.563477
1670 0.559570
1680 0.559570
1690 0.581055
1700 0.568359
1710 0.560547
1720 0.572266
1730 0.557617
1740 0.557617
1750 0.556641
1760 0.567383
1770 0.542969
1780 0.564453
1790 0.549805
1800 0.562500
1810 0.566406
1820 0.563477
1830 0.574219
1840 0.563477
1850 0.578125
1860 0.575195
1870 0.556641
1880 0.542969
1890 0.539062
1900 0.585938
1910 0.582031
1920 0.581055
1930 0.589844
1940 0.592773
1950 0.551758
1960 0.539062
1970 0.542969
1980 0.538086
1990 0.541992
