0 0.490234
10 0.607422
20 0.573242
30 0.581055
40 0.563477
50 0.598633
60 0.629883
70 0.622070
80 0.675781
90 0.679688
100 0.659180
110 0.649414
120 0.666992
130 0.669922
140 0.614258
150 0.620117
160 0.646484
170 0.672852
180 0.654297
190 0.649414
200 0.665039
210 0.669922
220 0.687500
230 0.684570
240 0.681641
250 0.662109
260 0.702148
270 0.686523
280 0.679688
290 0.653320
300 0.699219
310 0.668945
320 0.687500
330 0.658203
340 0.646484
350 0.635742
360 0.662109
370 0.657227
380 0.623047
390 0.680664
400 0.697266
410 0.694336
420 0.654297
430 0.676758
440 0.667969
450 0.699219
460 0.676758
470 0.676758
480 0.682617
490 0.692383
500 0.691406
510 0.691406
520 0.670898
530 0.690430
540 0.680664
550 0.698242
560 0.666016
570 0.649414
580 0.656250
590 0.659180
600 0.668945
610 0.666016
620 0.658203
630 0.697266
640 0.711914
650 0.666016
660 0.689453
670 0.647461
680 0.655273
690 0.684570
700 0.683594
710 0.664062
720 0.709961
730 0.696289
740 0.677734
750 0.683594
760 0.697266
770 0.694336
780 0.685547
790 0.717773
800 0.724609
810 0.684570
820 0.711914
830 0.686523
840 0.704102
850 0.706055
860 0.729492
870 0.698242
880 0.709961
890 0.689453
900 0.697266
910 0.725586
920 0.716797
930 0.712891
940 0.708008
950 0.704102
960 0.696289
970 0.730469
980 0.699219
990 0.691406
1000 0.730469
1010 0.687500
1020 0.713867
1030 0.694336
1040 0.731445
1050 0.674805
1060 0.683594
1070 0.723633
1080 0.710938
1090 0.672852
1100 0.668945
1110 0.713867
1120 0.698242
1130 0.723633
1140 0.690430
1150 0.701172
1160 0.707031
1170 0.691406
1180 0.685547
1190 0.690430
1200 0.704102
1210 0.723633
1220 0.740234
1230 0.709961
1240 0.726562
1250 0.702148
1260 0.707031
1270 0.715820
1280 0.722656
1290 0.711914
1300 0.697266
1310 0.692383
1320 0.723633
1330 0.716797
1340 0.711914
1350 0.697266
1360 0.701172
1370 0.715820
1380 0.704102
1390 0.723633
1400 0.729492
1410 0.725586
1420 0.687500
1430 0.727539
1440 0.711914
1450 0.731445
1460 0.712891
1470 0.710938
1480 0.694336
1490 0.725586
1500 0.718750
1510 0.705078
1520 0.714844
1530 0.706055
1540 0.710938
1550 0.684570
1560 0.699219
1570 0.679688
1580 0.672852
1590 0.702148
1600 0.698242
1610 0.721680
1620 0.716797
1630 0.723633
1640 0.743164
1650 0.712891
1660 0.709961
1670 0.709961
1680 0.699219
1690 0.705078
1700 0.712891
1710 0.720703
1720 0.704102
1730 0.723633
1740 0.702148
1750 0.713867
1760 0.699219
1770 0.737305
1780 0.718750
1790 0.736328
1800 0.703125
1810 0.713867
1820 0.715820
1830 0.704102
1840 0.719727
1850 0.742188
1860 0.714844
1870 0.691406
1880 0.740234
1890 0.711914
1900 0.693359
1910 0.704102
1920 0.719727
1930 0.716797
1940 0.702148
1950 0.679688
1960 0.720703
1970 0.712891
1980 0.711914
1990 0.705078
