0 0.488281
10 0.551758
20 0.600586
30 0.605469
40 0.539062
50 0.577148
60 0.550781
70 0.567383
80 0.603516
90 0.573242
100 0.575195
110 0.553711
120 0.553711
130 0.577148
140 0.561523
150 0.588867
160 0.590820
170 0.582031
180 0.573242
190 0.596680
200 0.586914
210 0.624023
220 0.621094
230 0.611328
240 0.630859
250 0.628906
260 0.609375
270 0.619141
280 0.597656
290 0.613281
300 0.611328
310 0.623047
320 0.581055
330 0.607422
340 0.641602
350 0.618164
360 0.623047
370 0.623047
380 0.616211
390 0.639648
400 0.625977
410 0.614258
420 0.623047
430 0.621094
440 0.617188
450 0.616211
460 0.609375
470 0.640625
480 0.603516
490 0.605469
500 0.633789
510 0.597656
520 0.646484
530 0.625000
540 0.581055
550 0.609375
560 0.621094
570 0.625977
580 0.643555
590 0.628906
600 0.628906
610 0.659180
620 0.604492
630 0.667969
640 0.614258
650 0.624023
660 0.635742
670 0.649414
680 0.596680
690 0.605469
700 0.615234
710 0.619141
720 0.610352
730 0.622070
740 0.642578
750 0.686523
760 0.652344
770 0.622070
780 0.626953
790 0.602539
800 0.620117
810 0.622070
820 0.630859
830 0.642578
840 0.630859
850 0.614258
860 0.653320
870 0.659180
880 0.619141
890 0.640625
900 0.653320
910 0.637695
920 0.582031
930 0.626953
940 0.626953
950 0.635742
960 0.605469
970 0.613281
980 0.628906
990 0.692383
1000 0.639648
1010 0.607422
1020 0.614258
1030 0.603516
1040 0.638672
1050 0.621094
1060 0.632812
1070 0.615234
1080 0.658203
1090 0.614258
1100 0.626953
1110 0.612305
1120 0.607422
1130 0.627930
1140 0.582031
1150 0.628906
1160 0.628906
1170 0.671875
1180 0.615234
1190 0.607422
1200 0.658203
1210 0.643555
1220 0.648438
1230 0.650391
1240 0.657227
1250 0.605469
1260 0.631836
1270 0.625977
1280 0.650391
1290 0.604492
1300 0.624023
1310 0.620117
1320 0.583008
1330 0.623047
1340 0.620117
1350 0.643555
1360 0.640625
1370 0.606445
1380 0.611328
1390 0.602539
1400 0.637695
1410 0.618164
1420 0.640625
1430 0.680664
1440 0.683594
1450 0.645508
1460 0.605469
1470 0.636719
1480 0.594727
1490 0.646484
1500 0.629883
1510 0.647461
1520 0.627930
1530 0.658203
1540 0.654297
1550 0.625977
1560 0.643555
1570 0.626953
1580 0.635742
1590 0.639648
1600 0.635742
1610 0.667969
1620 0.647461
1630 0.633789
1640 0.648438
1650 0.638672
1660 0.625977
1670 0.630859
1680 0.642578
1690 0.620117
1700 0.662109
1710 0.633789
1720 0.629883
1730 0.644531
1740 0.638672
1750 0.662109
1760 0.683594
1770 0.641602
1780 0.649414
1790 0.619141
1800 0.649414
1810 0.630859
1820 0.613281
1830 0.640625
1840 0.622070
1850 0.656250
1860 0.648438
1870 0.624023
1880 0.612305
1890 0.636719
1900 0.648438
1910 0.667969
1920 0.624023
1930 0.665039
1940 0.631836
1950 0.601562
1960 0.638672
1970 0.669922
1980 0.645508
1990 0.648438
