0 0.472656
10 0.484375
20 0.565430
30 0.544922
40 0.462891
50 0.499023
60 0.540039
70 0.507812
80 0.509766
90 0.553711
100 0.508789
110 0.575195
120 0.496094
130 0.556641
140 0.543945
150 0.524414
160 0.514648
170 0.525391
180 0.509766
190 0.535156
200 0.546875
210 0.544922
220 0.534180
230 0.531250
240 0.541016
250 0.582031
260 0.570312
270 0.558594
280 0.537109
290 0.526367
300 0.515625
310 0.509766
320 0.501953
330 0.555664
340 0.542969
350 0.517578
360 0.546875
370 0.529297
380 0.570312
390 0.537109
400 0.550781
410 0.551758
420 0.554688
430 0.543945
440 0.568359
450 0.563477
460 0.542969
470 0.561523
480 0.600586
490 0.586914
500 0.546875
510 0.567383
520 0.581055
530 0.540039
540 0.534180
550 0.540039
560 0.573242
570 0.571289
580 0.565430
590 0.560547
600 0.595703
610 0.581055
620 0.594727
630 0.576172
640 0.563477
650 0.587891
660 0.582031
670 0.595703
680 0.604492
690 0.607422
700 0.592773
710 0.573242
720 0.581055
730 0.586914
740 0.589844
750 0.588867
760 0.609375
770 0.597656
780 0.554688
790 0.606445
800 0.595703
810 0.590820
820 0.591797
830 0.596680
840 0.569336
850 0.572266
860 0.581055
870 0.589844
880 0.601562
890 0.581055
900 0.585938
910 0.573242
920 0.594727
930 0.591797
940 0.579102
950 0.579102
960 0.581055
970 0.585938
980 0.607422
990 0.604492
1000 0.602539
1010 0.614258
1020 0.617188
1030 0.629883
1040 0.613281
1050 0.611328
1060 0.651367
1070 0.648438
1080 0.609375
1090 0.630859
1100 0.605469
1110 0.612305
1120 0.621094
1130 0.607422
1140 0.606445
1150 0.589844
1160 0.651367
1170 0.640625
1180 0.647461
1190 0.639648
1200 0.601562
1210 0.639648
1220 0.627930
1230 0.633789
1240 0.631836
1250 0.641602
1260 0.626953
1270 0.608398
1280 0.622070
1290 0.637695
1300 0.666992
1310 0.631836
1320 0.641602
1330 0.640625
1340 0.647461
1350 0.607422
1360 0.624023
1370 0.648438
1380 0.635742
1390 0.629883
1400 0.635742
1410 0.601562
1420 0.646484
1430 0.604492
1440 0.637695
1450 0.614258
1460 0.609375
1470 0.618164
1480 0.608398
1490 0.634766
1500 0.627930
1510 0.600586
1520 0.601562
1530 0.622070
1540 0.629883
1550 0.617188
1560 0.601562
1570 0.625977
1580 0.597656
1590 0.649414
1600 0.633789
1610 0.619141
1620 0.586914
1630 0.623047
1640 0.600586
1650 0.589844
1660 0.592773
1670 0.609375
1680 0.652344
1690 0.580078
1700 0.611328
1710 0.639648
1720 0.615234
1730 0.636719
1740 0.617188
1750 0.660156
1760 0.635742
1770 0.649414
1780 0.608398
1790 0.642578
1800 0.665039
1810 0.623047
1820 0.626953
1830 0.634766
1840 0.648438
1850 0.617188
1860 0.624023
1870 0.636719
1880 0.647461
1890 0.632812
1900 0.658203
1910 0.644531
1920 0.616211
1930 0.638672
1940 0.624023
1950 0.614258
1960 0.656250
1970 0.640625
1980 0.642578
1990 0.640625
