0 0.482422
10 0.495117
20 0.490234
30 0.504883
40 0.541992
50 0.497070
60 0.498047
70 0.489258
80 0.477539
90 0.546875
100 0.506836
110 0.505859
120 0.511719
130 0.540039
140 0.531250
150 0.556641
160 0.535156
170 0.568359
180 0.567383
190 0.555664
200 0.566406
210 0.536133
220 0.512695
230 0.543945
240 0.532227
250 0.538086
260 0.521484
270 0.531250
280 0.559570
290 0.563477
300 0.554688
310 0.536133
320 0.513672
330 0.530273
340 0.517578
350 0.541992
360 0.548828
370 0.572266
380 0.570312
390 0.546875
400 0.557617
410 0.554688
420 0.547852
430 0.552734
440 0.534180
450 0.594727
460 0.557617
470 0.586914
480 0.558594
490 0.581055
500 0.583008
510 0.574219
520 0.594727
530 0.547852
540 0.555664
550 0.569336
560 0.579102
570 0.571289
580 0.541992
590 0.609375
600 0.555664
610 0.534180
620 0.553711
630 0.541016
640 0.549805
650 0.564453
660 0.581055
670 0.568359
680 0.566406
690 0.599609
700 0.584961
710 0.561523
720 0.563477
730 0.593750
740 0.554688
750 0.574219
760 0.561523
770 0.610352
780 0.585938
790 0.550781
800 0.572266
810 0.565430
820 0.602539
830 0.566406
840 0.563477
850 0.570312
860 0.563477
870 0.580078
880 0.582031
890 0.556641
900 0.547852
910 0.563477
920 0.590820
930 0.577148
940 0.593750
950 0.536133
960 0.568359
970 0.551758
980 0.582031
990 0.603516
1000 0.561523
1010 0.537109
1020 0.556641
1030 0.589844
1040 0.589844
1050 0.582031
1060 0.612305
1070 0.563477
1080 0.551758
1090 0.592773
1100 0.595703
1110 0.609375
1120 0.600586
1130 0.559570
1140 0.573242
1150 0.559570
1160 0.579102
1170 0.598633
1180 0.545898
1190 0.556641
1200 0.565430
1210 0.531250
1220 0.543945
1230 0.592773
1240 0.588867
1250 0.567383
1260 0.560547
1270 0.571289
1280 0.592773
1290 0.563477
1300 0.556641
1310 0.567383
1320 0.569336
1330 0.580078
1340 0.590820
1350 0.569336
1360 0.529297
1370 0.592773
1380 0.543945
1390 0.587891
1400 0.566406
1410 0.569336
1420 0.606445
1430 0.588867
1440 0.562500
1450 0.590820
1460 0.565430
1470 0.563477
1480 0.574219
1490 0.563477
1500 0.577148
1510 0.555664
1520 0.575195
1530 0.582031
1540 0.583984
1550 0.619141
1560 0.558594
1570 0.566406
1580 0.572266
1590 0.555664
1600 0.583984
1610 0.571289
1620 0.564453
1630 0.568359
1640 0.573242
1650 0.577148
1660 0.576172
1670 0.580078
1680 0.537109
1690 0.602539
1700 0.552734
1710 0.564453
1720 0.576172
1730 0.555664
1740 0.573242
1750 0.569336
1760 0.563477
1770 0.569336
1780 0.532227
1790 0.573242
1800 0.555664
1810 0.580078
1820 0.568359
1830 0.573242
1840 0.586914
1850 0.532227
1860 0.591797
1870 0.576172
1880 0.598633
1890 0.583008
1900 0.552734
1910 0.567383
1920 0.583984
1930 0.577148
1940 0.583984
1950 0.565430
1960 0.584961
1970 0.540039
1980 0.563477
1990 0.586914
