0 0.484375
10 0.485352
20 0.504883
30 0.495117
40 0.510742
50 0.467773
60 0.476562
70 0.513672
80 0.512695
90 0.513672
100 0.527344
110 0.527344
120 0.509766
130 0.460938
140 0.535156
150 0.526367
160 0.574219
170 0.530273
180 0.523438
190 0.524414
200 0.525391
210 0.525391
220 0.555664
230 0.506836
240 0.549805
250 0.525391
260 0.554688
270 0.543945
280 0.541016
290 0.540039
300 0.534180
310 0.528320
320 0.539062
330 0.551758
340 0.527344
350 0.531250
360 0.555664
370 0.541016
380 0.579102
390 0.580078
400 0.566406
410 0.525391
420 0.545898
430 0.515625
440 0.519531
450 0.559570
460 0.557617
470 0.520508
480 0.560547
490 0.562500
500 0.538086
510 0.547852
520 0.566406
530 0.561523
540 0.573242
550 0.506836
560 0.553711
570 0.548828
580 0.545898
590 0.546875
600 0.515625
610 0.531250
620 0.597656
630 0.559570
640 0.538086
650 0.540039
660 0.550781
670 0.563477
680 0.565430
690 0.551758
700 0.538086
710 0.551758
720 0.561523
730 0.530273
740 0.544922
750 0.538086
760 0.604492
770 0.567383
780 0.583008
790 0.555664
800 0.560547
810 0.561523
820 0.569336
830 0.574219
840 0.601562
850 0.589844
860 0.585938
870 0.584961
880 0.546875
890 0.578125
900 0.523438
910 0.571289
920 0.565430
930 0.575195
940 0.549805
950 0.583008
960 0.570312
970 0.527344
980 0.557617
990 0.559570
1000 0.578125
1010 0.582031
1020 0.558594
1030 0.559570
1040 0.592773
1050 0.585938
1060 0.583008
1070 0.602539
1080 0.553711
1090 0.547852
1100 0.564453
1110 0.571289
1120 0.551758
1130 0.569336
1140 0.580078
1150 0.571289
1160 0.563477
1170 0.561523
1180 0.558594
1190 0.522461
1200 0.563477
1210 0.569336
1220 0.557617
1230 0.555664
1240 0.579102
1250 0.563477
1260 0.555664
1270 0.550781
1280 0.552734
1290 0.567383
1300 0.556641
1310 0.553711
1320 0.553711
1330 0.530273
1340 0.545898
1350 0.559570
1360 0.550781
1370 0.552734
1380 0.535156
1390 0.563477
1400 0.577148
1410 0.551758
1420 0.578125
1430 0.589844
1440 0.550781
1450 0.541016
1460 0.590820
1470 0.566406
1480 0.567383
1490 0.541992
1500 0.571289
1510 0.585938
1520 0.585938
1530 0.563477
1540 0.564453
1550 0.604492
1560 0.582031
1570 0.581055
1580 0.563477
1590 0.548828
1600 0.550781
1610 0.586914
1620 0.517578
1630 0.569336
1640 0.576172
1650 0.541992
1660 0.541992
1670 0.572266
1680 0.577148
1690 0.582031
1700 0.580078
1710 0.558594
1720 0.573242
1730 0.583008
1740 0.575195
1750 0.567383
1760 0.596680
1770 0.572266
1780 0.563477
1790 0.587891
1800 0.545898
1810 0.580078
1820 0.555664
1830 0.578125
1840 0.560547
1850 0.596680
1860 0.560547
1870 0.585938
1880 0.558594
1890 0.523438
1900 0.550781
1910 0.562500
1920 0.575195
1930 0.575195
1940 0.535156
1950 0.541016
1960 0.571289
1970 0.552734
1980 0.554688
1990 0.553711
