0 0.519531
10 0.506836
20 0.506836
30 0.551758
40 0.545898
50 0.524414
60 0.524414
70 0.524414
80 0.562500
90 0.560547
100 0.575195
110 0.555664
120 0.519531
130 0.551758
140 0.503906
150 0.498047
160 0.503906
170 0.554688
180 0.595703
190 0.541016
200 0.517578
210 0.546875
220 0.580078
230 0.539062
240 0.540039
250 0.513672
260 0.536133
270 0.513672
280 0.541992
290 0.547852
300 0.550781
310 0.528320
320 0.539062
330 0.541992
340 0.526367
350 0.553711
360 0.541992
370 0.565430
380 0.554688
390 0.587891
400 0.563477
410 0.549805
420 0.551758
430 0.555664
440 0.559570
450 0.568359
460 0.546875
470 0.561523
480 0.587891
490 0.535156
500 0.557617
510 0.555664
520 0.597656
530 0.541016
540 0.565430
550 0.569336
560 0.557617
570 0.578125
580 0.580078
590 0.553711
600 0.588867
610 0.558594
620 0.600586
630 0.575195
640 0.578125
650 0.572266
660 0.581055
670 0.556641
680 0.565430
690 0.577148
700 0.568359
710 0.580078
720 0.547852
730 0.562500
740 0.603516
750 0.563477
760 0.562500
770 0.555664
780 0.582031
790 0.613281
800 0.569336
810 0.550781
820 0.565430
830 0.564453
840 0.559570
850 0.587891
860 0.570312
870 0.570312
880 0.566406
890 0.591797
900 0.569336
910 0.558594
920 0.608398
930 0.583984
940 0.591797
950 0.563477
960 0.580078
970 0.588867
980 0.587891
990 0.598633
1000 0.599609
1010 0.574219
1020 0.577148
1030 0.570312
1040 0.569336
1050 0.597656
1060 0.557617
1070 0.592773
1080 0.588867
1090 0.541992
1100 0.563477
1110 0.541992
1120 0.550781
1130 0.582031
1140 0.573242
1150 0.552734
1160 0.573242
1170 0.537109
1180 0.552734
1190 0.573242
1200 0.581055
1210 0.595703
1220 0.586914
1230 0.567383
1240 0.590820
1250 0.565430
1260 0.556641
1270 0.571289
1280 0.611328
1290 0.579102
1300 0.565430
1310 0.581055
1320 0.573242
1330 0.597656
1340 0.584961
1350 0.589844
1360 0.581055
1370 0.590820
1380 0.591797
1390 0.590820
1400 0.601562
1410 0.567383
1420 0.617188
1430 0.529297
1440 0.563477
1450 0.568359
1460 0.594727
1470 0.586914
1480 0.577148
1490 0.590820
1500 0.594727
1510 0.590820
1520 0.579102
1530 0.598633
1540 0.554688
1550 0.564453
1560 0.573242
1570 0.567383
1580 0.577148
1590 0.556641
1600 0.598633
1610 0.571289
1620 0.563477
1630 0.588867
1640 0.594727
1650 0.585938
1660 0.569336
1670 0.581055
1680 0.591797
1690 0.574219
1700 0.599609
1710 0.575195
1720 0.580078
1730 0.571289
1740 0.578125
1750 0.595703
1760 0.551758
1770 0.574219
1780 0.579102
1790 0.588867
1800 0.600586
1810 0.553711
1820 0.592773
1830 0.589844
1840 0.575195
1850 0.595703
1860 0.577148
1870 0.567383
1880 0.565430
1890 0.577148
1900 0.599609
1910 0.566406
1920 0.573242
1930 0.597656
1940 0.582031
1950 0.600586
1960 0.609375
1970 0.590820
1980 0.589844
1990 0.568359
