0 0.507812
10 0.525391
20 0.524414
30 0.492188
40 0.490234
50 0.468750
60 0.477539
70 0.507812
80 0.503906
90 0.569336
100 0.563477
110 0.573242
120 0.581055
130 0.524414
140 0.571289
150 0.589844
160 0.584961
170 0.553711
180 0.547852
190 0.528320
200 0.543945
210 0.551758
220 0.541992
230 0.565430
240 0.566406
250 0.565430
260 0.593750
270 0.562500
280 0.572266
290 0.568359
300 0.602539
310 0.564453
320 0.575195
330 0.583984
340 0.575195
350 0.550781
360 0.553711
370 0.578125
380 0.555664
390 0.541016
400 0.546875
410 0.573242
420 0.562500
430 0.536133
440 0.556641
450 0.545898
460 0.543945
470 0.587891
480 0.589844
490 0.561523
500 0.565430
510 0.538086
520 0.573242
530 0.587891
540 0.571289
550 0.604492
560 0.590820
570 0.584961
580 0.590820
590 0.579102
600 0.586914
610 0.595703
620 0.590820
630 0.552734
640 0.572266
650 0.568359
660 0.563477
670 0.568359
680 0.534180
690 0.533203
700 0.554688
710 0.556641
720 0.542969
730 0.545898
740 0.567383
750 0.589844
760 0.568359
770 0.583008
780 0.568359
790 0.550781
800 0.541992
810 0.576172
820 0.553711
830 0.560547
840 0.548828
850 0.556641
860 0.576172
870 0.576172
880 0.561523
890 0.568359
900 0.548828
910 0.524414
920 0.601562
930 0.537109
940 0.549805
950 0.566406
960 0.596680
970 0.566406
980 0.592773
990 0.541992
1000 0.552734
1010 0.601562
1020 0.557617
1030 0.598633
1040 0.593750
1050 0.600586
1060 0.579102
1070 0.608398
1080 0.566406
1090 0.577148
1100 0.606445
1110 0.612305
1120 0.600586
1130 0.619141
1140 0.587891
1150 0.617188
1160 0.604492
1170 0.572266
1180 0.615234
1190 0.618164
1200 0.598633
1210 0.652344
1220 0.569336
1230 0.620117
1240 0.633789
1250 0.625977
1260 0.579102
1270 0.616211
1280 0.592773
1290 0.636719
1300 0.624023
1310 0.595703
1320 0.601562
1330 0.606445
1340 0.661133
1350 0.586914
1360 0.563477
1370 0.621094
1380 0.610352
1390 0.581055
1400 0.601562
1410 0.608398
1420 0.612305
1430 0.606445
1440 0.625977
1450 0.627930
1460 0.589844
1470 0.601562
1480 0.603516
1490 0.583008
1500 0.611328
1510 0.581055
1520 0.625000
1530 0.589844
1540 0.601562
1550 0.586914
1560 0.591797
1570 0.614258
1580 0.599609
1590 0.550781
1600 0.580078
1610 0.627930
1620 0.585938
1630 0.614258
1640 0.614258
1650 0.602539
1660 0.581055
1670 0.599609
1680 0.605469
1690 0.612305
1700 0.609375
1710 0.593750
1720 0.594727
1730 0.593750
1740 0.611328
1750 0.619141
1760 0.621094
1770 0.610352
1780 0.593750
1790 0.632812
1800 0.608398
1810 0.623047
1820 0.628906
1830 0.614258
1840 0.609375
1850 0.625000
1860 0.588867
1870 0.645508
1880 0.606445
1890 0.630859
1900 0.615234
1910 0.589844
1920 0.620117
1930 0.611328
1940 0.606445
1950 0.593750
1960 0.595703
1970 0.622070
1980 0.598633
1990 0.609375
