0 0.509766
10 0.515625
20 0.519531
30 0.504883
40 0.476562
50 0.499023
60 0.521484
70 0.528320
80 0.494141
90 0.521484
100 0.517578
110 0.506836
120 0.525391
130 0.589844
140 0.544922
150 0.530273
160 0.512695
170 0.517578
180 0.564453
190 0.584961
200 0.564453
210 0.548828
220 0.542969
230 0.559570
240 0.592773
250 0.533203
260 0.585938
270 0.546875
280 0.578125
290 0.557617
300 0.557617
310 0.556641
320 0.577148
330 0.557617
340 0.598633
350 0.610352
360 0.558594
370 0.578125
380 0.558594
390 0.575195
400 0.563477
410 0.553711
420 0.583008
430 0.585938
440 0.566406
450 0.589844
460 0.562500
470 0.541992
480 0.549805
490 0.541992
500 0.565430
510 0.599609
520 0.561523
530 0.572266
540 0.539062
550 0.586914
560 0.555664
570 0.546875
580 0.561523
590 0.578125
600 0.583008
610 0.597656
620 0.592773
630 0.552734
640 0.562500
650 0.564453
660 0.549805
670 0.552734
680 0.576172
690 0.572266
700 0.559570
710 0.549805
720 0.542969
730 0.539062
740 0.566406
750 0.580078
760 0.572266
770 0.563477
780 0.533203
790 0.574219
800 0.560547
810 0.562500
820 0.584961
830 0.585938
840 0.584961
850 0.572266
860 0.557617
870 0.560547
880 0.561523
890 0.549805
900 0.562500
910 0.584961
920 0.559570
930 0.534180
940 0.561523
950 0.587891
960 0.577148
970 0.584961
980 0.572266
990 0.550781
1000 0.594727
1010 0.557617
1020 0.585938
1030 0.588867
1040 0.567383
1050 0.599609
1060 0.570312
1070 0.567383
1080 0.580078
1090 0.564453
1100 0.575195
1110 0.586914
1120 0.578125
1130 0.533203
1140 0.578125
1150 0.577148
1160 0.549805
1170 0.574219
1180 0.591797
1190 0.556641
1200 0.582031
1210 0.551758
1220 0.569336
1230 0.547852
1240 0.572266
1250 0.609375
1260 0.576172
1270 0.571289
1280 0.578125
1290 0.580078
1300 0.548828
1310 0.583008
1320 0.598633
1330 0.570312
1340 0.605469
1350 0.590820
1360 0.565430
1370 0.533203
1380 0.589844
1390 0.594727
1400 0.562500
1410 0.558594
1420 0.530273
1430 0.595703
1440 0.584961
1450 0.559570
1460 0.587891
1470 0.581055
1480 0.593750
1490 0.578125
1500 0.586914
1510 0.565430
1520 0.566406
1530 0.573242
1540 0.576172
1550 0.571289
1560 0.567383
1570 0.546875
1580 0.587891
1590 0.581055
1600 0.577148
1610 0.592773
1620 0.584961
1630 0.589844
1640 0.577148
1650 0.520508
1660 0.589844
1670 0.595703
1680 0.573242
1690 0.590820
1700 0.574219
1710 0.631836
1720 0.609375
1730 0.571289
1740 0.576172
1750 0.555664
1760 0.565430
1770 0.573242
1780 0.562500
1790 0.553711
1800 0.560547
1810 0.611328
1820 0.583984
1830 0.583984
1840 0.598633
1850 0.556641
1860 0.581055
1870 0.589844
1880 0.570312
1890 0.614258
1900 0.568359
1910 0.579102
1920 0.565430
1930 0.598633
1940 0.576172
1950 0.588867
1960 0.560547
1970 0.578125
1980 0.574219
1990 0.560547
