0 0.470703
10 0.548828
20 0.524414
30 0.548828
40 0.546875
50 0.491211
60 0.496094
70 0.527344
80 0.526367
90 0.510742
100 0.527344
110 0.508789
120 0.524414
130 0.475586
140 0.471680
150 0.485352
160 0.511719
170 0.527344
180 0.533203
190 0.479492
200 0.499023
210 0.482422
220 0.491211
230 0.500000
240 0.505859
250 0.529297
260 0.504883
270 0.494141
280 0.520508
290 0.487305
300 0.525391
310 0.509766
320 0.504883
330 0.503906
340 0.504883
350 0.489258
360 0.514648
370 0.471680
380 0.481445
390 0.481445
400 0.523438
410 0.516602
420 0.512695
430 0.557617
440 0.520508
450 0.535156
460 0.569336
470 0.564453
480 0.556641
490 0.513672
500 0.539062
510 0.545898
520 0.487305
530 0.524414
540 0.493164
550 0.489258
560 0.511719
570 0.500000
580 0.521484
590 0.531250
600 0.513672
610 0.519531
620 0.515625
630 0.560547
640 0.532227
650 0.555664
660 0.535156
670 0.552734
680 0.541992
690 0.544922
700 0.517578
710 0.549805
720 0.547852
730 0.503906
740 0.533203
750 0.537109
760 0.499023
770 0.512695
780 0.529297
790 0.526367
800 0.546875
810 0.540039
820 0.542969
830 0.536133
840 0.520508
850 0.550781
860 0.539062
870 0.543945
880 0.526367
890 0.561523
900 0.502930
910 0.542969
920 0.516602
930 0.507812
940 0.510742
950 0.557617
960 0.518555
970 0.569336
980 0.555664
990 0.553711
1000 0.563477
1010 0.535156
1020 0.541992
1030 0.550781
1040 0.557617
1050 0.583984
1060 0.557617
1070 0.612305
1080 0.566406
1090 0.566406
1100 0.546875
1110 0.546875
1120 0.538086
1130 0.568359
1140 0.525391
1150 0.545898
1160 0.527344
1170 0.562500
1180 0.559570
1190 0.527344
1200 0.527344
1210 0.560547
1220 0.575195
1230 0.520508
1240 0.541992
1250 0.498047
1260 0.574219
1270 0.542969
1280 0.564453
1290 0.561523
1300 0.553711
1310 0.542969
1320 0.525391
1330 0.556641
1340 0.588867
1350 0.575195
1360 0.576172
1370 0.557617
1380 0.607422
1390 0.594727
1400 0.561523
1410 0.588867
1420 0.547852
1430 0.580078
1440 0.557617
1450 0.564453
1460 0.530273
1470 0.608398
1480 0.574219
1490 0.587891
1500 0.536133
1510 0.542969
1520 0.549805
1530 0.551758
1540 0.565430
1550 0.532227
1560 0.548828
1570 0.567383
1580 0.564453
1590 0.547852
1600 0.564453
1610 0.540039
1620 0.571289
1630 0.569336
1640 0.574219
1650 0.586914
1660 0.570312
1670 0.591797
1680 0.555664
1690 0.555664
1700 0.564453
1710 0.583008
1720 0.593750
1730 0.546875
1740 0.574219
1750 0.545898
1760 0.570312
1770 0.537109
1780 0.578125
1790 0.551758
1800 0.545898
1810 0.535156
1820 0.581055
1830 0.553711
1840 0.547852
1850 0.578125
1860 0.574219
1870 0.541992
1880 0.556641
1890 0.561523
1900 0.516602
1910 0.599609
1920 0.542969
1930 0.541016
1940 0.539062
1950 0.566406
1960 0.580078
1970 0.583008
1980 0.574219
1990 0.555664
