0 0.523438
10 0.559570
20 0.563477
30 0.529297
40 0.515625
50 0.524414
60 0.523438
70 0.517578
80 0.543945
90 0.518555
100 0.525391
110 0.506836
120 0.541016
130 0.513672
140 0.541992
150 0.571289
160 0.550781
170 0.576172
180 0.591797
190 0.596680
200 0.595703
210 0.562500
220 0.536133
230 0.561523
240 0.566406
250 0.568359
260 0.557617
270 0.577148
280 0.565430
290 0.587891
300 0.550781
310 0.577148
320 0.566406
330 0.581055
340 0.591797
350 0.583008
360 0.594727
370 0.587891
380 0.574219
390 0.590820
400 0.593750
410 0.584961
420 0.583984
430 0.637695
440 0.607422
450 0.543945
460 0.571289
470 0.623047
480 0.583984
490 0.602539
500 0.611328
510 0.596680
520 0.606445
530 0.595703
540 0.583008
550 0.640625
560 0.634766
570 0.638672
580 0.593750
590 0.630859
600 0.599609
610 0.621094
620 0.621094
630 0.623047
640 0.630859
650 0.621094
660 0.604492
670 0.607422
680 0.628906
690 0.651367
700 0.606445
710 0.623047
720 0.654297
730 0.629883
740 0.584961
750 0.625000
760 0.625000
770 0.667969
780 0.650391
790 0.624023
800 0.638672
810 0.640625
820 0.667969
830 0.636719
840 0.610352
850 0.625977
860 0.662109
870 0.626953
880 0.639648
890 0.631836
900 0.594727
910 0.629883
920 0.624023
930 0.613281
940 0.650391
950 0.668945
960 0.606445
970 0.646484
980 0.633789
990 0.622070
1000 0.651367
1010 0.587891
1020 0.614258
1030 0.627930
1040 0.636719
1050 0.613281
1060 0.609375
1070 0.594727
1080 0.635742
1090 0.615234
1100 0.635742
1110 0.619141
1120 0.604492
1130 0.634766
1140 0.607422
1150 0.599609
1160 0.625977
1170 0.611328
1180 0.628906
1190 0.650391
1200 0.613281
1210 0.615234
1220 0.640625
1230 0.639648
1240 0.621094
1250 0.640625
1260 0.641602
1270 0.642578
1280 0.608398
1290 0.630859
1300 0.685547
1310 0.622070
1320 0.624023
1330 0.625977
1340 0.619141
1350 0.653320
1360 0.595703
1370 0.623047
1380 0.626953
1390 0.625977
1400 0.590820
1410 0.602539
1420 0.628906
1430 0.624023
1440 0.597656
1450 0.618164
1460 0.604492
1470 0.612305
1480 0.621094
1490 0.633789
1500 0.599609
1510 0.626953
1520 0.608398
1530 0.599609
1540 0.616211
1550 0.607422
1560 0.612305
1570 0.602539
1580 0.631836
1590 0.625000
1600 0.589844
1610 0.583984
1620 0.625000
1630 0.582031
1640 0.620117
1650 0.582031
1660 0.620117
1670 0.610352
1680 0.622070
1690 0.620117
1700 0.602539
1710 0.594727
1720 0.613281
1730 0.571289
1740 0.629883
1750 0.632812
1760 0.620117
1770 0.599609
1780 0.650391
1790 0.600586
1800 0.657227
1810 0.601562
1820 0.612305
1830 0.584961
1840 0.623047
1850 0.637695
1860 0.616211
1870 0.625000
1880 0.599609
1890 0.604492
1900 0.609375
1910 0.607422
1920 0.624023
1930 0.598633
1940 0.622070
1950 0.629883
1960 0.636719
1970 0.636719
1980 0.619141
1990 0.608398
