0 0.521484
10 0.481445
20 0.538086
30 0.519531
40 0.547852
50 0.423828
60 0.426758
70 0.437500
80 0.425781
90 0.551758
100 0.522461
110 0.519531
120 0.561523
130 0.537109
140 0.590820
150 0.581055
160 0.576172
170 0.653320
180 0.591797
190 0.607422
200 0.604492
210 0.599609
220 0.566406
230 0.609375
240 0.590820
250 0.601562
260 0.626953
270 0.613281
280 0.638672
290 0.605469
300 0.623047
310 0.636719
320 0.646484
330 0.617188
340 0.604492
350 0.605469
360 0.616211
370 0.587891
380 0.616211
390 0.653320
400 0.628906
410 0.660156
420 0.643555
430 0.643555
440 0.640625
450 0.651367
460 0.674805
470 0.632812
480 0.637695
490 0.640625
500 0.642578
510 0.646484
520 0.608398
530 0.650391
540 0.642578
550 0.660156
560 0.631836
570 0.617188
580 0.625000
590 0.627930
600 0.641602
610 0.643555
620 0.641602
630 0.630859
640 0.633789
650 0.635742
660 0.654297
670 0.667969
680 0.657227
690 0.625977
700 0.627930
710 0.645508
720 0.606445
730 0.626953
740 0.629883
750 0.626953
760 0.631836
770 0.627930
780 0.671875
790 0.643555
800 0.582031
810 0.639648
820 0.590820
830 0.627930
840 0.665039
850 0.613281
860 0.640625
870 0.630859
880 0.607422
890 0.670898
900 0.665039
910 0.638672
920 0.664062
930 0.608398
940 0.629883
950 0.653320
960 0.640625
970 0.656250
980 0.620117
990 0.649414
1000 0.669922
1010 0.646484
1020 0.645508
1030 0.637695
1040 0.651367
1050 0.644531
1060 0.639648
1070 0.639648
1080 0.652344
1090 0.646484
1100 0.613281
1110 0.636719
1120 0.654297
1130 0.639648
1140 0.657227
1150 0.653320
1160 0.666016
1170 0.636719
1180 0.617188
1190 0.637695
1200 0.663086
1210 0.644531
1220 0.656250
1230 0.681641
1240 0.667969
1250 0.620117
1260 0.642578
1270 0.632812
1280 0.666016
1290 0.656250
1300 0.632812
1310 0.621094
1320 0.639648
1330 0.627930
1340 0.679688
1350 0.633789
1360 0.631836
1370 0.641602
1380 0.658203
1390 0.639648
1400 0.628906
1410 0.666016
1420 0.643555
1430 0.587891
1440 0.656250
1450 0.653320
1460 0.644531
1470 0.658203
1480 0.645508
1490 0.635742
1500 0.613281
1510 0.609375
1520 0.623047
1530 0.638672
1540 0.644531
1550 0.626953
1560 0.646484
1570 0.636719
1580 0.669922
1590 0.641602
1600 0.637695
1610 0.625000
1620 0.661133
1630 0.674805
1640 0.631836
1650 0.681641
1660 0.663086
1670 0.644531
1680 0.656250
1690 0.679688
1700 0.664062
1710 0.628906
1720 0.652344
1730 0.654297
1740 0.661133
1750 0.640625
1760 0.635742
1770 0.674805
1780 0.645508
1790 0.643555
1800 0.643555
1810 0.648438
1820 0.637695
1830 0.681641
1840 0.630859
1850 0.651367
1860 0.646484
1870 0.700195
1880 0.640625
1890 0.658203
1900 0.663086
1910 0.631836
1920 0.661133
1930 0.657227
1940 0.626953
1950 0.622070
1960 0.633789
1970 0.645508
1980 0.641602
1990 0.625000
