0 0.509766
10 0.491211
20 0.542969
30 0.555664
40 0.508789
50 0.517578
60 0.531250
70 0.564453
80 0.590820
90 0.527344
100 0.546875
110 0.572266
120 0.484375
130 0.539062
140 0.557617
150 0.545898
160 0.533203
170 0.521484
180 0.541016
190 0.553711
200 0.539062
210 0.557617
220 0.553711
230 0.522461
240 0.542969
250 0.563477
260 0.568359
270 0.529297
280 0.552734
290 0.548828
300 0.558594
310 0.560547
320 0.575195
330 0.570312
340 0.565430
350 0.562500
360 0.623047
370 0.557617
380 0.559570
390 0.572266
400 0.586914
410 0.538086
420 0.596680
430 0.597656
440 0.602539
450 0.611328
460 0.584961
470 0.571289
480 0.556641
490 0.606445
500 0.595703
510 0.603516
520 0.603516
530 0.587891
540 0.570312
550 0.588867
560 0.585938
570 0.588867
580 0.561523
590 0.576172
600 0.583984
610 0.584961
620 0.593750
630 0.614258
640 0.580078
650 0.585938
660 0.603516
670 0.575195
680 0.565430
690 0.601562
700 0.560547
710 0.577148
720 0.583984
730 0.578125
740 0.558594
750 0.568359
760 0.623047
770 0.595703
780 0.576172
790 0.545898
800 0.577148
810 0.599609
820 0.577148
830 0.583008
840 0.601562
850 0.569336
860 0.592773
870 0.547852
880 0.581055
890 0.590820
900 0.554688
910 0.559570
920 0.611328
930 0.555664
940 0.556641
950 0.592773
960 0.603516
970 0.600586
980 0.592773
990 0.559570
1000 0.583008
1010 0.586914
1020 0.554688
1030 0.621094
1040 0.581055
1050 0.581055
1060 0.592773
1070 0.548828
1080 0.585938
1090 0.597656
1100 0.583008
1110 0.584961
1120 0.608398
1130 0.585938
1140 0.591797
1150 0.582031
1160 0.590820
1170 0.596680
1180 0.574219
1190 0.573242
1200 0.616211
1210 0.587891
1220 0.596680
1230 0.601562
1240 0.597656
1250 0.613281
1260 0.611328
1270 0.564453
1280 0.618164
1290 0.602539
1300 0.565430
1310 0.604492
1320 0.574219
1330 0.581055
1340 0.579102
1350 0.582031
1360 0.571289
1370 0.601562
1380 0.584961
1390 0.600586
1400 0.590820
1410 0.546875
1420 0.566406
1430 0.613281
1440 0.586914
1450 0.587891
1460 0.616211
1470 0.592773
1480 0.583984
1490 0.568359
1500 0.611328
1510 0.620117
1520 0.590820
1530 0.581055
1540 0.594727
1550 0.537109
1560 0.575195
1570 0.578125
1580 0.533203
1590 0.599609
1600 0.567383
1610 0.587891
1620 0.561523
1630 0.580078
1640 0.612305
1650 0.616211
1660 0.573242
1670 0.545898
1680 0.611328
1690 0.583984
1700 0.550781
1710 0.562500
1720 0.585938
1730 0.576172
1740 0.590820
1750 0.594727
1760 0.556641
1770 0.551758
1780 0.560547
1790 0.576172
1800 0.581055
1810 0.586914
1820 0.576172
1830 0.596680
1840 0.542969
1850 0.607422
1860 0.556641
1870 0.555664
1880 0.581055
1890 0.593750
1900 0.565430
1910 0.568359
1920 0.558594
1930 0.586914
1940 0.560547
1950 0.571289
1960 0.538086
1970 0.560547
1980 0.558594
1990 0.610352
