0 0.476562
1 0.480469
2 0.505859
3 0.495117
4 0.500000
5 0.468750
6 0.501953
7 0.494141
8 0.511719
9 0.457031
10 0.505859
11 0.514648
12 0.483398
13 0.498047
14 0.513672
15 0.506836
16 0.515625
17 0.504883
18 0.496094
19 0.476562
20 0.479492
21 0.507812
22 0.512695
23 0.495117
24 0.512695
25 0.500977
26 0.501953
27 0.482422
28 0.506836
29 0.468750
30 0.497070
31 0.514648
32 0.511719
33 0.486328
34 0.500000
35 0.494141
36 0.490234
37 0.497070
38 0.512695
39 0.489258
40 0.509766
41 0.528320
42 0.498047
43 0.496094
44 0.492188
45 0.497070
46 0.518555
47 0.530273
48 0.474609
49 0.497070
50 0.499023
51 0.469727
52 0.530273
53 0.495117
54 0.522461
55 0.484375
56 0.484375
57 0.485352
58 0.483398
59 0.461914
60 0.498047
61 0.544922
62 0.508789
63 0.541016
64 0.522461
65 0.552734
66 0.515625
67 0.548828
68 0.543945
69 0.505859
70 0.535156
71 0.508789
72 0.535156
73 0.530273
74 0.542969
75 0.575195
76 0.594727
77 0.548828
78 0.606445
79 0.565430
80 0.544922
81 0.565430
82 0.615234
83 0.562500
84 0.546875
85 0.561523
86 0.596680
87 0.584961
88 0.556641
89 0.581055
90 0.544922
91 0.584961
92 0.624023
93 0.578125
94 0.631836
95 0.607422
96 0.541016
97 0.598633
98 0.624023
99 0.580078
100 0.578125
101 0.609375
102 0.610352
103 0.605469
104 0.605469
105 0.602539
106 0.583008
107 0.605469
108 0.576172
109 0.587891
110 0.598633
111 0.599609
112 0.588867
113 0.614258
114 0.598633
115 0.593750
116 0.625977
117 0.578125
118 0.580078
119 0.602539
120 0.561523
121 0.597656
122 0.583008
123 0.593750
124 0.565430
125 0.601562
126 0.583008
127 0.562500
128 0.579102
129 0.575195
130 0.585938
131 0.560547
132 0.596680
133 0.625000
134 0.599609
135 0.598633
136 0.615234
137 0.579102
138 0.572266
139 0.643555
140 0.595703
141 0.644531
142 0.601562
143 0.594727
144 0.584961
145 0.600586
146 0.573242
147 0.560547
148 0.564453
149 0.551758
150 0.583984
151 0.571289
152 0.575195
153 0.578125
154 0.547852
155 0.522461
156 0.598633
157 0.568359
158 0.627930
159 0.600586
160 0.570312
161 0.624023
162 0.599609
163 0.566406
164 0.605469
165 0.610352
166 0.564453
167 0.584961
168 0.583984
169 0.631836
170 0.587891
171 0.564453
172 0.582031
173 0.553711
174 0.596680
175 0.588867
176 0.577148
177 0.618164
178 0.578125
179 0.560547
180 0.570312
181 0.586914
182 0.595703
183 0.583008
184 0.565430
185 0.604492
186 0.593750
187 0.623047
188 0.616211
189 0.579102
190 0.580078
191 0.624023
192 0.550781
193 0.567383
194 0.558594
195 0.579102
196 0.601562
197 0.613281
198 0.584961
199 0.560547
200 0.596680
201 0.542969
202 0.574219
203 0.593750
204 0.596680
205 0.577148
206 0.572266
207 0.570312
208 0.597656
209 0.593750
210 0.602539
211 0.557617
212 0.635742
213 0.623047
214 0.577148
215 0.575195
216 0.581055
217 0.552734
218 0.586914
219 0.575195
220 0.579102
221 0.624023
222 0.588867
223 0.587891
224 0.570312
225 0.595703
226 0.625000
227 0.611328
228 0.644531
229 0.605469
230 0.561523
231 0.603516
232 0.583984
233 0.588867
234 0.566406
235 0.586914
236 0.593750
237 0.587891
238 0.583984
239 0.594727
240 0.604492
241 0.572266
242 0.594727
243 0.611328
244 0.558594
245 0.621094
246 0.566406
247 0.612305
248 0.586914
249 0.599609
250 0.574219
251 0.620117
252 0.637695
253 0.572266
254 0.575195
255 0.584961
256 0.570312
257 0.583984
258 0.599609
259 0.651367
260 0.609375
261 0.552734
262 0.592773
263 0.585938
264 0.616211
265 0.588867
266 0.597656
267 0.584961
268 0.565430
269 0.581055
270 0.619141
271 0.611328
272 0.590820
273 0.572266
274 0.578125
275 0.584961
276 0.577148
277 0.559570
278 0.598633
279 0.546875
280 0.580078
281 0.580078
282 0.575195
283 0.568359
284 0.575195
285 0.613281
286 0.574219
287 0.588867
288 0.597656
289 0.606445
290 0.594727
291 0.604492
292 0.595703
293 0.575195
294 0.570312
295 0.609375
296 0.606445
297 0.597656
298 0.566406
299 0.635742
300 0.627930
301 0.603516
302 0.594727
303 0.612305
304 0.559570
305 0.591797
306 0.596680
307 0.619141
308 0.633789
309 0.590820
310 0.620117
311 0.581055
312 0.617188
313 0.614258
314 0.595703
315 0.580078
316 0.579102
317 0.602539
318 0.558594
319 0.589844
320 0.580078
321 0.556641
322 0.563477
323 0.595703
324 0.582031
325 0.602539
326 0.561523
327 0.574219
328 0.594727
329 0.593750
330 0.586914
331 0.616211
332 0.632812
333 0.585938
334 0.620117
335 0.645508
336 0.609375
337 0.584961
338 0.603516
339 0.593750
340 0.597656
341 0.595703
342 0.613281
343 0.541016
344 0.625977
345 0.578125
346 0.605469
347 0.600586
348 0.565430
349 0.601562
350 0.617188
351 0.628906
352 0.608398
353 0.602539
354 0.624023
355 0.620117
356 0.586914
357 0.586914
358 0.619141
359 0.612305
360 0.605469
361 0.580078
362 0.581055
363 0.577148
364 0.643555
365 0.591797
366 0.628906
367 0.624023
368 0.589844
369 0.621094
370 0.616211
371 0.590820
372 0.583008
373 0.578125
374 0.581055
375 0.592773
376 0.574219
377 0.589844
378 0.605469
379 0.623047
380 0.598633
381 0.578125
382 0.587891
383 0.574219
384 0.606445
385 0.628906
386 0.608398
387 0.591797
388 0.583984
389 0.602539
390 0.570312
391 0.584961
392 0.583984
393 0.604492
394 0.606445
395 0.624023
396 0.591797
397 0.622070
398 0.576172
399 0.554688
400 0.600586
401 0.583008
402 0.560547
403 0.598633
404 0.624023
405 0.576172
406 0.625977
407 0.627930
408 0.586914
409 0.590820
410 0.616211
411 0.611328
412 0.625977
413 0.632812
414 0.595703
415 0.594727
416 0.587891
417 0.648438
418 0.606445
419 0.627930
420 0.593750
421 0.621094
422 0.643555
423 0.596680
424 0.637695
425 0.609375
426 0.633789
427 0.588867
428 0.616211
429 0.631836
430 0.649414
431 0.583984
432 0.602539
433 0.594727
434 0.614258
435 0.583008
436 0.583984
437 0.589844
438 0.573242
439 0.606445
440 0.657227
441 0.561523
442 0.603516
443 0.594727
444 0.623047
445 0.592773
446 0.595703
447 0.590820
448 0.596680
449 0.606445
450 0.595703
451 0.601562
452 0.585938
453 0.604492
454 0.599609
455 0.593750
456 0.530273
457 0.576172
458 0.606445
459 0.595703
460 0.583008
461 0.635742
462 0.588867
463 0.608398
464 0.603516
465 0.589844
466 0.609375
467 0.605469
468 0.552734
469 0.610352
470 0.601562
471 0.613281
472 0.596680
473 0.588867
474 0.633789
475 0.622070
476 0.616211
477 0.585938
478 0.611328
479 0.625000
480 0.603516
481 0.593750
482 0.642578
483 0.589844
484 0.615234
485 0.612305
486 0.599609
487 0.570312
488 0.590820
489 0.594727
490 0.596680
491 0.570312
492 0.559570
493 0.575195
494 0.620117
495 0.620117
496 0.590820
497 0.607422
498 0.627930
499 0.591797
500 0.611328
501 0.586914
502 0.623047
503 0.578125
504 0.604492
505 0.596680
506 0.617188
507 0.602539
508 0.625000
509 0.600586
510 0.601562
511 0.613281
512 0.583008
513 0.595703
514 0.627930
515 0.585938
516 0.588867
517 0.641602
518 0.568359
519 0.586914
520 0.574219
521 0.583984
522 0.624023
523 0.593750
524 0.582031
525 0.578125
526 0.592773
527 0.627930
528 0.584961
529 0.614258
530 0.596680
531 0.631836
532 0.603516
533 0.609375
534 0.583984
535 0.615234
536 0.585938
537 0.659180
538 0.565430
539 0.653320
540 0.598633
541 0.616211
542 0.599609
543 0.597656
544 0.612305
545 0.586914
546 0.636719
547 0.599609
548 0.618164
549 0.598633
550 0.575195
551 0.601562
552 0.617188
553 0.588867
554 0.592773
555 0.601562
556 0.598633
557 0.595703
558 0.651367
559 0.587891
560 0.607422
561 0.573242
562 0.607422
563 0.604492
564 0.567383
565 0.603516
566 0.585938
567 0.554688
568 0.584961
569 0.591797
570 0.587891
571 0.618164
572 0.642578
573 0.583008
574 0.619141
575 0.580078
576 0.596680
577 0.586914
578 0.552734
579 0.612305
580 0.557617
581 0.603516
582 0.596680
583 0.575195
584 0.597656
585 0.575195
586 0.575195
587 0.572266
588 0.601562
589 0.598633
590 0.592773
591 0.605469
592 0.599609
593 0.585938
594 0.572266
595 0.599609
596 0.586914
597 0.600586
598 0.566406
599 0.626953
