0 0.486328
1 0.522461
2 0.504883
3 0.533203
4 0.548828
5 0.487305
6 0.489258
7 0.458984
8 0.476562
9 0.522461
10 0.545898
11 0.522461
12 0.491211
13 0.553711
14 0.513672
15 0.496094
16 0.493164
17 0.493164
18 0.526367
19 0.526367
20 0.542969
21 0.485352
22 0.505859
23 0.510742
24 0.539062
25 0.510742
26 0.516602
27 0.485352
28 0.504883
29 0.527344
30 0.498047
31 0.503906
32 0.502930
33 0.508789
34 0.498047
35 0.541016
36 0.514648
37 0.478516
38 0.495117
39 0.530273
40 0.537109
41 0.522461
42 0.544922
43 0.526367
44 0.498047
45 0.578125
46 0.557617
47 0.536133
48 0.549805
49 0.559570
50 0.548828
51 0.561523
52 0.548828
53 0.584961
54 0.536133
55 0.557617
56 0.527344
57 0.541016
58 0.548828
59 0.535156
60 0.539062
61 0.518555
62 0.517578
63 0.542969
64 0.541016
65 0.543945
66 0.560547
67 0.503906
68 0.547852
69 0.560547
70 0.520508
71 0.526367
72 0.551758
73 0.508789
74 0.546875
75 0.541016
76 0.529297
77 0.521484
78 0.557617
79 0.523438
80 0.517578
81 0.542969
82 0.563477
83 0.542969
84 0.553711
85 0.513672
86 0.529297
87 0.544922
88 0.534180
89 0.564453
90 0.530273
91 0.514648
92 0.546875
93 0.523438
94 0.517578
95 0.526367
96 0.542969
97 0.502930
98 0.573242
99 0.547852
100 0.559570
101 0.515625
102 0.535156
103 0.557617
104 0.546875
105 0.558594
106 0.586914
107 0.557617
108 0.529297
109 0.551758
110 0.554688
111 0.590820
112 0.541016
113 0.532227
114 0.613281
115 0.580078
116 0.597656
117 0.591797
118 0.570312
119 0.576172
120 0.583984
121 0.541992
122 0.583008
123 0.577148
124 0.566406
125 0.605469
126 0.580078
127 0.610352
128 0.547852
129 0.572266
130 0.623047
131 0.627930
132 0.557617
133 0.612305
134 0.583984
135 0.564453
136 0.571289
137 0.617188
138 0.600586
139 0.640625
140 0.573242
141 0.589844
142 0.586914
143 0.606445
144 0.580078
145 0.614258
146 0.601562
147 0.566406
148 0.610352
149 0.624023
150 0.600586
151 0.609375
152 0.594727
153 0.596680
154 0.650391
155 0.589844
156 0.593750
157 0.616211
158 0.638672
159 0.599609
160 0.604492
161 0.622070
162 0.569336
163 0.596680
164 0.588867
165 0.636719
166 0.564453
167 0.586914
168 0.582031
169 0.577148
170 0.608398
171 0.639648
172 0.603516
173 0.659180
174 0.616211
175 0.649414
176 0.621094
177 0.609375
178 0.580078
179 0.588867
180 0.618164
181 0.627930
182 0.590820
183 0.626953
184 0.618164
185 0.582031
186 0.597656
187 0.606445
188 0.592773
189 0.562500
190 0.637695
191 0.654297
192 0.596680
193 0.585938
194 0.616211
195 0.617188
196 0.634766
197 0.601562
198 0.583984
199 0.614258
200 0.586914
201 0.596680
202 0.636719
203 0.640625
204 0.612305
205 0.617188
206 0.650391
207 0.601562
208 0.592773
209 0.579102
210 0.672852
211 0.639648
212 0.667969
213 0.607422
214 0.626953
215 0.616211
216 0.675781
217 0.614258
218 0.540039
219 0.615234
220 0.665039
221 0.630859
222 0.625977
223 0.636719
224 0.581055
225 0.641602
226 0.623047
227 0.612305
228 0.595703
229 0.628906
230 0.640625
231 0.645508
232 0.637695
233 0.655273
234 0.615234
235 0.638672
236 0.638672
237 0.641602
238 0.635742
239 0.623047
240 0.636719
241 0.651367
242 0.625977
243 0.617188
244 0.640625
245 0.623047
246 0.561523
247 0.603516
248 0.616211
249 0.642578
250 0.616211
251 0.613281
252 0.610352
253 0.568359
254 0.594727
255 0.613281
256 0.620117
257 0.637695
258 0.658203
259 0.635742
260 0.626953
261 0.619141
262 0.598633
263 0.585938
264 0.620117
265 0.639648
266 0.619141
267 0.559570
268 0.597656
269 0.610352
270 0.605469
271 0.612305
272 0.625000
273 0.632812
274 0.622070
275 0.586914
276 0.613281
277 0.623047
278 0.612305
279 0.582031
280 0.589844
281 0.592773
282 0.606445
283 0.657227
284 0.607422
285 0.619141
286 0.631836
287 0.632812
288 0.603516
289 0.641602
290 0.652344
291 0.670898
292 0.611328
293 0.635742
294 0.593750
295 0.585938
296 0.601562
297 0.611328
298 0.572266
299 0.572266
300 0.622070
301 0.618164
302 0.605469
303 0.620117
304 0.625000
305 0.592773
306 0.664062
307 0.612305
308 0.663086
309 0.614258
310 0.546875
311 0.593750
312 0.653320
313 0.634766
314 0.624023
315 0.645508
316 0.644531
317 0.590820
318 0.628906
319 0.609375
320 0.550781
321 0.598633
322 0.607422
323 0.589844
324 0.581055
325 0.622070
326 0.618164
327 0.639648
328 0.630859
329 0.622070
330 0.594727
331 0.627930
332 0.642578
333 0.622070
334 0.619141
335 0.614258
336 0.603516
337 0.638672
338 0.624023
339 0.660156
340 0.626953
341 0.621094
342 0.621094
343 0.597656
344 0.594727
345 0.576172
346 0.572266
347 0.551758
348 0.577148
349 0.583984
350 0.600586
351 0.608398
352 0.595703
353 0.625000
354 0.614258
355 0.606445
356 0.607422
357 0.593750
358 0.662109
359 0.642578
360 0.617188
361 0.642578
362 0.638672
363 0.640625
364 0.643555
365 0.618164
366 0.632812
367 0.594727
368 0.622070
369 0.600586
370 0.641602
371 0.625977
372 0.666016
373 0.608398
374 0.627930
375 0.658203
376 0.605469
377 0.600586
378 0.645508
379 0.581055
380 0.622070
381 0.613281
382 0.619141
383 0.615234
384 0.625977
385 0.632812
386 0.611328
387 0.636719
388 0.627930
389 0.654297
390 0.635742
391 0.659180
392 0.606445
393 0.650391
394 0.630859
395 0.627930
396 0.668945
397 0.625000
398 0.617188
399 0.598633
400 0.631836
401 0.642578
402 0.632812
403 0.653320
404 0.657227
405 0.636719
406 0.644531
407 0.604492
408 0.626953
409 0.598633
410 0.617188
411 0.583984
412 0.622070
413 0.649414
414 0.611328
415 0.647461
416 0.628906
417 0.616211
418 0.650391
419 0.578125
420 0.610352
421 0.599609
422 0.593750
423 0.585938
424 0.592773
425 0.615234
426 0.604492
427 0.662109
428 0.638672
429 0.615234
430 0.559570
431 0.601562
432 0.615234
433 0.659180
434 0.629883
435 0.637695
436 0.613281
437 0.608398
438 0.559570
439 0.640625
440 0.606445
441 0.673828
442 0.629883
443 0.617188
444 0.612305
445 0.618164
446 0.638672
447 0.607422
448 0.590820
449 0.670898
450 0.676758
451 0.664062
452 0.652344
453 0.588867
454 0.621094
455 0.611328
456 0.624023
457 0.613281
458 0.658203
459 0.603516
460 0.625977
461 0.604492
462 0.615234
463 0.605469
464 0.616211
465 0.581055
466 0.561523
467 0.605469
468 0.604492
469 0.588867
470 0.563477
471 0.630859
472 0.623047
473 0.616211
474 0.645508
475 0.576172
476 0.583984
477 0.607422
478 0.592773
479 0.565430
480 0.647461
481 0.543945
482 0.582031
483 0.640625
484 0.630859
485 0.666016
486 0.611328
487 0.615234
488 0.590820
489 0.594727
490 0.622070
491 0.618164
492 0.641602
493 0.632812
494 0.644531
495 0.645508
496 0.610352
497 0.605469
498 0.628906
499 0.648438
500 0.682617
501 0.635742
502 0.608398
503 0.637695
504 0.640625
505 0.687500
506 0.632812
507 0.627930
508 0.669922
509 0.595703
510 0.571289
511 0.648438
512 0.587891
513 0.628906
514 0.565430
515 0.634766
516 0.672852
517 0.648438
518 0.620117
519 0.642578
520 0.652344
521 0.639648
522 0.634766
523 0.675781
524 0.599609
525 0.616211
526 0.624023
527 0.607422
528 0.634766
529 0.622070
530 0.611328
531 0.616211
532 0.600586
533 0.563477
534 0.630859
535 0.640625
536 0.585938
537 0.606445
538 0.582031
539 0.611328
540 0.601562
541 0.631836
542 0.622070
543 0.657227
544 0.620117
545 0.619141
546 0.657227
547 0.643555
548 0.626953
549 0.626953
550 0.655273
551 0.652344
552 0.642578
553 0.602539
554 0.629883
555 0.614258
556 0.625977
557 0.630859
558 0.623047
559 0.639648
560 0.610352
561 0.628906
562 0.622070
563 0.653320
564 0.664062
565 0.657227
566 0.613281
567 0.688477
568 0.635742
569 0.613281
570 0.614258
571 0.644531
572 0.632812
573 0.652344
574 0.644531
575 0.618164
576 0.577148
577 0.654297
578 0.617188
579 0.634766
580 0.614258
581 0.640625
582 0.626953
583 0.622070
584 0.670898
585 0.628906
586 0.655273
587 0.640625
588 0.648438
589 0.651367
590 0.652344
591 0.651367
592 0.637695
593 0.646484
594 0.630859
595 0.597656
596 0.585938
597 0.690430
598 0.635742
599 0.646484
