0 0.480469
1 0.532227
2 0.470703
3 0.504883
4 0.482422
5 0.465820
6 0.487305
7 0.476562
8 0.498047
9 0.451172
10 0.510742
11 0.501953
12 0.487305
13 0.500977
14 0.512695
15 0.471680
16 0.512695
17 0.497070
18 0.489258
19 0.493164
20 0.477539
21 0.491211
22 0.491211
23 0.569336
24 0.486328
25 0.543945
26 0.537109
27 0.556641
28 0.537109
29 0.506836
30 0.508789
31 0.497070
32 0.474609
33 0.522461
34 0.526367
35 0.506836
36 0.500977
37 0.498047
38 0.507812
39 0.514648
40 0.544922
41 0.506836
42 0.492188
43 0.544922
44 0.534180
45 0.517578
46 0.538086
47 0.566406
48 0.556641
49 0.531250
50 0.554688
51 0.533203
52 0.498047
53 0.563477
54 0.520508
55 0.533203
56 0.528320
57 0.548828
58 0.544922
59 0.569336
60 0.580078
61 0.573242
62 0.573242
63 0.596680
64 0.578125
65 0.555664
66 0.556641
67 0.576172
68 0.558594
69 0.579102
70 0.602539
71 0.601562
72 0.600586
73 0.625000
74 0.603516
75 0.580078
76 0.566406
77 0.603516
78 0.621094
79 0.619141
80 0.600586
81 0.636719
82 0.642578
83 0.587891
84 0.649414
85 0.613281
86 0.638672
87 0.621094
88 0.640625
89 0.654297
90 0.616211
91 0.639648
92 0.624023
93 0.654297
94 0.666016
95 0.659180
96 0.608398
97 0.623047
98 0.684570
99 0.630859
100 0.682617
101 0.662109
102 0.681641
103 0.638672
104 0.644531
105 0.713867
106 0.661133
107 0.615234
108 0.641602
109 0.643555
110 0.671875
111 0.650391
112 0.686523
113 0.697266
114 0.676758
115 0.646484
116 0.713867
117 0.662109
118 0.659180
119 0.625977
120 0.658203
121 0.614258
122 0.669922
123 0.641602
124 0.701172
125 0.663086
126 0.657227
127 0.644531
128 0.600586
129 0.676758
130 0.674805
131 0.677734
132 0.708984
133 0.678711
134 0.701172
135 0.649414
136 0.669922
137 0.614258
138 0.616211
139 0.671875
140 0.665039
141 0.645508
142 0.618164
143 0.608398
144 0.655273
145 0.625000
146 0.625000
147 0.641602
148 0.708984
149 0.678711
150 0.648438
151 0.655273
152 0.627930
153 0.694336
154 0.677734
155 0.671875
156 0.655273
157 0.660156
158 0.679688
159 0.684570
160 0.703125
161 0.639648
162 0.685547
163 0.701172
164 0.638672
165 0.658203
166 0.642578
167 0.666016
168 0.625977
169 0.652344
170 0.686523
171 0.707031
172 0.667969
173 0.634766
174 0.636719
175 0.618164
176 0.659180
177 0.657227
178 0.679688
179 0.658203
180 0.660156
181 0.656250
182 0.647461
183 0.668945
184 0.668945
185 0.682617
186 0.687500
187 0.681641
188 0.623047
189 0.635742
190 0.678711
191 0.690430
192 0.651367
193 0.616211
194 0.635742
195 0.650391
196 0.660156
197 0.631836
198 0.678711
199 0.663086
200 0.716797
201 0.674805
202 0.643555
203 0.679688
204 0.677734
205 0.613281
206 0.622070
207 0.654297
208 0.651367
209 0.669922
210 0.625977
211 0.675781
212 0.656250
213 0.652344
214 0.681641
215 0.687500
216 0.680664
217 0.650391
218 0.670898
219 0.630859
220 0.641602
221 0.604492
222 0.677734
223 0.649414
224 0.708984
225 0.660156
226 0.666992
227 0.663086
228 0.696289
229 0.663086
230 0.680664
231 0.626953
232 0.650391
233 0.650391
234 0.650391
235 0.648438
236 0.647461
237 0.650391
238 0.648438
239 0.682617
240 0.649414
241 0.667969
242 0.669922
243 0.690430
244 0.680664
245 0.670898
246 0.655273
247 0.668945
248 0.657227
249 0.612305
250 0.682617
251 0.623047
252 0.624023
253 0.629883
254 0.685547
255 0.666016
256 0.663086
257 0.655273
258 0.695312
259 0.696289
260 0.674805
261 0.671875
262 0.669922
263 0.692383
264 0.654297
265 0.623047
266 0.666992
267 0.664062
268 0.666992
269 0.723633
270 0.675781
271 0.719727
272 0.699219
273 0.672852
274 0.656250
275 0.703125
276 0.663086
277 0.644531
278 0.646484
279 0.666992
280 0.674805
281 0.697266
282 0.695312
283 0.671875
284 0.679688
285 0.655273
286 0.667969
287 0.681641
288 0.706055
289 0.667969
290 0.657227
291 0.641602
292 0.643555
293 0.674805
294 0.683594
295 0.670898
296 0.655273
297 0.668945
298 0.699219
299 0.681641
300 0.704102
301 0.664062
302 0.695312
303 0.670898
304 0.675781
305 0.676758
306 0.666016
307 0.679688
308 0.686523
309 0.659180
310 0.642578
311 0.682617
312 0.701172
313 0.699219
314 0.657227
315 0.633789
316 0.666992
317 0.669922
318 0.687500
319 0.655273
320 0.652344
321 0.694336
322 0.694336
323 0.691406
324 0.713867
325 0.687500
326 0.662109
327 0.668945
328 0.648438
329 0.665039
330 0.695312
331 0.660156
332 0.666016
333 0.688477
334 0.690430
335 0.688477
336 0.687500
337 0.645508
338 0.638672
339 0.659180
340 0.693359
341 0.713867
342 0.641602
343 0.607422
344 0.637695
345 0.678711
346 0.644531
347 0.653320
348 0.656250
349 0.623047
350 0.657227
351 0.648438
352 0.661133
353 0.668945
354 0.637695
355 0.675781
356 0.689453
357 0.726562
358 0.675781
359 0.653320
360 0.653320
361 0.636719
362 0.676758
363 0.667969
364 0.678711
365 0.654297
366 0.600586
367 0.673828
368 0.694336
369 0.645508
370 0.678711
371 0.691406
372 0.666992
373 0.712891
374 0.647461
375 0.709961
376 0.725586
377 0.694336
378 0.664062
379 0.665039
380 0.654297
381 0.668945
382 0.659180
383 0.679688
384 0.663086
385 0.719727
386 0.672852
387 0.692383
388 0.674805
389 0.675781
390 0.724609
391 0.716797
392 0.658203
393 0.611328
394 0.652344
395 0.641602
396 0.666992
397 0.677734
398 0.683594
399 0.671875
400 0.657227
401 0.669922
402 0.668945
403 0.691406
404 0.639648
405 0.668945
406 0.667969
407 0.710938
408 0.686523
409 0.707031
410 0.644531
411 0.705078
412 0.680664
413 0.699219
414 0.681641
415 0.634766
416 0.694336
417 0.695312
418 0.670898
419 0.680664
420 0.733398
421 0.721680
422 0.701172
423 0.689453
424 0.666016
425 0.699219
426 0.686523
427 0.672852
428 0.652344
429 0.682617
430 0.625977
431 0.727539
432 0.659180
433 0.703125
434 0.666992
435 0.702148
436 0.687500
437 0.699219
438 0.650391
439 0.716797
440 0.655273
441 0.702148
442 0.702148
443 0.624023
444 0.641602
445 0.640625
446 0.650391
447 0.666016
448 0.697266
449 0.696289
450 0.708008
451 0.688477
452 0.693359
453 0.666016
454 0.676758
455 0.680664
456 0.704102
457 0.679688
458 0.644531
459 0.726562
460 0.671875
461 0.653320
462 0.688477
463 0.690430
464 0.680664
465 0.639648
466 0.668945
467 0.672852
468 0.678711
469 0.681641
470 0.664062
471 0.669922
472 0.663086
473 0.646484
474 0.620117
475 0.681641
476 0.651367
477 0.667969
478 0.692383
479 0.679688
480 0.693359
481 0.694336
482 0.666992
483 0.654297
484 0.680664
485 0.705078
486 0.670898
487 0.683594
488 0.703125
489 0.694336
490 0.694336
491 0.684570
492 0.670898
493 0.648438
494 0.654297
495 0.644531
496 0.685547
497 0.654297
498 0.685547
499 0.708984
500 0.694336
501 0.654297
502 0.718750
503 0.651367
504 0.641602
505 0.687500
506 0.639648
507 0.645508
508 0.608398
509 0.691406
510 0.682617
511 0.695312
512 0.682617
513 0.650391
514 0.679688
515 0.675781
516 0.686523
517 0.699219
518 0.652344
519 0.661133
520 0.690430
521 0.695312
522 0.646484
523 0.665039
524 0.619141
525 0.635742
526 0.633789
527 0.647461
528 0.698242
529 0.685547
530 0.678711
531 0.682617
532 0.690430
533 0.684570
534 0.661133
535 0.682617
536 0.675781
537 0.688477
538 0.678711
539 0.681641
540 0.712891
541 0.653320
542 0.696289
543 0.723633
544 0.695312
545 0.675781
546 0.674805
547 0.669922
548 0.673828
549 0.677734
550 0.682617
551 0.726562
552 0.695312
553 0.697266
554 0.683594
555 0.718750
556 0.691406
557 0.614258
558 0.688477
559 0.639648
560 0.621094
561 0.649414
562 0.621094
563 0.693359
564 0.654297
565 0.636719
566 0.591797
567 0.628906
568 0.659180
569 0.650391
570 0.668945
571 0.652344
572 0.607422
573 0.592773
574 0.662109
575 0.658203
576 0.678711
577 0.718750
578 0.662109
579 0.679688
580 0.633789
581 0.658203
582 0.703125
583 0.693359
584 0.693359
585 0.719727
586 0.694336
587 0.700195
588 0.669922
589 0.687500
590 0.690430
591 0.695312
592 0.694336
593 0.694336
594 0.700195
595 0.659180
596 0.692383
597 0.684570
598 0.691406
599 0.705078
