0 0.511719
1 0.552734
2 0.527344
3 0.509766
4 0.498047
5 0.500977
6 0.481445
7 0.512695
8 0.522461
9 0.494141
10 0.487305
11 0.504883
12 0.474609
13 0.519531
14 0.516602
15 0.511719
16 0.550781
17 0.514648
18 0.509766
19 0.509766
20 0.536133
21 0.479492
22 0.512695
23 0.533203
24 0.523438
25 0.502930
26 0.526367
27 0.505859
28 0.529297
29 0.533203
30 0.497070
31 0.534180
32 0.527344
33 0.520508
34 0.532227
35 0.543945
36 0.500000
37 0.560547
38 0.512695
39 0.535156
40 0.541016
41 0.536133
42 0.545898
43 0.500977
44 0.544922
45 0.526367
46 0.534180
47 0.508789
48 0.499023
49 0.479492
50 0.541992
51 0.536133
52 0.539062
53 0.514648
54 0.536133
55 0.520508
56 0.543945
57 0.555664
58 0.527344
59 0.537109
60 0.516602
61 0.547852
62 0.528320
63 0.522461
64 0.521484
65 0.539062
66 0.502930
67 0.518555
68 0.501953
69 0.543945
70 0.567383
71 0.539062
72 0.479492
73 0.517578
74 0.521484
75 0.527344
76 0.519531
77 0.555664
78 0.517578
79 0.498047
80 0.548828
81 0.534180
82 0.546875
83 0.513672
84 0.509766
85 0.488281
86 0.495117
87 0.506836
88 0.500977
89 0.483398
90 0.498047
91 0.503906
92 0.535156
93 0.542969
94 0.517578
95 0.541992
96 0.583008
97 0.553711
98 0.608398
99 0.578125
100 0.584961
101 0.589844
102 0.561523
103 0.555664
104 0.530273
105 0.552734
106 0.567383
107 0.501953
108 0.552734
109 0.569336
110 0.549805
111 0.541992
112 0.557617
113 0.604492
114 0.608398
115 0.598633
116 0.576172
117 0.583984
118 0.576172
119 0.580078
120 0.627930
121 0.611328
122 0.621094
123 0.567383
124 0.587891
125 0.593750
126 0.530273
127 0.587891
128 0.546875
129 0.579102
130 0.590820
131 0.598633
132 0.555664
133 0.583008
134 0.571289
135 0.544922
136 0.586914
137 0.607422
138 0.591797
139 0.598633
140 0.592773
141 0.573242
142 0.585938
143 0.600586
144 0.602539
145 0.589844
146 0.596680
147 0.606445
148 0.625000
149 0.638672
150 0.634766
151 0.622070
152 0.617188
153 0.591797
154 0.628906
155 0.594727
156 0.599609
157 0.584961
158 0.622070
159 0.568359
160 0.578125
161 0.592773
162 0.634766
163 0.612305
164 0.627930
165 0.616211
166 0.605469
167 0.614258
168 0.625000
169 0.618164
170 0.592773
171 0.580078
172 0.586914
173 0.582031
174 0.599609
175 0.591797
176 0.609375
177 0.607422
178 0.630859
179 0.618164
180 0.619141
181 0.617188
182 0.606445
183 0.654297
184 0.592773
185 0.636719
186 0.626953
187 0.629883
188 0.597656
189 0.618164
190 0.584961
191 0.647461
192 0.643555
193 0.613281
194 0.597656
195 0.597656
196 0.644531
197 0.603516
198 0.611328
199 0.611328
200 0.635742
201 0.587891
202 0.577148
203 0.639648
204 0.597656
205 0.612305
206 0.663086
207 0.659180
208 0.620117
209 0.666016
210 0.662109
211 0.630859
212 0.649414
213 0.623047
214 0.650391
215 0.627930
216 0.630859
217 0.626953
218 0.602539
219 0.636719
220 0.644531
221 0.596680
222 0.614258
223 0.626953
224 0.633789
225 0.616211
226 0.653320
227 0.632812
228 0.598633
229 0.645508
230 0.613281
231 0.621094
232 0.659180
233 0.587891
234 0.614258
235 0.632812
236 0.579102
237 0.596680
238 0.616211
239 0.619141
240 0.599609
241 0.597656
242 0.625000
243 0.612305
244 0.610352
245 0.600586
246 0.589844
247 0.634766
248 0.633789
249 0.624023
250 0.651367
251 0.616211
252 0.640625
253 0.622070
254 0.590820
255 0.584961
256 0.596680
257 0.575195
258 0.640625
259 0.588867
260 0.555664
261 0.619141
262 0.622070
263 0.647461
264 0.615234
265 0.581055
266 0.634766
267 0.590820
268 0.625000
269 0.640625
270 0.665039
271 0.628906
272 0.587891
273 0.581055
274 0.673828
275 0.595703
276 0.608398
277 0.582031
278 0.659180
279 0.608398
280 0.563477
281 0.615234
282 0.571289
283 0.610352
284 0.639648
285 0.598633
286 0.595703
287 0.624023
288 0.611328
289 0.662109
290 0.604492
291 0.607422
292 0.606445
293 0.628906
294 0.626953
295 0.605469
296 0.608398
297 0.570312
298 0.585938
299 0.611328
300 0.628906
301 0.563477
302 0.608398
303 0.638672
304 0.618164
305 0.632812
306 0.615234
307 0.644531
308 0.627930
309 0.614258
310 0.625977
311 0.624023
312 0.618164
313 0.606445
314 0.633789
315 0.639648
316 0.606445
317 0.622070
318 0.653320
319 0.647461
320 0.606445
321 0.660156
322 0.658203
323 0.631836
324 0.617188
325 0.620117
326 0.610352
327 0.581055
328 0.619141
329 0.598633
330 0.637695
331 0.601562
332 0.579102
333 0.581055
334 0.595703
335 0.612305
336 0.614258
337 0.639648
338 0.652344
339 0.623047
340 0.601562
341 0.619141
342 0.636719
343 0.650391
344 0.595703
345 0.650391
346 0.617188
347 0.597656
348 0.596680
349 0.604492
350 0.631836
351 0.597656
352 0.607422
353 0.601562
354 0.660156
355 0.568359
356 0.610352
357 0.625977
358 0.595703
359 0.647461
360 0.633789
361 0.578125
362 0.597656
363 0.626953
364 0.659180
365 0.571289
366 0.630859
367 0.565430
368 0.576172
369 0.625977
370 0.624023
371 0.663086
372 0.602539
373 0.627930
374 0.634766
375 0.598633
376 0.641602
377 0.635742
378 0.628906
379 0.635742
380 0.644531
381 0.586914
382 0.615234
383 0.641602
384 0.665039
385 0.646484
386 0.642578
387 0.655273
388 0.612305
389 0.609375
390 0.668945
391 0.640625
392 0.617188
393 0.580078
394 0.628906
395 0.632812
396 0.654297
397 0.636719
398 0.624023
399 0.615234
400 0.627930
401 0.624023
402 0.599609
403 0.556641
404 0.639648
405 0.608398
406 0.634766
407 0.560547
408 0.662109
409 0.622070
410 0.632812
411 0.598633
412 0.622070
413 0.661133
414 0.623047
415 0.592773
416 0.641602
417 0.605469
418 0.616211
419 0.636719
420 0.623047
421 0.591797
422 0.630859
423 0.638672
424 0.607422
425 0.608398
426 0.620117
427 0.583984
428 0.631836
429 0.638672
430 0.639648
431 0.569336
432 0.607422
433 0.615234
434 0.653320
435 0.629883
436 0.659180
437 0.621094
438 0.590820
439 0.642578
440 0.610352
441 0.630859
442 0.638672
443 0.619141
444 0.630859
445 0.619141
446 0.573242
447 0.614258
448 0.586914
449 0.614258
450 0.606445
451 0.612305
452 0.606445
453 0.598633
454 0.644531
455 0.604492
456 0.669922
457 0.626953
458 0.632812
459 0.633789
460 0.625000
461 0.606445
462 0.626953
463 0.622070
464 0.637695
465 0.664062
466 0.648438
467 0.610352
468 0.610352
469 0.573242
470 0.617188
471 0.615234
472 0.627930
473 0.646484
474 0.629883
475 0.610352
476 0.619141
477 0.595703
478 0.610352
479 0.597656
480 0.597656
481 0.640625
482 0.628906
483 0.595703
484 0.611328
485 0.617188
486 0.595703
487 0.661133
488 0.656250
489 0.653320
490 0.659180
491 0.633789
492 0.628906
493 0.631836
494 0.623047
495 0.589844
496 0.631836
497 0.619141
498 0.681641
499 0.634766
500 0.634766
501 0.628906
502 0.607422
503 0.653320
504 0.640625
505 0.620117
506 0.617188
507 0.582031
508 0.624023
509 0.602539
510 0.651367
511 0.602539
512 0.615234
513 0.658203
514 0.601562
515 0.662109
516 0.631836
517 0.591797
518 0.589844
519 0.611328
520 0.640625
521 0.605469
522 0.607422
523 0.626953
524 0.663086
525 0.658203
526 0.654297
527 0.635742
528 0.609375
529 0.603516
530 0.645508
531 0.621094
532 0.610352
533 0.647461
534 0.615234
535 0.652344
536 0.606445
537 0.638672
538 0.601562
539 0.654297
540 0.619141
541 0.627930
542 0.598633
543 0.651367
544 0.653320
545 0.644531
546 0.625977
547 0.615234
548 0.631836
549 0.606445
550 0.635742
551 0.583984
552 0.647461
553 0.598633
554 0.624023
555 0.613281
556 0.652344
557 0.647461
558 0.663086
559 0.640625
560 0.614258
561 0.646484
562 0.599609
563 0.610352
564 0.648438
565 0.637695
566 0.629883
567 0.607422
568 0.606445
569 0.624023
570 0.648438
571 0.667969
572 0.628906
573 0.638672
574 0.637695
575 0.629883
576 0.614258
577 0.633789
578 0.629883
579 0.656250
580 0.637695
581 0.631836
582 0.633789
583 0.624023
584 0.631836
585 0.628906
586 0.639648
587 0.604492
588 0.622070
589 0.614258
590 0.643555
591 0.635742
592 0.588867
593 0.626953
594 0.655273
595 0.659180
596 0.665039
597 0.599609
598 0.655273
599 0.602539
