0 0.498047
1 0.548828
2 0.568359
3 0.522461
4 0.491211
5 0.484375
6 0.447266
7 0.500977
8 0.495117
9 0.485352
10 0.498047
11 0.478516
12 0.476562
13 0.493164
14 0.490234
15 0.500000
16 0.484375
17 0.471680
18 0.484375
19 0.496094
20 0.503906
21 0.497070
22 0.500000
23 0.502930
24 0.481445
25 0.526367
26 0.532227
27 0.503906
28 0.490234
29 0.510742
30 0.496094
31 0.489258
32 0.516602
33 0.501953
34 0.501953
35 0.527344
36 0.503906
37 0.521484
38 0.485352
39 0.498047
40 0.504883
41 0.537109
42 0.521484
43 0.506836
44 0.524414
45 0.512695
46 0.489258
47 0.497070
48 0.458984
49 0.471680
50 0.506836
51 0.531250
52 0.514648
53 0.490234
54 0.537109
55 0.532227
56 0.545898
57 0.507812
58 0.536133
59 0.541016
60 0.527344
61 0.512695
62 0.525391
63 0.554688
64 0.527344
65 0.538086
66 0.517578
67 0.532227
68 0.534180
69 0.511719
70 0.534180
71 0.573242
72 0.548828
73 0.522461
74 0.552734
75 0.544922
76 0.516602
77 0.544922
78 0.568359
79 0.581055
80 0.561523
81 0.549805
82 0.514648
83 0.559570
84 0.530273
85 0.572266
86 0.592773
87 0.550781
88 0.570312
89 0.565430
90 0.572266
91 0.577148
92 0.613281
93 0.599609
94 0.584961
95 0.577148
96 0.590820
97 0.573242
98 0.569336
99 0.578125
100 0.582031
101 0.576172
102 0.574219
103 0.578125
104 0.582031
105 0.591797
106 0.569336
107 0.582031
108 0.562500
109 0.544922
110 0.562500
111 0.570312
112 0.606445
113 0.609375
114 0.661133
115 0.630859
116 0.568359
117 0.565430
118 0.603516
119 0.616211
120 0.612305
121 0.575195
122 0.561523
123 0.617188
124 0.611328
125 0.595703
126 0.585938
127 0.554688
128 0.596680
129 0.617188
130 0.598633
131 0.601562
132 0.608398
133 0.570312
134 0.582031
135 0.585938
136 0.617188
137 0.626953
138 0.627930
139 0.598633
140 0.599609
141 0.591797
142 0.618164
143 0.657227
144 0.627930
145 0.631836
146 0.631836
147 0.647461
148 0.632812
149 0.623047
150 0.598633
151 0.562500
152 0.606445
153 0.639648
154 0.572266
155 0.630859
156 0.620117
157 0.631836
158 0.625000
159 0.606445
160 0.599609
161 0.626953
162 0.669922
163 0.607422
164 0.625000
165 0.567383
166 0.603516
167 0.578125
168 0.627930
169 0.617188
170 0.593750
171 0.621094
172 0.648438
173 0.661133
174 0.609375
175 0.617188
176 0.625000
177 0.612305
178 0.601562
179 0.590820
180 0.607422
181 0.607422
182 0.595703
183 0.594727
184 0.623047
185 0.603516
186 0.591797
187 0.606445
188 0.581055
189 0.598633
190 0.612305
191 0.644531
192 0.585938
193 0.599609
194 0.638672
195 0.609375
196 0.646484
197 0.597656
198 0.614258
199 0.602539
200 0.570312
201 0.599609
202 0.627930
203 0.583008
204 0.642578
205 0.623047
206 0.578125
207 0.668945
208 0.626953
209 0.608398
210 0.628906
211 0.620117
212 0.635742
213 0.622070
214 0.637695
215 0.684570
216 0.633789
217 0.618164
218 0.582031
219 0.587891
220 0.602539
221 0.590820
222 0.617188
223 0.585938
224 0.607422
225 0.608398
226 0.572266
227 0.602539
228 0.573242
229 0.594727
230 0.601562
231 0.561523
232 0.596680
233 0.617188
234 0.674805
235 0.655273
236 0.595703
237 0.583008
238 0.606445
239 0.600586
240 0.626953
241 0.621094
242 0.623047
243 0.638672
244 0.570312
245 0.662109
246 0.595703
247 0.630859
248 0.615234
249 0.636719
250 0.600586
251 0.599609
252 0.648438
253 0.594727
254 0.620117
255 0.623047
256 0.654297
257 0.626953
258 0.618164
259 0.604492
260 0.611328
261 0.606445
262 0.605469
263 0.625977
264 0.587891
265 0.628906
266 0.604492
267 0.614258
268 0.595703
269 0.617188
270 0.629883
271 0.623047
272 0.589844
273 0.641602
274 0.618164
275 0.612305
276 0.591797
277 0.587891
278 0.624023
279 0.572266
280 0.586914
281 0.659180
282 0.631836
283 0.654297
284 0.633789
285 0.607422
286 0.648438
287 0.646484
288 0.587891
289 0.609375
290 0.593750
291 0.608398
292 0.634766
293 0.613281
294 0.629883
295 0.618164
296 0.629883
297 0.610352
298 0.603516
299 0.645508
300 0.658203
301 0.623047
302 0.637695
303 0.649414
304 0.635742
305 0.658203
306 0.655273
307 0.677734
308 0.624023
309 0.608398
310 0.617188
311 0.672852
312 0.656250
313 0.616211
314 0.612305
315 0.606445
316 0.673828
317 0.651367
318 0.660156
319 0.606445
320 0.610352
321 0.666992
322 0.644531
323 0.590820
324 0.621094
325 0.595703
326 0.608398
327 0.603516
328 0.600586
329 0.583984
330 0.607422
331 0.637695
332 0.663086
333 0.578125
334 0.583984
335 0.610352
336 0.613281
337 0.657227
338 0.618164
339 0.610352
340 0.610352
341 0.588867
342 0.611328
343 0.646484
344 0.590820
345 0.590820
346 0.587891
347 0.624023
348 0.645508
349 0.606445
350 0.592773
351 0.617188
352 0.622070
353 0.583984
354 0.601562
355 0.600586
356 0.627930
357 0.650391
358 0.621094
359 0.629883
360 0.584961
361 0.616211
362 0.623047
363 0.636719
364 0.614258
365 0.607422
366 0.630859
367 0.655273
368 0.644531
369 0.605469
370 0.628906
371 0.604492
372 0.653320
373 0.627930
374 0.641602
375 0.609375
376 0.609375
377 0.610352
378 0.595703
379 0.636719
380 0.665039
381 0.635742
382 0.586914
383 0.637695
384 0.628906
385 0.666016
386 0.661133
387 0.600586
388 0.625000
389 0.636719
390 0.633789
391 0.631836
392 0.615234
393 0.653320
394 0.668945
395 0.649414
396 0.602539
397 0.650391
398 0.642578
399 0.633789
400 0.633789
401 0.605469
402 0.630859
403 0.634766
404 0.602539
405 0.636719
406 0.633789
407 0.633789
408 0.614258
409 0.649414
410 0.624023
411 0.640625
412 0.642578
413 0.619141
414 0.602539
415 0.667969
416 0.620117
417 0.618164
418 0.637695
419 0.622070
420 0.591797
421 0.652344
422 0.614258
423 0.616211
424 0.673828
425 0.628906
426 0.617188
427 0.625000
428 0.564453
429 0.603516
430 0.583984
431 0.597656
432 0.611328
433 0.625000
434 0.645508
435 0.634766
436 0.605469
437 0.618164
438 0.608398
439 0.626953
440 0.608398
441 0.639648
442 0.638672
443 0.647461
444 0.673828
445 0.612305
446 0.653320
447 0.601562
448 0.630859
449 0.632812
450 0.623047
451 0.601562
452 0.609375
453 0.607422
454 0.630859
455 0.613281
456 0.638672
457 0.670898
458 0.618164
459 0.618164
460 0.642578
461 0.639648
462 0.606445
463 0.624023
464 0.577148
465 0.624023
466 0.620117
467 0.646484
468 0.661133
469 0.624023
470 0.630859
471 0.632812
472 0.668945
473 0.655273
474 0.619141
475 0.625000
476 0.650391
477 0.633789
478 0.638672
479 0.635742
480 0.624023
481 0.639648
482 0.621094
483 0.610352
484 0.659180
485 0.610352
486 0.633789
487 0.621094
488 0.587891
489 0.627930
490 0.663086
491 0.664062
492 0.594727
493 0.640625
494 0.619141
495 0.633789
496 0.589844
497 0.594727
498 0.591797
499 0.607422
500 0.632812
501 0.665039
502 0.684570
503 0.628906
504 0.635742
505 0.604492
506 0.688477
507 0.655273
508 0.628906
509 0.648438
510 0.616211
511 0.659180
512 0.633789
513 0.666992
514 0.592773
515 0.581055
516 0.569336
517 0.649414
518 0.581055
519 0.656250
520 0.594727
521 0.631836
522 0.645508
523 0.647461
524 0.596680
525 0.592773
526 0.590820
527 0.598633
528 0.660156
529 0.672852
530 0.608398
531 0.642578
532 0.636719
533 0.648438
534 0.633789
535 0.653320
536 0.644531
537 0.664062
538 0.626953
539 0.670898
540 0.644531
541 0.639648
542 0.659180
543 0.640625
544 0.637695
545 0.686523
546 0.629883
547 0.656250
548 0.623047
549 0.676758
550 0.666016
551 0.625000
552 0.641602
553 0.595703
554 0.633789
555 0.599609
556 0.602539
557 0.639648
558 0.611328
559 0.644531
560 0.625000
561 0.656250
562 0.632812
563 0.659180
564 0.643555
565 0.664062
566 0.619141
567 0.634766
568 0.626953
569 0.650391
570 0.666992
571 0.624023
572 0.624023
573 0.658203
574 0.666992
575 0.656250
576 0.665039
577 0.680664
578 0.653320
579 0.625000
580 0.670898
581 0.627930
582 0.639648
583 0.587891
584 0.634766
585 0.666016
586 0.641602
587 0.634766
588 0.642578
589 0.621094
590 0.646484
591 0.628906
592 0.625977
593 0.618164
594 0.619141
595 0.606445
596 0.585938
597 0.619141
598 0.641602
599 0.644531
