0 0.496094
1 0.525391
2 0.564453
3 0.538086
4 0.604492
5 0.526367
6 0.517578
7 0.548828
8 0.499023
9 0.497070
10 0.525391
11 0.538086
12 0.525391
13 0.542969
14 0.556641
15 0.527344
16 0.503906
17 0.512695
18 0.547852
19 0.500977
20 0.491211
21 0.499023
22 0.518555
23 0.514648
24 0.500000
25 0.496094
26 0.500000
27 0.500977
28 0.504883
29 0.506836
30 0.472656
31 0.558594
32 0.540039
33 0.478516
34 0.541992
35 0.512695
36 0.500977
37 0.527344
38 0.499023
39 0.487305
40 0.519531
41 0.489258
42 0.465820
43 0.509766
44 0.514648
45 0.522461
46 0.534180
47 0.534180
48 0.569336
49 0.523438
50 0.515625
51 0.522461
52 0.551758
53 0.542969
54 0.537109
55 0.568359
56 0.539062
57 0.558594
58 0.564453
59 0.558594
60 0.577148
61 0.574219
62 0.580078
63 0.562500
64 0.574219
65 0.637695
66 0.587891
67 0.611328
68 0.576172
69 0.597656
70 0.627930
71 0.625977
72 0.646484
73 0.638672
74 0.635742
75 0.661133
76 0.625000
77 0.600586
78 0.637695
79 0.635742
80 0.622070
81 0.636719
82 0.693359
83 0.644531
84 0.645508
85 0.629883
86 0.638672
87 0.652344
88 0.613281
89 0.651367
90 0.632812
91 0.656250
92 0.664062
93 0.662109
94 0.698242
95 0.664062
96 0.619141
97 0.628906
98 0.638672
99 0.659180
100 0.670898
101 0.628906
102 0.709961
103 0.632812
104 0.651367
105 0.719727
106 0.681641
107 0.626953
108 0.605469
109 0.666016
110 0.649414
111 0.628906
112 0.650391
113 0.625977
114 0.666992
115 0.653320
116 0.682617
117 0.694336
118 0.666016
119 0.684570
120 0.639648
121 0.637695
122 0.686523
123 0.634766
124 0.645508
125 0.668945
126 0.673828
127 0.650391
128 0.640625
129 0.651367
130 0.611328
131 0.640625
132 0.632812
133 0.696289
134 0.657227
135 0.700195
136 0.698242
137 0.729492
138 0.690430
139 0.692383
140 0.688477
141 0.675781
142 0.702148
143 0.650391
144 0.658203
145 0.641602
146 0.661133
147 0.681641
148 0.641602
149 0.677734
150 0.655273
151 0.688477
152 0.658203
153 0.668945
154 0.717773
155 0.657227
156 0.662109
157 0.638672
158 0.627930
159 0.686523
160 0.729492
161 0.666992
162 0.636719
163 0.666016
164 0.652344
165 0.683594
166 0.647461
167 0.701172
168 0.679688
169 0.693359
170 0.639648
171 0.631836
172 0.595703
173 0.665039
174 0.613281
175 0.626953
176 0.622070
177 0.651367
178 0.645508
179 0.625000
180 0.659180
181 0.657227
182 0.603516
183 0.633789
184 0.628906
185 0.676758
186 0.640625
187 0.653320
188 0.653320
189 0.671875
190 0.664062
191 0.599609
192 0.622070
193 0.667969
194 0.718750
195 0.678711
196 0.635742
197 0.650391
198 0.619141
199 0.693359
200 0.653320
201 0.678711
202 0.694336
203 0.658203
204 0.655273
205 0.679688
206 0.607422
207 0.657227
208 0.666992
209 0.656250
210 0.616211
211 0.654297
212 0.658203
213 0.632812
214 0.647461
215 0.654297
216 0.677734
217 0.684570
218 0.637695
219 0.634766
220 0.596680
221 0.662109
222 0.688477
223 0.666016
224 0.669922
225 0.652344
226 0.642578
227 0.641602
228 0.643555
229 0.618164
230 0.661133
231 0.645508
232 0.674805
233 0.650391
234 0.621094
235 0.673828
236 0.656250
237 0.621094
238 0.654297
239 0.690430
240 0.666016
241 0.683594
242 0.646484
243 0.649414
244 0.628906
245 0.655273
246 0.658203
247 0.695312
248 0.661133
249 0.653320
250 0.665039
251 0.668945
252 0.686523
253 0.685547
254 0.679688
255 0.675781
256 0.650391
257 0.638672
258 0.665039
259 0.657227
260 0.689453
261 0.646484
262 0.696289
263 0.656250
264 0.709961
265 0.629883
266 0.682617
267 0.681641
268 0.681641
269 0.700195
270 0.648438
271 0.681641
272 0.677734
273 0.663086
274 0.746094
275 0.657227
276 0.705078
277 0.641602
278 0.700195
279 0.646484
280 0.691406
281 0.663086
282 0.646484
283 0.633789
284 0.696289
285 0.667969
286 0.696289
287 0.750977
288 0.675781
289 0.668945
290 0.677734
291 0.685547
292 0.631836
293 0.657227
294 0.653320
295 0.661133
296 0.655273
297 0.655273
298 0.675781
299 0.635742
300 0.682617
301 0.702148
302 0.714844
303 0.663086
304 0.641602
305 0.656250
306 0.681641
307 0.673828
308 0.675781
309 0.649414
310 0.675781
311 0.639648
312 0.704102
313 0.657227
314 0.627930
315 0.654297
316 0.698242
317 0.679688
318 0.696289
319 0.688477
320 0.626953
321 0.673828
322 0.668945
323 0.677734
324 0.634766
325 0.632812
326 0.661133
327 0.623047
328 0.695312
329 0.686523
330 0.645508
331 0.610352
332 0.640625
333 0.650391
334 0.633789
335 0.649414
336 0.665039
337 0.673828
338 0.606445
339 0.655273
340 0.630859
341 0.647461
342 0.661133
343 0.658203
344 0.651367
345 0.672852
346 0.647461
347 0.639648
348 0.695312
349 0.695312
350 0.695312
351 0.651367
352 0.667969
353 0.670898
354 0.646484
355 0.668945
356 0.740234
357 0.668945
358 0.710938
359 0.748047
360 0.680664
361 0.748047
362 0.643555
363 0.689453
364 0.638672
365 0.627930
366 0.645508
367 0.637695
368 0.618164
369 0.674805
370 0.664062
371 0.699219
372 0.659180
373 0.701172
374 0.628906
375 0.672852
376 0.669922
377 0.675781
378 0.659180
379 0.672852
380 0.687500
381 0.657227
382 0.668945
383 0.698242
384 0.676758
385 0.695312
386 0.610352
387 0.673828
388 0.735352
389 0.687500
390 0.647461
391 0.647461
392 0.623047
393 0.645508
394 0.671875
395 0.670898
396 0.637695
397 0.667969
398 0.696289
399 0.679688
400 0.672852
401 0.657227
402 0.692383
403 0.684570
404 0.684570
405 0.659180
406 0.708008
407 0.651367
408 0.666016
409 0.658203
410 0.644531
411 0.690430
412 0.675781
413 0.697266
414 0.705078
415 0.678711
416 0.673828
417 0.622070
418 0.679688
419 0.659180
420 0.646484
421 0.653320
422 0.653320
423 0.628906
424 0.693359
425 0.636719
426 0.636719
427 0.643555
428 0.615234
429 0.621094
430 0.687500
431 0.658203
432 0.694336
433 0.666992
434 0.686523
435 0.652344
436 0.666992
437 0.689453
438 0.690430
439 0.647461
440 0.687500
441 0.630859
442 0.658203
443 0.681641
444 0.636719
445 0.648438
446 0.689453
447 0.687500
448 0.689453
449 0.668945
450 0.712891
451 0.670898
452 0.683594
453 0.672852
454 0.708984
455 0.655273
456 0.663086
457 0.695312
458 0.702148
459 0.679688
460 0.627930
461 0.697266
462 0.665039
463 0.653320
464 0.688477
465 0.653320
466 0.633789
467 0.614258
468 0.661133
469 0.697266
470 0.670898
471 0.713867
472 0.578125
473 0.649414
474 0.641602
475 0.649414
476 0.665039
477 0.646484
478 0.663086
479 0.679688
480 0.658203
481 0.639648
482 0.594727
483 0.666992
484 0.659180
485 0.652344
486 0.585938
487 0.628906
488 0.683594
489 0.674805
490 0.650391
491 0.703125
492 0.677734
493 0.628906
494 0.708984
495 0.677734
496 0.720703
497 0.698242
498 0.671875
499 0.697266
500 0.706055
501 0.694336
502 0.674805
503 0.715820
504 0.662109
505 0.679688
506 0.664062
507 0.672852
508 0.686523
509 0.666016
510 0.667969
511 0.667969
512 0.667969
513 0.708984
514 0.655273
515 0.699219
516 0.719727
517 0.649414
518 0.690430
519 0.678711
520 0.674805
521 0.716797
522 0.688477
523 0.670898
524 0.673828
525 0.666016
526 0.659180
527 0.649414
528 0.671875
529 0.674805
530 0.710938
531 0.684570
532 0.645508
533 0.655273
534 0.697266
535 0.702148
536 0.713867
537 0.690430
538 0.683594
539 0.700195
540 0.648438
541 0.692383
542 0.670898
543 0.682617
544 0.678711
545 0.695312
546 0.659180
547 0.709961
548 0.680664
549 0.670898
550 0.686523
551 0.661133
552 0.689453
553 0.655273
554 0.644531
555 0.669922
556 0.683594
557 0.721680
558 0.684570
559 0.687500
560 0.668945
561 0.687500
562 0.688477
563 0.719727
564 0.639648
565 0.675781
566 0.643555
567 0.693359
568 0.679688
569 0.695312
570 0.677734
571 0.642578
572 0.703125
573 0.703125
574 0.653320
575 0.711914
576 0.672852
577 0.683594
578 0.700195
579 0.675781
580 0.692383
581 0.642578
582 0.647461
583 0.642578
584 0.673828
585 0.666016
586 0.686523
587 0.682617
588 0.719727
589 0.684570
590 0.705078
591 0.681641
592 0.686523
593 0.719727
594 0.688477
595 0.674805
596 0.654297
597 0.689453
598 0.659180
599 0.698242
