0 0.507812
1 0.561523
2 0.510742
3 0.552734
4 0.532227
5 0.500000
6 0.547852
7 0.537109
8 0.577148
9 0.547852
10 0.501953
11 0.510742
12 0.485352
13 0.521484
14 0.511719
15 0.518555
16 0.531250
17 0.535156
18 0.501953
19 0.530273
20 0.512695
21 0.515625
22 0.561523
23 0.541016
24 0.540039
25 0.538086
26 0.555664
27 0.526367
28 0.575195
29 0.501953
30 0.585938
31 0.579102
32 0.636719
33 0.612305
34 0.657227
35 0.659180
36 0.671875
37 0.697266
38 0.654297
39 0.670898
40 0.679688
41 0.703125
42 0.672852
43 0.688477
44 0.652344
45 0.675781
46 0.669922
47 0.707031
48 0.710938
49 0.692383
50 0.666016
51 0.670898
52 0.651367
53 0.667969
54 0.691406
55 0.675781
56 0.682617
57 0.599609
58 0.691406
59 0.649414
60 0.655273
61 0.630859
62 0.689453
63 0.711914
64 0.696289
65 0.690430
66 0.672852
67 0.700195
68 0.663086
69 0.662109
70 0.658203
71 0.717773
72 0.709961
73 0.685547
74 0.691406
75 0.719727
76 0.639648
77 0.681641
78 0.712891
79 0.650391
80 0.668945
81 0.649414
82 0.673828
83 0.711914
84 0.667969
85 0.702148
86 0.684570
87 0.670898
88 0.697266
89 0.666016
90 0.672852
91 0.658203
92 0.684570
93 0.701172
94 0.674805
95 0.632812
96 0.706055
97 0.685547
98 0.658203
99 0.713867
100 0.683594
101 0.676758
102 0.673828
103 0.696289
104 0.647461
105 0.684570
106 0.708008
107 0.657227
108 0.717773
109 0.673828
110 0.696289
111 0.691406
112 0.659180
113 0.705078
114 0.685547
115 0.663086
116 0.679688
117 0.690430
118 0.692383
119 0.666016
120 0.687500
121 0.694336
122 0.693359
123 0.667969
124 0.719727
125 0.733398
126 0.694336
127 0.706055
128 0.676758
129 0.679688
130 0.677734
131 0.686523
132 0.636719
133 0.684570
134 0.695312
135 0.712891
136 0.723633
137 0.698242
138 0.699219
139 0.693359
140 0.694336
141 0.666016
142 0.699219
143 0.726562
144 0.696289
145 0.669922
146 0.690430
147 0.732422
148 0.693359
149 0.706055
150 0.648438
151 0.658203
152 0.661133
153 0.675781
154 0.687500
155 0.623047
156 0.683594
157 0.689453
158 0.689453
159 0.689453
160 0.675781
161 0.666992
162 0.714844
163 0.686523
164 0.701172
165 0.653320
166 0.663086
167 0.691406
168 0.684570
169 0.688477
170 0.669922
171 0.703125
172 0.689453
173 0.705078
174 0.691406
175 0.677734
176 0.681641
177 0.702148
178 0.675781
179 0.661133
180 0.697266
181 0.709961
182 0.682617
183 0.676758
184 0.686523
185 0.693359
186 0.667969
187 0.658203
188 0.646484
189 0.688477
190 0.684570
191 0.692383
192 0.673828
193 0.663086
194 0.706055
195 0.666992
196 0.674805
197 0.693359
198 0.695312
199 0.668945
200 0.719727
201 0.671875
202 0.714844
203 0.712891
204 0.677734
205 0.651367
206 0.680664
207 0.679688
208 0.672852
209 0.708008
210 0.694336
211 0.671875
212 0.700195
213 0.700195
214 0.705078
215 0.699219
216 0.703125
217 0.692383
218 0.688477
219 0.696289
220 0.675781
221 0.646484
222 0.656250
223 0.683594
224 0.699219
225 0.712891
226 0.705078
227 0.691406
228 0.671875
229 0.691406
230 0.665039
231 0.666016
232 0.673828
233 0.669922
234 0.697266
235 0.670898
236 0.707031
237 0.704102
238 0.669922
239 0.686523
240 0.659180
241 0.694336
242 0.687500
243 0.649414
244 0.691406
245 0.680664
246 0.708008
247 0.695312
248 0.697266
249 0.647461
250 0.665039
251 0.660156
252 0.671875
253 0.722656
254 0.686523
255 0.657227
256 0.685547
257 0.630859
258 0.652344
259 0.717773
260 0.678711
261 0.685547
262 0.707031
263 0.695312
264 0.670898
265 0.676758
266 0.688477
267 0.685547
268 0.661133
269 0.694336
270 0.716797
271 0.704102
272 0.695312
273 0.691406
274 0.683594
275 0.664062
276 0.685547
277 0.699219
278 0.700195
279 0.681641
280 0.671875
281 0.690430
282 0.683594
283 0.703125
284 0.683594
285 0.666016
286 0.712891
287 0.712891
288 0.683594
289 0.717773
290 0.685547
291 0.686523
292 0.676758
293 0.665039
294 0.685547
295 0.690430
296 0.680664
297 0.689453
298 0.657227
299 0.671875
300 0.667969
301 0.677734
302 0.685547
303 0.682617
304 0.669922
305 0.657227
306 0.719727
307 0.700195
308 0.688477
309 0.686523
310 0.685547
311 0.678711
312 0.676758
313 0.692383
314 0.708984
315 0.682617
316 0.713867
317 0.684570
318 0.666016
319 0.655273
320 0.694336
321 0.712891
322 0.708008
323 0.688477
324 0.675781
325 0.661133
326 0.697266
327 0.695312
328 0.698242
329 0.678711
330 0.685547
331 0.683594
332 0.708984
333 0.680664
334 0.689453
335 0.686523
336 0.668945
337 0.663086
338 0.675781
339 0.663086
340 0.676758
341 0.675781
342 0.643555
343 0.686523
344 0.666016
345 0.692383
346 0.693359
347 0.685547
348 0.699219
349 0.702148
350 0.693359
351 0.711914
352 0.697266
353 0.666016
354 0.699219
355 0.661133
356 0.684570
357 0.706055
358 0.707031
359 0.697266
360 0.681641
361 0.704102
362 0.654297
363 0.663086
364 0.697266
365 0.712891
366 0.678711
367 0.708008
368 0.698242
369 0.666992
370 0.689453
371 0.713867
372 0.680664
373 0.718750
374 0.659180
375 0.688477
376 0.655273
377 0.669922
378 0.715820
379 0.733398
380 0.698242
381 0.707031
382 0.686523
383 0.706055
384 0.701172
385 0.674805
386 0.716797
387 0.697266
388 0.704102
389 0.694336
390 0.684570
391 0.696289
392 0.687500
393 0.701172
394 0.677734
395 0.692383
396 0.686523
397 0.708008
398 0.682617
399 0.671875
400 0.682617
401 0.708984
402 0.684570
403 0.680664
404 0.689453
405 0.692383
406 0.703125
407 0.684570
408 0.685547
409 0.667969
410 0.689453
411 0.666992
412 0.640625
413 0.700195
414 0.708008
415 0.692383
416 0.704102
417 0.680664
418 0.680664
419 0.666016
420 0.668945
421 0.704102
422 0.700195
423 0.698242
424 0.691406
425 0.707031
426 0.705078
427 0.695312
428 0.699219
429 0.716797
430 0.662109
431 0.672852
432 0.695312
433 0.690430
434 0.687500
435 0.733398
436 0.723633
437 0.686523
438 0.673828
439 0.667969
440 0.655273
441 0.686523
442 0.700195
443 0.699219
444 0.708008
445 0.709961
446 0.715820
447 0.693359
448 0.685547
449 0.681641
450 0.676758
451 0.689453
452 0.691406
453 0.681641
454 0.710938
455 0.661133
456 0.655273
457 0.671875
458 0.669922
459 0.710938
460 0.680664
461 0.694336
462 0.696289
463 0.675781
464 0.627930
465 0.629883
466 0.653320
467 0.658203
468 0.697266
469 0.679688
470 0.682617
471 0.666016
472 0.676758
473 0.718750
474 0.695312
475 0.692383
476 0.656250
477 0.643555
478 0.729492
479 0.704102
480 0.676758
481 0.674805
482 0.706055
483 0.665039
484 0.690430
485 0.675781
486 0.680664
487 0.702148
488 0.675781
489 0.691406
490 0.673828
491 0.666992
492 0.679688
493 0.687500
494 0.706055
495 0.710938
496 0.672852
497 0.697266
498 0.716797
499 0.719727
500 0.709961
501 0.676758
502 0.666016
503 0.679688
504 0.639648
505 0.622070
506 0.670898
507 0.674805
508 0.654297
509 0.684570
510 0.693359
511 0.660156
512 0.684570
513 0.682617
514 0.702148
515 0.719727
516 0.679688
517 0.715820
518 0.671875
519 0.674805
520 0.716797
521 0.669922
522 0.689453
523 0.704102
524 0.699219
525 0.668945
526 0.700195
527 0.708008
528 0.691406
529 0.708984
530 0.709961
531 0.689453
532 0.697266
533 0.662109
534 0.705078
535 0.730469
536 0.693359
537 0.695312
538 0.709961
539 0.713867
540 0.706055
541 0.681641
542 0.707031
543 0.680664
544 0.706055
545 0.703125
546 0.704102
547 0.697266
548 0.653320
549 0.711914
550 0.714844
551 0.682617
552 0.692383
553 0.673828
554 0.692383
555 0.680664
556 0.688477
557 0.707031
558 0.663086
559 0.631836
560 0.668945
561 0.675781
562 0.705078
563 0.677734
564 0.733398
565 0.697266
566 0.689453
567 0.692383
568 0.701172
569 0.691406
570 0.726562
571 0.709961
572 0.698242
573 0.665039
574 0.734375
575 0.734375
576 0.655273
577 0.707031
578 0.671875
579 0.684570
580 0.662109
581 0.682617
582 0.669922
583 0.717773
584 0.724609
585 0.678711
586 0.680664
587 0.683594
588 0.692383
589 0.707031
590 0.723633
591 0.692383
592 0.715820
593 0.678711
594 0.717773
595 0.688477
596 0.658203
597 0.689453
598 0.716797
599 0.723633
