0 0.501953
1 0.552734
2 0.559570
3 0.522461
4 0.503906
5 0.509766
6 0.517578
7 0.499023
8 0.497070
9 0.480469
10 0.484375
11 0.480469
12 0.486328
13 0.506836
14 0.474609
15 0.505859
16 0.501953
17 0.555664
18 0.519531
19 0.537109
20 0.518555
21 0.537109
22 0.573242
23 0.559570
24 0.590820
25 0.596680
26 0.579102
27 0.579102
28 0.576172
29 0.598633
30 0.615234
31 0.667969
32 0.597656
33 0.684570
34 0.694336
35 0.677734
36 0.688477
37 0.717773
38 0.692383
39 0.707031
40 0.667969
41 0.685547
42 0.686523
43 0.655273
44 0.641602
45 0.672852
46 0.723633
47 0.679688
48 0.693359
49 0.672852
50 0.697266
51 0.671875
52 0.709961
53 0.688477
54 0.668945
55 0.652344
56 0.684570
57 0.669922
58 0.692383
59 0.725586
60 0.704102
61 0.696289
62 0.688477
63 0.700195
64 0.662109
65 0.688477
66 0.700195
67 0.694336
68 0.691406
69 0.666016
70 0.701172
71 0.695312
72 0.724609
73 0.680664
74 0.664062
75 0.704102
76 0.669922
77 0.706055
78 0.663086
79 0.704102
80 0.714844
81 0.680664
82 0.664062
83 0.673828
84 0.689453
85 0.691406
86 0.685547
87 0.691406
88 0.677734
89 0.708984
90 0.699219
91 0.680664
92 0.717773
93 0.690430
94 0.664062
95 0.664062
96 0.661133
97 0.691406
98 0.683594
99 0.698242
100 0.673828
101 0.679688
102 0.670898
103 0.699219
104 0.692383
105 0.703125
106 0.701172
107 0.714844
108 0.697266
109 0.699219
110 0.709961
111 0.694336
112 0.735352
113 0.700195
114 0.678711
115 0.670898
116 0.680664
117 0.685547
118 0.664062
119 0.666992
120 0.714844
121 0.722656
122 0.713867
123 0.687500
124 0.675781
125 0.720703
126 0.728516
127 0.717773
128 0.695312
129 0.673828
130 0.692383
131 0.707031
132 0.711914
133 0.693359
134 0.708008
135 0.686523
136 0.694336
137 0.708008
138 0.665039
139 0.664062
140 0.661133
141 0.698242
142 0.687500
143 0.694336
144 0.675781
145 0.685547
146 0.678711
147 0.664062
148 0.699219
149 0.693359
150 0.676758
151 0.696289
152 0.727539
153 0.678711
154 0.698242
155 0.697266
156 0.700195
157 0.698242
158 0.694336
159 0.699219
160 0.679688
161 0.661133
162 0.722656
163 0.689453
164 0.686523
165 0.687500
166 0.694336
167 0.683594
168 0.691406
169 0.692383
170 0.678711
171 0.713867
172 0.710938
173 0.670898
174 0.692383
175 0.691406
176 0.689453
177 0.715820
178 0.672852
179 0.695312
180 0.677734
181 0.713867
182 0.723633
183 0.719727
184 0.676758
185 0.707031
186 0.700195
187 0.720703
188 0.713867
189 0.706055
190 0.708008
191 0.677734
192 0.728516
193 0.730469
194 0.717773
195 0.699219
196 0.713867
197 0.713867
198 0.678711
199 0.694336
200 0.698242
201 0.709961
202 0.704102
203 0.683594
204 0.708984
205 0.685547
206 0.683594
207 0.708008
208 0.673828
209 0.690430
210 0.677734
211 0.699219
212 0.669922
213 0.681641
214 0.704102
215 0.720703
216 0.708984
217 0.714844
218 0.670898
219 0.661133
220 0.712891
221 0.694336
222 0.704102
223 0.689453
224 0.717773
225 0.708008
226 0.712891
227 0.674805
228 0.706055
229 0.689453
230 0.712891
231 0.639648
232 0.631836
233 0.640625
234 0.652344
235 0.698242
236 0.709961
237 0.670898
238 0.739258
239 0.698242
240 0.707031
241 0.707031
242 0.686523
243 0.739258
244 0.695312
245 0.694336
246 0.690430
247 0.713867
248 0.669922
249 0.713867
250 0.699219
251 0.711914
252 0.714844
253 0.710938
254 0.680664
255 0.693359
256 0.719727
257 0.715820
258 0.698242
259 0.718750
260 0.714844
261 0.734375
262 0.714844
263 0.703125
264 0.699219
265 0.694336
266 0.709961
267 0.664062
268 0.666992
269 0.681641
270 0.689453
271 0.707031
272 0.696289
273 0.722656
274 0.698242
275 0.706055
276 0.693359
277 0.694336
278 0.729492
279 0.700195
280 0.697266
281 0.687500
282 0.704102
283 0.729492
284 0.672852
285 0.708008
286 0.722656
287 0.712891
288 0.691406
289 0.684570
290 0.680664
291 0.681641
292 0.715820
293 0.732422
294 0.715820
295 0.697266
296 0.676758
297 0.702148
298 0.691406
299 0.687500
300 0.703125
301 0.708008
302 0.711914
303 0.682617
304 0.682617
305 0.697266
306 0.683594
307 0.698242
308 0.690430
309 0.691406
310 0.701172
311 0.691406
312 0.736328
313 0.711914
314 0.688477
315 0.703125
316 0.689453
317 0.692383
318 0.706055
319 0.696289
320 0.667969
321 0.688477
322 0.716797
323 0.713867
324 0.699219
325 0.694336
326 0.664062
327 0.710938
328 0.697266
329 0.658203
330 0.667969
331 0.703125
332 0.706055
333 0.702148
334 0.700195
335 0.705078
336 0.698242
337 0.725586
338 0.681641
339 0.677734
340 0.693359
341 0.708984
342 0.692383
343 0.662109
344 0.702148
345 0.722656
346 0.711914
347 0.736328
348 0.727539
349 0.725586
350 0.662109
351 0.695312
352 0.670898
353 0.721680
354 0.689453
355 0.691406
356 0.689453
357 0.712891
358 0.686523
359 0.708008
360 0.708008
361 0.701172
362 0.693359
363 0.678711
364 0.705078
365 0.687500
366 0.703125
367 0.687500
368 0.685547
369 0.716797
370 0.713867
371 0.688477
372 0.701172
373 0.659180
374 0.708008
375 0.693359
376 0.727539
377 0.704102
378 0.708984
379 0.708008
380 0.697266
381 0.719727
382 0.671875
383 0.697266
384 0.685547
385 0.706055
386 0.709961
387 0.700195
388 0.720703
389 0.671875
390 0.669922
391 0.662109
392 0.674805
393 0.696289
394 0.692383
395 0.681641
396 0.725586
397 0.710938
398 0.691406
399 0.708008
400 0.711914
401 0.721680
402 0.706055
403 0.703125
404 0.701172
405 0.716797
406 0.704102
407 0.677734
408 0.697266
409 0.714844
410 0.695312
411 0.708008
412 0.694336
413 0.688477
414 0.724609
415 0.712891
416 0.711914
417 0.681641
418 0.702148
419 0.697266
420 0.708008
421 0.683594
422 0.680664
423 0.677734
424 0.673828
425 0.683594
426 0.653320
427 0.695312
428 0.686523
429 0.700195
430 0.709961
431 0.703125
432 0.676758
433 0.693359
434 0.708984
435 0.680664
436 0.666016
437 0.653320
438 0.702148
439 0.687500
440 0.682617
441 0.649414
442 0.683594
443 0.688477
444 0.697266
445 0.708984
446 0.706055
447 0.698242
448 0.728516
449 0.705078
450 0.688477
451 0.695312
452 0.675781
453 0.708008
454 0.727539
455 0.667969
456 0.689453
457 0.731445
458 0.693359
459 0.707031
460 0.718750
461 0.712891
462 0.706055
463 0.708984
464 0.690430
465 0.642578
466 0.718750
467 0.709961
468 0.722656
469 0.679688
470 0.708008
471 0.725586
472 0.715820
473 0.730469
474 0.699219
475 0.721680
476 0.683594
477 0.703125
478 0.691406
479 0.708008
480 0.696289
481 0.688477
482 0.718750
483 0.704102
484 0.703125
485 0.690430
486 0.684570
487 0.716797
488 0.731445
489 0.689453
490 0.717773
491 0.698242
492 0.716797
493 0.702148
494 0.702148
495 0.722656
496 0.729492
497 0.698242
498 0.697266
499 0.716797
500 0.699219
501 0.706055
502 0.711914
503 0.682617
504 0.709961
505 0.719727
506 0.701172
507 0.703125
508 0.688477
509 0.687500
510 0.692383
511 0.691406
512 0.687500
513 0.681641
514 0.682617
515 0.693359
516 0.739258
517 0.731445
518 0.703125
519 0.675781
520 0.690430
521 0.696289
522 0.702148
523 0.699219
524 0.704102
525 0.718750
526 0.703125
527 0.682617
528 0.682617
529 0.667969
530 0.654297
531 0.699219
532 0.683594
533 0.661133
534 0.713867
535 0.696289
536 0.708984
537 0.718750
538 0.693359
539 0.687500
540 0.671875
541 0.666016
542 0.714844
543 0.724609
544 0.704102
545 0.689453
546 0.702148
547 0.699219
548 0.699219
549 0.677734
550 0.727539
551 0.715820
552 0.707031
553 0.685547
554 0.683594
555 0.723633
556 0.716797
557 0.702148
558 0.684570
559 0.697266
560 0.713867
561 0.687500
562 0.703125
563 0.716797
564 0.676758
565 0.710938
566 0.723633
567 0.709961
568 0.680664
569 0.714844
570 0.735352
571 0.729492
572 0.687500
573 0.681641
574 0.722656
575 0.670898
576 0.685547
577 0.708008
578 0.688477
579 0.671875
580 0.686523
581 0.647461
582 0.687500
583 0.710938
584 0.689453
585 0.655273
586 0.691406
587 0.691406
588 0.708984
589 0.707031
590 0.731445
591 0.677734
592 0.711914
593 0.678711
594 0.694336
595 0.686523
596 0.686523
597 0.718750
598 0.699219
599 0.712891
