0 0.482422
1 0.561523
2 0.542969
3 0.557617
4 0.500977
5 0.474609
6 0.499023
7 0.486328
8 0.500000
9 0.517578
10 0.453125
11 0.473633
12 0.479492
13 0.490234
14 0.494141
15 0.471680
16 0.494141
17 0.483398
18 0.515625
19 0.510742
20 0.521484
21 0.470703
22 0.551758
23 0.521484
24 0.462891
25 0.466797
26 0.500977
27 0.486328
28 0.538086
29 0.531250
30 0.506836
31 0.542969
32 0.556641
33 0.527344
34 0.504883
35 0.506836
36 0.503906
37 0.500000
38 0.481445
39 0.552734
40 0.536133
41 0.571289
42 0.555664
43 0.546875
44 0.522461
45 0.555664
46 0.569336
47 0.537109
48 0.537109
49 0.594727
50 0.592773
51 0.597656
52 0.594727
53 0.609375
54 0.593750
55 0.620117
56 0.598633
57 0.597656
58 0.647461
59 0.582031
60 0.638672
61 0.620117
62 0.663086
63 0.637695
64 0.650391
65 0.636719
66 0.592773
67 0.581055
68 0.622070
69 0.621094
70 0.697266
71 0.649414
72 0.654297
73 0.611328
74 0.641602
75 0.589844
76 0.629883
77 0.636719
78 0.641602
79 0.618164
80 0.602539
81 0.597656
82 0.635742
83 0.616211
84 0.660156
85 0.621094
86 0.637695
87 0.689453
88 0.687500
89 0.627930
90 0.652344
91 0.677734
92 0.630859
93 0.648438
94 0.625000
95 0.683594
96 0.623047
97 0.640625
98 0.629883
99 0.583984
100 0.632812
101 0.674805
102 0.618164
103 0.625977
104 0.610352
105 0.654297
106 0.645508
107 0.632812
108 0.621094
109 0.583008
110 0.596680
111 0.612305
112 0.624023
113 0.635742
114 0.631836
115 0.665039
116 0.647461
117 0.646484
118 0.593750
119 0.680664
120 0.689453
121 0.695312
122 0.631836
123 0.662109
124 0.644531
125 0.655273
126 0.650391
127 0.615234
128 0.610352
129 0.628906
130 0.591797
131 0.652344
132 0.636719
133 0.618164
134 0.630859
135 0.641602
136 0.618164
137 0.630859
138 0.675781
139 0.619141
140 0.665039
141 0.647461
142 0.611328
143 0.588867
144 0.607422
145 0.618164
146 0.628906
147 0.609375
148 0.615234
149 0.590820
150 0.616211
151 0.638672
152 0.633789
153 0.656250
154 0.672852
155 0.693359
156 0.654297
157 0.673828
158 0.656250
159 0.670898
160 0.638672
161 0.606445
162 0.635742
163 0.622070
164 0.631836
165 0.639648
166 0.655273
167 0.645508
168 0.633789
169 0.657227
170 0.693359
171 0.622070
172 0.600586
173 0.619141
174 0.663086
175 0.653320
176 0.655273
177 0.665039
178 0.658203
179 0.666016
180 0.651367
181 0.644531
182 0.642578
183 0.645508
184 0.645508
185 0.674805
186 0.634766
187 0.628906
188 0.637695
189 0.616211
190 0.675781
191 0.650391
192 0.657227
193 0.630859
194 0.647461
195 0.640625
196 0.620117
197 0.616211
198 0.648438
199 0.619141
200 0.630859
201 0.602539
202 0.672852
203 0.611328
204 0.648438
205 0.611328
206 0.641602
207 0.692383
208 0.670898
209 0.640625
210 0.594727
211 0.625000
212 0.647461
213 0.629883
214 0.603516
215 0.663086
216 0.636719
217 0.589844
218 0.649414
219 0.657227
220 0.610352
221 0.584961
222 0.620117
223 0.647461
224 0.637695
225 0.672852
226 0.611328
227 0.653320
228 0.688477
229 0.670898
230 0.658203
231 0.666016
232 0.640625
233 0.662109
234 0.652344
235 0.647461
236 0.664062
237 0.653320
238 0.647461
239 0.620117
240 0.615234
241 0.632812
242 0.610352
243 0.603516
244 0.673828
245 0.682617
246 0.669922
247 0.675781
248 0.660156
249 0.653320
250 0.628906
251 0.631836
252 0.677734
253 0.664062
254 0.641602
255 0.637695
256 0.658203
257 0.642578
258 0.664062
259 0.619141
260 0.660156
261 0.636719
262 0.672852
263 0.676758
264 0.607422
265 0.608398
266 0.633789
267 0.642578
268 0.623047
269 0.630859
270 0.639648
271 0.643555
272 0.659180
273 0.663086
274 0.690430
275 0.660156
276 0.651367
277 0.665039
278 0.672852
279 0.653320
280 0.628906
281 0.667969
282 0.666016
283 0.674805
284 0.663086
285 0.660156
286 0.636719
287 0.634766
288 0.645508
289 0.663086
290 0.642578
291 0.643555
292 0.636719
293 0.701172
294 0.676758
295 0.674805
296 0.632812
297 0.590820
298 0.631836
299 0.603516
300 0.637695
301 0.601562
302 0.631836
303 0.610352
304 0.641602
305 0.628906
306 0.612305
307 0.635742
308 0.644531
309 0.622070
310 0.593750
311 0.638672
312 0.620117
313 0.609375
314 0.645508
315 0.588867
316 0.646484
317 0.631836
318 0.587891
319 0.667969
320 0.679688
321 0.637695
322 0.636719
323 0.635742
324 0.666016
325 0.624023
326 0.644531
327 0.667969
328 0.600586
329 0.604492
330 0.629883
331 0.627930
332 0.641602
333 0.638672
334 0.614258
335 0.671875
336 0.626953
337 0.643555
338 0.650391
339 0.656250
340 0.658203
341 0.657227
342 0.676758
343 0.635742
344 0.646484
345 0.669922
346 0.630859
347 0.656250
348 0.604492
349 0.611328
350 0.623047
351 0.669922
352 0.649414
353 0.671875
354 0.687500
355 0.684570
356 0.678711
357 0.670898
358 0.635742
359 0.689453
360 0.649414
361 0.695312
362 0.695312
363 0.648438
364 0.695312
365 0.678711
366 0.662109
367 0.636719
368 0.653320
369 0.638672
370 0.620117
371 0.642578
372 0.572266
373 0.626953
374 0.622070
375 0.608398
376 0.644531
377 0.634766
378 0.658203
379 0.646484
380 0.624023
381 0.617188
382 0.623047
383 0.618164
384 0.634766
385 0.637695
386 0.612305
387 0.632812
388 0.642578
389 0.621094
390 0.659180
391 0.652344
392 0.660156
393 0.649414
394 0.631836
395 0.701172
396 0.660156
397 0.668945
398 0.640625
399 0.628906
400 0.674805
401 0.607422
402 0.667969
403 0.671875
404 0.674805
405 0.658203
406 0.690430
407 0.649414
408 0.646484
409 0.684570
410 0.682617
411 0.653320
412 0.630859
413 0.631836
414 0.664062
415 0.666016
416 0.638672
417 0.662109
418 0.680664
419 0.685547
420 0.706055
421 0.626953
422 0.659180
423 0.624023
424 0.665039
425 0.667969
426 0.654297
427 0.684570
428 0.680664
429 0.645508
430 0.670898
431 0.650391
432 0.675781
433 0.650391
434 0.651367
435 0.659180
436 0.655273
437 0.661133
438 0.676758
439 0.670898
440 0.662109
441 0.664062
442 0.700195
443 0.665039
444 0.650391
445 0.648438
446 0.696289
447 0.632812
448 0.646484
449 0.604492
450 0.635742
451 0.648438
452 0.675781
453 0.643555
454 0.668945
455 0.641602
456 0.654297
457 0.642578
458 0.650391
459 0.678711
460 0.651367
461 0.650391
462 0.643555
463 0.635742
464 0.640625
465 0.684570
466 0.666016
467 0.677734
468 0.669922
469 0.654297
470 0.638672
471 0.658203
472 0.642578
473 0.643555
474 0.641602
475 0.648438
476 0.604492
477 0.649414
478 0.612305
479 0.629883
480 0.664062
481 0.613281
482 0.651367
483 0.649414
484 0.702148
485 0.679688
486 0.699219
487 0.609375
488 0.690430
489 0.631836
490 0.640625
491 0.661133
492 0.671875
493 0.677734
494 0.690430
495 0.670898
496 0.631836
497 0.687500
498 0.687500
499 0.713867
500 0.667969
501 0.686523
502 0.692383
503 0.706055
504 0.694336
505 0.673828
506 0.682617
507 0.675781
508 0.627930
509 0.644531
510 0.639648
511 0.626953
512 0.701172
513 0.664062
514 0.666992
515 0.637695
516 0.651367
517 0.669922
518 0.673828
519 0.700195
520 0.657227
521 0.692383
522 0.686523
523 0.711914
524 0.659180
525 0.668945
526 0.686523
527 0.699219
528 0.676758
529 0.695312
530 0.645508
531 0.635742
532 0.673828
533 0.651367
534 0.687500
535 0.665039
536 0.605469
537 0.635742
538 0.611328
539 0.632812
540 0.628906
541 0.653320
542 0.655273
543 0.637695
544 0.639648
545 0.649414
546 0.624023
547 0.665039
548 0.643555
549 0.640625
550 0.625977
551 0.670898
552 0.623047
553 0.669922
554 0.672852
555 0.640625
556 0.627930
557 0.652344
558 0.630859
559 0.649414
560 0.653320
561 0.656250
562 0.674805
563 0.628906
564 0.640625
565 0.639648
566 0.621094
567 0.656250
568 0.600586
569 0.625000
570 0.661133
571 0.621094
572 0.651367
573 0.627930
574 0.655273
575 0.666016
576 0.660156
577 0.639648
578 0.642578
579 0.681641
580 0.673828
581 0.634766
582 0.686523
583 0.666992
584 0.648438
585 0.627930
586 0.692383
587 0.649414
588 0.662109
589 0.674805
590 0.662109
591 0.651367
592 0.675781
593 0.686523
594 0.660156
595 0.654297
596 0.613281
597 0.685547
598 0.695312
599 0.653320
