0 0.523438
1 0.550781
2 0.500000
3 0.479492
4 0.575195
5 0.469727
6 0.459961
7 0.474609
8 0.558594
9 0.551758
10 0.497070
11 0.530273
12 0.535156
13 0.528320
14 0.501953
15 0.519531
16 0.503906
17 0.515625
18 0.480469
19 0.502930
20 0.487305
21 0.476562
22 0.494141
23 0.499023
24 0.544922
25 0.504883
26 0.482422
27 0.474609
28 0.505859
29 0.449219
30 0.460938
31 0.472656
32 0.481445
33 0.461914
34 0.457031
35 0.453125
36 0.475586
37 0.478516
38 0.476562
39 0.469727
40 0.481445
41 0.531250
42 0.480469
43 0.504883
44 0.506836
45 0.541016
46 0.490234
47 0.472656
48 0.530273
49 0.551758
50 0.600586
51 0.646484
52 0.642578
53 0.638672
54 0.597656
55 0.630859
56 0.647461
57 0.628906
58 0.666992
59 0.635742
60 0.648438
61 0.635742
62 0.603516
63 0.617188
64 0.622070
65 0.622070
66 0.656250
67 0.620117
68 0.627930
69 0.617188
70 0.629883
71 0.589844
72 0.628906
73 0.588867
74 0.643555
75 0.652344
76 0.638672
77 0.615234
78 0.622070
79 0.639648
80 0.650391
81 0.630859
82 0.633789
83 0.642578
84 0.645508
85 0.634766
86 0.622070
87 0.596680
88 0.618164
89 0.646484
90 0.638672
91 0.613281
92 0.575195
93 0.610352
94 0.649414
95 0.629883
96 0.680664
97 0.639648
98 0.662109
99 0.613281
100 0.653320
101 0.632812
102 0.655273
103 0.655273
104 0.651367
105 0.629883
106 0.614258
107 0.625977
108 0.615234
109 0.613281
110 0.623047
111 0.615234
112 0.676758
113 0.626953
114 0.666992
115 0.634766
116 0.625977
117 0.660156
118 0.608398
119 0.669922
120 0.639648
121 0.666992
122 0.672852
123 0.636719
124 0.622070
125 0.659180
126 0.631836
127 0.655273
128 0.686523
129 0.693359
130 0.666016
131 0.611328
132 0.651367
133 0.682617
134 0.625977
135 0.628906
136 0.636719
137 0.625977
138 0.658203
139 0.649414
140 0.626953
141 0.638672
142 0.658203
143 0.636719
144 0.649414
145 0.632812
146 0.631836
147 0.669922
148 0.662109
149 0.656250
150 0.638672
151 0.633789
152 0.648438
153 0.686523
154 0.632812
155 0.632812
156 0.631836
157 0.654297
158 0.657227
159 0.654297
160 0.602539
161 0.622070
162 0.627930
163 0.609375
164 0.661133
165 0.630859
166 0.640625
167 0.619141
168 0.681641
169 0.667969
170 0.593750
171 0.647461
172 0.641602
173 0.621094
174 0.637695
175 0.660156
176 0.617188
177 0.616211
178 0.665039
179 0.636719
180 0.655273
181 0.638672
182 0.625977
183 0.681641
184 0.611328
185 0.658203
186 0.663086
187 0.633789
188 0.635742
189 0.639648
190 0.624023
191 0.631836
192 0.623047
193 0.664062
194 0.637695
195 0.631836
196 0.622070
197 0.636719
198 0.645508
199 0.666016
200 0.661133
201 0.653320
202 0.653320
203 0.644531
204 0.625000
205 0.653320
206 0.641602
207 0.638672
208 0.621094
209 0.634766
210 0.654297
211 0.633789
212 0.652344
213 0.629883
214 0.618164
215 0.661133
216 0.662109
217 0.673828
218 0.651367
219 0.657227
220 0.609375
221 0.644531
222 0.663086
223 0.623047
224 0.624023
225 0.619141
226 0.612305
227 0.623047
228 0.603516
229 0.671875
230 0.667969
231 0.665039
232 0.672852
233 0.617188
234 0.665039
235 0.635742
236 0.614258
237 0.660156
238 0.616211
239 0.660156
240 0.679688
241 0.656250
242 0.624023
243 0.643555
244 0.644531
245 0.621094
246 0.681641
247 0.689453
248 0.652344
249 0.661133
250 0.634766
251 0.637695
252 0.609375
253 0.624023
254 0.623047
255 0.611328
256 0.643555
257 0.648438
258 0.627930
259 0.658203
260 0.627930
261 0.650391
262 0.663086
263 0.648438
264 0.655273
265 0.655273
266 0.662109
267 0.652344
268 0.623047
269 0.635742
270 0.644531
271 0.638672
272 0.638672
273 0.632812
274 0.645508
275 0.653320
276 0.659180
277 0.643555
278 0.630859
279 0.643555
280 0.625000
281 0.661133
282 0.633789
283 0.637695
284 0.628906
285 0.613281
286 0.653320
287 0.639648
288 0.624023
289 0.606445
290 0.594727
291 0.579102
292 0.632812
293 0.654297
294 0.664062
295 0.662109
296 0.635742
297 0.639648
298 0.627930
299 0.655273
300 0.659180
301 0.671875
302 0.653320
303 0.637695
304 0.608398
305 0.666016
306 0.694336
307 0.660156
308 0.689453
309 0.635742
310 0.649414
311 0.640625
312 0.638672
313 0.660156
314 0.611328
315 0.661133
316 0.647461
317 0.657227
318 0.626953
319 0.637695
320 0.646484
321 0.607422
322 0.615234
323 0.638672
324 0.655273
325 0.636719
326 0.628906
327 0.608398
328 0.628906
329 0.717773
330 0.660156
331 0.652344
332 0.586914
333 0.599609
334 0.627930
335 0.632812
336 0.650391
337 0.607422
338 0.647461
339 0.623047
340 0.660156
341 0.677734
342 0.669922
343 0.620117
344 0.672852
345 0.617188
346 0.640625
347 0.666992
348 0.632812
349 0.640625
350 0.623047
351 0.662109
352 0.672852
353 0.616211
354 0.632812
355 0.670898
356 0.641602
357 0.624023
358 0.640625
359 0.662109
360 0.649414
361 0.662109
362 0.624023
363 0.628906
364 0.643555
365 0.683594
366 0.674805
367 0.644531
368 0.673828
369 0.633789
370 0.612305
371 0.650391
372 0.628906
373 0.608398
374 0.619141
375 0.610352
376 0.639648
377 0.638672
378 0.627930
379 0.666016
380 0.662109
381 0.648438
382 0.635742
383 0.659180
384 0.655273
385 0.645508
386 0.615234
387 0.611328
388 0.621094
389 0.646484
390 0.632812
391 0.617188
392 0.649414
393 0.627930
394 0.655273
395 0.673828
396 0.662109
397 0.652344
398 0.653320
399 0.651367
400 0.634766
401 0.635742
402 0.633789
403 0.663086
404 0.672852
405 0.650391
406 0.655273
407 0.681641
408 0.667969
409 0.641602
410 0.628906
411 0.668945
412 0.665039
413 0.653320
414 0.625000
415 0.636719
416 0.652344
417 0.702148
418 0.615234
419 0.661133
420 0.652344
421 0.663086
422 0.617188
423 0.620117
424 0.619141
425 0.625977
426 0.615234
427 0.661133
428 0.615234
429 0.641602
430 0.610352
431 0.638672
432 0.645508
433 0.651367
434 0.666992
435 0.633789
436 0.657227
437 0.632812
438 0.667969
439 0.659180
440 0.620117
441 0.579102
442 0.606445
443 0.658203
444 0.630859
445 0.629883
446 0.643555
447 0.650391
448 0.665039
449 0.638672
450 0.669922
451 0.633789
452 0.644531
453 0.641602
454 0.623047
455 0.656250
456 0.613281
457 0.620117
458 0.642578
459 0.645508
460 0.635742
461 0.651367
462 0.615234
463 0.651367
464 0.647461
465 0.673828
466 0.630859
467 0.628906
468 0.665039
469 0.649414
470 0.637695
471 0.641602
472 0.616211
473 0.620117
474 0.638672
475 0.622070
476 0.623047
477 0.650391
478 0.652344
479 0.621094
480 0.646484
481 0.624023
482 0.614258
483 0.631836
484 0.648438
485 0.604492
486 0.616211
487 0.649414
488 0.636719
489 0.638672
490 0.635742
491 0.619141
492 0.655273
493 0.676758
494 0.647461
495 0.654297
496 0.618164
497 0.649414
498 0.689453
499 0.639648
500 0.636719
501 0.630859
502 0.642578
503 0.655273
504 0.618164
505 0.657227
506 0.623047
507 0.659180
508 0.606445
509 0.653320
510 0.681641
511 0.692383
512 0.681641
513 0.646484
514 0.674805
515 0.641602
516 0.677734
517 0.648438
518 0.655273
519 0.651367
520 0.667969
521 0.629883
522 0.651367
523 0.662109
524 0.656250
525 0.645508
526 0.666016
527 0.653320
528 0.631836
529 0.632812
530 0.647461
531 0.645508
532 0.644531
533 0.633789
534 0.638672
535 0.642578
536 0.617188
537 0.656250
538 0.646484
539 0.659180
540 0.641602
541 0.638672
542 0.679688
543 0.634766
544 0.617188
545 0.638672
546 0.613281
547 0.627930
548 0.619141
549 0.627930
550 0.639648
551 0.648438
552 0.641602
553 0.663086
554 0.640625
555 0.658203
556 0.663086
557 0.621094
558 0.631836
559 0.648438
560 0.650391
561 0.642578
562 0.623047
563 0.668945
564 0.632812
565 0.622070
566 0.622070
567 0.670898
568 0.625977
569 0.662109
570 0.616211
571 0.658203
572 0.650391
573 0.645508
574 0.651367
575 0.646484
576 0.665039
577 0.704102
578 0.629883
579 0.644531
580 0.661133
581 0.654297
582 0.610352
583 0.641602
584 0.630859
585 0.625977
586 0.640625
587 0.650391
588 0.639648
589 0.626953
590 0.654297
591 0.653320
592 0.671875
593 0.644531
594 0.688477
595 0.675781
596 0.660156
597 0.631836
598 0.644531
599 0.645508
