0 0.498047
1 0.514648
2 0.495117
3 0.540039
4 0.532227
5 0.531250
6 0.530273
7 0.534180
8 0.518555
9 0.472656
10 0.478516
11 0.477539
12 0.463867
13 0.516602
14 0.514648
15 0.509766
16 0.499023
17 0.469727
18 0.501953
19 0.496094
20 0.548828
21 0.510742
22 0.547852
23 0.528320
24 0.495117
25 0.548828
26 0.526367
27 0.545898
28 0.518555
29 0.530273
30 0.472656
31 0.535156
32 0.510742
33 0.491211
34 0.472656
35 0.482422
36 0.527344
37 0.551758
38 0.416992
39 0.508789
40 0.468750
41 0.475586
42 0.485352
43 0.463867
44 0.480469
45 0.525391
46 0.450195
47 0.476562
48 0.502930
49 0.458984
50 0.489258
51 0.487305
52 0.468750
53 0.452148
54 0.506836
55 0.505859
56 0.463867
57 0.454102
58 0.489258
59 0.486328
60 0.460938
61 0.482422
62 0.492188
63 0.475586
64 0.488281
65 0.475586
66 0.505859
67 0.495117
68 0.467773
69 0.461914
70 0.502930
71 0.489258
72 0.510742
73 0.497070
74 0.546875
75 0.549805
76 0.537109
77 0.526367
78 0.554688
79 0.576172
80 0.544922
81 0.558594
82 0.531250
83 0.581055
84 0.597656
85 0.618164
86 0.629883
87 0.650391
88 0.569336
89 0.583984
90 0.624023
91 0.552734
92 0.609375
93 0.607422
94 0.601562
95 0.576172
96 0.570312
97 0.592773
98 0.603516
99 0.575195
100 0.598633
101 0.596680
102 0.606445
103 0.570312
104 0.616211
105 0.585938
106 0.586914
107 0.573242
108 0.592773
109 0.584961
110 0.612305
111 0.576172
112 0.578125
113 0.609375
114 0.625000
115 0.629883
116 0.571289
117 0.602539
118 0.580078
119 0.562500
120 0.560547
121 0.568359
122 0.627930
123 0.596680
124 0.551758
125 0.609375
126 0.608398
127 0.581055
128 0.549805
129 0.626953
130 0.600586
131 0.611328
132 0.616211
133 0.602539
134 0.603516
135 0.614258
136 0.583008
137 0.605469
138 0.607422
139 0.592773
140 0.593750
141 0.607422
142 0.542969
143 0.587891
144 0.619141
145 0.633789
146 0.601562
147 0.628906
148 0.633789
149 0.621094
150 0.603516
151 0.566406
152 0.588867
153 0.563477
154 0.615234
155 0.588867
156 0.579102
157 0.605469
158 0.601562
159 0.592773
160 0.567383
161 0.590820
162 0.615234
163 0.599609
164 0.618164
165 0.625000
166 0.581055
167 0.596680
168 0.605469
169 0.601562
170 0.560547
171 0.599609
172 0.615234
173 0.578125
174 0.586914
175 0.549805
176 0.579102
177 0.604492
178 0.589844
179 0.574219
180 0.600586
181 0.618164
182 0.587891
183 0.610352
184 0.602539
185 0.570312
186 0.614258
187 0.607422
188 0.606445
189 0.570312
190 0.583984
191 0.559570
192 0.576172
193 0.620117
194 0.652344
195 0.630859
196 0.599609
197 0.670898
198 0.603516
199 0.635742
200 0.575195
201 0.604492
202 0.571289
203 0.649414
204 0.646484
205 0.657227
206 0.603516
207 0.606445
208 0.595703
209 0.585938
210 0.563477
211 0.581055
212 0.612305
213 0.620117
214 0.622070
215 0.614258
216 0.596680
217 0.617188
218 0.573242
219 0.591797
220 0.617188
221 0.596680
222 0.596680
223 0.600586
224 0.590820
225 0.566406
226 0.603516
227 0.613281
228 0.599609
229 0.620117
230 0.593750
231 0.615234
232 0.578125
233 0.611328
234 0.644531
235 0.588867
236 0.610352
237 0.594727
238 0.610352
239 0.610352
240 0.628906
241 0.648438
242 0.641602
243 0.604492
244 0.601562
245 0.610352
246 0.593750
247 0.605469
248 0.586914
249 0.625977
250 0.623047
251 0.652344
252 0.625000
253 0.611328
254 0.604492
255 0.652344
256 0.589844
257 0.605469
258 0.582031
259 0.577148
260 0.599609
261 0.620117
262 0.595703
263 0.597656
264 0.583984
265 0.599609
266 0.603516
267 0.573242
268 0.589844
269 0.567383
270 0.613281
271 0.580078
272 0.637695
273 0.601562
274 0.615234
275 0.630859
276 0.598633
277 0.592773
278 0.590820
279 0.612305
280 0.599609
281 0.595703
282 0.593750
283 0.584961
284 0.589844
285 0.596680
286 0.630859
287 0.625000
288 0.604492
289 0.608398
290 0.560547
291 0.589844
292 0.606445
293 0.617188
294 0.617188
295 0.554688
296 0.608398
297 0.595703
298 0.617188
299 0.632812
300 0.630859
301 0.561523
302 0.548828
303 0.585938
304 0.568359
305 0.589844
306 0.566406
307 0.635742
308 0.611328
309 0.638672
310 0.626953
311 0.591797
312 0.597656
313 0.582031
314 0.605469
315 0.587891
316 0.639648
317 0.631836
318 0.609375
319 0.619141
320 0.612305
321 0.577148
322 0.608398
323 0.592773
324 0.613281
325 0.597656
326 0.572266
327 0.631836
328 0.623047
329 0.580078
330 0.615234
331 0.641602
332 0.609375
333 0.625000
334 0.621094
335 0.629883
336 0.635742
337 0.580078
338 0.613281
339 0.638672
340 0.617188
341 0.633789
342 0.622070
343 0.642578
344 0.625977
345 0.597656
346 0.669922
347 0.650391
348 0.591797
349 0.628906
350 0.655273
351 0.645508
352 0.619141
353 0.616211
354 0.597656
355 0.638672
356 0.593750
357 0.605469
358 0.596680
359 0.628906
360 0.633789
361 0.614258
362 0.631836
363 0.606445
364 0.609375
365 0.596680
366 0.602539
367 0.588867
368 0.629883
369 0.612305
370 0.645508
371 0.620117
372 0.609375
373 0.611328
374 0.613281
375 0.652344
376 0.637695
377 0.624023
378 0.607422
379 0.589844
380 0.579102
381 0.641602
382 0.592773
383 0.584961
384 0.638672
385 0.592773
386 0.628906
387 0.609375
388 0.588867
389 0.599609
390 0.570312
391 0.624023
392 0.628906
393 0.603516
394 0.559570
395 0.618164
396 0.604492
397 0.633789
398 0.559570
399 0.588867
400 0.613281
401 0.595703
402 0.600586
403 0.609375
404 0.606445
405 0.629883
406 0.533203
407 0.567383
408 0.600586
409 0.624023
410 0.595703
411 0.604492
412 0.598633
413 0.612305
414 0.588867
415 0.594727
416 0.594727
417 0.596680
418 0.601562
419 0.611328
420 0.606445
421 0.588867
422 0.613281
423 0.603516
424 0.614258
425 0.594727
426 0.618164
427 0.617188
428 0.651367
429 0.619141
430 0.617188
431 0.589844
432 0.599609
433 0.609375
434 0.584961
435 0.612305
436 0.616211
437 0.603516
438 0.616211
439 0.621094
440 0.599609
441 0.594727
442 0.571289
443 0.604492
444 0.601562
445 0.586914
446 0.613281
447 0.600586
448 0.621094
449 0.625977
450 0.600586
451 0.639648
452 0.605469
453 0.573242
454 0.606445
455 0.558594
456 0.604492
457 0.583008
458 0.608398
459 0.619141
460 0.591797
461 0.606445
462 0.594727
463 0.593750
464 0.597656
465 0.606445
466 0.604492
467 0.536133
468 0.598633
469 0.588867
470 0.593750
471 0.569336
472 0.599609
473 0.644531
474 0.612305
475 0.614258
476 0.598633
477 0.616211
478 0.607422
479 0.596680
480 0.616211
481 0.643555
482 0.610352
483 0.590820
484 0.609375
485 0.606445
486 0.616211
487 0.601562
488 0.616211
489 0.621094
490 0.601562
491 0.610352
492 0.610352
493 0.623047
494 0.610352
495 0.613281
496 0.634766
497 0.595703
498 0.630859
499 0.623047
500 0.583008
501 0.550781
502 0.585938
503 0.617188
504 0.591797
505 0.595703
506 0.589844
507 0.615234
508 0.559570
509 0.562500
510 0.576172
511 0.593750
512 0.611328
513 0.598633
514 0.554688
515 0.596680
516 0.583008
517 0.625000
518 0.676758
519 0.613281
520 0.603516
521 0.623047
522 0.606445
523 0.658203
524 0.552734
525 0.615234
526 0.626953
527 0.602539
528 0.604492
529 0.597656
530 0.584961
531 0.599609
532 0.610352
533 0.619141
534 0.595703
535 0.638672
536 0.582031
537 0.595703
538 0.585938
539 0.555664
540 0.587891
541 0.566406
542 0.614258
543 0.607422
544 0.642578
545 0.635742
546 0.604492
547 0.625977
548 0.591797
549 0.624023
550 0.617188
551 0.622070
552 0.625977
553 0.599609
554 0.589844
555 0.600586
556 0.631836
557 0.607422
558 0.623047
559 0.606445
560 0.599609
561 0.567383
562 0.579102
563 0.620117
564 0.565430
565 0.625977
566 0.598633
567 0.600586
568 0.623047
569 0.585938
570 0.622070
571 0.616211
572 0.632812
573 0.627930
574 0.609375
575 0.595703
576 0.616211
577 0.600586
578 0.593750
579 0.618164
580 0.623047
581 0.592773
582 0.605469
583 0.574219
584 0.664062
585 0.608398
586 0.616211
587 0.558594
588 0.599609
589 0.618164
590 0.612305
591 0.595703
592 0.623047
593 0.614258
594 0.628906
595 0.611328
596 0.617188
597 0.606445
598 0.565430
599 0.625000
