0 0.515625
1 0.493164
2 0.492188
3 0.473633
4 0.498047
5 0.516602
6 0.498047
7 0.525391
8 0.536133
9 0.512695
10 0.493164
11 0.531250
12 0.453125
13 0.486328
14 0.516602
15 0.515625
16 0.487305
17 0.511719
18 0.493164
19 0.497070
20 0.493164
21 0.520508
22 0.430664
23 0.503906
24 0.495117
25 0.518555
26 0.509766
27 0.487305
28 0.498047
29 0.496094
30 0.491211
31 0.518555
32 0.504883
33 0.507812
34 0.497070
35 0.512695
36 0.486328
37 0.487305
38 0.491211
39 0.500000
40 0.502930
41 0.544922
42 0.502930
43 0.503906
44 0.512695
45 0.488281
46 0.470703
47 0.501953
48 0.498047
49 0.499023
50 0.529297
51 0.515625
52 0.507812
53 0.509766
54 0.491211
55 0.516602
56 0.533203
57 0.539062
58 0.539062
59 0.487305
60 0.524414
61 0.550781
62 0.517578
63 0.525391
64 0.496094
65 0.540039
66 0.522461
67 0.561523
68 0.568359
69 0.566406
70 0.558594
71 0.584961
72 0.612305
73 0.608398
74 0.566406
75 0.560547
76 0.580078
77 0.535156
78 0.606445
79 0.537109
80 0.542969
81 0.571289
82 0.588867
83 0.584961
84 0.601562
85 0.579102
86 0.636719
87 0.553711
88 0.567383
89 0.586914
90 0.591797
91 0.557617
92 0.566406
93 0.531250
94 0.605469
95 0.571289
96 0.594727
97 0.558594
98 0.541992
99 0.591797
100 0.540039
101 0.606445
102 0.583008
103 0.590820
104 0.552734
105 0.593750
106 0.592773
107 0.593750
108 0.564453
109 0.596680
110 0.613281
111 0.609375
112 0.562500
113 0.605469
114 0.592773
115 0.577148
116 0.624023
117 0.577148
118 0.574219
119 0.566406
120 0.564453
121 0.623047
122 0.636719
123 0.614258
124 0.600586
125 0.588867
126 0.579102
127 0.613281
128 0.569336
129 0.567383
130 0.532227
131 0.583008
132 0.577148
133 0.586914
134 0.582031
135 0.594727
136 0.560547
137 0.552734
138 0.580078
139 0.560547
140 0.564453
141 0.582031
142 0.610352
143 0.628906
144 0.575195
145 0.578125
146 0.624023
147 0.580078
148 0.599609
149 0.570312
150 0.618164
151 0.566406
152 0.584961
153 0.588867
154 0.587891
155 0.622070
156 0.589844
157 0.604492
158 0.607422
159 0.563477
160 0.569336
161 0.584961
162 0.600586
163 0.603516
164 0.590820
165 0.606445
166 0.643555
167 0.609375
168 0.613281
169 0.584961
170 0.638672
171 0.601562
172 0.609375
173 0.572266
174 0.576172
175 0.570312
176 0.565430
177 0.588867
178 0.620117
179 0.572266
180 0.586914
181 0.598633
182 0.559570
183 0.567383
184 0.578125
185 0.575195
186 0.607422
187 0.613281
188 0.643555
189 0.628906
190 0.605469
191 0.616211
192 0.583984
193 0.597656
194 0.526367
195 0.600586
196 0.619141
197 0.588867
198 0.585938
199 0.625000
200 0.601562
201 0.561523
202 0.626953
203 0.604492
204 0.569336
205 0.580078
206 0.607422
207 0.590820
208 0.594727
209 0.617188
210 0.591797
211 0.581055
212 0.604492
213 0.553711
214 0.583984
215 0.607422
216 0.590820
217 0.597656
218 0.590820
219 0.569336
220 0.565430
221 0.576172
222 0.559570
223 0.588867
224 0.549805
225 0.588867
226 0.601562
227 0.611328
228 0.565430
229 0.552734
230 0.557617
231 0.565430
232 0.583984
233 0.603516
234 0.584961
235 0.556641
236 0.602539
237 0.612305
238 0.661133
239 0.583008
240 0.538086
241 0.611328
242 0.580078
243 0.549805
244 0.587891
245 0.590820
246 0.560547
247 0.576172
248 0.554688
249 0.569336
250 0.584961
251 0.620117
252 0.557617
253 0.593750
254 0.577148
255 0.608398
256 0.582031
257 0.605469
258 0.582031
259 0.595703
260 0.595703
261 0.597656
262 0.579102
263 0.585938
264 0.628906
265 0.603516
266 0.566406
267 0.577148
268 0.571289
269 0.574219
270 0.615234
271 0.609375
272 0.600586
273 0.578125
274 0.626953
275 0.597656
276 0.599609
277 0.595703
278 0.613281
279 0.579102
280 0.584961
281 0.590820
282 0.594727
283 0.557617
284 0.572266
285 0.602539
286 0.583008
287 0.579102
288 0.624023
289 0.592773
290 0.618164
291 0.606445
292 0.592773
293 0.569336
294 0.606445
295 0.571289
296 0.600586
297 0.616211
298 0.613281
299 0.621094
300 0.596680
301 0.597656
302 0.589844
303 0.591797
304 0.564453
305 0.569336
306 0.577148
307 0.561523
308 0.590820
309 0.555664
310 0.535156
311 0.572266
312 0.612305
313 0.635742
314 0.542969
315 0.645508
316 0.552734
317 0.572266
318 0.572266
319 0.562500
320 0.588867
321 0.550781
322 0.614258
323 0.596680
324 0.628906
325 0.594727
326 0.566406
327 0.596680
328 0.593750
329 0.595703
330 0.578125
331 0.597656
332 0.576172
333 0.583984
334 0.615234
335 0.580078
336 0.600586
337 0.588867
338 0.633789
339 0.617188
340 0.593750
341 0.632812
342 0.605469
343 0.603516
344 0.577148
345 0.591797
346 0.583008
347 0.584961
348 0.554688
349 0.538086
350 0.564453
351 0.568359
352 0.602539
353 0.617188
354 0.604492
355 0.569336
356 0.566406
357 0.623047
358 0.652344
359 0.599609
360 0.583984
361 0.574219
362 0.582031
363 0.579102
364 0.576172
365 0.580078
366 0.624023
367 0.567383
368 0.615234
369 0.594727
370 0.599609
371 0.630859
372 0.604492
373 0.605469
374 0.593750
375 0.594727
376 0.621094
377 0.576172
378 0.552734
379 0.571289
380 0.632812
381 0.582031
382 0.569336
383 0.589844
384 0.594727
385 0.556641
386 0.620117
387 0.580078
388 0.626953
389 0.600586
390 0.573242
391 0.642578
392 0.623047
393 0.626953
394 0.636719
395 0.604492
396 0.628906
397 0.649414
398 0.572266
399 0.623047
400 0.617188
401 0.608398
402 0.607422
403 0.569336
404 0.608398
405 0.572266
406 0.582031
407 0.626953
408 0.568359
409 0.588867
410 0.574219
411 0.600586
412 0.641602
413 0.570312
414 0.584961
415 0.585938
416 0.578125
417 0.605469
418 0.594727
419 0.583008
420 0.583984
421 0.580078
422 0.621094
423 0.552734
424 0.538086
425 0.598633
426 0.568359
427 0.568359
428 0.582031
429 0.617188
430 0.613281
431 0.620117
432 0.622070
433 0.619141
434 0.644531
435 0.618164
436 0.624023
437 0.584961
438 0.600586
439 0.611328
440 0.578125
441 0.603516
442 0.573242
443 0.619141
444 0.595703
445 0.587891
446 0.599609
447 0.561523
448 0.601562
449 0.592773
450 0.636719
451 0.607422
452 0.560547
453 0.576172
454 0.573242
455 0.581055
456 0.556641
457 0.571289
458 0.543945
459 0.625000
460 0.585938
461 0.600586
462 0.598633
463 0.611328
464 0.563477
465 0.589844
466 0.629883
467 0.583984
468 0.602539
469 0.627930
470 0.620117
471 0.596680
472 0.582031
473 0.635742
474 0.595703
475 0.596680
476 0.550781
477 0.639648
478 0.590820
479 0.597656
480 0.558594
481 0.586914
482 0.570312
483 0.588867
484 0.543945
485 0.574219
486 0.631836
487 0.618164
488 0.635742
489 0.584961
490 0.604492
491 0.584961
492 0.624023
493 0.609375
494 0.630859
495 0.610352
496 0.598633
497 0.592773
498 0.578125
499 0.604492
500 0.613281
501 0.606445
502 0.610352
503 0.604492
504 0.625977
505 0.606445
506 0.601562
507 0.585938
508 0.601562
509 0.568359
510 0.601562
511 0.585938
512 0.593750
513 0.599609
514 0.604492
515 0.607422
516 0.584961
517 0.610352
518 0.607422
519 0.622070
520 0.566406
521 0.588867
522 0.596680
523 0.583984
524 0.610352
525 0.591797
526 0.590820
527 0.601562
528 0.585938
529 0.568359
530 0.594727
531 0.579102
532 0.589844
533 0.570312
534 0.621094
535 0.577148
536 0.609375
537 0.600586
538 0.574219
539 0.588867
540 0.609375
541 0.603516
542 0.608398
543 0.561523
544 0.570312
545 0.583984
546 0.623047
547 0.602539
548 0.570312
549 0.603516
550 0.590820
551 0.613281
552 0.580078
553 0.606445
554 0.590820
555 0.615234
556 0.623047
557 0.579102
558 0.581055
559 0.602539
560 0.583008
561 0.613281
562 0.601562
563 0.598633
564 0.612305
565 0.619141
566 0.624023
567 0.613281
568 0.650391
569 0.641602
570 0.583008
571 0.560547
572 0.594727
573 0.565430
574 0.599609
575 0.582031
576 0.626953
577 0.616211
578 0.610352
579 0.620117
580 0.565430
581 0.609375
582 0.625977
583 0.601562
584 0.638672
585 0.560547
586 0.587891
587 0.562500
588 0.566406
589 0.592773
590 0.578125
591 0.621094
592 0.595703
593 0.610352
594 0.610352
595 0.613281
596 0.618164
597 0.589844
598 0.587891
599 0.610352
