0 0.490234
1 0.497070
2 0.543945
3 0.517578
4 0.451172
5 0.452148
6 0.470703
7 0.466797
8 0.461914
9 0.511719
10 0.510742
11 0.475586
12 0.500000
13 0.473633
14 0.521484
15 0.493164
16 0.516602
17 0.508789
18 0.463867
19 0.506836
20 0.483398
21 0.460938
22 0.492188
23 0.489258
24 0.488281
25 0.474609
26 0.512695
27 0.512695
28 0.504883
29 0.493164
30 0.463867
31 0.498047
32 0.519531
33 0.502930
34 0.475586
35 0.515625
36 0.528320
37 0.455078
38 0.533203
39 0.546875
40 0.542969
41 0.511719
42 0.520508
43 0.487305
44 0.523438
45 0.419922
46 0.517578
47 0.531250
48 0.529297
49 0.510742
50 0.532227
51 0.514648
52 0.505859
53 0.537109
54 0.523438
55 0.496094
56 0.522461
57 0.496094
58 0.554688
59 0.532227
60 0.540039
61 0.518555
62 0.541992
63 0.530273
64 0.522461
65 0.558594
66 0.560547
67 0.569336
68 0.576172
69 0.583984
70 0.570312
71 0.581055
72 0.583008
73 0.591797
74 0.564453
75 0.574219
76 0.585938
77 0.624023
78 0.619141
79 0.602539
80 0.586914
81 0.587891
82 0.575195
83 0.587891
84 0.592773
85 0.576172
86 0.600586
87 0.569336
88 0.572266
89 0.605469
90 0.568359
91 0.566406
92 0.568359
93 0.605469
94 0.601562
95 0.603516
96 0.598633
97 0.583984
98 0.574219
99 0.591797
100 0.630859
101 0.562500
102 0.588867
103 0.603516
104 0.593750
105 0.604492
106 0.580078
107 0.616211
108 0.587891
109 0.588867
110 0.629883
111 0.564453
112 0.606445
113 0.610352
114 0.585938
115 0.590820
116 0.594727
117 0.599609
118 0.610352
119 0.608398
120 0.583984
121 0.552734
122 0.587891
123 0.598633
124 0.584961
125 0.581055
126 0.610352
127 0.567383
128 0.569336
129 0.567383
130 0.581055
131 0.581055
132 0.577148
133 0.529297
134 0.576172
135 0.583008
136 0.580078
137 0.541016
138 0.570312
139 0.589844
140 0.606445
141 0.576172
142 0.631836
143 0.638672
144 0.607422
145 0.630859
146 0.607422
147 0.639648
148 0.667969
149 0.598633
150 0.611328
151 0.590820
152 0.611328
153 0.612305
154 0.621094
155 0.596680
156 0.609375
157 0.615234
158 0.610352
159 0.579102
160 0.608398
161 0.626953
162 0.620117
163 0.587891
164 0.565430
165 0.565430
166 0.583008
167 0.590820
168 0.555664
169 0.594727
170 0.599609
171 0.605469
172 0.625000
173 0.584961
174 0.616211
175 0.596680
176 0.580078
177 0.596680
178 0.595703
179 0.576172
180 0.594727
181 0.569336
182 0.606445
183 0.604492
184 0.587891
185 0.571289
186 0.589844
187 0.567383
188 0.577148
189 0.531250
190 0.600586
191 0.625977
192 0.614258
193 0.593750
194 0.567383
195 0.586914
196 0.624023
197 0.566406
198 0.590820
199 0.611328
200 0.567383
201 0.591797
202 0.603516
203 0.605469
204 0.595703
205 0.596680
206 0.568359
207 0.553711
208 0.606445
209 0.594727
210 0.612305
211 0.633789
212 0.639648
213 0.606445
214 0.618164
215 0.592773
216 0.581055
217 0.622070
218 0.629883
219 0.617188
220 0.574219
221 0.615234
222 0.595703
223 0.585938
224 0.598633
225 0.616211
226 0.598633
227 0.573242
228 0.603516
229 0.557617
230 0.593750
231 0.578125
232 0.591797
233 0.639648
234 0.607422
235 0.588867
236 0.593750
237 0.601562
238 0.606445
239 0.574219
240 0.590820
241 0.609375
242 0.595703
243 0.625977
244 0.603516
245 0.578125
246 0.592773
247 0.585938
248 0.627930
249 0.565430
250 0.586914
251 0.583984
252 0.590820
253 0.570312
254 0.560547
255 0.598633
256 0.622070
257 0.605469
258 0.598633
259 0.590820
260 0.586914
261 0.601562
262 0.591797
263 0.592773
264 0.614258
265 0.629883
266 0.617188
267 0.618164
268 0.599609
269 0.594727
270 0.587891
271 0.604492
272 0.590820
273 0.584961
274 0.631836
275 0.601562
276 0.607422
277 0.639648
278 0.632812
279 0.585938
280 0.598633
281 0.588867
282 0.602539
283 0.563477
284 0.608398
285 0.621094
286 0.663086
287 0.585938
288 0.585938
289 0.628906
290 0.568359
291 0.575195
292 0.637695
293 0.606445
294 0.592773
295 0.599609
296 0.592773
297 0.600586
298 0.580078
299 0.609375
300 0.627930
301 0.594727
302 0.630859
303 0.602539
304 0.571289
305 0.615234
306 0.584961
307 0.598633
308 0.618164
309 0.571289
310 0.619141
311 0.630859
312 0.596680
313 0.599609
314 0.598633
315 0.578125
316 0.603516
317 0.610352
318 0.591797
319 0.592773
320 0.622070
321 0.625977
322 0.642578
323 0.583008
324 0.574219
325 0.598633
326 0.589844
327 0.610352
328 0.615234
329 0.617188
330 0.603516
331 0.593750
332 0.577148
333 0.602539
334 0.627930
335 0.630859
336 0.583008
337 0.639648
338 0.630859
339 0.584961
340 0.603516
341 0.607422
342 0.589844
343 0.629883
344 0.593750
345 0.590820
346 0.578125
347 0.591797
348 0.605469
349 0.622070
350 0.617188
351 0.632812
352 0.580078
353 0.629883
354 0.578125
355 0.603516
356 0.615234
357 0.583008
358 0.625977
359 0.596680
360 0.594727
361 0.626953
362 0.562500
363 0.579102
364 0.577148
365 0.590820
366 0.614258
367 0.599609
368 0.594727
369 0.576172
370 0.563477
371 0.577148
372 0.541992
373 0.569336
374 0.570312
375 0.614258
376 0.568359
377 0.593750
378 0.558594
379 0.596680
380 0.588867
381 0.581055
382 0.590820
383 0.587891
384 0.583008
385 0.624023
386 0.638672
387 0.621094
388 0.629883
389 0.622070
390 0.614258
391 0.575195
392 0.614258
393 0.573242
394 0.601562
395 0.594727
396 0.568359
397 0.572266
398 0.590820
399 0.573242
400 0.629883
401 0.606445
402 0.565430
403 0.580078
404 0.615234
405 0.592773
406 0.600586
407 0.571289
408 0.611328
409 0.577148
410 0.591797
411 0.575195
412 0.564453
413 0.598633
414 0.586914
415 0.583984
416 0.593750
417 0.584961
418 0.610352
419 0.558594
420 0.588867
421 0.592773
422 0.583008
423 0.616211
424 0.606445
425 0.584961
426 0.623047
427 0.585938
428 0.601562
429 0.626953
430 0.631836
431 0.583008
432 0.590820
433 0.599609
434 0.562500
435 0.584961
436 0.608398
437 0.579102
438 0.577148
439 0.577148
440 0.548828
441 0.603516
442 0.585938
443 0.569336
444 0.592773
445 0.618164
446 0.589844
447 0.576172
448 0.573242
449 0.596680
450 0.542969
451 0.585938
452 0.574219
453 0.589844
454 0.583008
455 0.595703
456 0.613281
457 0.594727
458 0.586914
459 0.612305
460 0.621094
461 0.607422
462 0.574219
463 0.619141
464 0.603516
465 0.595703
466 0.609375
467 0.609375
468 0.598633
469 0.601562
470 0.625000
471 0.606445
472 0.595703
473 0.566406
474 0.610352
475 0.565430
476 0.603516
477 0.566406
478 0.586914
479 0.599609
480 0.517578
481 0.575195
482 0.560547
483 0.562500
484 0.595703
485 0.599609
486 0.572266
487 0.611328
488 0.575195
489 0.601562
490 0.615234
491 0.591797
492 0.608398
493 0.627930
494 0.611328
495 0.628906
496 0.584961
497 0.611328
498 0.590820
499 0.594727
500 0.604492
501 0.592773
502 0.595703
503 0.595703
504 0.585938
505 0.623047
506 0.607422
507 0.573242
508 0.590820
509 0.603516
510 0.581055
511 0.596680
512 0.589844
513 0.611328
514 0.588867
515 0.621094
516 0.611328
517 0.569336
518 0.566406
519 0.588867
520 0.574219
521 0.622070
522 0.594727
523 0.648438
524 0.591797
525 0.598633
526 0.603516
527 0.622070
528 0.567383
529 0.595703
530 0.581055
531 0.585938
532 0.579102
533 0.576172
534 0.610352
535 0.605469
536 0.605469
537 0.595703
538 0.587891
539 0.581055
540 0.576172
541 0.583984
542 0.606445
543 0.595703
544 0.656250
545 0.600586
546 0.605469
547 0.581055
548 0.577148
549 0.602539
550 0.543945
551 0.575195
552 0.585938
553 0.544922
554 0.582031
555 0.582031
556 0.584961
557 0.580078
558 0.577148
559 0.545898
560 0.557617
561 0.595703
562 0.575195
563 0.580078
564 0.566406
565 0.564453
566 0.552734
567 0.584961
568 0.557617
569 0.588867
570 0.614258
571 0.577148
572 0.582031
573 0.568359
574 0.576172
575 0.577148
576 0.563477
577 0.572266
578 0.533203
579 0.560547
580 0.575195
581 0.607422
582 0.579102
583 0.606445
584 0.607422
585 0.588867
586 0.588867
587 0.580078
588 0.562500
589 0.564453
590 0.560547
591 0.552734
592 0.568359
593 0.603516
594 0.566406
595 0.603516
596 0.545898
597 0.582031
598 0.554688
599 0.577148
