0 0.498047
1 0.466797
2 0.485352
3 0.450195
4 0.473633
5 0.491211
6 0.462891
7 0.458984
8 0.490234
9 0.488281
10 0.454102
11 0.496094
12 0.478516
13 0.469727
14 0.478516
15 0.495117
16 0.468750
17 0.487305
18 0.480469
19 0.502930
20 0.462891
21 0.474609
22 0.462891
23 0.475586
24 0.472656
25 0.463867
26 0.480469
27 0.460938
28 0.453125
29 0.497070
30 0.483398
31 0.480469
32 0.503906
33 0.472656
34 0.477539
35 0.476562
36 0.483398
37 0.496094
38 0.501953
39 0.423828
40 0.540039
41 0.551758
42 0.532227
43 0.558594
44 0.530273
45 0.533203
46 0.549805
47 0.554688
48 0.585938
49 0.550781
50 0.559570
51 0.559570
52 0.547852
53 0.580078
54 0.575195
55 0.566406
56 0.578125
57 0.582031
58 0.546875
59 0.572266
60 0.551758
61 0.602539
62 0.599609
63 0.565430
64 0.602539
65 0.565430
66 0.587891
67 0.585938
68 0.600586
69 0.589844
70 0.603516
71 0.613281
72 0.627930
73 0.621094
74 0.612305
75 0.665039
76 0.657227
77 0.638672
78 0.613281
79 0.647461
80 0.649414
81 0.650391
82 0.551758
83 0.631836
84 0.607422
85 0.628906
86 0.631836
87 0.649414
88 0.647461
89 0.638672
90 0.632812
91 0.618164
92 0.640625
93 0.667969
94 0.647461
95 0.641602
96 0.620117
97 0.631836
98 0.673828
99 0.596680
100 0.625977
101 0.616211
102 0.679688
103 0.634766
104 0.668945
105 0.673828
106 0.624023
107 0.677734
108 0.609375
109 0.638672
110 0.663086
111 0.676758
112 0.645508
113 0.650391
114 0.626953
115 0.665039
116 0.673828
117 0.665039
118 0.676758
119 0.629883
120 0.613281
121 0.621094
122 0.643555
123 0.661133
124 0.648438
125 0.600586
126 0.641602
127 0.621094
128 0.604492
129 0.614258
130 0.623047
131 0.625977
132 0.667969
133 0.648438
134 0.636719
135 0.633789
136 0.669922
137 0.606445
138 0.663086
139 0.647461
140 0.651367
141 0.666016
142 0.639648
143 0.644531
144 0.657227
145 0.660156
146 0.652344
147 0.647461
148 0.663086
149 0.640625
150 0.677734
151 0.668945
152 0.681641
153 0.637695
154 0.638672
155 0.633789
156 0.625977
157 0.624023
158 0.616211
159 0.639648
160 0.636719
161 0.645508
162 0.632812
163 0.660156
164 0.652344
165 0.622070
166 0.632812
167 0.606445
168 0.632812
169 0.634766
170 0.625977
171 0.636719
172 0.650391
173 0.630859
174 0.640625
175 0.627930
176 0.623047
177 0.674805
178 0.640625
179 0.619141
180 0.627930
181 0.690430
182 0.655273
183 0.655273
184 0.645508
185 0.631836
186 0.661133
187 0.635742
188 0.645508
189 0.656250
190 0.638672
191 0.606445
192 0.603516
193 0.644531
194 0.608398
195 0.632812
196 0.666992
197 0.623047
198 0.645508
199 0.630859
200 0.637695
201 0.590820
202 0.611328
203 0.593750
204 0.617188
205 0.625000
206 0.642578
207 0.632812
208 0.658203
209 0.645508
210 0.627930
211 0.622070
212 0.608398
213 0.612305
214 0.666992
215 0.643555
216 0.642578
217 0.637695
218 0.675781
219 0.626953
220 0.690430
221 0.651367
222 0.625000
223 0.625977
224 0.661133
225 0.648438
226 0.642578
227 0.640625
228 0.643555
229 0.636719
230 0.598633
231 0.643555
232 0.664062
233 0.658203
234 0.635742
235 0.673828
236 0.641602
237 0.677734
238 0.672852
239 0.659180
240 0.593750
241 0.655273
242 0.671875
243 0.606445
244 0.655273
245 0.643555
246 0.657227
247 0.687500
248 0.631836
249 0.675781
250 0.685547
251 0.653320
252 0.678711
253 0.672852
254 0.651367
255 0.654297
256 0.655273
257 0.655273
258 0.659180
259 0.663086
260 0.666016
261 0.635742
262 0.665039
263 0.654297
264 0.687500
265 0.646484
266 0.603516
267 0.646484
268 0.666016
269 0.630859
270 0.635742
271 0.683594
272 0.676758
273 0.655273
274 0.669922
275 0.645508
276 0.655273
277 0.654297
278 0.656250
279 0.694336
280 0.676758
281 0.674805
282 0.619141
283 0.663086
284 0.665039
285 0.625000
286 0.624023
287 0.658203
288 0.626953
289 0.643555
290 0.673828
291 0.681641
292 0.655273
293 0.653320
294 0.651367
295 0.655273
296 0.649414
297 0.669922
298 0.625000
299 0.662109
300 0.663086
301 0.644531
302 0.640625
303 0.672852
304 0.662109
305 0.667969
306 0.690430
307 0.663086
308 0.654297
309 0.643555
310 0.672852
311 0.696289
312 0.637695
313 0.633789
314 0.667969
315 0.646484
316 0.661133
317 0.648438
318 0.643555
319 0.646484
320 0.688477
321 0.643555
322 0.658203
323 0.659180
324 0.686523
325 0.673828
326 0.691406
327 0.653320
328 0.663086
329 0.699219
330 0.669922
331 0.648438
332 0.681641
333 0.649414
334 0.671875
335 0.679688
336 0.715820
337 0.608398
338 0.668945
339 0.629883
340 0.629883
341 0.629883
342 0.654297
343 0.657227
344 0.656250
345 0.635742
346 0.638672
347 0.655273
348 0.674805
349 0.620117
350 0.609375
351 0.632812
352 0.677734
353 0.655273
354 0.639648
355 0.613281
356 0.634766
357 0.632812
358 0.672852
359 0.703125
360 0.655273
361 0.657227
362 0.659180
363 0.647461
364 0.664062
365 0.629883
366 0.687500
367 0.648438
368 0.658203
369 0.639648
370 0.659180
371 0.663086
372 0.649414
373 0.616211
374 0.633789
375 0.672852
376 0.667969
377 0.647461
378 0.690430
379 0.666016
380 0.652344
381 0.698242
382 0.683594
383 0.662109
384 0.670898
385 0.638672
386 0.650391
387 0.670898
388 0.649414
389 0.665039
390 0.638672
391 0.654297
392 0.653320
393 0.689453
394 0.647461
395 0.660156
396 0.619141
397 0.660156
398 0.626953
399 0.661133
400 0.676758
401 0.680664
402 0.653320
403 0.647461
404 0.661133
405 0.641602
406 0.629883
407 0.645508
408 0.662109
409 0.676758
410 0.648438
411 0.681641
412 0.671875
413 0.634766
414 0.652344
415 0.680664
416 0.641602
417 0.659180
418 0.629883
419 0.685547
420 0.643555
421 0.629883
422 0.665039
423 0.610352
424 0.649414
425 0.643555
426 0.646484
427 0.685547
428 0.610352
429 0.627930
430 0.643555
431 0.623047
432 0.618164
433 0.656250
434 0.634766
435 0.608398
436 0.617188
437 0.653320
438 0.690430
439 0.652344
440 0.639648
441 0.626953
442 0.675781
443 0.654297
444 0.654297
445 0.634766
446 0.676758
447 0.662109
448 0.658203
449 0.625977
450 0.672852
451 0.633789
452 0.657227
453 0.638672
454 0.630859
455 0.617188
456 0.635742
457 0.657227
458 0.631836
459 0.678711
460 0.597656
461 0.640625
462 0.652344
463 0.649414
464 0.658203
465 0.623047
466 0.627930
467 0.666016
468 0.623047
469 0.659180
470 0.633789
471 0.623047
472 0.629883
473 0.650391
474 0.656250
475 0.649414
476 0.652344
477 0.660156
478 0.689453
479 0.653320
480 0.656250
481 0.636719
482 0.666992
483 0.668945
484 0.646484
485 0.624023
486 0.655273
487 0.653320
488 0.641602
489 0.638672
490 0.637695
491 0.662109
492 0.655273
493 0.675781
494 0.666992
495 0.653320
496 0.623047
497 0.643555
498 0.623047
499 0.639648
500 0.613281
501 0.591797
502 0.653320
503 0.591797
504 0.633789
505 0.647461
506 0.636719
507 0.647461
508 0.628906
509 0.622070
510 0.637695
511 0.625977
512 0.581055
513 0.626953
514 0.622070
515 0.669922
516 0.625977
517 0.653320
518 0.683594
519 0.638672
520 0.663086
521 0.678711
522 0.626953
523 0.662109
524 0.618164
525 0.639648
526 0.681641
527 0.666992
528 0.691406
529 0.632812
530 0.650391
531 0.659180
532 0.644531
533 0.646484
534 0.671875
535 0.649414
536 0.629883
537 0.656250
538 0.646484
539 0.634766
540 0.628906
541 0.659180
542 0.650391
543 0.630859
544 0.644531
545 0.644531
546 0.633789
547 0.646484
548 0.606445
549 0.688477
550 0.647461
551 0.658203
552 0.678711
553 0.649414
554 0.649414
555 0.657227
556 0.647461
557 0.645508
558 0.639648
559 0.670898
560 0.638672
561 0.642578
562 0.631836
563 0.658203
564 0.654297
565 0.641602
566 0.646484
567 0.634766
568 0.629883
569 0.654297
570 0.639648
571 0.645508
572 0.654297
573 0.629883
574 0.640625
575 0.645508
576 0.628906
577 0.656250
578 0.658203
579 0.671875
580 0.620117
581 0.644531
582 0.650391
583 0.666992
584 0.635742
585 0.674805
586 0.624023
587 0.585938
588 0.663086
589 0.671875
590 0.624023
591 0.660156
592 0.647461
593 0.657227
594 0.633789
595 0.642578
596 0.637695
597 0.641602
598 0.640625
599 0.663086
