0 0.500000
1 0.478516
2 0.514648
3 0.473633
4 0.483398
5 0.484375
6 0.463867
7 0.477539
8 0.496094
9 0.484375
10 0.500977
11 0.519531
12 0.460938
13 0.475586
14 0.487305
15 0.499023
16 0.490234
17 0.486328
18 0.501953
19 0.525391
20 0.481445
21 0.469727
22 0.461914
23 0.470703
24 0.481445
25 0.501953
26 0.495117
27 0.469727
28 0.486328
29 0.492188
30 0.497070
31 0.491211
32 0.503906
33 0.496094
34 0.506836
35 0.509766
36 0.513672
37 0.494141
38 0.497070
39 0.482422
40 0.540039
41 0.541992
42 0.529297
43 0.528320
44 0.515625
45 0.527344
46 0.544922
47 0.516602
48 0.517578
49 0.546875
50 0.499023
51 0.550781
52 0.539062
53 0.541016
54 0.565430
55 0.572266
56 0.541016
57 0.566406
58 0.560547
59 0.564453
60 0.544922
61 0.561523
62 0.546875
63 0.541016
64 0.560547
65 0.549805
66 0.577148
67 0.580078
68 0.604492
69 0.596680
70 0.609375
71 0.625000
72 0.609375
73 0.624023
74 0.577148
75 0.581055
76 0.601562
77 0.596680
78 0.601562
79 0.578125
80 0.588867
81 0.563477
82 0.583008
83 0.583008
84 0.598633
85 0.610352
86 0.608398
87 0.576172
88 0.606445
89 0.564453
90 0.588867
91 0.568359
92 0.547852
93 0.585938
94 0.627930
95 0.558594
96 0.561523
97 0.547852
98 0.564453
99 0.560547
100 0.568359
101 0.574219
102 0.568359
103 0.561523
104 0.562500
105 0.575195
106 0.564453
107 0.606445
108 0.587891
109 0.581055
110 0.598633
111 0.602539
112 0.623047
113 0.607422
114 0.605469
115 0.571289
116 0.595703
117 0.613281
118 0.598633
119 0.550781
120 0.563477
121 0.541016
122 0.569336
123 0.594727
124 0.607422
125 0.555664
126 0.595703
127 0.600586
128 0.605469
129 0.614258
130 0.589844
131 0.632812
132 0.620117
133 0.566406
134 0.591797
135 0.582031
136 0.586914
137 0.580078
138 0.599609
139 0.593750
140 0.586914
141 0.596680
142 0.598633
143 0.610352
144 0.605469
145 0.591797
146 0.620117
147 0.598633
148 0.575195
149 0.596680
150 0.602539
151 0.592773
152 0.626953
153 0.586914
154 0.584961
155 0.628906
156 0.591797
157 0.573242
158 0.576172
159 0.561523
160 0.563477
161 0.584961
162 0.611328
163 0.546875
164 0.569336
165 0.585938
166 0.606445
167 0.577148
168 0.644531
169 0.583008
170 0.613281
171 0.576172
172 0.604492
173 0.603516
174 0.602539
175 0.556641
176 0.559570
177 0.607422
178 0.581055
179 0.586914
180 0.581055
181 0.580078
182 0.597656
183 0.584961
184 0.596680
185 0.621094
186 0.580078
187 0.570312
188 0.569336
189 0.635742
190 0.596680
191 0.619141
192 0.574219
193 0.607422
194 0.619141
195 0.583984
196 0.626953
197 0.634766
198 0.615234
199 0.592773
200 0.625977
201 0.604492
202 0.613281
203 0.604492
204 0.591797
205 0.582031
206 0.619141
207 0.589844
208 0.629883
209 0.600586
210 0.644531
211 0.621094
212 0.630859
213 0.594727
214 0.595703
215 0.577148
216 0.614258
217 0.570312
218 0.617188
219 0.578125
220 0.593750
221 0.606445
222 0.623047
223 0.644531
224 0.599609
225 0.596680
226 0.595703
227 0.596680
228 0.633789
229 0.573242
230 0.594727
231 0.593750
232 0.579102
233 0.584961
234 0.581055
235 0.620117
236 0.588867
237 0.590820
238 0.599609
239 0.627930
240 0.584961
241 0.583984
242 0.594727
243 0.581055
244 0.611328
245 0.582031
246 0.594727
247 0.600586
248 0.581055
249 0.576172
250 0.585938
251 0.617188
252 0.630859
253 0.599609
254 0.612305
255 0.621094
256 0.615234
257 0.621094
258 0.598633
259 0.588867
260 0.603516
261 0.634766
262 0.628906
263 0.623047
264 0.602539
265 0.638672
266 0.604492
267 0.605469
268 0.616211
269 0.606445
270 0.626953
271 0.643555
272 0.601562
273 0.618164
274 0.588867
275 0.609375
276 0.603516
277 0.589844
278 0.578125
279 0.583984
280 0.603516
281 0.611328
282 0.584961
283 0.569336
284 0.612305
285 0.578125
286 0.587891
287 0.586914
288 0.583008
289 0.586914
290 0.608398
291 0.567383
292 0.573242
293 0.612305
294 0.583008
295 0.637695
296 0.626953
297 0.621094
298 0.640625
299 0.587891
300 0.608398
301 0.656250
302 0.612305
303 0.615234
304 0.607422
305 0.581055
306 0.609375
307 0.635742
308 0.620117
309 0.578125
310 0.571289
311 0.599609
312 0.577148
313 0.590820
314 0.581055
315 0.614258
316 0.591797
317 0.627930
318 0.597656
319 0.613281
320 0.598633
321 0.574219
322 0.585938
323 0.606445
324 0.625000
325 0.569336
326 0.581055
327 0.566406
328 0.590820
329 0.583008
330 0.605469
331 0.622070
332 0.607422
333 0.569336
334 0.584961
335 0.585938
336 0.596680
337 0.585938
338 0.580078
339 0.609375
340 0.613281
341 0.610352
342 0.586914
343 0.636719
344 0.593750
345 0.602539
346 0.591797
347 0.605469
348 0.604492
349 0.562500
350 0.614258
351 0.605469
352 0.625977
353 0.598633
354 0.633789
355 0.590820
356 0.590820
357 0.570312
358 0.607422
359 0.607422
360 0.610352
361 0.628906
362 0.619141
363 0.601562
364 0.616211
365 0.587891
366 0.609375
367 0.607422
368 0.615234
369 0.630859
370 0.651367
371 0.596680
372 0.623047
373 0.600586
374 0.593750
375 0.582031
376 0.611328
377 0.558594
378 0.594727
379 0.606445
380 0.621094
381 0.596680
382 0.633789
383 0.612305
384 0.609375
385 0.623047
386 0.627930
387 0.633789
388 0.607422
389 0.619141
390 0.589844
391 0.571289
392 0.572266
393 0.574219
394 0.606445
395 0.580078
396 0.543945
397 0.571289
398 0.569336
399 0.602539
400 0.611328
401 0.572266
402 0.585938
403 0.581055
404 0.616211
405 0.594727
406 0.583008
407 0.606445
408 0.582031
409 0.564453
410 0.593750
411 0.591797
412 0.623047
413 0.559570
414 0.597656
415 0.587891
416 0.602539
417 0.607422
418 0.595703
419 0.611328
420 0.609375
421 0.611328
422 0.568359
423 0.583984
424 0.627930
425 0.615234
426 0.562500
427 0.593750
428 0.592773
429 0.605469
430 0.591797
431 0.615234
432 0.620117
433 0.563477
434 0.611328
435 0.558594
436 0.628906
437 0.622070
438 0.588867
439 0.630859
440 0.605469
441 0.571289
442 0.610352
443 0.574219
444 0.573242
445 0.569336
446 0.595703
447 0.588867
448 0.591797
449 0.570312
450 0.603516
451 0.630859
452 0.591797
453 0.597656
454 0.612305
455 0.612305
456 0.581055
457 0.572266
458 0.595703
459 0.616211
460 0.526367
461 0.584961
462 0.585938
463 0.578125
464 0.559570
465 0.568359
466 0.576172
467 0.558594
468 0.560547
469 0.594727
470 0.569336
471 0.601562
472 0.594727
473 0.605469
474 0.611328
475 0.524414
476 0.580078
477 0.622070
478 0.625000
479 0.570312
480 0.553711
481 0.583984
482 0.564453
483 0.592773
484 0.576172
485 0.549805
486 0.564453
487 0.578125
488 0.567383
489 0.579102
490 0.631836
491 0.597656
492 0.642578
493 0.605469
494 0.602539
495 0.549805
496 0.570312
497 0.625000
498 0.577148
499 0.621094
500 0.636719
501 0.601562
502 0.572266
503 0.586914
504 0.576172
505 0.571289
506 0.622070
507 0.568359
508 0.570312
509 0.602539
510 0.610352
511 0.604492
512 0.604492
513 0.628906
514 0.572266
515 0.560547
516 0.607422
517 0.581055
518 0.625977
519 0.614258
520 0.561523
521 0.595703
522 0.615234
523 0.560547
524 0.588867
525 0.593750
526 0.598633
527 0.589844
528 0.594727
529 0.647461
530 0.563477
531 0.619141
532 0.593750
533 0.642578
534 0.601562
535 0.562500
536 0.581055
537 0.555664
538 0.570312
539 0.595703
540 0.585938
541 0.606445
542 0.592773
543 0.595703
544 0.656250
545 0.588867
546 0.599609
547 0.596680
548 0.604492
549 0.645508
550 0.618164
551 0.628906
552 0.611328
553 0.612305
554 0.616211
555 0.610352
556 0.603516
557 0.592773
558 0.574219
559 0.595703
560 0.612305
561 0.611328
562 0.627930
563 0.625000
564 0.629883
565 0.625977
566 0.602539
567 0.585938
568 0.589844
569 0.598633
570 0.562500
571 0.587891
572 0.601562
573 0.583984
574 0.603516
575 0.626953
576 0.626953
577 0.629883
578 0.582031
579 0.633789
580 0.583008
581 0.624023
582 0.605469
583 0.637695
584 0.630859
585 0.595703
586 0.621094
587 0.620117
588 0.605469
589 0.603516
590 0.592773
591 0.606445
592 0.622070
593 0.630859
594 0.617188
595 0.582031
596 0.601562
597 0.629883
598 0.625000
599 0.595703
