0 0.480469
1 0.525391
2 0.511719
3 0.511719
4 0.500000
5 0.505859
6 0.500977
7 0.524414
8 0.513672
9 0.520508
10 0.485352
11 0.505859
12 0.503906
13 0.522461
14 0.494141
15 0.517578
16 0.484375
17 0.469727
18 0.487305
19 0.534180
20 0.525391
21 0.527344
22 0.541992
23 0.503906
24 0.513672
25 0.500977
26 0.472656
27 0.513672
28 0.484375
29 0.517578
30 0.503906
31 0.509766
32 0.497070
33 0.489258
34 0.527344
35 0.491211
36 0.533203
37 0.512695
38 0.504883
39 0.537109
40 0.537109
41 0.522461
42 0.511719
43 0.507812
44 0.496094
45 0.497070
46 0.517578
47 0.488281
48 0.578125
49 0.514648
50 0.498047
51 0.491211
52 0.538086
53 0.543945
54 0.559570
55 0.546875
56 0.574219
57 0.578125
58 0.565430
59 0.570312
60 0.550781
61 0.572266
62 0.592773
63 0.562500
64 0.582031
65 0.574219
66 0.572266
67 0.572266
68 0.611328
69 0.620117
70 0.586914
71 0.577148
72 0.599609
73 0.586914
74 0.612305
75 0.613281
76 0.628906
77 0.589844
78 0.613281
79 0.597656
80 0.580078
81 0.592773
82 0.624023
83 0.621094
84 0.595703
85 0.619141
86 0.564453
87 0.610352
88 0.583984
89 0.585938
90 0.594727
91 0.576172
92 0.588867
93 0.592773
94 0.586914
95 0.611328
96 0.599609
97 0.585938
98 0.595703
99 0.619141
100 0.593750
101 0.620117
102 0.610352
103 0.586914
104 0.636719
105 0.668945
106 0.636719
107 0.616211
108 0.622070
109 0.611328
110 0.652344
111 0.656250
112 0.652344
113 0.624023
114 0.615234
115 0.633789
116 0.624023
117 0.696289
118 0.658203
119 0.628906
120 0.657227
121 0.634766
122 0.603516
123 0.634766
124 0.602539
125 0.633789
126 0.632812
127 0.614258
128 0.643555
129 0.613281
130 0.615234
131 0.624023
132 0.624023
133 0.638672
134 0.598633
135 0.658203
136 0.606445
137 0.625977
138 0.649414
139 0.671875
140 0.645508
141 0.625977
142 0.630859
143 0.677734
144 0.643555
145 0.623047
146 0.642578
147 0.591797
148 0.616211
149 0.603516
150 0.625000
151 0.632812
152 0.619141
153 0.616211
154 0.651367
155 0.634766
156 0.624023
157 0.635742
158 0.600586
159 0.583008
160 0.612305
161 0.614258
162 0.593750
163 0.621094
164 0.609375
165 0.597656
166 0.591797
167 0.614258
168 0.601562
169 0.581055
170 0.595703
171 0.612305
172 0.605469
173 0.601562
174 0.609375
175 0.596680
176 0.590820
177 0.659180
178 0.628906
179 0.640625
180 0.606445
181 0.650391
182 0.623047
183 0.634766
184 0.641602
185 0.642578
186 0.631836
187 0.640625
188 0.625977
189 0.669922
190 0.672852
191 0.626953
192 0.669922
193 0.610352
194 0.656250
195 0.658203
196 0.651367
197 0.635742
198 0.632812
199 0.613281
200 0.613281
201 0.621094
202 0.638672
203 0.680664
204 0.634766
205 0.628906
206 0.645508
207 0.682617
208 0.635742
209 0.654297
210 0.653320
211 0.656250
212 0.646484
213 0.661133
214 0.668945
215 0.648438
216 0.662109
217 0.632812
218 0.633789
219 0.646484
220 0.628906
221 0.640625
222 0.684570
223 0.634766
224 0.680664
225 0.678711
226 0.618164
227 0.586914
228 0.630859
229 0.664062
230 0.653320
231 0.641602
232 0.653320
233 0.634766
234 0.626953
235 0.612305
236 0.613281
237 0.635742
238 0.629883
239 0.670898
240 0.660156
241 0.643555
242 0.662109
243 0.658203
244 0.663086
245 0.615234
246 0.637695
247 0.645508
248 0.604492
249 0.656250
250 0.624023
251 0.676758
252 0.629883
253 0.672852
254 0.659180
255 0.625000
256 0.630859
257 0.630859
258 0.660156
259 0.617188
260 0.637695
261 0.597656
262 0.635742
263 0.639648
264 0.639648
265 0.623047
266 0.660156
267 0.655273
268 0.628906
269 0.657227
270 0.665039
271 0.678711
272 0.672852
273 0.629883
274 0.606445
275 0.603516
276 0.661133
277 0.668945
278 0.641602
279 0.621094
280 0.649414
281 0.638672
282 0.631836
283 0.659180
284 0.625000
285 0.625000
286 0.640625
287 0.650391
288 0.701172
289 0.673828
290 0.687500
291 0.672852
292 0.651367
293 0.641602
294 0.627930
295 0.644531
296 0.671875
297 0.638672
298 0.610352
299 0.658203
300 0.628906
301 0.669922
302 0.627930
303 0.637695
304 0.604492
305 0.648438
306 0.671875
307 0.621094
308 0.671875
309 0.629883
310 0.621094
311 0.634766
312 0.671875
313 0.674805
314 0.625000
315 0.655273
316 0.634766
317 0.663086
318 0.633789
319 0.682617
320 0.626953
321 0.671875
322 0.702148
323 0.672852
324 0.635742
325 0.638672
326 0.636719
327 0.670898
328 0.652344
329 0.641602
330 0.617188
331 0.600586
332 0.641602
333 0.657227
334 0.662109
335 0.653320
336 0.641602
337 0.635742
338 0.678711
339 0.639648
340 0.664062
341 0.649414
342 0.689453
343 0.648438
344 0.628906
345 0.624023
346 0.646484
347 0.596680
348 0.635742
349 0.631836
350 0.643555
351 0.658203
352 0.620117
353 0.659180
354 0.664062
355 0.662109
356 0.603516
357 0.613281
358 0.644531
359 0.625000
360 0.589844
361 0.579102
362 0.625000
363 0.626953
364 0.594727
365 0.613281
366 0.650391
367 0.611328
368 0.632812
369 0.642578
370 0.613281
371 0.620117
372 0.601562
373 0.656250
374 0.622070
375 0.623047
376 0.623047
377 0.625000
378 0.618164
379 0.645508
380 0.608398
381 0.671875
382 0.658203
383 0.657227
384 0.655273
385 0.657227
386 0.664062
387 0.622070
388 0.644531
389 0.664062
390 0.645508
391 0.640625
392 0.661133
393 0.613281
394 0.653320
395 0.669922
396 0.677734
397 0.616211
398 0.641602
399 0.673828
400 0.637695
401 0.650391
402 0.655273
403 0.664062
404 0.639648
405 0.636719
406 0.620117
407 0.644531
408 0.633789
409 0.667969
410 0.627930
411 0.666016
412 0.637695
413 0.656250
414 0.672852
415 0.646484
416 0.644531
417 0.674805
418 0.649414
419 0.653320
420 0.666992
421 0.685547
422 0.673828
423 0.643555
424 0.684570
425 0.645508
426 0.623047
427 0.632812
428 0.618164
429 0.639648
430 0.662109
431 0.650391
432 0.664062
433 0.615234
434 0.652344
435 0.645508
436 0.656250
437 0.671875
438 0.667969
439 0.659180
440 0.648438
441 0.666992
442 0.637695
443 0.670898
444 0.692383
445 0.655273
446 0.633789
447 0.627930
448 0.642578
449 0.646484
450 0.636719
451 0.627930
452 0.634766
453 0.619141
454 0.637695
455 0.615234
456 0.628906
457 0.650391
458 0.645508
459 0.664062
460 0.619141
461 0.655273
462 0.649414
463 0.645508
464 0.661133
465 0.650391
466 0.643555
467 0.659180
468 0.652344
469 0.681641
470 0.628906
471 0.625977
472 0.653320
473 0.583008
474 0.645508
475 0.632812
476 0.625000
477 0.635742
478 0.662109
479 0.639648
480 0.669922
481 0.663086
482 0.655273
483 0.652344
484 0.638672
485 0.629883
486 0.628906
487 0.610352
488 0.641602
489 0.624023
490 0.668945
491 0.654297
492 0.635742
493 0.641602
494 0.653320
495 0.665039
496 0.647461
497 0.686523
498 0.666016
499 0.651367
500 0.665039
501 0.649414
502 0.662109
503 0.676758
504 0.642578
505 0.650391
506 0.625977
507 0.625977
508 0.617188
509 0.649414
510 0.627930
511 0.612305
512 0.637695
513 0.659180
514 0.649414
515 0.597656
516 0.639648
517 0.600586
518 0.658203
519 0.643555
520 0.656250
521 0.669922
522 0.668945
523 0.666992
524 0.641602
525 0.650391
526 0.668945
527 0.614258
528 0.668945
529 0.664062
530 0.637695
531 0.671875
532 0.640625
533 0.618164
534 0.656250
535 0.653320
536 0.637695
537 0.655273
538 0.666992
539 0.666016
540 0.617188
541 0.683594
542 0.618164
543 0.658203
544 0.646484
545 0.674805
546 0.635742
547 0.647461
548 0.665039
549 0.646484
550 0.638672
551 0.657227
552 0.653320
553 0.666016
554 0.642578
555 0.668945
556 0.608398
557 0.628906
558 0.605469
559 0.676758
560 0.652344
561 0.664062
562 0.667969
563 0.666016
564 0.699219
565 0.675781
566 0.621094
567 0.683594
568 0.625977
569 0.668945
570 0.628906
571 0.632812
572 0.632812
573 0.651367
574 0.629883
575 0.645508
576 0.632812
577 0.648438
578 0.623047
579 0.659180
580 0.636719
581 0.628906
582 0.671875
583 0.663086
584 0.643555
585 0.670898
586 0.616211
587 0.668945
588 0.661133
589 0.614258
590 0.618164
591 0.627930
592 0.665039
593 0.620117
594 0.645508
595 0.636719
596 0.651367
597 0.590820
598 0.607422
599 0.653320
