0 0.494141
1 0.490234
2 0.502930
3 0.457031
4 0.532227
5 0.514648
6 0.492188
7 0.480469
8 0.512695
9 0.502930
10 0.501953
11 0.532227
12 0.503906
13 0.514648
14 0.499023
15 0.476562
16 0.535156
17 0.525391
18 0.518555
19 0.476562
20 0.515625
21 0.489258
22 0.474609
23 0.505859
24 0.486328
25 0.518555
26 0.541992
27 0.522461
28 0.497070
29 0.521484
30 0.510742
31 0.531250
32 0.504883
33 0.520508
34 0.510742
35 0.491211
36 0.500000
37 0.497070
38 0.509766
39 0.514648
40 0.526367
41 0.519531
42 0.537109
43 0.530273
44 0.526367
45 0.539062
46 0.503906
47 0.522461
48 0.522461
49 0.561523
50 0.520508
51 0.526367
52 0.542969
53 0.546875
54 0.541016
55 0.589844
56 0.546875
57 0.569336
58 0.522461
59 0.570312
60 0.536133
61 0.552734
62 0.575195
63 0.536133
64 0.585938
65 0.551758
66 0.585938
67 0.509766
68 0.543945
69 0.606445
70 0.586914
71 0.566406
72 0.603516
73 0.596680
74 0.576172
75 0.541016
76 0.610352
77 0.611328
78 0.548828
79 0.569336
80 0.579102
81 0.572266
82 0.540039
83 0.573242
84 0.545898
85 0.575195
86 0.578125
87 0.559570
88 0.630859
89 0.569336
90 0.561523
91 0.553711
92 0.573242
93 0.570312
94 0.596680
95 0.607422
96 0.566406
97 0.593750
98 0.610352
99 0.601562
100 0.615234
101 0.587891
102 0.626953
103 0.624023
104 0.586914
105 0.600586
106 0.578125
107 0.574219
108 0.604492
109 0.603516
110 0.616211
111 0.541992
112 0.583984
113 0.601562
114 0.598633
115 0.585938
116 0.582031
117 0.577148
118 0.553711
119 0.609375
120 0.587891
121 0.579102
122 0.583984
123 0.617188
124 0.573242
125 0.625000
126 0.608398
127 0.595703
128 0.590820
129 0.601562
130 0.601562
131 0.603516
132 0.601562
133 0.651367
134 0.637695
135 0.561523
136 0.627930
137 0.627930
138 0.588867
139 0.587891
140 0.584961
141 0.591797
142 0.586914
143 0.581055
144 0.588867
145 0.596680
146 0.586914
147 0.599609
148 0.605469
149 0.549805
150 0.633789
151 0.584961
152 0.613281
153 0.619141
154 0.620117
155 0.644531
156 0.609375
157 0.620117
158 0.603516
159 0.622070
160 0.598633
161 0.586914
162 0.578125
163 0.595703
164 0.603516
165 0.621094
166 0.635742
167 0.601562
168 0.579102
169 0.635742
170 0.626953
171 0.658203
172 0.618164
173 0.615234
174 0.624023
175 0.604492
176 0.600586
177 0.580078
178 0.567383
179 0.606445
180 0.595703
181 0.595703
182 0.595703
183 0.598633
184 0.604492
185 0.554688
186 0.579102
187 0.574219
188 0.644531
189 0.594727
190 0.613281
191 0.674805
192 0.629883
193 0.631836
194 0.605469
195 0.627930
196 0.601562
197 0.617188
198 0.577148
199 0.556641
200 0.607422
201 0.624023
202 0.646484
203 0.608398
204 0.600586
205 0.631836
206 0.603516
207 0.610352
208 0.607422
209 0.597656
210 0.631836
211 0.622070
212 0.574219
213 0.610352
214 0.590820
215 0.585938
216 0.596680
217 0.598633
218 0.580078
219 0.608398
220 0.614258
221 0.595703
222 0.618164
223 0.561523
224 0.612305
225 0.607422
226 0.612305
227 0.627930
228 0.601562
229 0.603516
230 0.577148
231 0.614258
232 0.585938
233 0.602539
234 0.591797
235 0.619141
236 0.601562
237 0.585938
238 0.646484
239 0.601562
240 0.633789
241 0.645508
242 0.631836
243 0.596680
244 0.615234
245 0.597656
246 0.594727
247 0.629883
248 0.638672
249 0.640625
250 0.641602
251 0.642578
252 0.608398
253 0.610352
254 0.600586
255 0.593750
256 0.616211
257 0.614258
258 0.626953
259 0.651367
260 0.644531
261 0.589844
262 0.616211
263 0.593750
264 0.640625
265 0.614258
266 0.584961
267 0.621094
268 0.605469
269 0.602539
270 0.630859
271 0.624023
272 0.611328
273 0.617188
274 0.647461
275 0.622070
276 0.657227
277 0.598633
278 0.639648
279 0.651367
280 0.622070
281 0.615234
282 0.636719
283 0.600586
284 0.606445
285 0.612305
286 0.632812
287 0.613281
288 0.583008
289 0.605469
290 0.586914
291 0.585938
292 0.626953
293 0.607422
294 0.607422
295 0.642578
296 0.642578
297 0.629883
298 0.649414
299 0.568359
300 0.627930
301 0.582031
302 0.607422
303 0.582031
304 0.605469
305 0.607422
306 0.581055
307 0.605469
308 0.615234
309 0.594727
310 0.603516
311 0.595703
312 0.610352
313 0.615234
314 0.618164
315 0.581055
316 0.584961
317 0.608398
318 0.611328
319 0.619141
320 0.609375
321 0.622070
322 0.612305
323 0.593750
324 0.599609
325 0.607422
326 0.610352
327 0.572266
328 0.594727
329 0.591797
330 0.599609
331 0.597656
332 0.623047
333 0.608398
334 0.631836
335 0.617188
336 0.624023
337 0.619141
338 0.603516
339 0.611328
340 0.566406
341 0.650391
342 0.643555
343 0.652344
344 0.611328
345 0.629883
346 0.643555
347 0.589844
348 0.640625
349 0.631836
350 0.630859
351 0.621094
352 0.635742
353 0.615234
354 0.621094
355 0.614258
356 0.602539
357 0.608398
358 0.619141
359 0.605469
360 0.606445
361 0.613281
362 0.581055
363 0.575195
364 0.536133
365 0.587891
366 0.581055
367 0.644531
368 0.598633
369 0.622070
370 0.649414
371 0.604492
372 0.611328
373 0.651367
374 0.647461
375 0.618164
376 0.629883
377 0.583984
378 0.606445
379 0.555664
380 0.592773
381 0.649414
382 0.619141
383 0.609375
384 0.629883
385 0.593750
386 0.609375
387 0.605469
388 0.635742
389 0.623047
390 0.607422
391 0.632812
392 0.634766
393 0.653320
394 0.610352
395 0.628906
396 0.611328
397 0.612305
398 0.594727
399 0.624023
400 0.653320
401 0.619141
402 0.611328
403 0.650391
404 0.632812
405 0.642578
406 0.631836
407 0.627930
408 0.649414
409 0.601562
410 0.618164
411 0.616211
412 0.614258
413 0.623047
414 0.626953
415 0.582031
416 0.658203
417 0.607422
418 0.612305
419 0.652344
420 0.617188
421 0.650391
422 0.619141
423 0.635742
424 0.642578
425 0.618164
426 0.640625
427 0.635742
428 0.601562
429 0.591797
430 0.625000
431 0.632812
432 0.666016
433 0.632812
434 0.605469
435 0.682617
436 0.605469
437 0.624023
438 0.597656
439 0.627930
440 0.621094
441 0.620117
442 0.615234
443 0.612305
444 0.604492
445 0.616211
446 0.581055
447 0.631836
448 0.608398
449 0.641602
450 0.617188
451 0.617188
452 0.611328
453 0.608398
454 0.622070
455 0.596680
456 0.613281
457 0.565430
458 0.625977
459 0.604492
460 0.628906
461 0.604492
462 0.620117
463 0.624023
464 0.642578
465 0.607422
466 0.598633
467 0.608398
468 0.617188
469 0.564453
470 0.583984
471 0.639648
472 0.613281
473 0.609375
474 0.607422
475 0.598633
476 0.585938
477 0.621094
478 0.604492
479 0.612305
480 0.625977
481 0.607422
482 0.616211
483 0.622070
484 0.646484
485 0.604492
486 0.615234
487 0.603516
488 0.619141
489 0.559570
490 0.586914
491 0.613281
492 0.588867
493 0.593750
494 0.589844
495 0.556641
496 0.591797
497 0.571289
498 0.619141
499 0.581055
500 0.583008
501 0.609375
502 0.595703
503 0.584961
504 0.579102
505 0.593750
506 0.583008
507 0.581055
508 0.609375
509 0.572266
510 0.583984
511 0.568359
512 0.587891
513 0.618164
514 0.640625
515 0.606445
516 0.645508
517 0.625977
518 0.641602
519 0.627930
520 0.619141
521 0.609375
522 0.612305
523 0.601562
524 0.634766
525 0.624023
526 0.624023
527 0.599609
528 0.608398
529 0.632812
530 0.600586
531 0.612305
532 0.649414
533 0.648438
534 0.610352
535 0.623047
536 0.627930
537 0.633789
538 0.601562
539 0.599609
540 0.586914
541 0.620117
542 0.600586
543 0.569336
544 0.603516
545 0.577148
546 0.606445
547 0.610352
548 0.600586
549 0.589844
550 0.633789
551 0.603516
552 0.591797
553 0.616211
554 0.613281
555 0.607422
556 0.604492
557 0.623047
558 0.570312
559 0.611328
560 0.626953
561 0.607422
562 0.634766
563 0.598633
564 0.605469
565 0.626953
566 0.631836
567 0.613281
568 0.603516
569 0.634766
570 0.620117
571 0.624023
572 0.625000
573 0.620117
574 0.598633
575 0.583008
576 0.659180
577 0.617188
578 0.595703
579 0.640625
580 0.637695
581 0.618164
582 0.628906
583 0.655273
584 0.605469
585 0.593750
586 0.580078
587 0.607422
588 0.594727
589 0.586914
590 0.616211
591 0.631836
592 0.573242
593 0.571289
594 0.600586
595 0.635742
596 0.601562
597 0.609375
598 0.590820
599 0.602539
