0 0.544922
1 0.485352
2 0.511719
3 0.473633
4 0.474609
5 0.467773
6 0.517578
7 0.498047
8 0.500977
9 0.463867
10 0.511719
11 0.493164
12 0.499023
13 0.489258
14 0.511719
15 0.480469
16 0.498047
17 0.491211
18 0.492188
19 0.514648
20 0.482422
21 0.477539
22 0.501953
23 0.498047
24 0.494141
25 0.478516
26 0.467773
27 0.516602
28 0.506836
29 0.516602
30 0.502930
31 0.523438
32 0.497070
33 0.504883
34 0.484375
35 0.471680
36 0.487305
37 0.514648
38 0.500000
39 0.521484
40 0.511719
41 0.510742
42 0.498047
43 0.512695
44 0.494141
45 0.505859
46 0.469727
47 0.497070
48 0.479492
49 0.493164
50 0.490234
51 0.451172
52 0.503906
53 0.470703
54 0.530273
55 0.490234
56 0.510742
57 0.499023
58 0.509766
59 0.487305
60 0.514648
61 0.541992
62 0.519531
63 0.514648
64 0.509766
65 0.513672
66 0.526367
67 0.571289
68 0.517578
69 0.535156
70 0.535156
71 0.514648
72 0.539062
73 0.497070
74 0.524414
75 0.508789
76 0.538086
77 0.530273
78 0.506836
79 0.558594
80 0.551758
81 0.528320
82 0.581055
83 0.533203
84 0.573242
85 0.570312
86 0.571289
87 0.549805
88 0.559570
89 0.549805
90 0.580078
91 0.551758
92 0.556641
93 0.588867
94 0.609375
95 0.560547
96 0.592773
97 0.586914
98 0.580078
99 0.599609
100 0.586914
101 0.569336
102 0.547852
103 0.571289
104 0.531250
105 0.566406
106 0.540039
107 0.550781
108 0.514648
109 0.510742
110 0.538086
111 0.542969
112 0.580078
113 0.529297
114 0.539062
115 0.524414
116 0.540039
117 0.552734
118 0.569336
119 0.557617
120 0.525391
121 0.593750
122 0.574219
123 0.559570
124 0.538086
125 0.557617
126 0.585938
127 0.567383
128 0.575195
129 0.593750
130 0.574219
131 0.576172
132 0.567383
133 0.585938
134 0.575195
135 0.548828
136 0.558594
137 0.542969
138 0.589844
139 0.563477
140 0.549805
141 0.597656
142 0.520508
143 0.573242
144 0.574219
145 0.600586
146 0.566406
147 0.597656
148 0.535156
149 0.574219
150 0.557617
151 0.544922
152 0.537109
153 0.557617
154 0.507812
155 0.576172
156 0.556641
157 0.566406
158 0.560547
159 0.536133
160 0.584961
161 0.608398
162 0.591797
163 0.577148
164 0.614258
165 0.623047
166 0.597656
167 0.607422
168 0.581055
169 0.599609
170 0.564453
171 0.601562
172 0.575195
173 0.568359
174 0.608398
175 0.558594
176 0.584961
177 0.550781
178 0.550781
179 0.555664
180 0.576172
181 0.551758
182 0.563477
183 0.553711
184 0.598633
185 0.622070
186 0.555664
187 0.557617
188 0.585938
189 0.574219
190 0.571289
191 0.554688
192 0.553711
193 0.597656
194 0.596680
195 0.570312
196 0.518555
197 0.565430
198 0.548828
199 0.568359
200 0.563477
201 0.588867
202 0.539062
203 0.569336
204 0.549805
205 0.574219
206 0.576172
207 0.541016
208 0.566406
209 0.548828
210 0.569336
211 0.570312
212 0.593750
213 0.563477
214 0.555664
215 0.582031
216 0.572266
217 0.617188
218 0.573242
219 0.586914
220 0.600586
221 0.598633
222 0.585938
223 0.575195
224 0.572266
225 0.575195
226 0.577148
227 0.564453
228 0.565430
229 0.593750
230 0.566406
231 0.593750
232 0.566406
233 0.583984
234 0.613281
235 0.592773
236 0.608398
237 0.590820
238 0.580078
239 0.588867
240 0.598633
241 0.615234
242 0.555664
243 0.594727
244 0.544922
245 0.599609
246 0.544922
247 0.579102
248 0.592773
249 0.564453
250 0.565430
251 0.603516
252 0.599609
253 0.614258
254 0.617188
255 0.591797
256 0.586914
257 0.580078
258 0.555664
259 0.607422
260 0.594727
261 0.537109
262 0.592773
263 0.585938
264 0.576172
265 0.593750
266 0.612305
267 0.576172
268 0.618164
269 0.574219
270 0.566406
271 0.609375
272 0.567383
273 0.583984
274 0.614258
275 0.608398
276 0.612305
277 0.607422
278 0.584961
279 0.583984
280 0.609375
281 0.603516
282 0.584961
283 0.582031
284 0.582031
285 0.631836
286 0.588867
287 0.569336
288 0.577148
289 0.589844
290 0.553711
291 0.585938
292 0.560547
293 0.556641
294 0.542969
295 0.583008
296 0.586914
297 0.595703
298 0.559570
299 0.601562
300 0.588867
301 0.567383
302 0.560547
303 0.594727
304 0.588867
305 0.565430
306 0.583008
307 0.601562
308 0.532227
309 0.568359
310 0.635742
311 0.605469
312 0.578125
313 0.556641
314 0.573242
315 0.629883
316 0.580078
317 0.610352
318 0.592773
319 0.582031
320 0.609375
321 0.621094
322 0.612305
323 0.631836
324 0.611328
325 0.593750
326 0.601562
327 0.577148
328 0.578125
329 0.571289
330 0.583984
331 0.609375
332 0.598633
333 0.625000
334 0.565430
335 0.592773
336 0.569336
337 0.590820
338 0.597656
339 0.587891
340 0.588867
341 0.626953
342 0.596680
343 0.619141
344 0.577148
345 0.590820
346 0.598633
347 0.603516
348 0.587891
349 0.581055
350 0.572266
351 0.586914
352 0.614258
353 0.591797
354 0.619141
355 0.633789
356 0.619141
357 0.609375
358 0.577148
359 0.588867
360 0.538086
361 0.555664
362 0.558594
363 0.575195
364 0.587891
365 0.545898
366 0.589844
367 0.594727
368 0.546875
369 0.530273
370 0.563477
371 0.583984
372 0.617188
373 0.560547
374 0.567383
375 0.576172
376 0.577148
377 0.598633
378 0.581055
379 0.584961
380 0.583008
381 0.609375
382 0.594727
383 0.581055
384 0.555664
385 0.585938
386 0.561523
387 0.605469
388 0.561523
389 0.595703
390 0.592773
391 0.581055
392 0.578125
393 0.603516
394 0.577148
395 0.578125
396 0.603516
397 0.555664
398 0.602539
399 0.598633
400 0.586914
401 0.579102
402 0.590820
403 0.597656
404 0.571289
405 0.563477
406 0.567383
407 0.620117
408 0.583008
409 0.604492
410 0.559570
411 0.578125
412 0.586914
413 0.566406
414 0.573242
415 0.570312
416 0.589844
417 0.558594
418 0.587891
419 0.586914
420 0.562500
421 0.514648
422 0.568359
423 0.556641
424 0.582031
425 0.605469
426 0.584961
427 0.616211
428 0.581055
429 0.564453
430 0.585938
431 0.570312
432 0.575195
433 0.563477
434 0.602539
435 0.615234
436 0.583984
437 0.612305
438 0.583008
439 0.567383
440 0.601562
441 0.635742
442 0.582031
443 0.514648
444 0.569336
445 0.572266
446 0.557617
447 0.611328
448 0.582031
449 0.583984
450 0.574219
451 0.600586
452 0.575195
453 0.613281
454 0.609375
455 0.610352
456 0.591797
457 0.575195
458 0.567383
459 0.602539
460 0.599609
461 0.590820
462 0.581055
463 0.583008
464 0.609375
465 0.541992
466 0.564453
467 0.540039
468 0.560547
469 0.584961
470 0.569336
471 0.582031
472 0.631836
473 0.599609
474 0.581055
475 0.600586
476 0.564453
477 0.580078
478 0.615234
479 0.584961
480 0.576172
481 0.596680
482 0.608398
483 0.606445
484 0.592773
485 0.575195
486 0.572266
487 0.601562
488 0.580078
489 0.575195
490 0.601562
491 0.575195
492 0.595703
493 0.579102
494 0.594727
495 0.577148
496 0.584961
497 0.609375
498 0.583008
499 0.624023
500 0.588867
501 0.602539
502 0.590820
503 0.581055
504 0.575195
505 0.624023
506 0.572266
507 0.578125
508 0.589844
509 0.595703
510 0.569336
511 0.551758
512 0.598633
513 0.598633
514 0.572266
515 0.606445
516 0.604492
517 0.594727
518 0.614258
519 0.552734
520 0.553711
521 0.600586
522 0.583984
523 0.591797
524 0.619141
525 0.601562
526 0.574219
527 0.565430
528 0.585938
529 0.595703
530 0.613281
531 0.595703
532 0.572266
533 0.583008
534 0.568359
535 0.600586
536 0.615234
537 0.574219
538 0.619141
539 0.596680
540 0.581055
541 0.580078
542 0.590820
543 0.592773
544 0.584961
545 0.568359
546 0.620117
547 0.567383
548 0.555664
549 0.574219
550 0.579102
551 0.571289
552 0.567383
553 0.541016
554 0.614258
555 0.589844
556 0.574219
557 0.581055
558 0.578125
559 0.581055
560 0.576172
561 0.634766
562 0.602539
563 0.578125
564 0.570312
565 0.529297
566 0.555664
567 0.579102
568 0.620117
569 0.573242
570 0.562500
571 0.596680
572 0.593750
573 0.590820
574 0.621094
575 0.589844
576 0.579102
577 0.586914
578 0.583008
579 0.587891
580 0.608398
581 0.559570
582 0.577148
583 0.628906
584 0.568359
585 0.602539
586 0.585938
587 0.573242
588 0.558594
589 0.534180
590 0.566406
591 0.601562
592 0.587891
593 0.586914
594 0.603516
595 0.623047
596 0.583008
597 0.569336
598 0.601562
599 0.583008
