0 0.501953
1 0.493164
2 0.480469
3 0.495117
4 0.523438
5 0.523438
6 0.499023
7 0.507812
8 0.487305
9 0.513672
10 0.518555
11 0.498047
12 0.500000
13 0.485352
14 0.489258
15 0.521484
16 0.480469
17 0.471680
18 0.489258
19 0.485352
20 0.490234
21 0.469727
22 0.500977
23 0.525391
24 0.487305
25 0.491211
26 0.509766
27 0.489258
28 0.534180
29 0.525391
30 0.500977
31 0.500977
32 0.508789
33 0.502930
34 0.488281
35 0.479492
36 0.529297
37 0.489258
38 0.472656
39 0.499023
40 0.520508
41 0.507812
42 0.509766
43 0.529297
44 0.508789
45 0.481445
46 0.532227
47 0.495117
48 0.495117
49 0.509766
50 0.510742
51 0.503906
52 0.505859
53 0.486328
54 0.515625
55 0.509766
56 0.511719
57 0.514648
58 0.531250
59 0.498047
60 0.458008
61 0.483398
62 0.518555
63 0.537109
64 0.521484
65 0.532227
66 0.530273
67 0.529297
68 0.536133
69 0.573242
70 0.546875
71 0.556641
72 0.539062
73 0.520508
74 0.577148
75 0.545898
76 0.536133
77 0.547852
78 0.574219
79 0.519531
80 0.583984
81 0.568359
82 0.578125
83 0.579102
84 0.573242
85 0.590820
86 0.585938
87 0.572266
88 0.571289
89 0.578125
90 0.556641
91 0.572266
92 0.576172
93 0.576172
94 0.587891
95 0.570312
96 0.558594
97 0.567383
98 0.572266
99 0.583984
100 0.567383
101 0.554688
102 0.610352
103 0.566406
104 0.550781
105 0.546875
106 0.560547
107 0.577148
108 0.548828
109 0.549805
110 0.543945
111 0.574219
112 0.593750
113 0.591797
114 0.604492
115 0.588867
116 0.545898
117 0.593750
118 0.581055
119 0.608398
120 0.590820
121 0.579102
122 0.597656
123 0.581055
124 0.567383
125 0.578125
126 0.583008
127 0.600586
128 0.568359
129 0.572266
130 0.606445
131 0.609375
132 0.600586
133 0.613281
134 0.644531
135 0.546875
136 0.626953
137 0.614258
138 0.592773
139 0.623047
140 0.631836
141 0.644531
142 0.568359
143 0.575195
144 0.623047
145 0.606445
146 0.624023
147 0.584961
148 0.569336
149 0.610352
150 0.603516
151 0.579102
152 0.619141
153 0.587891
154 0.619141
155 0.595703
156 0.580078
157 0.583984
158 0.629883
159 0.599609
160 0.593750
161 0.622070
162 0.633789
163 0.595703
164 0.595703
165 0.611328
166 0.642578
167 0.553711
168 0.576172
169 0.591797
170 0.625000
171 0.599609
172 0.614258
173 0.602539
174 0.588867
175 0.589844
176 0.577148
177 0.570312
178 0.573242
179 0.580078
180 0.597656
181 0.577148
182 0.604492
183 0.599609
184 0.578125
185 0.620117
186 0.584961
187 0.575195
188 0.596680
189 0.613281
190 0.584961
191 0.568359
192 0.592773
193 0.601562
194 0.585938
195 0.619141
196 0.613281
197 0.610352
198 0.634766
199 0.605469
200 0.595703
201 0.666016
202 0.621094
203 0.628906
204 0.583984
205 0.629883
206 0.568359
207 0.596680
208 0.606445
209 0.628906
210 0.589844
211 0.587891
212 0.626953
213 0.625000
214 0.618164
215 0.612305
216 0.624023
217 0.596680
218 0.615234
219 0.613281
220 0.560547
221 0.591797
222 0.576172
223 0.585938
224 0.562500
225 0.592773
226 0.581055
227 0.604492
228 0.601562
229 0.593750
230 0.575195
231 0.576172
232 0.553711
233 0.524414
234 0.560547
235 0.556641
236 0.584961
237 0.612305
238 0.598633
239 0.573242
240 0.549805
241 0.563477
242 0.577148
243 0.588867
244 0.588867
245 0.576172
246 0.574219
247 0.553711
248 0.613281
249 0.568359
250 0.561523
251 0.586914
252 0.574219
253 0.572266
254 0.626953
255 0.581055
256 0.604492
257 0.622070
258 0.569336
259 0.583984
260 0.546875
261 0.567383
262 0.602539
263 0.590820
264 0.589844
265 0.593750
266 0.584961
267 0.605469
268 0.587891
269 0.609375
270 0.604492
271 0.592773
272 0.587891
273 0.607422
274 0.617188
275 0.598633
276 0.622070
277 0.622070
278 0.608398
279 0.604492
280 0.633789
281 0.583008
282 0.560547
283 0.581055
284 0.610352
285 0.590820
286 0.590820
287 0.594727
288 0.587891
289 0.577148
290 0.590820
291 0.615234
292 0.585938
293 0.618164
294 0.591797
295 0.580078
296 0.607422
297 0.592773
298 0.620117
299 0.600586
300 0.590820
301 0.585938
302 0.576172
303 0.607422
304 0.589844
305 0.589844
306 0.557617
307 0.554688
308 0.567383
309 0.565430
310 0.589844
311 0.587891
312 0.583008
313 0.582031
314 0.572266
315 0.572266
316 0.594727
317 0.591797
318 0.597656
319 0.600586
320 0.591797
321 0.596680
322 0.601562
323 0.583984
324 0.585938
325 0.588867
326 0.605469
327 0.572266
328 0.562500
329 0.579102
330 0.593750
331 0.563477
332 0.562500
333 0.606445
334 0.591797
335 0.559570
336 0.602539
337 0.605469
338 0.589844
339 0.604492
340 0.587891
341 0.570312
342 0.587891
343 0.613281
344 0.580078
345 0.604492
346 0.601562
347 0.603516
348 0.582031
349 0.585938
350 0.572266
351 0.577148
352 0.574219
353 0.608398
354 0.583984
355 0.592773
356 0.609375
357 0.598633
358 0.618164
359 0.579102
360 0.600586
361 0.634766
362 0.629883
363 0.582031
364 0.586914
365 0.595703
366 0.597656
367 0.574219
368 0.605469
369 0.624023
370 0.597656
371 0.592773
372 0.615234
373 0.601562
374 0.588867
375 0.605469
376 0.593750
377 0.618164
378 0.598633
379 0.584961
380 0.620117
381 0.632812
382 0.604492
383 0.583984
384 0.612305
385 0.583984
386 0.653320
387 0.625977
388 0.601562
389 0.628906
390 0.610352
391 0.644531
392 0.643555
393 0.615234
394 0.629883
395 0.593750
396 0.623047
397 0.616211
398 0.589844
399 0.601562
400 0.607422
401 0.584961
402 0.634766
403 0.601562
404 0.637695
405 0.625977
406 0.606445
407 0.581055
408 0.590820
409 0.551758
410 0.581055
411 0.604492
412 0.637695
413 0.604492
414 0.614258
415 0.576172
416 0.594727
417 0.603516
418 0.580078
419 0.597656
420 0.653320
421 0.611328
422 0.596680
423 0.619141
424 0.624023
425 0.624023
426 0.620117
427 0.592773
428 0.609375
429 0.606445
430 0.603516
431 0.574219
432 0.589844
433 0.589844
434 0.576172
435 0.628906
436 0.595703
437 0.578125
438 0.606445
439 0.593750
440 0.599609
441 0.618164
442 0.594727
443 0.553711
444 0.616211
445 0.582031
446 0.600586
447 0.550781
448 0.590820
449 0.572266
450 0.576172
451 0.571289
452 0.591797
453 0.557617
454 0.567383
455 0.585938
456 0.584961
457 0.606445
458 0.588867
459 0.585938
460 0.634766
461 0.583984
462 0.624023
463 0.561523
464 0.591797
465 0.603516
466 0.591797
467 0.626953
468 0.615234
469 0.614258
470 0.586914
471 0.583008
472 0.569336
473 0.570312
474 0.601562
475 0.601562
476 0.583984
477 0.611328
478 0.632812
479 0.569336
480 0.589844
481 0.609375
482 0.617188
483 0.579102
484 0.570312
485 0.591797
486 0.622070
487 0.586914
488 0.575195
489 0.599609
490 0.575195
491 0.581055
492 0.578125
493 0.572266
494 0.571289
495 0.607422
496 0.567383
497 0.602539
498 0.614258
499 0.596680
500 0.608398
501 0.583984
502 0.586914
503 0.563477
504 0.610352
505 0.581055
506 0.572266
507 0.599609
508 0.621094
509 0.609375
510 0.596680
511 0.590820
512 0.597656
513 0.612305
514 0.579102
515 0.566406
516 0.599609
517 0.602539
518 0.580078
519 0.558594
520 0.582031
521 0.576172
522 0.581055
523 0.589844
524 0.609375
525 0.572266
526 0.601562
527 0.611328
528 0.590820
529 0.587891
530 0.648438
531 0.600586
532 0.611328
533 0.570312
534 0.571289
535 0.599609
536 0.570312
537 0.625977
538 0.613281
539 0.614258
540 0.586914
541 0.596680
542 0.591797
543 0.578125
544 0.571289
545 0.573242
546 0.591797
547 0.582031
548 0.601562
549 0.588867
550 0.583008
551 0.603516
552 0.612305
553 0.615234
554 0.602539
555 0.612305
556 0.583008
557 0.550781
558 0.607422
559 0.593750
560 0.596680
561 0.592773
562 0.584961
563 0.579102
564 0.576172
565 0.566406
566 0.585938
567 0.600586
568 0.554688
569 0.610352
570 0.580078
571 0.627930
572 0.611328
573 0.627930
574 0.600586
575 0.582031
576 0.612305
577 0.599609
578 0.653320
579 0.605469
580 0.579102
581 0.599609
582 0.612305
583 0.616211
584 0.574219
585 0.598633
586 0.610352
587 0.583984
588 0.580078
589 0.599609
590 0.600586
591 0.605469
592 0.561523
593 0.583984
594 0.622070
595 0.572266
596 0.601562
597 0.583984
598 0.583984
599 0.612305
