0 0.503906
1 0.451172
2 0.482422
3 0.497070
4 0.531250
5 0.534180
6 0.522461
7 0.509766
8 0.485352
9 0.488281
10 0.488281
11 0.501953
12 0.500977
13 0.537109
14 0.500000
15 0.494141
16 0.484375
17 0.473633
18 0.514648
19 0.480469
20 0.491211
21 0.500000
22 0.514648
23 0.514648
24 0.496094
25 0.469727
26 0.495117
27 0.510742
28 0.494141
29 0.471680
30 0.485352
31 0.496094
32 0.505859
33 0.514648
34 0.517578
35 0.485352
36 0.511719
37 0.501953
38 0.481445
39 0.509766
40 0.495117
41 0.510742
42 0.488281
43 0.513672
44 0.477539
45 0.538086
46 0.449219
47 0.500977
48 0.512695
49 0.521484
50 0.515625
51 0.490234
52 0.549805
53 0.493164
54 0.517578
55 0.493164
56 0.506836
57 0.529297
58 0.488281
59 0.526367
60 0.504883
61 0.500977
62 0.522461
63 0.524414
64 0.549805
65 0.545898
66 0.524414
67 0.562500
68 0.520508
69 0.517578
70 0.537109
71 0.536133
72 0.590820
73 0.538086
74 0.578125
75 0.580078
76 0.584961
77 0.570312
78 0.560547
79 0.582031
80 0.589844
81 0.561523
82 0.582031
83 0.583984
84 0.570312
85 0.576172
86 0.564453
87 0.591797
88 0.533203
89 0.569336
90 0.604492
91 0.561523
92 0.583984
93 0.587891
94 0.546875
95 0.593750
96 0.556641
97 0.595703
98 0.594727
99 0.620117
100 0.574219
101 0.579102
102 0.587891
103 0.618164
104 0.583984
105 0.578125
106 0.596680
107 0.550781
108 0.581055
109 0.533203
110 0.600586
111 0.559570
112 0.616211
113 0.584961
114 0.605469
115 0.588867
116 0.575195
117 0.570312
118 0.589844
119 0.596680
120 0.590820
121 0.618164
122 0.590820
123 0.559570
124 0.599609
125 0.582031
126 0.619141
127 0.568359
128 0.587891
129 0.628906
130 0.591797
131 0.599609
132 0.612305
133 0.602539
134 0.607422
135 0.585938
136 0.584961
137 0.595703
138 0.601562
139 0.610352
140 0.617188
141 0.599609
142 0.591797
143 0.579102
144 0.599609
145 0.602539
146 0.602539
147 0.579102
148 0.579102
149 0.605469
150 0.592773
151 0.581055
152 0.576172
153 0.554688
154 0.579102
155 0.592773
156 0.609375
157 0.582031
158 0.571289
159 0.566406
160 0.607422
161 0.602539
162 0.609375
163 0.583008
164 0.611328
165 0.626953
166 0.607422
167 0.613281
168 0.613281
169 0.628906
170 0.600586
171 0.606445
172 0.626953
173 0.630859
174 0.586914
175 0.571289
176 0.610352
177 0.541016
178 0.605469
179 0.634766
180 0.586914
181 0.613281
182 0.575195
183 0.583984
184 0.621094
185 0.573242
186 0.607422
187 0.602539
188 0.579102
189 0.576172
190 0.611328
191 0.561523
192 0.569336
193 0.611328
194 0.611328
195 0.617188
196 0.585938
197 0.606445
198 0.602539
199 0.600586
200 0.583008
201 0.600586
202 0.594727
203 0.591797
204 0.629883
205 0.616211
206 0.582031
207 0.608398
208 0.627930
209 0.632812
210 0.606445
211 0.562500
212 0.604492
213 0.583984
214 0.585938
215 0.640625
216 0.601562
217 0.617188
218 0.600586
219 0.583008
220 0.568359
221 0.584961
222 0.590820
223 0.562500
224 0.589844
225 0.607422
226 0.571289
227 0.602539
228 0.593750
229 0.584961
230 0.592773
231 0.598633
232 0.605469
233 0.575195
234 0.586914
235 0.568359
236 0.586914
237 0.570312
238 0.582031
239 0.602539
240 0.542969
241 0.571289
242 0.596680
243 0.563477
244 0.582031
245 0.576172
246 0.584961
247 0.598633
248 0.620117
249 0.615234
250 0.623047
251 0.602539
252 0.619141
253 0.587891
254 0.597656
255 0.627930
256 0.583008
257 0.564453
258 0.590820
259 0.587891
260 0.655273
261 0.631836
262 0.595703
263 0.615234
264 0.621094
265 0.604492
266 0.603516
267 0.632812
268 0.576172
269 0.626953
270 0.613281
271 0.599609
272 0.625000
273 0.619141
274 0.592773
275 0.582031
276 0.572266
277 0.579102
278 0.601562
279 0.604492
280 0.579102
281 0.582031
282 0.584961
283 0.614258
284 0.582031
285 0.562500
286 0.592773
287 0.578125
288 0.594727
289 0.609375
290 0.602539
291 0.561523
292 0.630859
293 0.622070
294 0.603516
295 0.643555
296 0.606445
297 0.615234
298 0.576172
299 0.616211
300 0.625977
301 0.594727
302 0.626953
303 0.597656
304 0.632812
305 0.631836
306 0.625977
307 0.588867
308 0.611328
309 0.570312
310 0.583008
311 0.626953
312 0.620117
313 0.632812
314 0.640625
315 0.627930
316 0.616211
317 0.611328
318 0.629883
319 0.616211
320 0.626953
321 0.648438
322 0.625000
323 0.604492
324 0.585938
325 0.609375
326 0.612305
327 0.624023
328 0.574219
329 0.611328
330 0.609375
331 0.541016
332 0.580078
333 0.633789
334 0.583984
335 0.613281
336 0.599609
337 0.606445
338 0.579102
339 0.630859
340 0.584961
341 0.617188
342 0.599609
343 0.583984
344 0.595703
345 0.591797
346 0.587891
347 0.612305
348 0.644531
349 0.614258
350 0.555664
351 0.612305
352 0.574219
353 0.587891
354 0.591797
355 0.583984
356 0.631836
357 0.599609
358 0.614258
359 0.620117
360 0.611328
361 0.600586
362 0.583984
363 0.610352
364 0.599609
365 0.622070
366 0.595703
367 0.606445
368 0.599609
369 0.591797
370 0.612305
371 0.590820
372 0.628906
373 0.629883
374 0.598633
375 0.618164
376 0.574219
377 0.631836
378 0.619141
379 0.605469
380 0.612305
381 0.601562
382 0.616211
383 0.591797
384 0.576172
385 0.613281
386 0.583008
387 0.618164
388 0.608398
389 0.594727
390 0.612305
391 0.588867
392 0.613281
393 0.585938
394 0.612305
395 0.605469
396 0.630859
397 0.592773
398 0.608398
399 0.578125
400 0.605469
401 0.636719
402 0.603516
403 0.572266
404 0.607422
405 0.625000
406 0.598633
407 0.630859
408 0.589844
409 0.608398
410 0.599609
411 0.573242
412 0.585938
413 0.602539
414 0.551758
415 0.614258
416 0.592773
417 0.601562
418 0.592773
419 0.590820
420 0.599609
421 0.612305
422 0.603516
423 0.579102
424 0.576172
425 0.620117
426 0.591797
427 0.591797
428 0.592773
429 0.588867
430 0.610352
431 0.647461
432 0.600586
433 0.556641
434 0.625977
435 0.558594
436 0.562500
437 0.569336
438 0.577148
439 0.534180
440 0.583984
441 0.621094
442 0.591797
443 0.601562
444 0.606445
445 0.616211
446 0.590820
447 0.593750
448 0.587891
449 0.588867
450 0.611328
451 0.614258
452 0.617188
453 0.571289
454 0.620117
455 0.646484
456 0.597656
457 0.610352
458 0.625000
459 0.610352
460 0.563477
461 0.600586
462 0.588867
463 0.616211
464 0.590820
465 0.587891
466 0.584961
467 0.602539
468 0.602539
469 0.597656
470 0.624023
471 0.583984
472 0.586914
473 0.628906
474 0.614258
475 0.591797
476 0.591797
477 0.564453
478 0.581055
479 0.613281
480 0.567383
481 0.623047
482 0.619141
483 0.589844
484 0.651367
485 0.628906
486 0.599609
487 0.595703
488 0.553711
489 0.580078
490 0.606445
491 0.601562
492 0.618164
493 0.630859
494 0.618164
495 0.610352
496 0.620117
497 0.583008
498 0.584961
499 0.616211
500 0.610352
501 0.567383
502 0.583008
503 0.586914
504 0.625000
505 0.620117
506 0.605469
507 0.592773
508 0.592773
509 0.594727
510 0.591797
511 0.613281
512 0.588867
513 0.607422
514 0.630859
515 0.628906
516 0.603516
517 0.601562
518 0.634766
519 0.589844
520 0.583008
521 0.562500
522 0.595703
523 0.615234
524 0.661133
525 0.616211
526 0.596680
527 0.613281
528 0.575195
529 0.615234
530 0.618164
531 0.556641
532 0.591797
533 0.634766
534 0.587891
535 0.604492
536 0.623047
537 0.643555
538 0.632812
539 0.585938
540 0.583984
541 0.635742
542 0.580078
543 0.592773
544 0.583984
545 0.607422
546 0.637695
547 0.573242
548 0.582031
549 0.626953
550 0.609375
551 0.586914
552 0.584961
553 0.597656
554 0.596680
555 0.621094
556 0.586914
557 0.597656
558 0.591797
559 0.597656
560 0.603516
561 0.630859
562 0.621094
563 0.602539
564 0.624023
565 0.591797
566 0.624023
567 0.619141
568 0.611328
569 0.583008
570 0.553711
571 0.605469
572 0.609375
573 0.591797
574 0.600586
575 0.598633
576 0.596680
577 0.646484
578 0.609375
579 0.635742
580 0.577148
581 0.615234
582 0.606445
583 0.611328
584 0.601562
585 0.607422
586 0.607422
587 0.599609
588 0.619141
589 0.581055
590 0.596680
591 0.600586
592 0.621094
593 0.623047
594 0.597656
595 0.559570
596 0.548828
597 0.598633
598 0.593750
599 0.597656
