0 0.500000
1 0.478516
2 0.491211
3 0.524414
4 0.492188
5 0.475586
6 0.468750
7 0.497070
8 0.484375
9 0.515625
10 0.466797
11 0.515625
12 0.468750
13 0.474609
14 0.482422
15 0.462891
16 0.476562
17 0.511719
18 0.478516
19 0.504883
20 0.486328
21 0.494141
22 0.510742
23 0.502930
24 0.458008
25 0.481445
26 0.506836
27 0.477539
28 0.476562
29 0.508789
30 0.490234
31 0.474609
32 0.480469
33 0.483398
34 0.479492
35 0.505859
36 0.475586
37 0.504883
38 0.448242
39 0.482422
40 0.484375
41 0.506836
42 0.470703
43 0.496094
44 0.498047
45 0.500977
46 0.487305
47 0.492188
48 0.479492
49 0.509766
50 0.474609
51 0.494141
52 0.495117
53 0.479492
54 0.480469
55 0.488281
56 0.495117
57 0.463867
58 0.493164
59 0.508789
60 0.504883
61 0.502930
62 0.522461
63 0.523438
64 0.531250
65 0.532227
66 0.533203
67 0.550781
68 0.517578
69 0.518555
70 0.525391
71 0.546875
72 0.530273
73 0.534180
74 0.556641
75 0.551758
76 0.558594
77 0.519531
78 0.558594
79 0.524414
80 0.553711
81 0.535156
82 0.538086
83 0.537109
84 0.546875
85 0.543945
86 0.541992
87 0.555664
88 0.553711
89 0.568359
90 0.563477
91 0.583984
92 0.550781
93 0.541016
94 0.542969
95 0.554688
96 0.557617
97 0.584961
98 0.549805
99 0.592773
100 0.581055
101 0.593750
102 0.583984
103 0.594727
104 0.597656
105 0.604492
106 0.634766
107 0.601562
108 0.618164
109 0.585938
110 0.610352
111 0.579102
112 0.628906
113 0.570312
114 0.571289
115 0.595703
116 0.598633
117 0.547852
118 0.574219
119 0.582031
120 0.560547
121 0.540039
122 0.580078
123 0.587891
124 0.581055
125 0.537109
126 0.557617
127 0.594727
128 0.566406
129 0.612305
130 0.600586
131 0.600586
132 0.600586
133 0.601562
134 0.607422
135 0.633789
136 0.593750
137 0.562500
138 0.627930
139 0.589844
140 0.597656
141 0.571289
142 0.576172
143 0.589844
144 0.614258
145 0.563477
146 0.596680
147 0.574219
148 0.548828
149 0.624023
150 0.570312
151 0.588867
152 0.560547
153 0.541016
154 0.583008
155 0.565430
156 0.581055
157 0.584961
158 0.591797
159 0.584961
160 0.561523
161 0.583008
162 0.596680
163 0.606445
164 0.637695
165 0.614258
166 0.571289
167 0.600586
168 0.590820
169 0.593750
170 0.606445
171 0.554688
172 0.594727
173 0.606445
174 0.589844
175 0.621094
176 0.620117
177 0.627930
178 0.616211
179 0.644531
180 0.595703
181 0.582031
182 0.562500
183 0.614258
184 0.592773
185 0.614258
186 0.601562
187 0.615234
188 0.586914
189 0.577148
190 0.624023
191 0.570312
192 0.570312
193 0.571289
194 0.545898
195 0.543945
196 0.607422
197 0.559570
198 0.556641
199 0.599609
200 0.592773
201 0.565430
202 0.572266
203 0.594727
204 0.619141
205 0.574219
206 0.576172
207 0.597656
208 0.658203
209 0.579102
210 0.602539
211 0.602539
212 0.585938
213 0.636719
214 0.587891
215 0.623047
216 0.597656
217 0.606445
218 0.563477
219 0.589844
220 0.610352
221 0.608398
222 0.583984
223 0.583008
224 0.576172
225 0.584961
226 0.582031
227 0.628906
228 0.605469
229 0.595703
230 0.592773
231 0.615234
232 0.605469
233 0.641602
234 0.622070
235 0.603516
236 0.610352
237 0.626953
238 0.634766
239 0.590820
240 0.583008
241 0.624023
242 0.592773
243 0.572266
244 0.591797
245 0.597656
246 0.575195
247 0.589844
248 0.584961
249 0.575195
250 0.603516
251 0.635742
252 0.592773
253 0.583008
254 0.583984
255 0.596680
256 0.616211
257 0.610352
258 0.597656
259 0.614258
260 0.597656
261 0.621094
262 0.603516
263 0.568359
264 0.594727
265 0.583008
266 0.610352
267 0.596680
268 0.616211
269 0.605469
270 0.630859
271 0.587891
272 0.608398
273 0.639648
274 0.635742
275 0.569336
276 0.583008
277 0.571289
278 0.618164
279 0.607422
280 0.606445
281 0.590820
282 0.591797
283 0.618164
284 0.591797
285 0.616211
286 0.601562
287 0.583008
288 0.599609
289 0.597656
290 0.635742
291 0.573242
292 0.581055
293 0.586914
294 0.595703
295 0.604492
296 0.591797
297 0.589844
298 0.582031
299 0.612305
300 0.612305
301 0.629883
302 0.595703
303 0.605469
304 0.594727
305 0.574219
306 0.630859
307 0.605469
308 0.628906
309 0.626953
310 0.611328
311 0.628906
312 0.598633
313 0.598633
314 0.597656
315 0.593750
316 0.612305
317 0.634766
318 0.575195
319 0.618164
320 0.601562
321 0.600586
322 0.596680
323 0.584961
324 0.574219
325 0.622070
326 0.597656
327 0.613281
328 0.568359
329 0.574219
330 0.601562
331 0.592773
332 0.560547
333 0.609375
334 0.591797
335 0.620117
336 0.564453
337 0.601562
338 0.544922
339 0.601562
340 0.582031
341 0.583984
342 0.606445
343 0.553711
344 0.543945
345 0.547852
346 0.550781
347 0.573242
348 0.573242
349 0.563477
350 0.555664
351 0.560547
352 0.551758
353 0.569336
354 0.572266
355 0.607422
356 0.580078
357 0.554688
358 0.583984
359 0.604492
360 0.584961
361 0.606445
362 0.580078
363 0.592773
364 0.596680
365 0.553711
366 0.615234
367 0.584961
368 0.625977
369 0.599609
370 0.562500
371 0.609375
372 0.588867
373 0.597656
374 0.574219
375 0.589844
376 0.610352
377 0.576172
378 0.633789
379 0.578125
380 0.595703
381 0.606445
382 0.594727
383 0.615234
384 0.604492
385 0.592773
386 0.593750
387 0.594727
388 0.603516
389 0.608398
390 0.601562
391 0.585938
392 0.592773
393 0.568359
394 0.607422
395 0.570312
396 0.647461
397 0.619141
398 0.639648
399 0.559570
400 0.589844
401 0.612305
402 0.640625
403 0.598633
404 0.637695
405 0.628906
406 0.609375
407 0.607422
408 0.574219
409 0.616211
410 0.585938
411 0.606445
412 0.625977
413 0.647461
414 0.598633
415 0.594727
416 0.608398
417 0.641602
418 0.622070
419 0.644531
420 0.561523
421 0.625977
422 0.626953
423 0.581055
424 0.597656
425 0.613281
426 0.639648
427 0.635742
428 0.592773
429 0.602539
430 0.648438
431 0.596680
432 0.595703
433 0.596680
434 0.583008
435 0.603516
436 0.616211
437 0.605469
438 0.613281
439 0.582031
440 0.647461
441 0.620117
442 0.576172
443 0.589844
444 0.565430
445 0.593750
446 0.577148
447 0.577148
448 0.610352
449 0.589844
450 0.531250
451 0.572266
452 0.576172
453 0.557617
454 0.557617
455 0.565430
456 0.576172
457 0.599609
458 0.624023
459 0.562500
460 0.573242
461 0.588867
462 0.618164
463 0.585938
464 0.601562
465 0.584961
466 0.564453
467 0.582031
468 0.591797
469 0.570312
470 0.565430
471 0.559570
472 0.559570
473 0.539062
474 0.611328
475 0.549805
476 0.577148
477 0.586914
478 0.569336
479 0.577148
480 0.547852
481 0.557617
482 0.580078
483 0.536133
484 0.607422
485 0.588867
486 0.588867
487 0.627930
488 0.581055
489 0.604492
490 0.591797
491 0.586914
492 0.607422
493 0.629883
494 0.645508
495 0.625000
496 0.597656
497 0.591797
498 0.573242
499 0.611328
500 0.616211
501 0.617188
502 0.612305
503 0.583984
504 0.605469
505 0.575195
506 0.622070
507 0.588867
508 0.625977
509 0.621094
510 0.598633
511 0.639648
512 0.592773
513 0.622070
514 0.626953
515 0.625977
516 0.617188
517 0.585938
518 0.590820
519 0.566406
520 0.586914
521 0.575195
522 0.567383
523 0.589844
524 0.605469
525 0.603516
526 0.583984
527 0.575195
528 0.593750
529 0.602539
530 0.592773
531 0.558594
532 0.572266
533 0.564453
534 0.615234
535 0.609375
536 0.567383
537 0.589844
538 0.620117
539 0.590820
540 0.584961
541 0.609375
542 0.589844
543 0.576172
544 0.580078
545 0.607422
546 0.562500
547 0.604492
548 0.607422
549 0.580078
550 0.581055
551 0.585938
552 0.623047
553 0.616211
554 0.597656
555 0.628906
556 0.633789
557 0.622070
558 0.565430
559 0.634766
560 0.602539
561 0.583008
562 0.649414
563 0.562500
564 0.596680
565 0.591797
566 0.609375
567 0.640625
568 0.566406
569 0.582031
570 0.578125
571 0.631836
572 0.617188
573 0.641602
574 0.633789
575 0.566406
576 0.624023
577 0.607422
578 0.576172
579 0.612305
580 0.602539
581 0.593750
582 0.579102
583 0.588867
584 0.583984
585 0.552734
586 0.580078
587 0.587891
588 0.565430
589 0.582031
590 0.564453
591 0.593750
592 0.616211
593 0.613281
594 0.619141
595 0.602539
596 0.596680
597 0.630859
598 0.600586
599 0.593750
