0 0.490234
1 0.496094
2 0.495117
3 0.500000
4 0.509766
5 0.464844
6 0.505859
7 0.480469
8 0.481445
9 0.471680
10 0.469727
11 0.543945
12 0.537109
13 0.502930
14 0.466797
15 0.498047
16 0.493164
17 0.527344
18 0.486328
19 0.506836
20 0.498047
21 0.500977
22 0.468750
23 0.484375
24 0.536133
25 0.484375
26 0.500000
27 0.533203
28 0.478516
29 0.493164
30 0.482422
31 0.522461
32 0.499023
33 0.498047
34 0.490234
35 0.469727
36 0.530273
37 0.512695
38 0.502930
39 0.506836
40 0.514648
41 0.515625
42 0.517578
43 0.554688
44 0.508789
45 0.516602
46 0.517578
47 0.515625
48 0.520508
49 0.529297
50 0.499023
51 0.538086
52 0.520508
53 0.524414
54 0.550781
55 0.539062
56 0.540039
57 0.523438
58 0.558594
59 0.549805
60 0.557617
61 0.562500
62 0.546875
63 0.543945
64 0.585938
65 0.574219
66 0.571289
67 0.566406
68 0.574219
69 0.532227
70 0.585938
71 0.584961
72 0.590820
73 0.563477
74 0.583008
75 0.571289
76 0.570312
77 0.573242
78 0.573242
79 0.598633
80 0.590820
81 0.558594
82 0.591797
83 0.586914
84 0.588867
85 0.572266
86 0.595703
87 0.574219
88 0.530273
89 0.609375
90 0.542969
91 0.549805
92 0.554688
93 0.553711
94 0.565430
95 0.592773
96 0.593750
97 0.567383
98 0.590820
99 0.582031
100 0.560547
101 0.577148
102 0.589844
103 0.592773
104 0.577148
105 0.609375
106 0.583008
107 0.599609
108 0.564453
109 0.533203
110 0.536133
111 0.568359
112 0.577148
113 0.607422
114 0.571289
115 0.551758
116 0.564453
117 0.547852
118 0.562500
119 0.583984
120 0.574219
121 0.578125
122 0.559570
123 0.542969
124 0.574219
125 0.560547
126 0.563477
127 0.580078
128 0.570312
129 0.576172
130 0.576172
131 0.557617
132 0.560547
133 0.558594
134 0.566406
135 0.560547
136 0.576172
137 0.600586
138 0.606445
139 0.564453
140 0.547852
141 0.573242
142 0.587891
143 0.591797
144 0.581055
145 0.563477
146 0.588867
147 0.590820
148 0.600586
149 0.575195
150 0.592773
151 0.612305
152 0.571289
153 0.570312
154 0.604492
155 0.623047
156 0.575195
157 0.605469
158 0.611328
159 0.607422
160 0.583984
161 0.603516
162 0.563477
163 0.602539
164 0.626953
165 0.550781
166 0.577148
167 0.623047
168 0.607422
169 0.567383
170 0.569336
171 0.607422
172 0.636719
173 0.587891
174 0.554688
175 0.544922
176 0.573242
177 0.575195
178 0.571289
179 0.580078
180 0.565430
181 0.559570
182 0.617188
183 0.566406
184 0.568359
185 0.588867
186 0.561523
187 0.570312
188 0.564453
189 0.600586
190 0.580078
191 0.579102
192 0.608398
193 0.579102
194 0.588867
195 0.532227
196 0.595703
197 0.561523
198 0.595703
199 0.561523
200 0.572266
201 0.587891
202 0.587891
203 0.607422
204 0.582031
205 0.568359
206 0.582031
207 0.588867
208 0.575195
209 0.592773
210 0.601562
211 0.591797
212 0.589844
213 0.573242
214 0.570312
215 0.580078
216 0.570312
217 0.568359
218 0.566406
219 0.596680
220 0.548828
221 0.567383
222 0.569336
223 0.600586
224 0.635742
225 0.599609
226 0.577148
227 0.613281
228 0.583008
229 0.569336
230 0.590820
231 0.590820
232 0.554688
233 0.588867
234 0.606445
235 0.580078
236 0.600586
237 0.560547
238 0.624023
239 0.600586
240 0.585938
241 0.525391
242 0.584961
243 0.552734
244 0.577148
245 0.603516
246 0.569336
247 0.598633
248 0.575195
249 0.581055
250 0.552734
251 0.576172
252 0.601562
253 0.588867
254 0.570312
255 0.600586
256 0.574219
257 0.597656
258 0.564453
259 0.608398
260 0.628906
261 0.599609
262 0.596680
263 0.588867
264 0.583984
265 0.601562
266 0.574219
267 0.620117
268 0.599609
269 0.616211
270 0.590820
271 0.577148
272 0.573242
273 0.604492
274 0.602539
275 0.593750
276 0.586914
277 0.609375
278 0.602539
279 0.587891
280 0.609375
281 0.600586
282 0.625000
283 0.583984
284 0.627930
285 0.598633
286 0.581055
287 0.617188
288 0.574219
289 0.606445
290 0.605469
291 0.596680
292 0.609375
293 0.573242
294 0.583984
295 0.605469
296 0.556641
297 0.557617
298 0.610352
299 0.599609
300 0.563477
301 0.584961
302 0.594727
303 0.595703
304 0.605469
305 0.589844
306 0.604492
307 0.585938
308 0.607422
309 0.613281
310 0.592773
311 0.571289
312 0.596680
313 0.600586
314 0.568359
315 0.621094
316 0.584961
317 0.567383
318 0.565430
319 0.597656
320 0.596680
321 0.586914
322 0.608398
323 0.617188
324 0.607422
325 0.597656
326 0.580078
327 0.574219
328 0.610352
329 0.588867
330 0.594727
331 0.597656
332 0.573242
333 0.636719
334 0.609375
335 0.602539
336 0.562500
337 0.610352
338 0.570312
339 0.582031
340 0.586914
341 0.596680
342 0.571289
343 0.592773
344 0.590820
345 0.602539
346 0.585938
347 0.595703
348 0.611328
349 0.597656
350 0.582031
351 0.609375
352 0.622070
353 0.617188
354 0.600586
355 0.618164
356 0.612305
357 0.624023
358 0.607422
359 0.596680
360 0.578125
361 0.560547
362 0.581055
363 0.573242
364 0.566406
365 0.575195
366 0.558594
367 0.560547
368 0.625000
369 0.587891
370 0.600586
371 0.541992
372 0.584961
373 0.633789
374 0.606445
375 0.657227
376 0.598633
377 0.580078
378 0.601562
379 0.582031
380 0.603516
381 0.601562
382 0.552734
383 0.561523
384 0.582031
385 0.572266
386 0.560547
387 0.554688
388 0.557617
389 0.573242
390 0.576172
391 0.587891
392 0.569336
393 0.600586
394 0.595703
395 0.610352
396 0.576172
397 0.603516
398 0.578125
399 0.613281
400 0.592773
401 0.571289
402 0.605469
403 0.552734
404 0.618164
405 0.582031
406 0.595703
407 0.624023
408 0.605469
409 0.627930
410 0.606445
411 0.619141
412 0.632812
413 0.605469
414 0.597656
415 0.609375
416 0.583008
417 0.593750
418 0.551758
419 0.621094
420 0.593750
421 0.574219
422 0.583984
423 0.587891
424 0.569336
425 0.563477
426 0.596680
427 0.570312
428 0.582031
429 0.584961
430 0.596680
431 0.636719
432 0.585938
433 0.579102
434 0.609375
435 0.641602
436 0.585938
437 0.584961
438 0.607422
439 0.572266
440 0.633789
441 0.601562
442 0.617188
443 0.606445
444 0.589844
445 0.586914
446 0.590820
447 0.587891
448 0.562500
449 0.592773
450 0.582031
451 0.610352
452 0.625977
453 0.583984
454 0.630859
455 0.579102
456 0.608398
457 0.551758
458 0.548828
459 0.591797
460 0.537109
461 0.575195
462 0.588867
463 0.567383
464 0.597656
465 0.586914
466 0.599609
467 0.568359
468 0.597656
469 0.589844
470 0.551758
471 0.610352
472 0.596680
473 0.585938
474 0.579102
475 0.553711
476 0.623047
477 0.632812
478 0.565430
479 0.613281
480 0.608398
481 0.581055
482 0.564453
483 0.586914
484 0.615234
485 0.571289
486 0.573242
487 0.581055
488 0.619141
489 0.611328
490 0.589844
491 0.633789
492 0.608398
493 0.573242
494 0.625000
495 0.578125
496 0.578125
497 0.588867
498 0.586914
499 0.554688
500 0.587891
501 0.584961
502 0.605469
503 0.583984
504 0.605469
505 0.580078
506 0.578125
507 0.594727
508 0.584961
509 0.577148
510 0.620117
511 0.624023
512 0.579102
513 0.556641
514 0.567383
515 0.609375
516 0.603516
517 0.579102
518 0.590820
519 0.570312
520 0.583008
521 0.601562
522 0.594727
523 0.574219
524 0.603516
525 0.598633
526 0.617188
527 0.591797
528 0.574219
529 0.592773
530 0.567383
531 0.601562
532 0.560547
533 0.607422
534 0.601562
535 0.579102
536 0.582031
537 0.603516
538 0.583984
539 0.584961
540 0.607422
541 0.604492
542 0.601562
543 0.620117
544 0.603516
545 0.575195
546 0.578125
547 0.542969
548 0.602539
549 0.570312
550 0.589844
551 0.580078
552 0.579102
553 0.574219
554 0.606445
555 0.577148
556 0.603516
557 0.604492
558 0.611328
559 0.647461
560 0.602539
561 0.600586
562 0.621094
563 0.596680
564 0.542969
565 0.585938
566 0.592773
567 0.562500
568 0.581055
569 0.562500
570 0.546875
571 0.591797
572 0.586914
573 0.578125
574 0.588867
575 0.590820
576 0.570312
577 0.608398
578 0.598633
579 0.606445
580 0.596680
581 0.590820
582 0.594727
583 0.610352
584 0.612305
585 0.625977
586 0.550781
587 0.533203
588 0.578125
589 0.589844
590 0.592773
591 0.595703
592 0.583008
593 0.611328
594 0.567383
595 0.595703
596 0.621094
597 0.601562
598 0.580078
599 0.614258
