0 0.519531
1 0.503906
2 0.473633
3 0.482422
4 0.480469
5 0.492188
6 0.505859
7 0.507812
8 0.487305
9 0.496094
10 0.474609
11 0.488281
12 0.498047
13 0.490234
14 0.469727
15 0.495117
16 0.489258
17 0.519531
18 0.486328
19 0.484375
20 0.511719
21 0.492188
22 0.484375
23 0.490234
24 0.504883
25 0.491211
26 0.518555
27 0.466797
28 0.467773
29 0.460938
30 0.497070
31 0.511719
32 0.474609
33 0.513672
34 0.449219
35 0.473633
36 0.499023
37 0.500000
38 0.486328
39 0.492188
40 0.478516
41 0.482422
42 0.518555
43 0.486328
44 0.494141
45 0.511719
46 0.485352
47 0.461914
48 0.466797
49 0.471680
50 0.515625
51 0.504883
52 0.480469
53 0.509766
54 0.509766
55 0.479492
56 0.496094
57 0.497070
58 0.479492
59 0.498047
60 0.480469
61 0.507812
62 0.475586
63 0.500977
64 0.510742
65 0.490234
66 0.523438
67 0.493164
68 0.520508
69 0.446289
70 0.527344
71 0.543945
72 0.483398
73 0.492188
74 0.506836
75 0.489258
76 0.541016
77 0.514648
78 0.539062
79 0.587891
80 0.569336
81 0.540039
82 0.532227
83 0.520508
84 0.541992
85 0.547852
86 0.579102
87 0.526367
88 0.542969
89 0.558594
90 0.577148
91 0.567383
92 0.561523
93 0.573242
94 0.540039
95 0.574219
96 0.583984
97 0.568359
98 0.582031
99 0.551758
100 0.571289
101 0.615234
102 0.576172
103 0.592773
104 0.573242
105 0.605469
106 0.566406
107 0.587891
108 0.614258
109 0.595703
110 0.580078
111 0.615234
112 0.642578
113 0.636719
114 0.625000
115 0.615234
116 0.589844
117 0.612305
118 0.573242
119 0.572266
120 0.618164
121 0.625977
122 0.619141
123 0.583984
124 0.633789
125 0.612305
126 0.604492
127 0.603516
128 0.582031
129 0.604492
130 0.630859
131 0.631836
132 0.598633
133 0.631836
134 0.573242
135 0.593750
136 0.585938
137 0.552734
138 0.580078
139 0.597656
140 0.584961
141 0.624023
142 0.612305
143 0.616211
144 0.637695
145 0.563477
146 0.578125
147 0.603516
148 0.595703
149 0.634766
150 0.645508
151 0.600586
152 0.605469
153 0.612305
154 0.655273
155 0.625977
156 0.595703
157 0.604492
158 0.604492
159 0.605469
160 0.606445
161 0.612305
162 0.584961
163 0.583984
164 0.585938
165 0.613281
166 0.607422
167 0.593750
168 0.611328
169 0.625977
170 0.583008
171 0.610352
172 0.602539
173 0.652344
174 0.608398
175 0.558594
176 0.604492
177 0.585938
178 0.606445
179 0.597656
180 0.571289
181 0.603516
182 0.625977
183 0.617188
184 0.623047
185 0.631836
186 0.583984
187 0.607422
188 0.588867
189 0.625000
190 0.623047
191 0.634766
192 0.602539
193 0.591797
194 0.604492
195 0.566406
196 0.582031
197 0.603516
198 0.607422
199 0.589844
200 0.576172
201 0.628906
202 0.626953
203 0.618164
204 0.619141
205 0.623047
206 0.654297
207 0.600586
208 0.592773
209 0.625000
210 0.640625
211 0.593750
212 0.601562
213 0.634766
214 0.596680
215 0.629883
216 0.590820
217 0.601562
218 0.599609
219 0.584961
220 0.554688
221 0.624023
222 0.609375
223 0.606445
224 0.559570
225 0.625977
226 0.583984
227 0.605469
228 0.603516
229 0.581055
230 0.638672
231 0.608398
232 0.605469
233 0.594727
234 0.608398
235 0.634766
236 0.589844
237 0.618164
238 0.621094
239 0.660156
240 0.622070
241 0.597656
242 0.632812
243 0.583008
244 0.648438
245 0.606445
246 0.606445
247 0.626953
248 0.622070
249 0.581055
250 0.598633
251 0.622070
252 0.610352
253 0.579102
254 0.572266
255 0.572266
256 0.563477
257 0.597656
258 0.619141
259 0.575195
260 0.583008
261 0.625000
262 0.589844
263 0.618164
264 0.608398
265 0.588867
266 0.596680
267 0.562500
268 0.629883
269 0.601562
270 0.589844
271 0.597656
272 0.630859
273 0.613281
274 0.612305
275 0.603516
276 0.579102
277 0.626953
278 0.615234
279 0.618164
280 0.627930
281 0.622070
282 0.629883
283 0.624023
284 0.564453
285 0.635742
286 0.626953
287 0.583008
288 0.679688
289 0.620117
290 0.658203
291 0.584961
292 0.628906
293 0.607422
294 0.615234
295 0.615234
296 0.654297
297 0.616211
298 0.661133
299 0.611328
300 0.642578
301 0.600586
302 0.643555
303 0.647461
304 0.624023
305 0.622070
306 0.596680
307 0.592773
308 0.597656
309 0.620117
310 0.576172
311 0.607422
312 0.591797
313 0.602539
314 0.589844
315 0.598633
316 0.584961
317 0.619141
318 0.621094
319 0.610352
320 0.584961
321 0.612305
322 0.625000
323 0.610352
324 0.617188
325 0.598633
326 0.580078
327 0.588867
328 0.579102
329 0.569336
330 0.560547
331 0.609375
332 0.599609
333 0.594727
334 0.598633
335 0.620117
336 0.602539
337 0.620117
338 0.631836
339 0.617188
340 0.605469
341 0.627930
342 0.614258
343 0.618164
344 0.576172
345 0.656250
346 0.622070
347 0.651367
348 0.614258
349 0.592773
350 0.609375
351 0.657227
352 0.658203
353 0.633789
354 0.584961
355 0.577148
356 0.620117
357 0.590820
358 0.615234
359 0.657227
360 0.614258
361 0.591797
362 0.630859
363 0.615234
364 0.594727
365 0.595703
366 0.597656
367 0.584961
368 0.601562
369 0.596680
370 0.586914
371 0.645508
372 0.658203
373 0.629883
374 0.599609
375 0.573242
376 0.575195
377 0.573242
378 0.616211
379 0.586914
380 0.595703
381 0.586914
382 0.644531
383 0.593750
384 0.652344
385 0.582031
386 0.612305
387 0.648438
388 0.618164
389 0.633789
390 0.583008
391 0.630859
392 0.589844
393 0.611328
394 0.573242
395 0.602539
396 0.624023
397 0.578125
398 0.607422
399 0.609375
400 0.608398
401 0.586914
402 0.590820
403 0.625000
404 0.588867
405 0.582031
406 0.568359
407 0.643555
408 0.600586
409 0.642578
410 0.592773
411 0.592773
412 0.605469
413 0.630859
414 0.603516
415 0.647461
416 0.608398
417 0.619141
418 0.621094
419 0.615234
420 0.625977
421 0.617188
422 0.616211
423 0.633789
424 0.613281
425 0.595703
426 0.631836
427 0.590820
428 0.625977
429 0.649414
430 0.603516
431 0.627930
432 0.646484
433 0.614258
434 0.605469
435 0.584961
436 0.617188
437 0.611328
438 0.617188
439 0.615234
440 0.622070
441 0.589844
442 0.595703
443 0.572266
444 0.623047
445 0.624023
446 0.601562
447 0.596680
448 0.621094
449 0.601562
450 0.616211
451 0.627930
452 0.582031
453 0.633789
454 0.631836
455 0.599609
456 0.614258
457 0.641602
458 0.605469
459 0.621094
460 0.642578
461 0.607422
462 0.622070
463 0.625977
464 0.624023
465 0.611328
466 0.604492
467 0.625977
468 0.588867
469 0.616211
470 0.626953
471 0.627930
472 0.625977
473 0.601562
474 0.598633
475 0.620117
476 0.611328
477 0.586914
478 0.603516
479 0.607422
480 0.589844
481 0.605469
482 0.615234
483 0.643555
484 0.615234
485 0.625000
486 0.619141
487 0.640625
488 0.637695
489 0.623047
490 0.618164
491 0.618164
492 0.620117
493 0.630859
494 0.646484
495 0.647461
496 0.635742
497 0.625000
498 0.625977
499 0.618164
500 0.610352
501 0.617188
502 0.603516
503 0.614258
504 0.604492
505 0.635742
506 0.641602
507 0.645508
508 0.592773
509 0.602539
510 0.624023
511 0.598633
512 0.607422
513 0.614258
514 0.616211
515 0.625000
516 0.610352
517 0.652344
518 0.587891
519 0.604492
520 0.629883
521 0.614258
522 0.612305
523 0.591797
524 0.620117
525 0.576172
526 0.652344
527 0.653320
528 0.633789
529 0.601562
530 0.608398
531 0.620117
532 0.651367
533 0.644531
534 0.617188
535 0.624023
536 0.613281
537 0.594727
538 0.628906
539 0.599609
540 0.617188
541 0.632812
542 0.599609
543 0.621094
544 0.625977
545 0.635742
546 0.599609
547 0.623047
548 0.626953
549 0.636719
550 0.611328
551 0.627930
552 0.592773
553 0.595703
554 0.647461
555 0.621094
556 0.621094
557 0.616211
558 0.641602
559 0.623047
560 0.598633
561 0.620117
562 0.616211
563 0.609375
564 0.664062
565 0.633789
566 0.594727
567 0.642578
568 0.602539
569 0.590820
570 0.576172
571 0.607422
572 0.615234
573 0.613281
574 0.622070
575 0.585938
576 0.642578
577 0.625977
578 0.574219
579 0.601562
580 0.601562
581 0.630859
582 0.607422
583 0.608398
584 0.591797
585 0.628906
586 0.625977
587 0.636719
588 0.620117
589 0.584961
590 0.616211
591 0.634766
592 0.604492
593 0.596680
594 0.625977
595 0.612305
596 0.594727
597 0.599609
598 0.600586
599 0.572266
