0 0.472656
1 0.479492
2 0.471680
3 0.496094
4 0.494141
5 0.533203
6 0.520508
7 0.527344
8 0.492188
9 0.500000
10 0.473633
11 0.490234
12 0.510742
13 0.523438
14 0.493164
15 0.515625
16 0.466797
17 0.501953
18 0.490234
19 0.461914
20 0.476562
21 0.491211
22 0.475586
23 0.504883
24 0.506836
25 0.514648
26 0.512695
27 0.493164
28 0.508789
29 0.488281
30 0.523438
31 0.503906
32 0.541016
33 0.525391
34 0.450195
35 0.500000
36 0.517578
37 0.525391
38 0.544922
39 0.520508
40 0.512695
41 0.511719
42 0.525391
43 0.504883
44 0.402344
45 0.530273
46 0.516602
47 0.541016
48 0.535156
49 0.501953
50 0.533203
51 0.552734
52 0.571289
53 0.508789
54 0.549805
55 0.578125
56 0.523438
57 0.552734
58 0.558594
59 0.540039
60 0.536133
61 0.575195
62 0.585938
63 0.625977
64 0.583008
65 0.530273
66 0.574219
67 0.576172
68 0.571289
69 0.599609
70 0.570312
71 0.520508
72 0.568359
73 0.548828
74 0.577148
75 0.573242
76 0.553711
77 0.612305
78 0.551758
79 0.604492
80 0.583008
81 0.579102
82 0.588867
83 0.608398
84 0.577148
85 0.566406
86 0.565430
87 0.577148
88 0.600586
89 0.587891
90 0.573242
91 0.602539
92 0.597656
93 0.579102
94 0.616211
95 0.634766
96 0.624023
97 0.584961
98 0.612305
99 0.590820
100 0.557617
101 0.557617
102 0.570312
103 0.560547
104 0.590820
105 0.595703
106 0.589844
107 0.520508
108 0.590820
109 0.574219
110 0.583984
111 0.623047
112 0.545898
113 0.619141
114 0.593750
115 0.585938
116 0.607422
117 0.617188
118 0.624023
119 0.583008
120 0.606445
121 0.619141
122 0.636719
123 0.620117
124 0.611328
125 0.584961
126 0.636719
127 0.590820
128 0.564453
129 0.612305
130 0.568359
131 0.610352
132 0.616211
133 0.639648
134 0.575195
135 0.579102
136 0.584961
137 0.629883
138 0.586914
139 0.582031
140 0.562500
141 0.604492
142 0.590820
143 0.617188
144 0.588867
145 0.607422
146 0.589844
147 0.575195
148 0.568359
149 0.598633
150 0.590820
151 0.599609
152 0.604492
153 0.610352
154 0.575195
155 0.566406
156 0.589844
157 0.583008
158 0.580078
159 0.601562
160 0.549805
161 0.591797
162 0.580078
163 0.581055
164 0.611328
165 0.596680
166 0.600586
167 0.591797
168 0.623047
169 0.629883
170 0.596680
171 0.579102
172 0.578125
173 0.564453
174 0.618164
175 0.568359
176 0.561523
177 0.617188
178 0.603516
179 0.591797
180 0.591797
181 0.583008
182 0.595703
183 0.594727
184 0.584961
185 0.574219
186 0.557617
187 0.574219
188 0.597656
189 0.575195
190 0.607422
191 0.593750
192 0.607422
193 0.582031
194 0.564453
195 0.571289
196 0.574219
197 0.576172
198 0.562500
199 0.598633
200 0.632812
201 0.600586
202 0.583984
203 0.579102
204 0.620117
205 0.612305
206 0.581055
207 0.572266
208 0.613281
209 0.591797
210 0.610352
211 0.568359
212 0.623047
213 0.586914
214 0.575195
215 0.621094
216 0.548828
217 0.621094
218 0.626953
219 0.603516
220 0.591797
221 0.592773
222 0.556641
223 0.582031
224 0.584961
225 0.595703
226 0.606445
227 0.592773
228 0.592773
229 0.614258
230 0.582031
231 0.610352
232 0.549805
233 0.595703
234 0.595703
235 0.585938
236 0.609375
237 0.594727
238 0.603516
239 0.575195
240 0.609375
241 0.617188
242 0.634766
243 0.607422
244 0.608398
245 0.629883
246 0.637695
247 0.608398
248 0.610352
249 0.618164
250 0.609375
251 0.599609
252 0.586914
253 0.594727
254 0.621094
255 0.603516
256 0.618164
257 0.587891
258 0.574219
259 0.603516
260 0.561523
261 0.591797
262 0.583008
263 0.606445
264 0.596680
265 0.592773
266 0.611328
267 0.607422
268 0.602539
269 0.612305
270 0.567383
271 0.572266
272 0.577148
273 0.621094
274 0.638672
275 0.604492
276 0.580078
277 0.570312
278 0.590820
279 0.600586
280 0.588867
281 0.599609
282 0.588867
283 0.600586
284 0.646484
285 0.613281
286 0.596680
287 0.562500
288 0.562500
289 0.599609
290 0.637695
291 0.620117
292 0.602539
293 0.618164
294 0.614258
295 0.607422
296 0.602539
297 0.620117
298 0.591797
299 0.588867
300 0.612305
301 0.620117
302 0.596680
303 0.586914
304 0.619141
305 0.615234
306 0.605469
307 0.591797
308 0.624023
309 0.572266
310 0.603516
311 0.584961
312 0.612305
313 0.609375
314 0.620117
315 0.592773
316 0.606445
317 0.607422
318 0.573242
319 0.595703
320 0.585938
321 0.568359
322 0.607422
323 0.584961
324 0.603516
325 0.610352
326 0.632812
327 0.613281
328 0.588867
329 0.625977
330 0.610352
331 0.584961
332 0.605469
333 0.601562
334 0.592773
335 0.589844
336 0.631836
337 0.613281
338 0.568359
339 0.583008
340 0.594727
341 0.584961
342 0.617188
343 0.628906
344 0.588867
345 0.648438
346 0.594727
347 0.611328
348 0.605469
349 0.591797
350 0.619141
351 0.621094
352 0.607422
353 0.615234
354 0.565430
355 0.588867
356 0.596680
357 0.618164
358 0.590820
359 0.576172
360 0.583008
361 0.596680
362 0.585938
363 0.606445
364 0.620117
365 0.589844
366 0.583984
367 0.623047
368 0.594727
369 0.630859
370 0.621094
371 0.614258
372 0.613281
373 0.552734
374 0.583984
375 0.575195
376 0.590820
377 0.574219
378 0.570312
379 0.541992
380 0.603516
381 0.570312
382 0.602539
383 0.594727
384 0.621094
385 0.589844
386 0.591797
387 0.594727
388 0.561523
389 0.594727
390 0.587891
391 0.610352
392 0.604492
393 0.597656
394 0.619141
395 0.617188
396 0.633789
397 0.571289
398 0.583008
399 0.604492
400 0.619141
401 0.568359
402 0.612305
403 0.608398
404 0.594727
405 0.587891
406 0.610352
407 0.619141
408 0.608398
409 0.597656
410 0.592773
411 0.546875
412 0.633789
413 0.621094
414 0.615234
415 0.603516
416 0.597656
417 0.620117
418 0.614258
419 0.593750
420 0.590820
421 0.570312
422 0.582031
423 0.625977
424 0.625977
425 0.584961
426 0.628906
427 0.625000
428 0.581055
429 0.565430
430 0.584961
431 0.589844
432 0.618164
433 0.583984
434 0.589844
435 0.571289
436 0.590820
437 0.578125
438 0.583008
439 0.632812
440 0.643555
441 0.633789
442 0.606445
443 0.587891
444 0.619141
445 0.557617
446 0.591797
447 0.554688
448 0.607422
449 0.567383
450 0.586914
451 0.630859
452 0.609375
453 0.579102
454 0.594727
455 0.599609
456 0.570312
457 0.580078
458 0.574219
459 0.561523
460 0.638672
461 0.572266
462 0.572266
463 0.572266
464 0.607422
465 0.576172
466 0.579102
467 0.570312
468 0.588867
469 0.586914
470 0.582031
471 0.583008
472 0.592773
473 0.598633
474 0.596680
475 0.582031
476 0.619141
477 0.609375
478 0.592773
479 0.629883
480 0.621094
481 0.610352
482 0.600586
483 0.608398
484 0.596680
485 0.616211
486 0.589844
487 0.598633
488 0.601562
489 0.586914
490 0.568359
491 0.576172
492 0.625977
493 0.568359
494 0.594727
495 0.594727
496 0.589844
497 0.615234
498 0.607422
499 0.568359
500 0.569336
501 0.563477
502 0.592773
503 0.553711
504 0.600586
505 0.595703
506 0.583984
507 0.581055
508 0.602539
509 0.558594
510 0.617188
511 0.625977
512 0.606445
513 0.588867
514 0.589844
515 0.587891
516 0.607422
517 0.591797
518 0.596680
519 0.590820
520 0.576172
521 0.583984
522 0.633789
523 0.628906
524 0.613281
525 0.584961
526 0.617188
527 0.590820
528 0.578125
529 0.588867
530 0.582031
531 0.605469
532 0.624023
533 0.581055
534 0.586914
535 0.557617
536 0.599609
537 0.603516
538 0.592773
539 0.580078
540 0.603516
541 0.591797
542 0.604492
543 0.599609
544 0.600586
545 0.554688
546 0.573242
547 0.570312
548 0.583008
549 0.608398
550 0.591797
551 0.590820
552 0.618164
553 0.592773
554 0.625000
555 0.598633
556 0.598633
557 0.589844
558 0.622070
559 0.625000
560 0.612305
561 0.638672
562 0.586914
563 0.618164
564 0.620117
565 0.610352
566 0.586914
567 0.591797
568 0.574219
569 0.590820
570 0.615234
571 0.601562
572 0.607422
573 0.613281
574 0.610352
575 0.606445
576 0.594727
577 0.622070
578 0.631836
579 0.578125
580 0.574219
581 0.589844
582 0.594727
583 0.602539
584 0.592773
585 0.603516
586 0.605469
587 0.584961
588 0.596680
589 0.618164
590 0.640625
591 0.643555
592 0.553711
593 0.583008
594 0.595703
595 0.639648
596 0.621094
597 0.612305
598 0.580078
599 0.587891
