0 0.500000
1 0.483398
2 0.481445
3 0.519531
4 0.478516
5 0.505859
6 0.489258
7 0.489258
8 0.477539
9 0.489258
10 0.482422
11 0.499023
12 0.465820
13 0.494141
14 0.488281
15 0.513672
16 0.488281
17 0.484375
18 0.523438
19 0.503906
20 0.493164
21 0.482422
22 0.444336
23 0.512695
24 0.504883
25 0.490234
26 0.445312
27 0.527344
28 0.516602
29 0.509766
30 0.512695
31 0.507812
32 0.467773
33 0.517578
34 0.519531
35 0.511719
36 0.498047
37 0.516602
38 0.530273
39 0.517578
40 0.491211
41 0.509766
42 0.496094
43 0.517578
44 0.536133
45 0.527344
46 0.544922
47 0.535156
48 0.521484
49 0.485352
50 0.510742
51 0.500000
52 0.511719
53 0.497070
54 0.542969
55 0.524414
56 0.541992
57 0.489258
58 0.517578
59 0.543945
60 0.511719
61 0.563477
62 0.539062
63 0.548828
64 0.556641
65 0.537109
66 0.586914
67 0.564453
68 0.521484
69 0.536133
70 0.516602
71 0.528320
72 0.516602
73 0.527344
74 0.507812
75 0.570312
76 0.551758
77 0.532227
78 0.574219
79 0.544922
80 0.567383
81 0.593750
82 0.592773
83 0.560547
84 0.592773
85 0.548828
86 0.563477
87 0.567383
88 0.582031
89 0.571289
90 0.546875
91 0.585938
92 0.554688
93 0.534180
94 0.587891
95 0.576172
96 0.560547
97 0.543945
98 0.588867
99 0.581055
100 0.597656
101 0.567383
102 0.583008
103 0.572266
104 0.572266
105 0.605469
106 0.568359
107 0.608398
108 0.595703
109 0.598633
110 0.603516
111 0.590820
112 0.596680
113 0.611328
114 0.596680
115 0.596680
116 0.581055
117 0.562500
118 0.576172
119 0.597656
120 0.597656
121 0.598633
122 0.583008
123 0.613281
124 0.557617
125 0.565430
126 0.575195
127 0.617188
128 0.541992
129 0.549805
130 0.604492
131 0.573242
132 0.562500
133 0.590820
134 0.582031
135 0.587891
136 0.602539
137 0.549805
138 0.599609
139 0.606445
140 0.586914
141 0.613281
142 0.601562
143 0.585938
144 0.631836
145 0.619141
146 0.583984
147 0.579102
148 0.614258
149 0.626953
150 0.603516
151 0.637695
152 0.560547
153 0.580078
154 0.583984
155 0.577148
156 0.590820
157 0.602539
158 0.578125
159 0.587891
160 0.574219
161 0.604492
162 0.583008
163 0.571289
164 0.586914
165 0.572266
166 0.552734
167 0.580078
168 0.564453
169 0.591797
170 0.609375
171 0.583008
172 0.518555
173 0.607422
174 0.592773
175 0.561523
176 0.578125
177 0.601562
178 0.544922
179 0.532227
180 0.574219
181 0.565430
182 0.591797
183 0.570312
184 0.576172
185 0.613281
186 0.578125
187 0.621094
188 0.583984
189 0.584961
190 0.548828
191 0.600586
192 0.608398
193 0.614258
194 0.575195
195 0.610352
196 0.613281
197 0.585938
198 0.575195
199 0.613281
200 0.600586
201 0.592773
202 0.585938
203 0.571289
204 0.557617
205 0.583984
206 0.557617
207 0.606445
208 0.571289
209 0.564453
210 0.561523
211 0.552734
212 0.570312
213 0.600586
214 0.573242
215 0.597656
216 0.638672
217 0.567383
218 0.566406
219 0.571289
220 0.557617
221 0.594727
222 0.551758
223 0.575195
224 0.556641
225 0.574219
226 0.566406
227 0.600586
228 0.593750
229 0.574219
230 0.570312
231 0.589844
232 0.570312
233 0.572266
234 0.586914
235 0.593750
236 0.589844
237 0.551758
238 0.620117
239 0.608398
240 0.583008
241 0.539062
242 0.583008
243 0.570312
244 0.566406
245 0.537109
246 0.579102
247 0.578125
248 0.607422
249 0.595703
250 0.603516
251 0.569336
252 0.589844
253 0.591797
254 0.582031
255 0.565430
256 0.600586
257 0.570312
258 0.598633
259 0.562500
260 0.567383
261 0.583984
262 0.571289
263 0.583008
264 0.586914
265 0.612305
266 0.597656
267 0.562500
268 0.582031
269 0.564453
270 0.599609
271 0.585938
272 0.595703
273 0.608398
274 0.603516
275 0.589844
276 0.583984
277 0.583008
278 0.611328
279 0.573242
280 0.576172
281 0.598633
282 0.604492
283 0.602539
284 0.570312
285 0.584961
286 0.568359
287 0.577148
288 0.612305
289 0.566406
290 0.631836
291 0.570312
292 0.587891
293 0.586914
294 0.608398
295 0.581055
296 0.560547
297 0.549805
298 0.567383
299 0.557617
300 0.632812
301 0.624023
302 0.604492
303 0.601562
304 0.592773
305 0.567383
306 0.589844
307 0.591797
308 0.600586
309 0.605469
310 0.601562
311 0.582031
312 0.582031
313 0.579102
314 0.592773
315 0.600586
316 0.566406
317 0.599609
318 0.582031
319 0.581055
320 0.580078
321 0.562500
322 0.565430
323 0.571289
324 0.558594
325 0.605469
326 0.616211
327 0.628906
328 0.560547
329 0.587891
330 0.565430
331 0.594727
332 0.593750
333 0.601562
334 0.611328
335 0.612305
336 0.603516
337 0.605469
338 0.568359
339 0.595703
340 0.619141
341 0.615234
342 0.571289
343 0.610352
344 0.581055
345 0.600586
346 0.616211
347 0.596680
348 0.615234
349 0.623047
350 0.599609
351 0.599609
352 0.621094
353 0.601562
354 0.556641
355 0.568359
356 0.640625
357 0.597656
358 0.605469
359 0.566406
360 0.582031
361 0.590820
362 0.579102
363 0.567383
364 0.578125
365 0.597656
366 0.613281
367 0.610352
368 0.596680
369 0.585938
370 0.564453
371 0.583008
372 0.589844
373 0.580078
374 0.583008
375 0.589844
376 0.585938
377 0.583008
378 0.612305
379 0.609375
380 0.563477
381 0.596680
382 0.557617
383 0.611328
384 0.563477
385 0.546875
386 0.562500
387 0.574219
388 0.570312
389 0.587891
390 0.604492
391 0.601562
392 0.577148
393 0.607422
394 0.595703
395 0.581055
396 0.576172
397 0.590820
398 0.566406
399 0.608398
400 0.591797
401 0.603516
402 0.610352
403 0.562500
404 0.593750
405 0.602539
406 0.560547
407 0.624023
408 0.581055
409 0.598633
410 0.571289
411 0.579102
412 0.586914
413 0.596680
414 0.578125
415 0.574219
416 0.610352
417 0.587891
418 0.591797
419 0.586914
420 0.583984
421 0.571289
422 0.617188
423 0.567383
424 0.582031
425 0.605469
426 0.563477
427 0.571289
428 0.590820
429 0.575195
430 0.576172
431 0.574219
432 0.597656
433 0.607422
434 0.575195
435 0.600586
436 0.564453
437 0.567383
438 0.591797
439 0.600586
440 0.586914
441 0.563477
442 0.579102
443 0.588867
444 0.614258
445 0.620117
446 0.602539
447 0.570312
448 0.572266
449 0.598633
450 0.578125
451 0.595703
452 0.583984
453 0.608398
454 0.585938
455 0.614258
456 0.565430
457 0.601562
458 0.591797
459 0.599609
460 0.541992
461 0.603516
462 0.555664
463 0.563477
464 0.555664
465 0.583008
466 0.572266
467 0.597656
468 0.563477
469 0.548828
470 0.582031
471 0.568359
472 0.595703
473 0.610352
474 0.618164
475 0.559570
476 0.604492
477 0.572266
478 0.595703
479 0.601562
480 0.595703
481 0.561523
482 0.605469
483 0.530273
484 0.557617
485 0.561523
486 0.570312
487 0.597656
488 0.566406
489 0.582031
490 0.589844
491 0.588867
492 0.601562
493 0.542969
494 0.594727
495 0.588867
496 0.552734
497 0.561523
498 0.571289
499 0.566406
500 0.646484
501 0.577148
502 0.565430
503 0.558594
504 0.560547
505 0.592773
506 0.560547
507 0.632812
508 0.540039
509 0.580078
510 0.582031
511 0.604492
512 0.616211
513 0.587891
514 0.560547
515 0.608398
516 0.599609
517 0.599609
518 0.622070
519 0.601562
520 0.596680
521 0.605469
522 0.612305
523 0.602539
524 0.569336
525 0.605469
526 0.580078
527 0.638672
528 0.637695
529 0.600586
530 0.585938
531 0.606445
532 0.621094
533 0.583008
534 0.555664
535 0.603516
536 0.562500
537 0.572266
538 0.583008
539 0.590820
540 0.575195
541 0.591797
542 0.558594
543 0.557617
544 0.524414
545 0.578125
546 0.555664
547 0.589844
548 0.613281
549 0.607422
550 0.563477
551 0.576172
552 0.582031
553 0.593750
554 0.602539
555 0.569336
556 0.596680
557 0.582031
558 0.560547
559 0.592773
560 0.567383
561 0.616211
562 0.584961
563 0.567383
564 0.608398
565 0.585938
566 0.569336
567 0.578125
568 0.603516
569 0.553711
570 0.582031
571 0.557617
572 0.576172
573 0.580078
574 0.564453
575 0.607422
576 0.635742
577 0.594727
578 0.564453
579 0.543945
580 0.579102
581 0.564453
582 0.601562
583 0.584961
584 0.593750
585 0.593750
586 0.582031
587 0.594727
588 0.580078
589 0.601562
590 0.575195
591 0.586914
592 0.590820
593 0.567383
594 0.577148
595 0.569336
596 0.579102
597 0.623047
598 0.583984
599 0.561523
