0 0.529297
1 0.479492
2 0.481445
3 0.475586
4 0.460938
5 0.526367
6 0.491211
7 0.508789
8 0.521484
9 0.518555
10 0.515625
11 0.497070
12 0.488281
13 0.469727
14 0.496094
15 0.472656
16 0.452148
17 0.488281
18 0.493164
19 0.487305
20 0.470703
21 0.480469
22 0.513672
23 0.509766
24 0.517578
25 0.475586
26 0.516602
27 0.511719
28 0.483398
29 0.514648
30 0.506836
31 0.499023
32 0.496094
33 0.521484
34 0.487305
35 0.505859
36 0.502930
37 0.487305
38 0.504883
39 0.500977
40 0.475586
41 0.537109
42 0.508789
43 0.504883
44 0.492188
45 0.492188
46 0.521484
47 0.512695
48 0.458008
49 0.524414
50 0.522461
51 0.514648
52 0.506836
53 0.542969
54 0.497070
55 0.530273
56 0.525391
57 0.529297
58 0.520508
59 0.513672
60 0.508789
61 0.523438
62 0.541016
63 0.528320
64 0.529297
65 0.513672
66 0.511719
67 0.535156
68 0.554688
69 0.583008
70 0.556641
71 0.553711
72 0.512695
73 0.532227
74 0.542969
75 0.562500
76 0.589844
77 0.571289
78 0.581055
79 0.529297
80 0.522461
81 0.541016
82 0.571289
83 0.567383
84 0.549805
85 0.548828
86 0.592773
87 0.566406
88 0.541016
89 0.563477
90 0.520508
91 0.574219
92 0.564453
93 0.565430
94 0.542969
95 0.526367
96 0.555664
97 0.520508
98 0.563477
99 0.554688
100 0.556641
101 0.550781
102 0.585938
103 0.558594
104 0.585938
105 0.535156
106 0.562500
107 0.568359
108 0.528320
109 0.561523
110 0.598633
111 0.582031
112 0.571289
113 0.567383
114 0.547852
115 0.587891
116 0.619141
117 0.560547
118 0.558594
119 0.577148
120 0.567383
121 0.559570
122 0.563477
123 0.579102
124 0.587891
125 0.623047
126 0.570312
127 0.557617
128 0.598633
129 0.595703
130 0.585938
131 0.608398
132 0.605469
133 0.579102
134 0.646484
135 0.596680
136 0.591797
137 0.567383
138 0.604492
139 0.584961
140 0.588867
141 0.578125
142 0.612305
143 0.584961
144 0.590820
145 0.616211
146 0.576172
147 0.594727
148 0.590820
149 0.638672
150 0.580078
151 0.608398
152 0.585938
153 0.568359
154 0.565430
155 0.567383
156 0.552734
157 0.579102
158 0.585938
159 0.585938
160 0.550781
161 0.611328
162 0.586914
163 0.570312
164 0.574219
165 0.596680
166 0.541992
167 0.544922
168 0.594727
169 0.572266
170 0.586914
171 0.561523
172 0.574219
173 0.593750
174 0.610352
175 0.590820
176 0.610352
177 0.613281
178 0.597656
179 0.585938
180 0.555664
181 0.576172
182 0.551758
183 0.587891
184 0.589844
185 0.569336
186 0.565430
187 0.586914
188 0.561523
189 0.595703
190 0.601562
191 0.578125
192 0.586914
193 0.581055
194 0.599609
195 0.591797
196 0.578125
197 0.565430
198 0.553711
199 0.581055
200 0.575195
201 0.583008
202 0.561523
203 0.606445
204 0.588867
205 0.592773
206 0.590820
207 0.611328
208 0.604492
209 0.598633
210 0.565430
211 0.649414
212 0.598633
213 0.594727
214 0.581055
215 0.589844
216 0.589844
217 0.563477
218 0.591797
219 0.611328
220 0.551758
221 0.583008
222 0.560547
223 0.585938
224 0.575195
225 0.562500
226 0.552734
227 0.558594
228 0.606445
229 0.595703
230 0.591797
231 0.605469
232 0.572266
233 0.559570
234 0.581055
235 0.586914
236 0.578125
237 0.562500
238 0.601562
239 0.566406
240 0.588867
241 0.606445
242 0.579102
243 0.586914
244 0.597656
245 0.577148
246 0.586914
247 0.572266
248 0.595703
249 0.593750
250 0.568359
251 0.584961
252 0.566406
253 0.582031
254 0.627930
255 0.601562
256 0.586914
257 0.587891
258 0.624023
259 0.586914
260 0.608398
261 0.613281
262 0.576172
263 0.602539
264 0.603516
265 0.588867
266 0.599609
267 0.607422
268 0.592773
269 0.597656
270 0.565430
271 0.588867
272 0.580078
273 0.600586
274 0.612305
275 0.583984
276 0.587891
277 0.579102
278 0.581055
279 0.604492
280 0.608398
281 0.578125
282 0.584961
283 0.551758
284 0.583008
285 0.538086
286 0.566406
287 0.563477
288 0.580078
289 0.598633
290 0.604492
291 0.550781
292 0.593750
293 0.595703
294 0.590820
295 0.572266
296 0.541016
297 0.578125
298 0.575195
299 0.551758
300 0.595703
301 0.616211
302 0.581055
303 0.563477
304 0.603516
305 0.575195
306 0.599609
307 0.611328
308 0.569336
309 0.593750
310 0.605469
311 0.602539
312 0.589844
313 0.597656
314 0.574219
315 0.558594
316 0.608398
317 0.570312
318 0.621094
319 0.566406
320 0.576172
321 0.601562
322 0.585938
323 0.580078
324 0.568359
325 0.572266
326 0.602539
327 0.577148
328 0.644531
329 0.598633
330 0.568359
331 0.565430
332 0.580078
333 0.600586
334 0.606445
335 0.574219
336 0.579102
337 0.608398
338 0.602539
339 0.591797
340 0.625000
341 0.601562
342 0.618164
343 0.617188
344 0.584961
345 0.554688
346 0.580078
347 0.544922
348 0.601562
349 0.593750
350 0.567383
351 0.580078
352 0.557617
353 0.574219
354 0.615234
355 0.560547
356 0.560547
357 0.554688
358 0.564453
359 0.565430
360 0.603516
361 0.562500
362 0.576172
363 0.573242
364 0.586914
365 0.583008
366 0.570312
367 0.541016
368 0.569336
369 0.613281
370 0.617188
371 0.563477
372 0.550781
373 0.555664
374 0.570312
375 0.599609
376 0.609375
377 0.572266
378 0.599609
379 0.625977
380 0.587891
381 0.578125
382 0.612305
383 0.549805
384 0.584961
385 0.590820
386 0.599609
387 0.587891
388 0.558594
389 0.576172
390 0.576172
391 0.583008
392 0.583984
393 0.591797
394 0.613281
395 0.576172
396 0.591797
397 0.589844
398 0.576172
399 0.630859
400 0.580078
401 0.602539
402 0.608398
403 0.598633
404 0.584961
405 0.570312
406 0.604492
407 0.604492
408 0.584961
409 0.583008
410 0.588867
411 0.591797
412 0.601562
413 0.605469
414 0.578125
415 0.591797
416 0.554688
417 0.587891
418 0.596680
419 0.558594
420 0.600586
421 0.593750
422 0.551758
423 0.590820
424 0.576172
425 0.575195
426 0.599609
427 0.582031
428 0.562500
429 0.589844
430 0.588867
431 0.607422
432 0.558594
433 0.620117
434 0.603516
435 0.607422
436 0.574219
437 0.595703
438 0.601562
439 0.614258
440 0.594727
441 0.615234
442 0.612305
443 0.615234
444 0.615234
445 0.628906
446 0.564453
447 0.573242
448 0.597656
449 0.585938
450 0.593750
451 0.577148
452 0.594727
453 0.606445
454 0.591797
455 0.598633
456 0.572266
457 0.570312
458 0.551758
459 0.568359
460 0.610352
461 0.592773
462 0.607422
463 0.581055
464 0.598633
465 0.591797
466 0.556641
467 0.566406
468 0.609375
469 0.635742
470 0.581055
471 0.595703
472 0.581055
473 0.604492
474 0.560547
475 0.655273
476 0.584961
477 0.579102
478 0.589844
479 0.605469
480 0.593750
481 0.605469
482 0.609375
483 0.607422
484 0.579102
485 0.592773
486 0.615234
487 0.601562
488 0.626953
489 0.606445
490 0.582031
491 0.604492
492 0.543945
493 0.579102
494 0.562500
495 0.564453
496 0.596680
497 0.550781
498 0.551758
499 0.614258
500 0.586914
501 0.604492
502 0.549805
503 0.588867
504 0.601562
505 0.600586
506 0.626953
507 0.599609
508 0.615234
509 0.611328
510 0.571289
511 0.590820
512 0.585938
513 0.596680
514 0.565430
515 0.583984
516 0.594727
517 0.579102
518 0.607422
519 0.586914
520 0.595703
521 0.594727
522 0.586914
523 0.614258
524 0.589844
525 0.594727
526 0.596680
527 0.591797
528 0.559570
529 0.558594
530 0.577148
531 0.577148
532 0.618164
533 0.578125
534 0.582031
535 0.595703
536 0.602539
537 0.589844
538 0.575195
539 0.593750
540 0.605469
541 0.605469
542 0.602539
543 0.612305
544 0.563477
545 0.601562
546 0.574219
547 0.533203
548 0.569336
549 0.589844
550 0.599609
551 0.604492
552 0.571289
553 0.583008
554 0.574219
555 0.579102
556 0.589844
557 0.590820
558 0.577148
559 0.593750
560 0.575195
561 0.569336
562 0.615234
563 0.538086
564 0.570312
565 0.589844
566 0.603516
567 0.609375
568 0.579102
569 0.585938
570 0.583984
571 0.604492
572 0.600586
573 0.583008
574 0.562500
575 0.570312
576 0.577148
577 0.583008
578 0.653320
579 0.596680
580 0.583008
581 0.591797
582 0.589844
583 0.574219
584 0.605469
585 0.594727
586 0.621094
587 0.605469
588 0.563477
589 0.567383
590 0.582031
591 0.600586
592 0.566406
593 0.599609
594 0.564453
595 0.568359
596 0.589844
597 0.576172
598 0.570312
599 0.582031
