0 0.453125
1 0.519531
2 0.485352
3 0.505859
4 0.499023
5 0.536133
6 0.480469
7 0.498047
8 0.494141
9 0.492188
10 0.483398
11 0.499023
12 0.500977
13 0.466797
14 0.480469
15 0.483398
16 0.470703
17 0.505859
18 0.500000
19 0.497070
20 0.471680
21 0.520508
22 0.478516
23 0.483398
24 0.467773
25 0.490234
26 0.499023
27 0.481445
28 0.495117
29 0.500000
30 0.493164
31 0.500977
32 0.461914
33 0.523438
34 0.473633
35 0.521484
36 0.475586
37 0.499023
38 0.498047
39 0.500977
40 0.516602
41 0.516602
42 0.509766
43 0.464844
44 0.539062
45 0.503906
46 0.533203
47 0.524414
48 0.541016
49 0.532227
50 0.541016
51 0.509766
52 0.556641
53 0.542969
54 0.535156
55 0.516602
56 0.535156
57 0.542969
58 0.559570
59 0.507812
60 0.540039
61 0.542969
62 0.570312
63 0.539062
64 0.580078
65 0.558594
66 0.566406
67 0.546875
68 0.548828
69 0.560547
70 0.562500
71 0.585938
72 0.559570
73 0.610352
74 0.536133
75 0.560547
76 0.583984
77 0.565430
78 0.590820
79 0.555664
80 0.579102
81 0.556641
82 0.576172
83 0.521484
84 0.578125
85 0.559570
86 0.562500
87 0.585938
88 0.560547
89 0.559570
90 0.592773
91 0.607422
92 0.596680
93 0.599609
94 0.619141
95 0.576172
96 0.546875
97 0.593750
98 0.589844
99 0.611328
100 0.565430
101 0.583008
102 0.556641
103 0.615234
104 0.575195
105 0.602539
106 0.589844
107 0.594727
108 0.555664
109 0.574219
110 0.590820
111 0.574219
112 0.598633
113 0.584961
114 0.562500
115 0.562500
116 0.573242
117 0.588867
118 0.579102
119 0.597656
120 0.584961
121 0.583008
122 0.581055
123 0.578125
124 0.598633
125 0.596680
126 0.575195
127 0.560547
128 0.546875
129 0.562500
130 0.596680
131 0.603516
132 0.588867
133 0.563477
134 0.541992
135 0.573242
136 0.552734
137 0.587891
138 0.557617
139 0.549805
140 0.610352
141 0.597656
142 0.592773
143 0.601562
144 0.597656
145 0.604492
146 0.567383
147 0.624023
148 0.598633
149 0.599609
150 0.592773
151 0.578125
152 0.568359
153 0.594727
154 0.600586
155 0.596680
156 0.593750
157 0.566406
158 0.598633
159 0.562500
160 0.588867
161 0.579102
162 0.627930
163 0.631836
164 0.548828
165 0.577148
166 0.594727
167 0.585938
168 0.574219
169 0.593750
170 0.575195
171 0.598633
172 0.575195
173 0.582031
174 0.559570
175 0.571289
176 0.613281
177 0.570312
178 0.607422
179 0.588867
180 0.561523
181 0.592773
182 0.623047
183 0.588867
184 0.586914
185 0.598633
186 0.616211
187 0.605469
188 0.603516
189 0.589844
190 0.601562
191 0.590820
192 0.610352
193 0.576172
194 0.576172
195 0.550781
196 0.600586
197 0.588867
198 0.595703
199 0.589844
200 0.553711
201 0.572266
202 0.581055
203 0.621094
204 0.588867
205 0.577148
206 0.566406
207 0.549805
208 0.566406
209 0.599609
210 0.541016
211 0.573242
212 0.596680
213 0.565430
214 0.587891
215 0.558594
216 0.583984
217 0.568359
218 0.599609
219 0.573242
220 0.601562
221 0.606445
222 0.583984
223 0.583008
224 0.580078
225 0.581055
226 0.556641
227 0.535156
228 0.555664
229 0.576172
230 0.568359
231 0.580078
232 0.554688
233 0.602539
234 0.607422
235 0.568359
236 0.600586
237 0.601562
238 0.591797
239 0.574219
240 0.576172
241 0.594727
242 0.572266
243 0.567383
244 0.586914
245 0.549805
246 0.588867
247 0.598633
248 0.583008
249 0.569336
250 0.573242
251 0.544922
252 0.604492
253 0.558594
254 0.572266
255 0.585938
256 0.617188
257 0.585938
258 0.588867
259 0.592773
260 0.553711
261 0.588867
262 0.590820
263 0.562500
264 0.550781
265 0.570312
266 0.603516
267 0.597656
268 0.592773
269 0.572266
270 0.578125
271 0.632812
272 0.585938
273 0.587891
274 0.613281
275 0.593750
276 0.605469
277 0.563477
278 0.615234
279 0.594727
280 0.613281
281 0.598633
282 0.552734
283 0.591797
284 0.607422
285 0.574219
286 0.578125
287 0.634766
288 0.609375
289 0.597656
290 0.595703
291 0.547852
292 0.583008
293 0.582031
294 0.578125
295 0.584961
296 0.595703
297 0.562500
298 0.594727
299 0.553711
300 0.576172
301 0.551758
302 0.561523
303 0.579102
304 0.600586
305 0.553711
306 0.554688
307 0.563477
308 0.531250
309 0.540039
310 0.565430
311 0.557617
312 0.582031
313 0.583984
314 0.595703
315 0.596680
316 0.604492
317 0.576172
318 0.604492
319 0.591797
320 0.559570
321 0.592773
322 0.584961
323 0.600586
324 0.586914
325 0.610352
326 0.568359
327 0.569336
328 0.576172
329 0.572266
330 0.600586
331 0.563477
332 0.586914
333 0.589844
334 0.593750
335 0.606445
336 0.586914
337 0.576172
338 0.570312
339 0.608398
340 0.598633
341 0.615234
342 0.572266
343 0.608398
344 0.573242
345 0.596680
346 0.584961
347 0.632812
348 0.580078
349 0.587891
350 0.565430
351 0.579102
352 0.592773
353 0.564453
354 0.558594
355 0.586914
356 0.599609
357 0.581055
358 0.609375
359 0.600586
360 0.597656
361 0.583008
362 0.576172
363 0.614258
364 0.571289
365 0.565430
366 0.597656
367 0.580078
368 0.618164
369 0.603516
370 0.565430
371 0.583984
372 0.579102
373 0.557617
374 0.569336
375 0.541992
376 0.550781
377 0.566406
378 0.567383
379 0.577148
380 0.592773
381 0.556641
382 0.603516
383 0.609375
384 0.603516
385 0.609375
386 0.591797
387 0.565430
388 0.573242
389 0.573242
390 0.591797
391 0.578125
392 0.586914
393 0.548828
394 0.610352
395 0.597656
396 0.587891
397 0.593750
398 0.571289
399 0.540039
400 0.586914
401 0.541016
402 0.587891
403 0.574219
404 0.595703
405 0.583008
406 0.564453
407 0.614258
408 0.592773
409 0.576172
410 0.579102
411 0.590820
412 0.611328
413 0.595703
414 0.587891
415 0.562500
416 0.622070
417 0.585938
418 0.620117
419 0.597656
420 0.560547
421 0.595703
422 0.595703
423 0.619141
424 0.554688
425 0.559570
426 0.629883
427 0.583008
428 0.606445
429 0.622070
430 0.615234
431 0.612305
432 0.587891
433 0.599609
434 0.614258
435 0.593750
436 0.602539
437 0.619141
438 0.597656
439 0.570312
440 0.581055
441 0.607422
442 0.627930
443 0.573242
444 0.606445
445 0.580078
446 0.588867
447 0.584961
448 0.564453
449 0.566406
450 0.559570
451 0.543945
452 0.548828
453 0.603516
454 0.583008
455 0.618164
456 0.570312
457 0.599609
458 0.622070
459 0.568359
460 0.573242
461 0.618164
462 0.571289
463 0.562500
464 0.545898
465 0.600586
466 0.611328
467 0.595703
468 0.562500
469 0.594727
470 0.568359
471 0.572266
472 0.598633
473 0.559570
474 0.601562
475 0.597656
476 0.583008
477 0.561523
478 0.560547
479 0.568359
480 0.583008
481 0.620117
482 0.566406
483 0.589844
484 0.592773
485 0.562500
486 0.566406
487 0.585938
488 0.593750
489 0.602539
490 0.559570
491 0.601562
492 0.555664
493 0.586914
494 0.603516
495 0.592773
496 0.611328
497 0.573242
498 0.592773
499 0.584961
500 0.580078
501 0.585938
502 0.605469
503 0.563477
504 0.613281
505 0.607422
506 0.558594
507 0.597656
508 0.614258
509 0.604492
510 0.580078
511 0.576172
512 0.591797
513 0.604492
514 0.594727
515 0.631836
516 0.600586
517 0.602539
518 0.593750
519 0.596680
520 0.564453
521 0.564453
522 0.568359
523 0.586914
524 0.587891
525 0.613281
526 0.587891
527 0.585938
528 0.588867
529 0.610352
530 0.571289
531 0.562500
532 0.572266
533 0.581055
534 0.595703
535 0.600586
536 0.541016
537 0.596680
538 0.579102
539 0.596680
540 0.582031
541 0.594727
542 0.578125
543 0.579102
544 0.582031
545 0.581055
546 0.586914
547 0.602539
548 0.586914
549 0.613281
550 0.576172
551 0.568359
552 0.582031
553 0.626953
554 0.593750
555 0.563477
556 0.601562
557 0.619141
558 0.644531
559 0.586914
560 0.566406
561 0.587891
562 0.543945
563 0.613281
564 0.607422
565 0.584961
566 0.578125
567 0.618164
568 0.569336
569 0.560547
570 0.578125
571 0.593750
572 0.602539
573 0.570312
574 0.572266
575 0.573242
576 0.583984
577 0.574219
578 0.605469
579 0.604492
580 0.581055
581 0.607422
582 0.598633
583 0.603516
584 0.590820
585 0.612305
586 0.583984
587 0.561523
588 0.587891
589 0.621094
590 0.583984
591 0.597656
592 0.599609
593 0.569336
594 0.617188
595 0.606445
596 0.557617
597 0.592773
598 0.623047
599 0.633789
