0 0.525391
1 0.507812
2 0.502930
3 0.486328
4 0.516602
5 0.512695
6 0.490234
7 0.506836
8 0.490234
9 0.480469
10 0.489258
11 0.491211
12 0.496094
13 0.483398
14 0.487305
15 0.497070
16 0.492188
17 0.500977
18 0.468750
19 0.503906
20 0.483398
21 0.516602
22 0.461914
23 0.491211
24 0.511719
25 0.477539
26 0.491211
27 0.476562
28 0.510742
29 0.503906
30 0.485352
31 0.472656
32 0.480469
33 0.496094
34 0.513672
35 0.470703
36 0.486328
37 0.465820
38 0.483398
39 0.504883
40 0.482422
41 0.502930
42 0.505859
43 0.504883
44 0.461914
45 0.488281
46 0.477539
47 0.478516
48 0.481445
49 0.478516
50 0.499023
51 0.519531
52 0.494141
53 0.503906
54 0.506836
55 0.480469
56 0.502930
57 0.513672
58 0.501953
59 0.522461
60 0.501953
61 0.487305
62 0.497070
63 0.509766
64 0.518555
65 0.508789
66 0.537109
67 0.540039
68 0.523438
69 0.545898
70 0.514648
71 0.496094
72 0.511719
73 0.534180
74 0.528320
75 0.530273
76 0.511719
77 0.496094
78 0.564453
79 0.548828
80 0.537109
81 0.532227
82 0.571289
83 0.529297
84 0.544922
85 0.585938
86 0.554688
87 0.568359
88 0.555664
89 0.572266
90 0.604492
91 0.564453
92 0.583008
93 0.552734
94 0.571289
95 0.548828
96 0.518555
97 0.584961
98 0.567383
99 0.555664
100 0.558594
101 0.557617
102 0.535156
103 0.564453
104 0.533203
105 0.592773
106 0.578125
107 0.580078
108 0.542969
109 0.555664
110 0.583984
111 0.571289
112 0.562500
113 0.589844
114 0.563477
115 0.592773
116 0.594727
117 0.541992
118 0.599609
119 0.580078
120 0.573242
121 0.589844
122 0.590820
123 0.592773
124 0.594727
125 0.597656
126 0.592773
127 0.566406
128 0.590820
129 0.611328
130 0.587891
131 0.596680
132 0.529297
133 0.566406
134 0.574219
135 0.581055
136 0.573242
137 0.559570
138 0.591797
139 0.553711
140 0.587891
141 0.620117
142 0.589844
143 0.621094
144 0.555664
145 0.604492
146 0.577148
147 0.583984
148 0.583008
149 0.597656
150 0.587891
151 0.575195
152 0.567383
153 0.585938
154 0.563477
155 0.568359
156 0.549805
157 0.544922
158 0.553711
159 0.550781
160 0.623047
161 0.559570
162 0.581055
163 0.604492
164 0.577148
165 0.603516
166 0.615234
167 0.615234
168 0.578125
169 0.545898
170 0.618164
171 0.589844
172 0.580078
173 0.590820
174 0.554688
175 0.540039
176 0.610352
177 0.577148
178 0.564453
179 0.555664
180 0.617188
181 0.606445
182 0.556641
183 0.619141
184 0.585938
185 0.583984
186 0.574219
187 0.599609
188 0.567383
189 0.586914
190 0.566406
191 0.590820
192 0.579102
193 0.565430
194 0.564453
195 0.576172
196 0.541016
197 0.586914
198 0.597656
199 0.602539
200 0.558594
201 0.601562
202 0.617188
203 0.602539
204 0.544922
205 0.588867
206 0.569336
207 0.622070
208 0.583008
209 0.571289
210 0.594727
211 0.542969
212 0.585938
213 0.597656
214 0.581055
215 0.579102
216 0.596680
217 0.638672
218 0.576172
219 0.578125
220 0.605469
221 0.606445
222 0.618164
223 0.541992
224 0.568359
225 0.615234
226 0.581055
227 0.594727
228 0.576172
229 0.550781
230 0.594727
231 0.590820
232 0.576172
233 0.601562
234 0.574219
235 0.603516
236 0.555664
237 0.588867
238 0.560547
239 0.570312
240 0.596680
241 0.575195
242 0.592773
243 0.583008
244 0.614258
245 0.629883
246 0.629883
247 0.636719
248 0.560547
249 0.591797
250 0.598633
251 0.604492
252 0.586914
253 0.576172
254 0.577148
255 0.577148
256 0.592773
257 0.596680
258 0.647461
259 0.587891
260 0.619141
261 0.564453
262 0.577148
263 0.598633
264 0.610352
265 0.585938
266 0.576172
267 0.570312
268 0.619141
269 0.567383
270 0.572266
271 0.609375
272 0.560547
273 0.578125
274 0.569336
275 0.563477
276 0.604492
277 0.579102
278 0.603516
279 0.577148
280 0.556641
281 0.567383
282 0.594727
283 0.616211
284 0.598633
285 0.549805
286 0.561523
287 0.586914
288 0.623047
289 0.578125
290 0.597656
291 0.551758
292 0.565430
293 0.577148
294 0.580078
295 0.595703
296 0.587891
297 0.576172
298 0.595703
299 0.586914
300 0.549805
301 0.571289
302 0.574219
303 0.593750
304 0.572266
305 0.576172
306 0.598633
307 0.593750
308 0.576172
309 0.583008
310 0.632812
311 0.576172
312 0.592773
313 0.579102
314 0.587891
315 0.570312
316 0.579102
317 0.583008
318 0.559570
319 0.581055
320 0.569336
321 0.556641
322 0.539062
323 0.569336
324 0.597656
325 0.590820
326 0.588867
327 0.549805
328 0.571289
329 0.624023
330 0.606445
331 0.583008
332 0.655273
333 0.613281
334 0.611328
335 0.598633
336 0.573242
337 0.552734
338 0.580078
339 0.583984
340 0.581055
341 0.576172
342 0.584961
343 0.592773
344 0.559570
345 0.586914
346 0.591797
347 0.559570
348 0.561523
349 0.578125
350 0.564453
351 0.552734
352 0.573242
353 0.551758
354 0.551758
355 0.572266
356 0.600586
357 0.597656
358 0.597656
359 0.605469
360 0.583008
361 0.605469
362 0.541016
363 0.575195
364 0.560547
365 0.591797
366 0.589844
367 0.594727
368 0.546875
369 0.581055
370 0.581055
371 0.589844
372 0.581055
373 0.592773
374 0.634766
375 0.595703
376 0.581055
377 0.573242
378 0.578125
379 0.590820
380 0.583984
381 0.586914
382 0.598633
383 0.603516
384 0.584961
385 0.572266
386 0.560547
387 0.618164
388 0.596680
389 0.578125
390 0.544922
391 0.600586
392 0.603516
393 0.566406
394 0.556641
395 0.564453
396 0.575195
397 0.619141
398 0.583984
399 0.582031
400 0.550781
401 0.595703
402 0.596680
403 0.594727
404 0.578125
405 0.576172
406 0.568359
407 0.584961
408 0.536133
409 0.583984
410 0.561523
411 0.590820
412 0.575195
413 0.587891
414 0.570312
415 0.585938
416 0.552734
417 0.583984
418 0.573242
419 0.575195
420 0.563477
421 0.598633
422 0.596680
423 0.546875
424 0.569336
425 0.556641
426 0.573242
427 0.600586
428 0.576172
429 0.567383
430 0.611328
431 0.590820
432 0.615234
433 0.579102
434 0.581055
435 0.568359
436 0.595703
437 0.552734
438 0.566406
439 0.568359
440 0.596680
441 0.592773
442 0.583008
443 0.614258
444 0.554688
445 0.590820
446 0.615234
447 0.597656
448 0.568359
449 0.594727
450 0.574219
451 0.586914
452 0.591797
453 0.575195
454 0.588867
455 0.582031
456 0.572266
457 0.557617
458 0.593750
459 0.560547
460 0.597656
461 0.624023
462 0.588867
463 0.552734
464 0.545898
465 0.597656
466 0.584961
467 0.575195
468 0.585938
469 0.584961
470 0.561523
471 0.554688
472 0.580078
473 0.573242
474 0.568359
475 0.600586
476 0.574219
477 0.566406
478 0.573242
479 0.593750
480 0.602539
481 0.665039
482 0.584961
483 0.599609
484 0.583008
485 0.602539
486 0.608398
487 0.591797
488 0.622070
489 0.610352
490 0.571289
491 0.618164
492 0.585938
493 0.625977
494 0.603516
495 0.587891
496 0.626953
497 0.569336
498 0.616211
499 0.622070
500 0.597656
501 0.592773
502 0.545898
503 0.596680
504 0.592773
505 0.579102
506 0.603516
507 0.622070
508 0.585938
509 0.618164
510 0.626953
511 0.591797
512 0.590820
513 0.599609
514 0.606445
515 0.612305
516 0.546875
517 0.517578
518 0.592773
519 0.604492
520 0.577148
521 0.582031
522 0.583984
523 0.606445
524 0.559570
525 0.587891
526 0.592773
527 0.584961
528 0.578125
529 0.618164
530 0.603516
531 0.617188
532 0.625000
533 0.598633
534 0.576172
535 0.577148
536 0.584961
537 0.594727
538 0.619141
539 0.595703
540 0.599609
541 0.590820
542 0.616211
543 0.614258
544 0.596680
545 0.612305
546 0.571289
547 0.596680
548 0.587891
549 0.619141
550 0.591797
551 0.645508
552 0.629883
553 0.626953
554 0.590820
555 0.566406
556 0.608398
557 0.573242
558 0.594727
559 0.582031
560 0.600586
561 0.567383
562 0.612305
563 0.590820
564 0.617188
565 0.624023
566 0.622070
567 0.567383
568 0.599609
569 0.555664
570 0.564453
571 0.562500
572 0.577148
573 0.558594
574 0.584961
575 0.555664
576 0.563477
577 0.554688
578 0.550781
579 0.597656
580 0.578125
581 0.539062
582 0.587891
583 0.606445
584 0.604492
585 0.614258
586 0.567383
587 0.596680
588 0.622070
589 0.573242
590 0.550781
591 0.579102
592 0.593750
593 0.607422
594 0.557617
595 0.579102
596 0.574219
597 0.576172
598 0.550781
599 0.577148
