0 0.500000
1 0.500000
2 0.471680
3 0.460938
4 0.477539
5 0.441406
6 0.466797
7 0.522461
8 0.431641
9 0.427734
10 0.534180
11 0.455078
12 0.496094
13 0.458008
14 0.485352
15 0.476562
16 0.446289
17 0.485352
18 0.495117
19 0.458008
20 0.486328
21 0.460938
22 0.468750
23 0.487305
24 0.450195
25 0.483398
26 0.492188
27 0.465820
28 0.488281
29 0.443359
30 0.500000
31 0.475586
32 0.493164
33 0.499023
34 0.470703
35 0.512695
36 0.485352
37 0.455078
38 0.521484
39 0.453125
40 0.413086
41 0.509766
42 0.520508
43 0.446289
44 0.513672
45 0.505859
46 0.535156
47 0.500977
48 0.535156
49 0.559570
50 0.573242
51 0.544922
52 0.593750
53 0.590820
54 0.511719
55 0.549805
56 0.576172
57 0.629883
58 0.544922
59 0.553711
60 0.586914
61 0.616211
62 0.579102
63 0.584961
64 0.637695
65 0.594727
66 0.603516
67 0.624023
68 0.647461
69 0.607422
70 0.629883
71 0.556641
72 0.630859
73 0.652344
74 0.621094
75 0.634766
76 0.658203
77 0.628906
78 0.613281
79 0.602539
80 0.613281
81 0.617188
82 0.625000
83 0.644531
84 0.628906
85 0.625000
86 0.643555
87 0.616211
88 0.638672
89 0.624023
90 0.650391
91 0.666992
92 0.649414
93 0.626953
94 0.643555
95 0.654297
96 0.648438
97 0.618164
98 0.630859
99 0.670898
100 0.664062
101 0.648438
102 0.670898
103 0.634766
104 0.675781
105 0.648438
106 0.653320
107 0.643555
108 0.666992
109 0.699219
110 0.658203
111 0.635742
112 0.622070
113 0.641602
114 0.660156
115 0.670898
116 0.597656
117 0.655273
118 0.642578
119 0.648438
120 0.661133
121 0.658203
122 0.675781
123 0.649414
124 0.671875
125 0.636719
126 0.648438
127 0.645508
128 0.662109
129 0.655273
130 0.601562
131 0.610352
132 0.621094
133 0.583008
134 0.644531
135 0.644531
136 0.628906
137 0.629883
138 0.611328
139 0.639648
140 0.658203
141 0.633789
142 0.652344
143 0.653320
144 0.631836
145 0.635742
146 0.618164
147 0.624023
148 0.645508
149 0.631836
150 0.620117
151 0.661133
152 0.650391
153 0.639648
154 0.684570
155 0.697266
156 0.627930
157 0.677734
158 0.656250
159 0.636719
160 0.640625
161 0.655273
162 0.652344
163 0.615234
164 0.634766
165 0.652344
166 0.614258
167 0.659180
168 0.595703
169 0.644531
170 0.654297
171 0.660156
172 0.652344
173 0.646484
174 0.653320
175 0.673828
176 0.666016
177 0.683594
178 0.670898
179 0.645508
180 0.655273
181 0.622070
182 0.607422
183 0.658203
184 0.632812
185 0.641602
186 0.631836
187 0.646484
188 0.646484
189 0.666992
190 0.604492
191 0.639648
192 0.656250
193 0.669922
194 0.647461
195 0.654297
196 0.625977
197 0.674805
198 0.634766
199 0.655273
200 0.649414
201 0.696289
202 0.637695
203 0.626953
204 0.631836
205 0.642578
206 0.635742
207 0.660156
208 0.658203
209 0.667969
210 0.632812
211 0.660156
212 0.613281
213 0.632812
214 0.636719
215 0.649414
216 0.615234
217 0.686523
218 0.632812
219 0.641602
220 0.648438
221 0.627930
222 0.650391
223 0.677734
224 0.625000
225 0.629883
226 0.642578
227 0.692383
228 0.662109
229 0.644531
230 0.654297
231 0.610352
232 0.669922
233 0.658203
234 0.637695
235 0.663086
236 0.651367
237 0.683594
238 0.626953
239 0.657227
240 0.663086
241 0.654297
242 0.657227
243 0.654297
244 0.650391
245 0.648438
246 0.685547
247 0.671875
248 0.674805
249 0.652344
250 0.662109
251 0.696289
252 0.658203
253 0.624023
254 0.668945
255 0.676758
256 0.655273
257 0.665039
258 0.628906
259 0.642578
260 0.648438
261 0.650391
262 0.632812
263 0.662109
264 0.662109
265 0.632812
266 0.671875
267 0.658203
268 0.674805
269 0.686523
270 0.638672
271 0.646484
272 0.651367
273 0.684570
274 0.714844
275 0.607422
276 0.662109
277 0.641602
278 0.641602
279 0.707031
280 0.674805
281 0.665039
282 0.655273
283 0.641602
284 0.618164
285 0.651367
286 0.688477
287 0.684570
288 0.642578
289 0.639648
290 0.676758
291 0.651367
292 0.653320
293 0.636719
294 0.662109
295 0.634766
296 0.605469
297 0.651367
298 0.633789
299 0.623047
300 0.660156
301 0.603516
302 0.621094
303 0.624023
304 0.640625
305 0.660156
306 0.666016
307 0.674805
308 0.631836
309 0.676758
310 0.625000
311 0.656250
312 0.651367
313 0.675781
314 0.624023
315 0.634766
316 0.637695
317 0.666992
318 0.648438
319 0.661133
320 0.655273
321 0.671875
322 0.654297
323 0.647461
324 0.665039
325 0.658203
326 0.635742
327 0.664062
328 0.650391
329 0.648438
330 0.690430
331 0.668945
332 0.651367
333 0.693359
334 0.651367
335 0.644531
336 0.629883
337 0.634766
338 0.628906
339 0.660156
340 0.633789
341 0.653320
342 0.645508
343 0.655273
344 0.649414
345 0.670898
346 0.628906
347 0.650391
348 0.609375
349 0.618164
350 0.618164
351 0.610352
352 0.655273
353 0.654297
354 0.632812
355 0.594727
356 0.635742
357 0.641602
358 0.663086
359 0.644531
360 0.657227
361 0.627930
362 0.646484
363 0.666992
364 0.662109
365 0.678711
366 0.645508
367 0.673828
368 0.640625
369 0.607422
370 0.665039
371 0.664062
372 0.646484
373 0.637695
374 0.639648
375 0.682617
376 0.684570
377 0.653320
378 0.652344
379 0.654297
380 0.692383
381 0.650391
382 0.625977
383 0.675781
384 0.638672
385 0.649414
386 0.666992
387 0.646484
388 0.666992
389 0.632812
390 0.651367
391 0.644531
392 0.644531
393 0.654297
394 0.673828
395 0.662109
396 0.645508
397 0.641602
398 0.647461
399 0.637695
400 0.661133
401 0.621094
402 0.669922
403 0.639648
404 0.658203
405 0.689453
406 0.694336
407 0.677734
408 0.657227
409 0.654297
410 0.656250
411 0.656250
412 0.644531
413 0.650391
414 0.642578
415 0.649414
416 0.629883
417 0.648438
418 0.691406
419 0.656250
420 0.654297
421 0.645508
422 0.603516
423 0.671875
424 0.648438
425 0.630859
426 0.661133
427 0.606445
428 0.644531
429 0.654297
430 0.625977
431 0.635742
432 0.659180
433 0.690430
434 0.655273
435 0.639648
436 0.652344
437 0.629883
438 0.656250
439 0.671875
440 0.625000
441 0.641602
442 0.618164
443 0.635742
444 0.647461
445 0.652344
446 0.618164
447 0.651367
448 0.666016
449 0.654297
450 0.661133
451 0.671875
452 0.641602
453 0.655273
454 0.690430
455 0.653320
456 0.687500
457 0.671875
458 0.665039
459 0.666016
460 0.625000
461 0.666992
462 0.673828
463 0.671875
464 0.629883
465 0.626953
466 0.655273
467 0.623047
468 0.626953
469 0.650391
470 0.640625
471 0.667969
472 0.672852
473 0.692383
474 0.643555
475 0.686523
476 0.677734
477 0.650391
478 0.617188
479 0.654297
480 0.657227
481 0.656250
482 0.671875
483 0.636719
484 0.678711
485 0.644531
486 0.643555
487 0.621094
488 0.632812
489 0.681641
490 0.653320
491 0.671875
492 0.644531
493 0.627930
494 0.650391
495 0.657227
496 0.633789
497 0.650391
498 0.663086
499 0.652344
500 0.645508
501 0.659180
502 0.660156
503 0.658203
504 0.664062
505 0.673828
506 0.664062
507 0.646484
508 0.655273
509 0.654297
510 0.667969
511 0.667969
512 0.668945
513 0.643555
514 0.664062
515 0.679688
516 0.663086
517 0.662109
518 0.652344
519 0.630859
520 0.648438
521 0.643555
522 0.620117
523 0.629883
524 0.667969
525 0.627930
526 0.641602
527 0.612305
528 0.640625
529 0.610352
530 0.627930
531 0.651367
532 0.634766
533 0.642578
534 0.652344
535 0.638672
536 0.658203
537 0.657227
538 0.645508
539 0.644531
540 0.631836
541 0.654297
542 0.666016
543 0.666992
544 0.654297
545 0.614258
546 0.659180
547 0.638672
548 0.681641
549 0.652344
550 0.642578
551 0.630859
552 0.627930
553 0.612305
554 0.636719
555 0.644531
556 0.671875
557 0.664062
558 0.661133
559 0.609375
560 0.668945
561 0.611328
562 0.660156
563 0.680664
564 0.646484
565 0.669922
566 0.661133
567 0.698242
568 0.695312
569 0.658203
570 0.668945
571 0.677734
572 0.674805
573 0.630859
574 0.639648
575 0.669922
576 0.661133
577 0.668945
578 0.643555
579 0.631836
580 0.649414
581 0.685547
582 0.662109
583 0.684570
584 0.661133
585 0.675781
586 0.672852
587 0.664062
588 0.659180
589 0.647461
590 0.703125
591 0.655273
592 0.671875
593 0.644531
594 0.628906
595 0.648438
596 0.649414
597 0.664062
598 0.636719
599 0.655273
