0 0.449219
1 0.461914
2 0.477539
3 0.516602
4 0.472656
5 0.491211
6 0.468750
7 0.466797
8 0.507812
9 0.495117
10 0.489258
11 0.518555
12 0.486328
13 0.516602
14 0.470703
15 0.491211
16 0.488281
17 0.469727
18 0.512695
19 0.497070
20 0.465820
21 0.471680
22 0.504883
23 0.482422
24 0.508789
25 0.505859
26 0.480469
27 0.503906
28 0.526367
29 0.485352
30 0.501953
31 0.496094
32 0.468750
33 0.491211
34 0.522461
35 0.516602
36 0.523438
37 0.458008
38 0.478516
39 0.515625
40 0.485352
41 0.504883
42 0.495117
43 0.525391
44 0.489258
45 0.481445
46 0.531250
47 0.511719
48 0.504883
49 0.470703
50 0.512695
51 0.491211
52 0.501953
53 0.506836
54 0.502930
55 0.507812
56 0.556641
57 0.488281
58 0.516602
59 0.526367
60 0.514648
61 0.500977
62 0.522461
63 0.528320
64 0.570312
65 0.509766
66 0.522461
67 0.519531
68 0.534180
69 0.556641
70 0.535156
71 0.556641
72 0.561523
73 0.572266
74 0.574219
75 0.546875
76 0.566406
77 0.551758
78 0.583008
79 0.601562
80 0.629883
81 0.592773
82 0.594727
83 0.585938
84 0.579102
85 0.615234
86 0.577148
87 0.611328
88 0.610352
89 0.607422
90 0.583984
91 0.619141
92 0.589844
93 0.623047
94 0.587891
95 0.586914
96 0.625000
97 0.586914
98 0.610352
99 0.605469
100 0.597656
101 0.603516
102 0.602539
103 0.596680
104 0.618164
105 0.603516
106 0.645508
107 0.598633
108 0.592773
109 0.603516
110 0.584961
111 0.550781
112 0.593750
113 0.581055
114 0.589844
115 0.614258
116 0.584961
117 0.560547
118 0.617188
119 0.608398
120 0.580078
121 0.583984
122 0.612305
123 0.606445
124 0.592773
125 0.550781
126 0.604492
127 0.601562
128 0.597656
129 0.576172
130 0.608398
131 0.579102
132 0.632812
133 0.586914
134 0.596680
135 0.573242
136 0.630859
137 0.594727
138 0.615234
139 0.599609
140 0.592773
141 0.615234
142 0.618164
143 0.643555
144 0.586914
145 0.606445
146 0.641602
147 0.627930
148 0.625000
149 0.606445
150 0.636719
151 0.590820
152 0.597656
153 0.574219
154 0.595703
155 0.579102
156 0.606445
157 0.577148
158 0.588867
159 0.619141
160 0.612305
161 0.594727
162 0.587891
163 0.578125
164 0.590820
165 0.602539
166 0.644531
167 0.602539
168 0.604492
169 0.605469
170 0.634766
171 0.654297
172 0.594727
173 0.643555
174 0.642578
175 0.591797
176 0.598633
177 0.621094
178 0.630859
179 0.632812
180 0.643555
181 0.622070
182 0.621094
183 0.615234
184 0.613281
185 0.605469
186 0.621094
187 0.581055
188 0.656250
189 0.587891
190 0.625000
191 0.612305
192 0.615234
193 0.574219
194 0.609375
195 0.600586
196 0.630859
197 0.634766
198 0.601562
199 0.594727
200 0.592773
201 0.595703
202 0.630859
203 0.615234
204 0.633789
205 0.620117
206 0.622070
207 0.612305
208 0.649414
209 0.617188
210 0.604492
211 0.616211
212 0.606445
213 0.625000
214 0.611328
215 0.627930
216 0.601562
217 0.627930
218 0.605469
219 0.581055
220 0.595703
221 0.612305
222 0.605469
223 0.574219
224 0.602539
225 0.614258
226 0.645508
227 0.598633
228 0.577148
229 0.620117
230 0.616211
231 0.615234
232 0.590820
233 0.616211
234 0.602539
235 0.586914
236 0.576172
237 0.583984
238 0.557617
239 0.578125
240 0.587891
241 0.596680
242 0.596680
243 0.619141
244 0.586914
245 0.610352
246 0.571289
247 0.631836
248 0.599609
249 0.619141
250 0.580078
251 0.578125
252 0.625000
253 0.595703
254 0.618164
255 0.614258
256 0.609375
257 0.591797
258 0.618164
259 0.617188
260 0.613281
261 0.576172
262 0.614258
263 0.645508
264 0.620117
265 0.645508
266 0.605469
267 0.609375
268 0.660156
269 0.620117
270 0.589844
271 0.618164
272 0.616211
273 0.616211
274 0.622070
275 0.614258
276 0.591797
277 0.625977
278 0.622070
279 0.637695
280 0.583008
281 0.633789
282 0.635742
283 0.629883
284 0.613281
285 0.616211
286 0.591797
287 0.588867
288 0.609375
289 0.605469
290 0.630859
291 0.592773
292 0.640625
293 0.580078
294 0.615234
295 0.581055
296 0.610352
297 0.597656
298 0.573242
299 0.594727
300 0.594727
301 0.659180
302 0.579102
303 0.615234
304 0.599609
305 0.581055
306 0.591797
307 0.593750
308 0.593750
309 0.611328
310 0.619141
311 0.598633
312 0.666016
313 0.650391
314 0.640625
315 0.632812
316 0.657227
317 0.618164
318 0.589844
319 0.632812
320 0.641602
321 0.642578
322 0.632812
323 0.625977
324 0.593750
325 0.610352
326 0.629883
327 0.585938
328 0.574219
329 0.642578
330 0.604492
331 0.613281
332 0.575195
333 0.615234
334 0.612305
335 0.627930
336 0.631836
337 0.612305
338 0.566406
339 0.650391
340 0.617188
341 0.638672
342 0.618164
343 0.640625
344 0.611328
345 0.600586
346 0.600586
347 0.614258
348 0.615234
349 0.598633
350 0.625000
351 0.634766
352 0.610352
353 0.625000
354 0.661133
355 0.674805
356 0.591797
357 0.633789
358 0.630859
359 0.584961
360 0.623047
361 0.579102
362 0.615234
363 0.614258
364 0.623047
365 0.634766
366 0.638672
367 0.612305
368 0.633789
369 0.588867
370 0.652344
371 0.642578
372 0.647461
373 0.634766
374 0.637695
375 0.609375
376 0.624023
377 0.619141
378 0.631836
379 0.623047
380 0.632812
381 0.604492
382 0.565430
383 0.602539
384 0.630859
385 0.573242
386 0.625000
387 0.634766
388 0.639648
389 0.580078
390 0.616211
391 0.556641
392 0.593750
393 0.606445
394 0.625000
395 0.608398
396 0.617188
397 0.611328
398 0.624023
399 0.644531
400 0.604492
401 0.625000
402 0.594727
403 0.660156
404 0.648438
405 0.587891
406 0.614258
407 0.659180
408 0.597656
409 0.571289
410 0.592773
411 0.614258
412 0.574219
413 0.593750
414 0.604492
415 0.666016
416 0.645508
417 0.617188
418 0.566406
419 0.622070
420 0.629883
421 0.599609
422 0.583984
423 0.592773
424 0.614258
425 0.603516
426 0.580078
427 0.619141
428 0.569336
429 0.607422
430 0.607422
431 0.615234
432 0.636719
433 0.608398
434 0.633789
435 0.609375
436 0.615234
437 0.614258
438 0.571289
439 0.634766
440 0.625977
441 0.625000
442 0.581055
443 0.630859
444 0.623047
445 0.615234
446 0.582031
447 0.594727
448 0.599609
449 0.601562
450 0.589844
451 0.612305
452 0.614258
453 0.611328
454 0.633789
455 0.648438
456 0.620117
457 0.596680
458 0.596680
459 0.586914
460 0.625000
461 0.593750
462 0.619141
463 0.627930
464 0.617188
465 0.587891
466 0.584961
467 0.625000
468 0.604492
469 0.599609
470 0.560547
471 0.550781
472 0.593750
473 0.567383
474 0.609375
475 0.636719
476 0.614258
477 0.625000
478 0.611328
479 0.630859
480 0.604492
481 0.595703
482 0.631836
483 0.628906
484 0.622070
485 0.627930
486 0.628906
487 0.627930
488 0.599609
489 0.615234
490 0.622070
491 0.570312
492 0.590820
493 0.612305
494 0.594727
495 0.628906
496 0.645508
497 0.641602
498 0.633789
499 0.654297
500 0.613281
501 0.623047
502 0.600586
503 0.598633
504 0.627930
505 0.598633
506 0.592773
507 0.644531
508 0.585938
509 0.584961
510 0.604492
511 0.572266
512 0.597656
513 0.631836
514 0.611328
515 0.609375
516 0.606445
517 0.607422
518 0.624023
519 0.630859
520 0.603516
521 0.614258
522 0.620117
523 0.662109
524 0.588867
525 0.614258
526 0.605469
527 0.596680
528 0.562500
529 0.629883
530 0.586914
531 0.619141
532 0.607422
533 0.646484
534 0.599609
535 0.605469
536 0.603516
537 0.613281
538 0.591797
539 0.617188
540 0.611328
541 0.611328
542 0.619141
543 0.617188
544 0.625000
545 0.577148
546 0.608398
547 0.614258
548 0.627930
549 0.654297
550 0.602539
551 0.599609
552 0.621094
553 0.575195
554 0.584961
555 0.593750
556 0.613281
557 0.637695
558 0.604492
559 0.558594
560 0.618164
561 0.594727
562 0.621094
563 0.625977
564 0.596680
565 0.604492
566 0.609375
567 0.642578
568 0.612305
569 0.611328
570 0.573242
571 0.648438
572 0.611328
573 0.590820
574 0.617188
575 0.612305
576 0.579102
577 0.625977
578 0.582031
579 0.610352
580 0.597656
581 0.589844
582 0.595703
583 0.642578
584 0.607422
585 0.591797
586 0.621094
587 0.613281
588 0.609375
589 0.573242
590 0.587891
591 0.589844
592 0.592773
593 0.603516
594 0.611328
595 0.581055
596 0.628906
597 0.595703
598 0.630859
599 0.660156
