0 0.523438
1 0.484375
2 0.519531
3 0.495117
4 0.536133
5 0.497070
6 0.489258
7 0.500977
8 0.501953
9 0.500977
10 0.505859
11 0.512695
12 0.504883
13 0.495117
14 0.502930
15 0.486328
16 0.503906
17 0.500977
18 0.525391
19 0.471680
20 0.489258
21 0.496094
22 0.509766
23 0.470703
24 0.473633
25 0.517578
26 0.517578
27 0.502930
28 0.527344
29 0.484375
30 0.501953
31 0.493164
32 0.535156
33 0.518555
34 0.500977
35 0.511719
36 0.517578
37 0.448242
38 0.504883
39 0.516602
40 0.514648
41 0.511719
42 0.510742
43 0.525391
44 0.521484
45 0.514648
46 0.518555
47 0.508789
48 0.536133
49 0.554688
50 0.533203
51 0.496094
52 0.491211
53 0.519531
54 0.545898
55 0.496094
56 0.525391
57 0.561523
58 0.573242
59 0.517578
60 0.554688
61 0.555664
62 0.553711
63 0.578125
64 0.558594
65 0.535156
66 0.562500
67 0.546875
68 0.568359
69 0.574219
70 0.530273
71 0.603516
72 0.559570
73 0.580078
74 0.556641
75 0.584961
76 0.576172
77 0.563477
78 0.589844
79 0.546875
80 0.575195
81 0.572266
82 0.585938
83 0.598633
84 0.541992
85 0.588867
86 0.563477
87 0.555664
88 0.595703
89 0.592773
90 0.568359
91 0.535156
92 0.573242
93 0.527344
94 0.582031
95 0.541992
96 0.574219
97 0.543945
98 0.497070
99 0.594727
100 0.562500
101 0.583008
102 0.597656
103 0.604492
104 0.595703
105 0.571289
106 0.612305
107 0.600586
108 0.590820
109 0.566406
110 0.596680
111 0.603516
112 0.575195
113 0.580078
114 0.558594
115 0.559570
116 0.574219
117 0.579102
118 0.593750
119 0.530273
120 0.561523
121 0.555664
122 0.560547
123 0.576172
124 0.596680
125 0.559570
126 0.578125
127 0.567383
128 0.582031
129 0.588867
130 0.587891
131 0.589844
132 0.598633
133 0.635742
134 0.567383
135 0.589844
136 0.591797
137 0.562500
138 0.561523
139 0.581055
140 0.575195
141 0.623047
142 0.557617
143 0.577148
144 0.562500
145 0.579102
146 0.600586
147 0.588867
148 0.593750
149 0.633789
150 0.617188
151 0.596680
152 0.582031
153 0.602539
154 0.639648
155 0.604492
156 0.585938
157 0.553711
158 0.593750
159 0.621094
160 0.582031
161 0.591797
162 0.578125
163 0.572266
164 0.568359
165 0.644531
166 0.600586
167 0.618164
168 0.569336
169 0.596680
170 0.608398
171 0.575195
172 0.610352
173 0.587891
174 0.599609
175 0.585938
176 0.588867
177 0.583008
178 0.583008
179 0.598633
180 0.601562
181 0.625000
182 0.595703
183 0.599609
184 0.597656
185 0.630859
186 0.572266
187 0.594727
188 0.595703
189 0.550781
190 0.585938
191 0.562500
192 0.585938
193 0.605469
194 0.597656
195 0.579102
196 0.613281
197 0.630859
198 0.560547
199 0.560547
200 0.606445
201 0.612305
202 0.603516
203 0.559570
204 0.580078
205 0.528320
206 0.572266
207 0.536133
208 0.582031
209 0.549805
210 0.569336
211 0.554688
212 0.562500
213 0.604492
214 0.591797
215 0.559570
216 0.588867
217 0.599609
218 0.583008
219 0.584961
220 0.599609
221 0.580078
222 0.591797
223 0.598633
224 0.568359
225 0.615234
226 0.653320
227 0.645508
228 0.540039
229 0.575195
230 0.606445
231 0.623047
232 0.589844
233 0.562500
234 0.563477
235 0.575195
236 0.579102
237 0.583984
238 0.589844
239 0.579102
240 0.552734
241 0.597656
242 0.589844
243 0.553711
244 0.562500
245 0.538086
246 0.566406
247 0.561523
248 0.562500
249 0.602539
250 0.606445
251 0.583008
252 0.603516
253 0.596680
254 0.594727
255 0.583008
256 0.580078
257 0.585938
258 0.580078
259 0.622070
260 0.587891
261 0.557617
262 0.591797
263 0.591797
264 0.587891
265 0.610352
266 0.595703
267 0.542969
268 0.602539
269 0.569336
270 0.596680
271 0.606445
272 0.583008
273 0.556641
274 0.535156
275 0.565430
276 0.554688
277 0.588867
278 0.571289
279 0.601562
280 0.531250
281 0.593750
282 0.594727
283 0.572266
284 0.618164
285 0.550781
286 0.556641
287 0.565430
288 0.583008
289 0.588867
290 0.599609
291 0.590820
292 0.606445
293 0.579102
294 0.586914
295 0.643555
296 0.583008
297 0.562500
298 0.562500
299 0.564453
300 0.576172
301 0.643555
302 0.571289
303 0.594727
304 0.624023
305 0.523438
306 0.602539
307 0.581055
308 0.540039
309 0.604492
310 0.560547
311 0.584961
312 0.601562
313 0.612305
314 0.549805
315 0.589844
316 0.613281
317 0.583984
318 0.634766
319 0.604492
320 0.587891
321 0.559570
322 0.546875
323 0.603516
324 0.600586
325 0.576172
326 0.597656
327 0.608398
328 0.587891
329 0.626953
330 0.595703
331 0.576172
332 0.597656
333 0.623047
334 0.571289
335 0.582031
336 0.585938
337 0.556641
338 0.577148
339 0.615234
340 0.619141
341 0.565430
342 0.578125
343 0.582031
344 0.570312
345 0.601562
346 0.613281
347 0.556641
348 0.589844
349 0.572266
350 0.588867
351 0.589844
352 0.557617
353 0.570312
354 0.575195
355 0.583984
356 0.608398
357 0.566406
358 0.572266
359 0.574219
360 0.567383
361 0.550781
362 0.533203
363 0.551758
364 0.567383
365 0.598633
366 0.587891
367 0.586914
368 0.591797
369 0.603516
370 0.570312
371 0.580078
372 0.607422
373 0.589844
374 0.586914
375 0.572266
376 0.585938
377 0.620117
378 0.571289
379 0.572266
380 0.579102
381 0.590820
382 0.599609
383 0.585938
384 0.592773
385 0.586914
386 0.575195
387 0.563477
388 0.581055
389 0.559570
390 0.597656
391 0.604492
392 0.593750
393 0.583984
394 0.562500
395 0.601562
396 0.636719
397 0.583984
398 0.595703
399 0.577148
400 0.583984
401 0.601562
402 0.603516
403 0.551758
404 0.582031
405 0.602539
406 0.611328
407 0.601562
408 0.593750
409 0.598633
410 0.625000
411 0.583984
412 0.593750
413 0.568359
414 0.594727
415 0.622070
416 0.581055
417 0.620117
418 0.577148
419 0.585938
420 0.606445
421 0.571289
422 0.558594
423 0.587891
424 0.589844
425 0.586914
426 0.568359
427 0.583984
428 0.609375
429 0.621094
430 0.603516
431 0.583984
432 0.589844
433 0.606445
434 0.603516
435 0.583984
436 0.615234
437 0.634766
438 0.596680
439 0.568359
440 0.624023
441 0.599609
442 0.640625
443 0.561523
444 0.591797
445 0.589844
446 0.569336
447 0.597656
448 0.571289
449 0.592773
450 0.590820
451 0.581055
452 0.586914
453 0.581055
454 0.554688
455 0.585938
456 0.578125
457 0.582031
458 0.572266
459 0.592773
460 0.610352
461 0.590820
462 0.605469
463 0.596680
464 0.571289
465 0.668945
466 0.615234
467 0.585938
468 0.551758
469 0.623047
470 0.586914
471 0.570312
472 0.627930
473 0.601562
474 0.616211
475 0.561523
476 0.617188
477 0.598633
478 0.574219
479 0.627930
480 0.604492
481 0.597656
482 0.605469
483 0.587891
484 0.621094
485 0.605469
486 0.614258
487 0.586914
488 0.596680
489 0.595703
490 0.574219
491 0.647461
492 0.596680
493 0.612305
494 0.600586
495 0.595703
496 0.626953
497 0.650391
498 0.573242
499 0.564453
500 0.584961
501 0.602539
502 0.609375
503 0.570312
504 0.565430
505 0.606445
506 0.597656
507 0.625000
508 0.604492
509 0.614258
510 0.564453
511 0.605469
512 0.590820
513 0.583008
514 0.578125
515 0.580078
516 0.633789
517 0.606445
518 0.608398
519 0.580078
520 0.604492
521 0.568359
522 0.555664
523 0.629883
524 0.578125
525 0.557617
526 0.565430
527 0.566406
528 0.536133
529 0.525391
530 0.602539
531 0.585938
532 0.566406
533 0.567383
534 0.590820
535 0.589844
536 0.604492
537 0.598633
538 0.541992
539 0.597656
540 0.603516
541 0.618164
542 0.566406
543 0.597656
544 0.601562
545 0.580078
546 0.636719
547 0.596680
548 0.610352
549 0.589844
550 0.603516
551 0.561523
552 0.602539
553 0.577148
554 0.558594
555 0.574219
556 0.581055
557 0.581055
558 0.583008
559 0.585938
560 0.554688
561 0.583008
562 0.608398
563 0.586914
564 0.615234
565 0.581055
566 0.581055
567 0.587891
568 0.556641
569 0.599609
570 0.602539
571 0.584961
572 0.573242
573 0.609375
574 0.622070
575 0.609375
576 0.595703
577 0.607422
578 0.601562
579 0.581055
580 0.555664
581 0.617188
582 0.588867
583 0.595703
584 0.560547
585 0.569336
586 0.554688
587 0.583984
588 0.548828
589 0.587891
590 0.571289
591 0.583984
592 0.580078
593 0.597656
594 0.561523
595 0.577148
596 0.560547
597 0.587891
598 0.566406
599 0.592773
