0 0.474609
1 0.469727
2 0.516602
3 0.484375
4 0.500977
5 0.484375
6 0.498047
7 0.488281
8 0.476562
9 0.497070
10 0.468750
11 0.520508
12 0.501953
13 0.452148
14 0.470703
15 0.473633
16 0.508789
17 0.485352
18 0.506836
19 0.484375
20 0.507812
21 0.488281
22 0.489258
23 0.509766
24 0.491211
25 0.514648
26 0.468750
27 0.484375
28 0.500977
29 0.432617
30 0.445312
31 0.507812
32 0.525391
33 0.541016
34 0.522461
35 0.507812
36 0.505859
37 0.511719
38 0.485352
39 0.438477
40 0.521484
41 0.501953
42 0.522461
43 0.500000
44 0.501953
45 0.522461
46 0.571289
47 0.531250
48 0.522461
49 0.564453
50 0.532227
51 0.526367
52 0.555664
53 0.517578
54 0.534180
55 0.537109
56 0.510742
57 0.554688
58 0.572266
59 0.568359
60 0.574219
61 0.552734
62 0.568359
63 0.554688
64 0.546875
65 0.538086
66 0.591797
67 0.549805
68 0.579102
69 0.555664
70 0.562500
71 0.591797
72 0.560547
73 0.565430
74 0.571289
75 0.565430
76 0.577148
77 0.537109
78 0.561523
79 0.594727
80 0.590820
81 0.596680
82 0.609375
83 0.565430
84 0.582031
85 0.588867
86 0.575195
87 0.591797
88 0.555664
89 0.571289
90 0.593750
91 0.592773
92 0.592773
93 0.557617
94 0.566406
95 0.532227
96 0.602539
97 0.569336
98 0.576172
99 0.554688
100 0.588867
101 0.604492
102 0.555664
103 0.585938
104 0.587891
105 0.587891
106 0.578125
107 0.589844
108 0.584961
109 0.590820
110 0.587891
111 0.600586
112 0.625000
113 0.587891
114 0.603516
115 0.626953
116 0.591797
117 0.605469
118 0.570312
119 0.618164
120 0.588867
121 0.612305
122 0.589844
123 0.592773
124 0.592773
125 0.604492
126 0.613281
127 0.592773
128 0.586914
129 0.574219
130 0.592773
131 0.580078
132 0.583008
133 0.563477
134 0.541016
135 0.588867
136 0.580078
137 0.579102
138 0.558594
139 0.593750
140 0.584961
141 0.608398
142 0.608398
143 0.593750
144 0.605469
145 0.578125
146 0.558594
147 0.582031
148 0.569336
149 0.578125
150 0.616211
151 0.583984
152 0.617188
153 0.590820
154 0.568359
155 0.615234
156 0.593750
157 0.602539
158 0.576172
159 0.608398
160 0.594727
161 0.593750
162 0.593750
163 0.573242
164 0.579102
165 0.589844
166 0.565430
167 0.574219
168 0.596680
169 0.581055
170 0.592773
171 0.584961
172 0.619141
173 0.578125
174 0.569336
175 0.615234
176 0.566406
177 0.588867
178 0.607422
179 0.602539
180 0.558594
181 0.580078
182 0.574219
183 0.586914
184 0.613281
185 0.577148
186 0.605469
187 0.586914
188 0.580078
189 0.607422
190 0.612305
191 0.601562
192 0.588867
193 0.607422
194 0.611328
195 0.603516
196 0.603516
197 0.601562
198 0.602539
199 0.603516
200 0.620117
201 0.599609
202 0.629883
203 0.624023
204 0.627930
205 0.572266
206 0.599609
207 0.557617
208 0.575195
209 0.604492
210 0.588867
211 0.606445
212 0.595703
213 0.595703
214 0.614258
215 0.624023
216 0.618164
217 0.580078
218 0.607422
219 0.562500
220 0.558594
221 0.579102
222 0.588867
223 0.591797
224 0.592773
225 0.586914
226 0.629883
227 0.612305
228 0.589844
229 0.564453
230 0.561523
231 0.596680
232 0.562500
233 0.567383
234 0.584961
235 0.565430
236 0.604492
237 0.606445
238 0.585938
239 0.582031
240 0.589844
241 0.583008
242 0.590820
243 0.600586
244 0.596680
245 0.587891
246 0.585938
247 0.594727
248 0.600586
249 0.640625
250 0.586914
251 0.577148
252 0.583008
253 0.576172
254 0.612305
255 0.583008
256 0.594727
257 0.607422
258 0.555664
259 0.581055
260 0.591797
261 0.582031
262 0.617188
263 0.570312
264 0.613281
265 0.619141
266 0.577148
267 0.625000
268 0.605469
269 0.587891
270 0.603516
271 0.595703
272 0.659180
273 0.627930
274 0.614258
275 0.574219
276 0.594727
277 0.636719
278 0.618164
279 0.575195
280 0.576172
281 0.609375
282 0.575195
283 0.584961
284 0.608398
285 0.620117
286 0.607422
287 0.630859
288 0.628906
289 0.590820
290 0.571289
291 0.558594
292 0.583984
293 0.607422
294 0.548828
295 0.599609
296 0.610352
297 0.581055
298 0.573242
299 0.569336
300 0.633789
301 0.582031
302 0.572266
303 0.595703
304 0.527344
305 0.587891
306 0.622070
307 0.598633
308 0.585938
309 0.568359
310 0.551758
311 0.576172
312 0.533203
313 0.573242
314 0.545898
315 0.555664
316 0.572266
317 0.548828
318 0.609375
319 0.547852
320 0.613281
321 0.553711
322 0.606445
323 0.568359
324 0.611328
325 0.584961
326 0.589844
327 0.609375
328 0.590820
329 0.614258
330 0.579102
331 0.573242
332 0.580078
333 0.550781
334 0.613281
335 0.624023
336 0.582031
337 0.564453
338 0.615234
339 0.558594
340 0.604492
341 0.566406
342 0.619141
343 0.569336
344 0.618164
345 0.572266
346 0.585938
347 0.611328
348 0.603516
349 0.604492
350 0.588867
351 0.599609
352 0.583008
353 0.625977
354 0.571289
355 0.598633
356 0.583984
357 0.623047
358 0.619141
359 0.595703
360 0.605469
361 0.619141
362 0.632812
363 0.608398
364 0.607422
365 0.587891
366 0.615234
367 0.617188
368 0.642578
369 0.601562
370 0.582031
371 0.619141
372 0.622070
373 0.607422
374 0.591797
375 0.611328
376 0.570312
377 0.580078
378 0.587891
379 0.609375
380 0.574219
381 0.604492
382 0.600586
383 0.583984
384 0.613281
385 0.602539
386 0.590820
387 0.592773
388 0.596680
389 0.609375
390 0.616211
391 0.579102
392 0.548828
393 0.564453
394 0.577148
395 0.584961
396 0.573242
397 0.565430
398 0.632812
399 0.621094
400 0.615234
401 0.602539
402 0.623047
403 0.620117
404 0.602539
405 0.554688
406 0.629883
407 0.579102
408 0.580078
409 0.622070
410 0.575195
411 0.597656
412 0.620117
413 0.593750
414 0.612305
415 0.613281
416 0.613281
417 0.620117
418 0.586914
419 0.586914
420 0.591797
421 0.572266
422 0.572266
423 0.591797
424 0.586914
425 0.602539
426 0.601562
427 0.577148
428 0.581055
429 0.589844
430 0.592773
431 0.554688
432 0.543945
433 0.600586
434 0.586914
435 0.619141
436 0.597656
437 0.598633
438 0.579102
439 0.580078
440 0.577148
441 0.599609
442 0.626953
443 0.599609
444 0.625000
445 0.626953
446 0.588867
447 0.607422
448 0.611328
449 0.603516
450 0.621094
451 0.606445
452 0.619141
453 0.589844
454 0.593750
455 0.609375
456 0.578125
457 0.632812
458 0.590820
459 0.564453
460 0.619141
461 0.591797
462 0.624023
463 0.572266
464 0.587891
465 0.581055
466 0.599609
467 0.622070
468 0.585938
469 0.629883
470 0.557617
471 0.609375
472 0.588867
473 0.570312
474 0.595703
475 0.589844
476 0.591797
477 0.598633
478 0.585938
479 0.581055
480 0.604492
481 0.590820
482 0.565430
483 0.574219
484 0.615234
485 0.592773
486 0.597656
487 0.583008
488 0.599609
489 0.613281
490 0.621094
491 0.610352
492 0.592773
493 0.610352
494 0.626953
495 0.612305
496 0.561523
497 0.584961
498 0.554688
499 0.611328
500 0.605469
501 0.559570
502 0.633789
503 0.584961
504 0.609375
505 0.596680
506 0.607422
507 0.599609
508 0.584961
509 0.602539
510 0.628906
511 0.608398
512 0.584961
513 0.599609
514 0.587891
515 0.585938
516 0.607422
517 0.593750
518 0.561523
519 0.607422
520 0.572266
521 0.555664
522 0.581055
523 0.572266
524 0.611328
525 0.583984
526 0.589844
527 0.563477
528 0.587891
529 0.613281
530 0.616211
531 0.618164
532 0.630859
533 0.589844
534 0.599609
535 0.578125
536 0.588867
537 0.622070
538 0.618164
539 0.640625
540 0.596680
541 0.611328
542 0.602539
543 0.599609
544 0.584961
545 0.610352
546 0.565430
547 0.627930
548 0.621094
549 0.588867
550 0.608398
551 0.621094
552 0.600586
553 0.620117
554 0.593750
555 0.604492
556 0.589844
557 0.599609
558 0.612305
559 0.604492
560 0.620117
561 0.610352
562 0.610352
563 0.616211
564 0.601562
565 0.582031
566 0.618164
567 0.600586
568 0.610352
569 0.598633
570 0.605469
571 0.568359
572 0.570312
573 0.586914
574 0.577148
575 0.634766
576 0.606445
577 0.588867
578 0.602539
579 0.571289
580 0.581055
581 0.577148
582 0.602539
583 0.600586
584 0.613281
585 0.609375
586 0.600586
587 0.641602
588 0.576172
589 0.593750
590 0.612305
591 0.591797
592 0.599609
593 0.604492
594 0.598633
595 0.602539
596 0.556641
597 0.618164
598 0.620117
599 0.611328
