0 0.546875
1 0.550781
2 0.525391
3 0.508789
4 0.458984
5 0.492188
6 0.456055
7 0.466797
8 0.525391
9 0.468750
10 0.456055
11 0.443359
12 0.553711
13 0.525391
14 0.448242
15 0.465820
16 0.487305
17 0.476562
18 0.515625
19 0.496094
20 0.499023
21 0.507812
22 0.519531
23 0.480469
24 0.474609
25 0.474609
26 0.454102
27 0.508789
28 0.475586
29 0.487305
30 0.474609
31 0.465820
32 0.459961
33 0.470703
34 0.485352
35 0.475586
36 0.463867
37 0.495117
38 0.449219
39 0.459961
40 0.483398
41 0.453125
42 0.492188
43 0.444336
44 0.460938
45 0.458984
46 0.489258
47 0.463867
48 0.461914
49 0.481445
50 0.471680
51 0.474609
52 0.461914
53 0.452148
54 0.472656
55 0.484375
56 0.479492
57 0.487305
58 0.525391
59 0.506836
60 0.512695
61 0.515625
62 0.514648
63 0.532227
64 0.534180
65 0.557617
66 0.529297
67 0.555664
68 0.559570
69 0.541016
70 0.519531
71 0.583984
72 0.576172
73 0.505859
74 0.549805
75 0.582031
76 0.593750
77 0.569336
78 0.598633
79 0.565430
80 0.563477
81 0.583008
82 0.607422
83 0.607422
84 0.605469
85 0.634766
86 0.650391
87 0.607422
88 0.643555
89 0.642578
90 0.609375
91 0.612305
92 0.623047
93 0.663086
94 0.602539
95 0.603516
96 0.625000
97 0.635742
98 0.651367
99 0.671875
100 0.632812
101 0.658203
102 0.663086
103 0.644531
104 0.642578
105 0.647461
106 0.666016
107 0.708008
108 0.636719
109 0.644531
110 0.618164
111 0.685547
112 0.650391
113 0.683594
114 0.647461
115 0.656250
116 0.643555
117 0.667969
118 0.645508
119 0.662109
120 0.688477
121 0.688477
122 0.689453
123 0.671875
124 0.666992
125 0.660156
126 0.666016
127 0.674805
128 0.664062
129 0.658203
130 0.680664
131 0.650391
132 0.660156
133 0.673828
134 0.649414
135 0.701172
136 0.678711
137 0.655273
138 0.648438
139 0.703125
140 0.663086
141 0.666992
142 0.655273
143 0.651367
144 0.646484
145 0.672852
146 0.660156
147 0.660156
148 0.654297
149 0.704102
150 0.667969
151 0.670898
152 0.614258
153 0.707031
154 0.660156
155 0.666016
156 0.689453
157 0.658203
158 0.667969
159 0.648438
160 0.649414
161 0.663086
162 0.654297
163 0.685547
164 0.685547
165 0.687500
166 0.699219
167 0.652344
168 0.647461
169 0.640625
170 0.670898
171 0.653320
172 0.606445
173 0.644531
174 0.666992
175 0.687500
176 0.669922
177 0.668945
178 0.667969
179 0.673828
180 0.732422
181 0.684570
182 0.690430
183 0.674805
184 0.657227
185 0.686523
186 0.643555
187 0.688477
188 0.692383
189 0.682617
190 0.669922
191 0.665039
192 0.672852
193 0.640625
194 0.664062
195 0.693359
196 0.688477
197 0.674805
198 0.681641
199 0.695312
200 0.686523
201 0.676758
202 0.651367
203 0.679688
204 0.715820
205 0.688477
206 0.693359
207 0.699219
208 0.695312
209 0.677734
210 0.688477
211 0.687500
212 0.660156
213 0.629883
214 0.687500
215 0.655273
216 0.683594
217 0.664062
218 0.693359
219 0.690430
220 0.659180
221 0.655273
222 0.680664
223 0.676758
224 0.702148
225 0.688477
226 0.679688
227 0.669922
228 0.655273
229 0.672852
230 0.698242
231 0.673828
232 0.666016
233 0.679688
234 0.681641
235 0.629883
236 0.623047
237 0.667969
238 0.685547
239 0.677734
240 0.688477
241 0.708008
242 0.666992
243 0.695312
244 0.664062
245 0.689453
246 0.647461
247 0.634766
248 0.666016
249 0.649414
250 0.642578
251 0.664062
252 0.665039
253 0.685547
254 0.669922
255 0.663086
256 0.666992
257 0.690430
258 0.689453
259 0.672852
260 0.650391
261 0.668945
262 0.736328
263 0.650391
264 0.683594
265 0.664062
266 0.662109
267 0.681641
268 0.667969
269 0.677734
270 0.688477
271 0.684570
272 0.639648
273 0.618164
274 0.674805
275 0.681641
276 0.703125
277 0.665039
278 0.619141
279 0.693359
280 0.682617
281 0.687500
282 0.686523
283 0.697266
284 0.692383
285 0.665039
286 0.641602
287 0.695312
288 0.674805
289 0.647461
290 0.666016
291 0.664062
292 0.677734
293 0.677734
294 0.699219
295 0.666992
296 0.684570
297 0.634766
298 0.694336
299 0.682617
300 0.667969
301 0.666992
302 0.653320
303 0.688477
304 0.656250
305 0.679688
306 0.670898
307 0.674805
308 0.670898
309 0.707031
310 0.678711
311 0.652344
312 0.694336
313 0.653320
314 0.656250
315 0.679688
316 0.669922
317 0.683594
318 0.669922
319 0.701172
320 0.728516
321 0.646484
322 0.672852
323 0.657227
324 0.686523
325 0.659180
326 0.689453
327 0.673828
328 0.660156
329 0.697266
330 0.686523
331 0.679688
332 0.665039
333 0.636719
334 0.707031
335 0.680664
336 0.701172
337 0.706055
338 0.660156
339 0.639648
340 0.694336
341 0.690430
342 0.700195
343 0.726562
344 0.691406
345 0.689453
346 0.666992
347 0.688477
348 0.690430
349 0.679688
350 0.685547
351 0.658203
352 0.705078
353 0.670898
354 0.675781
355 0.654297
356 0.628906
357 0.675781
358 0.654297
359 0.713867
360 0.656250
361 0.702148
362 0.702148
363 0.650391
364 0.668945
365 0.661133
366 0.668945
367 0.685547
368 0.637695
369 0.674805
370 0.651367
371 0.675781
372 0.632812
373 0.711914
374 0.647461
375 0.650391
376 0.643555
377 0.665039
378 0.651367
379 0.631836
380 0.685547
381 0.666992
382 0.666992
383 0.674805
384 0.677734
385 0.665039
386 0.659180
387 0.633789
388 0.651367
389 0.684570
390 0.651367
391 0.708984
392 0.650391
393 0.680664
394 0.672852
395 0.674805
396 0.700195
397 0.683594
398 0.683594
399 0.662109
400 0.675781
401 0.685547
402 0.666016
403 0.682617
404 0.627930
405 0.667969
406 0.678711
407 0.716797
408 0.620117
409 0.695312
410 0.677734
411 0.682617
412 0.656250
413 0.648438
414 0.685547
415 0.685547
416 0.723633
417 0.706055
418 0.674805
419 0.673828
420 0.708984
421 0.700195
422 0.657227
423 0.671875
424 0.681641
425 0.663086
426 0.658203
427 0.660156
428 0.681641
429 0.680664
430 0.674805
431 0.682617
432 0.679688
433 0.683594
434 0.671875
435 0.637695
436 0.665039
437 0.651367
438 0.641602
439 0.673828
440 0.652344
441 0.664062
442 0.637695
443 0.647461
444 0.655273
445 0.684570
446 0.687500
447 0.628906
448 0.681641
449 0.676758
450 0.646484
451 0.653320
452 0.670898
453 0.661133
454 0.702148
455 0.710938
456 0.686523
457 0.671875
458 0.657227
459 0.670898
460 0.677734
461 0.695312
462 0.674805
463 0.661133
464 0.666992
465 0.673828
466 0.691406
467 0.659180
468 0.673828
469 0.665039
470 0.651367
471 0.678711
472 0.666016
473 0.637695
474 0.667969
475 0.638672
476 0.686523
477 0.673828
478 0.660156
479 0.670898
480 0.708984
481 0.677734
482 0.730469
483 0.692383
484 0.681641
485 0.656250
486 0.693359
487 0.702148
488 0.663086
489 0.692383
490 0.681641
491 0.653320
492 0.712891
493 0.691406
494 0.656250
495 0.685547
496 0.675781
497 0.664062
498 0.680664
499 0.658203
500 0.650391
501 0.669922
502 0.701172
503 0.687500
504 0.653320
505 0.632812
506 0.697266
507 0.699219
508 0.666016
509 0.636719
510 0.671875
511 0.691406
512 0.671875
513 0.673828
514 0.657227
515 0.669922
516 0.661133
517 0.660156
518 0.709961
519 0.671875
520 0.671875
521 0.681641
522 0.684570
523 0.742188
524 0.666992
525 0.672852
526 0.641602
527 0.677734
528 0.713867
529 0.672852
530 0.687500
531 0.704102
532 0.680664
533 0.642578
534 0.699219
535 0.709961
536 0.689453
537 0.676758
538 0.694336
539 0.652344
540 0.689453
541 0.648438
542 0.658203
543 0.647461
544 0.665039
545 0.671875
546 0.651367
547 0.699219
548 0.662109
549 0.659180
550 0.672852
551 0.678711
552 0.693359
553 0.702148
554 0.679688
555 0.665039
556 0.714844
557 0.682617
558 0.675781
559 0.670898
560 0.680664
561 0.700195
562 0.707031
563 0.671875
564 0.664062
565 0.674805
566 0.695312
567 0.631836
568 0.676758
569 0.666992
570 0.703125
571 0.659180
572 0.659180
573 0.651367
574 0.696289
575 0.639648
576 0.689453
577 0.682617
578 0.671875
579 0.666992
580 0.659180
581 0.670898
582 0.671875
583 0.666016
584 0.684570
585 0.672852
586 0.670898
587 0.656250
588 0.611328
589 0.654297
590 0.659180
591 0.674805
592 0.660156
593 0.663086
594 0.677734
595 0.674805
596 0.680664
597 0.671875
598 0.690430
599 0.679688
