0 0.476562
1 0.466797
2 0.485352
3 0.496094
4 0.452148
5 0.473633
6 0.518555
7 0.461914
8 0.518555
9 0.523438
10 0.443359
11 0.491211
12 0.472656
13 0.463867
14 0.485352
15 0.483398
16 0.477539
17 0.485352
18 0.481445
19 0.478516
20 0.476562
21 0.479492
22 0.489258
23 0.484375
24 0.460938
25 0.484375
26 0.466797
27 0.495117
28 0.493164
29 0.486328
30 0.484375
31 0.480469
32 0.489258
33 0.489258
34 0.491211
35 0.488281
36 0.484375
37 0.507812
38 0.483398
39 0.485352
40 0.455078
41 0.493164
42 0.497070
43 0.446289
44 0.490234
45 0.472656
46 0.479492
47 0.492188
48 0.539062
49 0.509766
50 0.500977
51 0.494141
52 0.503906
53 0.515625
54 0.510742
55 0.470703
56 0.478516
57 0.544922
58 0.484375
59 0.457031
60 0.541016
61 0.500977
62 0.539062
63 0.551758
64 0.501953
65 0.541016
66 0.533203
67 0.528320
68 0.527344
69 0.540039
70 0.549805
71 0.545898
72 0.545898
73 0.529297
74 0.539062
75 0.541016
76 0.546875
77 0.581055
78 0.540039
79 0.527344
80 0.529297
81 0.554688
82 0.541016
83 0.590820
84 0.580078
85 0.590820
86 0.567383
87 0.583008
88 0.607422
89 0.586914
90 0.559570
91 0.578125
92 0.570312
93 0.566406
94 0.572266
95 0.614258
96 0.585938
97 0.569336
98 0.594727
99 0.648438
100 0.595703
101 0.618164
102 0.559570
103 0.577148
104 0.618164
105 0.583984
106 0.569336
107 0.590820
108 0.591797
109 0.599609
110 0.588867
111 0.605469
112 0.578125
113 0.587891
114 0.568359
115 0.533203
116 0.566406
117 0.563477
118 0.538086
119 0.554688
120 0.586914
121 0.557617
122 0.571289
123 0.564453
124 0.580078
125 0.587891
126 0.562500
127 0.579102
128 0.589844
129 0.589844
130 0.588867
131 0.538086
132 0.556641
133 0.564453
134 0.585938
135 0.557617
136 0.588867
137 0.582031
138 0.573242
139 0.583008
140 0.595703
141 0.567383
142 0.596680
143 0.597656
144 0.549805
145 0.587891
146 0.591797
147 0.601562
148 0.561523
149 0.573242
150 0.580078
151 0.577148
152 0.598633
153 0.568359
154 0.570312
155 0.566406
156 0.610352
157 0.575195
158 0.550781
159 0.572266
160 0.571289
161 0.622070
162 0.602539
163 0.582031
164 0.585938
165 0.602539
166 0.593750
167 0.550781
168 0.569336
169 0.576172
170 0.607422
171 0.553711
172 0.584961
173 0.579102
174 0.575195
175 0.554688
176 0.555664
177 0.594727
178 0.588867
179 0.586914
180 0.579102
181 0.567383
182 0.580078
183 0.584961
184 0.561523
185 0.591797
186 0.613281
187 0.610352
188 0.586914
189 0.601562
190 0.629883
191 0.605469
192 0.586914
193 0.615234
194 0.599609
195 0.584961
196 0.643555
197 0.613281
198 0.608398
199 0.560547
200 0.616211
201 0.590820
202 0.583984
203 0.586914
204 0.580078
205 0.568359
206 0.583008
207 0.579102
208 0.596680
209 0.588867
210 0.557617
211 0.550781
212 0.572266
213 0.535156
214 0.608398
215 0.578125
216 0.618164
217 0.602539
218 0.607422
219 0.615234
220 0.595703
221 0.622070
222 0.615234
223 0.606445
224 0.591797
225 0.614258
226 0.604492
227 0.639648
228 0.599609
229 0.572266
230 0.592773
231 0.606445
232 0.630859
233 0.620117
234 0.597656
235 0.598633
236 0.622070
237 0.615234
238 0.596680
239 0.603516
240 0.587891
241 0.603516
242 0.589844
243 0.581055
244 0.606445
245 0.627930
246 0.625977
247 0.558594
248 0.584961
249 0.605469
250 0.623047
251 0.613281
252 0.608398
253 0.592773
254 0.607422
255 0.569336
256 0.633789
257 0.604492
258 0.604492
259 0.624023
260 0.590820
261 0.583984
262 0.588867
263 0.612305
264 0.578125
265 0.573242
266 0.623047
267 0.553711
268 0.576172
269 0.606445
270 0.583008
271 0.588867
272 0.604492
273 0.604492
274 0.603516
275 0.576172
276 0.597656
277 0.585938
278 0.590820
279 0.578125
280 0.574219
281 0.599609
282 0.590820
283 0.619141
284 0.617188
285 0.600586
286 0.620117
287 0.592773
288 0.639648
289 0.585938
290 0.636719
291 0.587891
292 0.632812
293 0.608398
294 0.593750
295 0.631836
296 0.595703
297 0.605469
298 0.580078
299 0.624023
300 0.606445
301 0.632812
302 0.556641
303 0.626953
304 0.584961
305 0.606445
306 0.608398
307 0.620117
308 0.610352
309 0.583008
310 0.618164
311 0.565430
312 0.566406
313 0.614258
314 0.578125
315 0.586914
316 0.592773
317 0.558594
318 0.591797
319 0.575195
320 0.584961
321 0.598633
322 0.647461
323 0.614258
324 0.610352
325 0.597656
326 0.582031
327 0.585938
328 0.616211
329 0.605469
330 0.627930
331 0.609375
332 0.612305
333 0.586914
334 0.630859
335 0.612305
336 0.596680
337 0.580078
338 0.599609
339 0.597656
340 0.576172
341 0.580078
342 0.618164
343 0.582031
344 0.596680
345 0.570312
346 0.613281
347 0.596680
348 0.580078
349 0.596680
350 0.618164
351 0.599609
352 0.606445
353 0.593750
354 0.634766
355 0.649414
356 0.627930
357 0.635742
358 0.613281
359 0.590820
360 0.597656
361 0.609375
362 0.569336
363 0.601562
364 0.607422
365 0.592773
366 0.597656
367 0.623047
368 0.597656
369 0.609375
370 0.601562
371 0.585938
372 0.607422
373 0.610352
374 0.571289
375 0.590820
376 0.628906
377 0.598633
378 0.583984
379 0.553711
380 0.606445
381 0.578125
382 0.583008
383 0.574219
384 0.597656
385 0.586914
386 0.584961
387 0.559570
388 0.558594
389 0.526367
390 0.582031
391 0.582031
392 0.598633
393 0.575195
394 0.620117
395 0.583984
396 0.572266
397 0.609375
398 0.635742
399 0.598633
400 0.624023
401 0.591797
402 0.581055
403 0.586914
404 0.630859
405 0.648438
406 0.635742
407 0.601562
408 0.612305
409 0.628906
410 0.576172
411 0.602539
412 0.602539
413 0.576172
414 0.594727
415 0.616211
416 0.545898
417 0.583984
418 0.550781
419 0.595703
420 0.567383
421 0.581055
422 0.564453
423 0.595703
424 0.554688
425 0.587891
426 0.572266
427 0.584961
428 0.590820
429 0.583984
430 0.602539
431 0.601562
432 0.573242
433 0.583008
434 0.577148
435 0.603516
436 0.605469
437 0.575195
438 0.595703
439 0.595703
440 0.609375
441 0.598633
442 0.555664
443 0.593750
444 0.608398
445 0.587891
446 0.576172
447 0.586914
448 0.594727
449 0.562500
450 0.610352
451 0.587891
452 0.567383
453 0.546875
454 0.570312
455 0.592773
456 0.553711
457 0.601562
458 0.581055
459 0.573242
460 0.580078
461 0.590820
462 0.595703
463 0.619141
464 0.632812
465 0.611328
466 0.590820
467 0.579102
468 0.553711
469 0.584961
470 0.591797
471 0.610352
472 0.613281
473 0.569336
474 0.583008
475 0.562500
476 0.583984
477 0.572266
478 0.606445
479 0.616211
480 0.636719
481 0.599609
482 0.609375
483 0.622070
484 0.594727
485 0.550781
486 0.589844
487 0.581055
488 0.592773
489 0.637695
490 0.588867
491 0.580078
492 0.614258
493 0.620117
494 0.603516
495 0.597656
496 0.602539
497 0.601562
498 0.629883
499 0.571289
500 0.538086
501 0.600586
502 0.577148
503 0.583984
504 0.581055
505 0.567383
506 0.567383
507 0.589844
508 0.561523
509 0.613281
510 0.582031
511 0.599609
512 0.598633
513 0.601562
514 0.587891
515 0.581055
516 0.591797
517 0.532227
518 0.579102
519 0.573242
520 0.604492
521 0.618164
522 0.595703
523 0.598633
524 0.601562
525 0.592773
526 0.620117
527 0.639648
528 0.593750
529 0.602539
530 0.586914
531 0.578125
532 0.570312
533 0.560547
534 0.555664
535 0.575195
536 0.577148
537 0.627930
538 0.627930
539 0.578125
540 0.583008
541 0.572266
542 0.620117
543 0.597656
544 0.606445
545 0.592773
546 0.594727
547 0.580078
548 0.619141
549 0.600586
550 0.622070
551 0.580078
552 0.616211
553 0.642578
554 0.638672
555 0.605469
556 0.623047
557 0.589844
558 0.583984
559 0.606445
560 0.633789
561 0.606445
562 0.585938
563 0.616211
564 0.596680
565 0.591797
566 0.605469
567 0.588867
568 0.629883
569 0.621094
570 0.565430
571 0.607422
572 0.581055
573 0.596680
574 0.573242
575 0.609375
576 0.595703
577 0.595703
578 0.561523
579 0.577148
580 0.605469
581 0.579102
582 0.599609
583 0.580078
584 0.587891
585 0.597656
586 0.600586
587 0.646484
588 0.617188
589 0.615234
590 0.588867
591 0.611328
592 0.602539
593 0.618164
594 0.576172
595 0.604492
596 0.597656
597 0.596680
598 0.610352
599 0.589844
