0 0.492188
1 0.477539
2 0.513672
3 0.528320
4 0.496094
5 0.501953
6 0.533203
7 0.496094
8 0.502930
9 0.503906
10 0.506836
11 0.521484
12 0.484375
13 0.487305
14 0.512695
15 0.507812
16 0.514648
17 0.520508
18 0.524414
19 0.491211
20 0.500977
21 0.501953
22 0.510742
23 0.513672
24 0.491211
25 0.512695
26 0.524414
27 0.478516
28 0.504883
29 0.512695
30 0.487305
31 0.528320
32 0.528320
33 0.484375
34 0.475586
35 0.477539
36 0.485352
37 0.500977
38 0.513672
39 0.488281
40 0.475586
41 0.505859
42 0.556641
43 0.525391
44 0.518555
45 0.527344
46 0.494141
47 0.500000
48 0.440430
49 0.509766
50 0.485352
51 0.492188
52 0.479492
53 0.499023
54 0.458984
55 0.461914
56 0.517578
57 0.528320
58 0.505859
59 0.505859
60 0.533203
61 0.507812
62 0.505859
63 0.514648
64 0.526367
65 0.515625
66 0.533203
67 0.518555
68 0.553711
69 0.551758
70 0.533203
71 0.577148
72 0.552734
73 0.564453
74 0.541016
75 0.561523
76 0.547852
77 0.558594
78 0.570312
79 0.587891
80 0.595703
81 0.599609
82 0.578125
83 0.600586
84 0.578125
85 0.586914
86 0.542969
87 0.566406
88 0.594727
89 0.576172
90 0.579102
91 0.607422
92 0.583008
93 0.594727
94 0.588867
95 0.618164
96 0.570312
97 0.556641
98 0.607422
99 0.623047
100 0.593750
101 0.569336
102 0.578125
103 0.569336
104 0.603516
105 0.570312
106 0.564453
107 0.610352
108 0.583008
109 0.627930
110 0.579102
111 0.596680
112 0.599609
113 0.609375
114 0.562500
115 0.576172
116 0.574219
117 0.557617
118 0.602539
119 0.586914
120 0.608398
121 0.610352
122 0.622070
123 0.623047
124 0.613281
125 0.567383
126 0.599609
127 0.625000
128 0.624023
129 0.602539
130 0.612305
131 0.605469
132 0.565430
133 0.583984
134 0.604492
135 0.582031
136 0.549805
137 0.549805
138 0.577148
139 0.610352
140 0.602539
141 0.608398
142 0.615234
143 0.606445
144 0.577148
145 0.583984
146 0.601562
147 0.564453
148 0.586914
149 0.577148
150 0.577148
151 0.609375
152 0.594727
153 0.600586
154 0.585938
155 0.605469
156 0.595703
157 0.608398
158 0.577148
159 0.602539
160 0.585938
161 0.594727
162 0.604492
163 0.622070
164 0.596680
165 0.611328
166 0.622070
167 0.571289
168 0.596680
169 0.607422
170 0.560547
171 0.608398
172 0.599609
173 0.595703
174 0.566406
175 0.604492
176 0.614258
177 0.622070
178 0.582031
179 0.581055
180 0.608398
181 0.607422
182 0.625000
183 0.600586
184 0.633789
185 0.625000
186 0.586914
187 0.583008
188 0.631836
189 0.597656
190 0.592773
191 0.601562
192 0.594727
193 0.595703
194 0.588867
195 0.573242
196 0.562500
197 0.608398
198 0.597656
199 0.599609
200 0.602539
201 0.576172
202 0.573242
203 0.564453
204 0.595703
205 0.577148
206 0.536133
207 0.583984
208 0.581055
209 0.614258
210 0.606445
211 0.583008
212 0.551758
213 0.622070
214 0.628906
215 0.579102
216 0.623047
217 0.587891
218 0.619141
219 0.588867
220 0.615234
221 0.591797
222 0.606445
223 0.558594
224 0.614258
225 0.608398
226 0.574219
227 0.585938
228 0.602539
229 0.584961
230 0.625000
231 0.591797
232 0.599609
233 0.603516
234 0.624023
235 0.582031
236 0.614258
237 0.576172
238 0.585938
239 0.603516
240 0.609375
241 0.657227
242 0.632812
243 0.602539
244 0.601562
245 0.594727
246 0.590820
247 0.548828
248 0.590820
249 0.612305
250 0.602539
251 0.569336
252 0.571289
253 0.582031
254 0.608398
255 0.589844
256 0.625000
257 0.587891
258 0.613281
259 0.587891
260 0.607422
261 0.631836
262 0.635742
263 0.581055
264 0.575195
265 0.587891
266 0.552734
267 0.586914
268 0.582031
269 0.588867
270 0.610352
271 0.591797
272 0.604492
273 0.600586
274 0.570312
275 0.595703
276 0.594727
277 0.622070
278 0.592773
279 0.571289
280 0.553711
281 0.571289
282 0.565430
283 0.564453
284 0.570312
285 0.573242
286 0.598633
287 0.567383
288 0.581055
289 0.577148
290 0.563477
291 0.567383
292 0.589844
293 0.597656
294 0.588867
295 0.583984
296 0.579102
297 0.569336
298 0.578125
299 0.588867
300 0.591797
301 0.582031
302 0.616211
303 0.576172
304 0.584961
305 0.629883
306 0.612305
307 0.611328
308 0.596680
309 0.589844
310 0.590820
311 0.591797
312 0.592773
313 0.616211
314 0.597656
315 0.602539
316 0.572266
317 0.573242
318 0.593750
319 0.566406
320 0.603516
321 0.612305
322 0.585938
323 0.616211
324 0.616211
325 0.574219
326 0.579102
327 0.603516
328 0.612305
329 0.604492
330 0.592773
331 0.602539
332 0.583008
333 0.591797
334 0.561523
335 0.580078
336 0.575195
337 0.599609
338 0.593750
339 0.629883
340 0.593750
341 0.556641
342 0.587891
343 0.583008
344 0.604492
345 0.568359
346 0.606445
347 0.582031
348 0.623047
349 0.644531
350 0.625977
351 0.603516
352 0.572266
353 0.584961
354 0.574219
355 0.585938
356 0.597656
357 0.565430
358 0.561523
359 0.575195
360 0.550781
361 0.576172
362 0.613281
363 0.600586
364 0.644531
365 0.608398
366 0.551758
367 0.616211
368 0.566406
369 0.594727
370 0.615234
371 0.609375
372 0.598633
373 0.567383
374 0.633789
375 0.607422
376 0.602539
377 0.592773
378 0.610352
379 0.604492
380 0.554688
381 0.569336
382 0.602539
383 0.607422
384 0.597656
385 0.578125
386 0.548828
387 0.572266
388 0.546875
389 0.564453
390 0.575195
391 0.613281
392 0.605469
393 0.600586
394 0.601562
395 0.609375
396 0.594727
397 0.562500
398 0.598633
399 0.585938
400 0.592773
401 0.578125
402 0.618164
403 0.593750
404 0.561523
405 0.578125
406 0.628906
407 0.593750
408 0.583984
409 0.584961
410 0.621094
411 0.570312
412 0.580078
413 0.614258
414 0.589844
415 0.566406
416 0.569336
417 0.629883
418 0.578125
419 0.610352
420 0.628906
421 0.612305
422 0.589844
423 0.583984
424 0.616211
425 0.619141
426 0.599609
427 0.572266
428 0.586914
429 0.561523
430 0.611328
431 0.618164
432 0.603516
433 0.583008
434 0.627930
435 0.576172
436 0.599609
437 0.615234
438 0.625977
439 0.587891
440 0.578125
441 0.598633
442 0.577148
443 0.605469
444 0.620117
445 0.619141
446 0.583008
447 0.585938
448 0.567383
449 0.570312
450 0.605469
451 0.583008
452 0.564453
453 0.563477
454 0.640625
455 0.561523
456 0.627930
457 0.570312
458 0.603516
459 0.583008
460 0.596680
461 0.637695
462 0.584961
463 0.617188
464 0.651367
465 0.605469
466 0.614258
467 0.583008
468 0.602539
469 0.617188
470 0.617188
471 0.564453
472 0.619141
473 0.573242
474 0.553711
475 0.591797
476 0.625000
477 0.640625
478 0.606445
479 0.595703
480 0.596680
481 0.610352
482 0.589844
483 0.588867
484 0.567383
485 0.588867
486 0.593750
487 0.597656
488 0.613281
489 0.553711
490 0.585938
491 0.586914
492 0.607422
493 0.600586
494 0.599609
495 0.601562
496 0.607422
497 0.632812
498 0.607422
499 0.565430
500 0.589844
501 0.583984
502 0.609375
503 0.591797
504 0.623047
505 0.602539
506 0.634766
507 0.597656
508 0.622070
509 0.646484
510 0.598633
511 0.606445
512 0.604492
513 0.597656
514 0.604492
515 0.578125
516 0.628906
517 0.628906
518 0.618164
519 0.624023
520 0.631836
521 0.594727
522 0.611328
523 0.621094
524 0.602539
525 0.631836
526 0.628906
527 0.629883
528 0.607422
529 0.640625
530 0.611328
531 0.615234
532 0.587891
533 0.605469
534 0.639648
535 0.610352
536 0.630859
537 0.640625
538 0.625000
539 0.612305
540 0.592773
541 0.580078
542 0.588867
543 0.619141
544 0.642578
545 0.613281
546 0.577148
547 0.538086
548 0.597656
549 0.585938
550 0.546875
551 0.583984
552 0.577148
553 0.603516
554 0.583984
555 0.584961
556 0.606445
557 0.572266
558 0.594727
559 0.593750
560 0.593750
561 0.586914
562 0.624023
563 0.629883
564 0.615234
565 0.648438
566 0.591797
567 0.616211
568 0.589844
569 0.616211
570 0.578125
571 0.561523
572 0.579102
573 0.582031
574 0.555664
575 0.585938
576 0.562500
577 0.618164
578 0.570312
579 0.591797
580 0.622070
581 0.574219
582 0.610352
583 0.594727
584 0.600586
585 0.599609
586 0.583984
587 0.643555
588 0.567383
589 0.582031
590 0.581055
591 0.623047
592 0.619141
593 0.611328
594 0.600586
595 0.597656
596 0.601562
597 0.603516
598 0.598633
599 0.613281
