0 0.521484
1 0.550781
2 0.492188
3 0.497070
4 0.486328
5 0.496094
6 0.477539
7 0.514648
8 0.503906
9 0.500977
10 0.499023
11 0.484375
12 0.493164
13 0.485352
14 0.461914
15 0.522461
16 0.514648
17 0.502930
18 0.526367
19 0.509766
20 0.472656
21 0.495117
22 0.506836
23 0.500000
24 0.526367
25 0.506836
26 0.521484
27 0.498047
28 0.505859
29 0.483398
30 0.505859
31 0.502930
32 0.492188
33 0.512695
34 0.487305
35 0.476562
36 0.473633
37 0.515625
38 0.513672
39 0.525391
40 0.482422
41 0.469727
42 0.525391
43 0.537109
44 0.518555
45 0.513672
46 0.531250
47 0.514648
48 0.540039
49 0.494141
50 0.539062
51 0.526367
52 0.554688
53 0.532227
54 0.554688
55 0.532227
56 0.551758
57 0.556641
58 0.552734
59 0.535156
60 0.547852
61 0.548828
62 0.541992
63 0.527344
64 0.554688
65 0.552734
66 0.510742
67 0.544922
68 0.541016
69 0.523438
70 0.550781
71 0.536133
72 0.574219
73 0.603516
74 0.543945
75 0.570312
76 0.561523
77 0.536133
78 0.559570
79 0.560547
80 0.587891
81 0.592773
82 0.570312
83 0.555664
84 0.536133
85 0.626953
86 0.597656
87 0.627930
88 0.609375
89 0.605469
90 0.593750
91 0.634766
92 0.593750
93 0.577148
94 0.586914
95 0.590820
96 0.582031
97 0.605469
98 0.578125
99 0.574219
100 0.581055
101 0.577148
102 0.554688
103 0.577148
104 0.565430
105 0.569336
106 0.587891
107 0.569336
108 0.588867
109 0.590820
110 0.608398
111 0.584961
112 0.597656
113 0.622070
114 0.579102
115 0.610352
116 0.633789
117 0.572266
118 0.596680
119 0.622070
120 0.602539
121 0.638672
122 0.615234
123 0.615234
124 0.619141
125 0.580078
126 0.581055
127 0.611328
128 0.602539
129 0.609375
130 0.607422
131 0.579102
132 0.560547
133 0.595703
134 0.586914
135 0.569336
136 0.598633
137 0.587891
138 0.582031
139 0.561523
140 0.591797
141 0.572266
142 0.604492
143 0.564453
144 0.633789
145 0.576172
146 0.599609
147 0.594727
148 0.560547
149 0.547852
150 0.592773
151 0.592773
152 0.599609
153 0.603516
154 0.585938
155 0.557617
156 0.553711
157 0.604492
158 0.585938
159 0.619141
160 0.615234
161 0.616211
162 0.615234
163 0.615234
164 0.577148
165 0.599609
166 0.587891
167 0.609375
168 0.591797
169 0.568359
170 0.611328
171 0.616211
172 0.615234
173 0.608398
174 0.560547
175 0.603516
176 0.616211
177 0.590820
178 0.653320
179 0.578125
180 0.598633
181 0.600586
182 0.625977
183 0.601562
184 0.625977
185 0.594727
186 0.631836
187 0.616211
188 0.580078
189 0.601562
190 0.604492
191 0.583984
192 0.600586
193 0.601562
194 0.614258
195 0.592773
196 0.601562
197 0.585938
198 0.582031
199 0.586914
200 0.548828
201 0.558594
202 0.589844
203 0.541016
204 0.564453
205 0.569336
206 0.622070
207 0.594727
208 0.571289
209 0.583008
210 0.598633
211 0.577148
212 0.591797
213 0.588867
214 0.565430
215 0.570312
216 0.605469
217 0.599609
218 0.602539
219 0.600586
220 0.625000
221 0.602539
222 0.601562
223 0.591797
224 0.601562
225 0.591797
226 0.576172
227 0.588867
228 0.628906
229 0.587891
230 0.569336
231 0.582031
232 0.582031
233 0.584961
234 0.603516
235 0.566406
236 0.570312
237 0.555664
238 0.577148
239 0.609375
240 0.599609
241 0.586914
242 0.569336
243 0.552734
244 0.604492
245 0.575195
246 0.627930
247 0.580078
248 0.569336
249 0.599609
250 0.614258
251 0.569336
252 0.565430
253 0.582031
254 0.607422
255 0.582031
256 0.604492
257 0.596680
258 0.600586
259 0.548828
260 0.577148
261 0.602539
262 0.603516
263 0.618164
264 0.574219
265 0.607422
266 0.611328
267 0.599609
268 0.600586
269 0.614258
270 0.598633
271 0.620117
272 0.605469
273 0.624023
274 0.598633
275 0.643555
276 0.610352
277 0.611328
278 0.596680
279 0.630859
280 0.613281
281 0.587891
282 0.576172
283 0.563477
284 0.555664
285 0.587891
286 0.595703
287 0.595703
288 0.625000
289 0.575195
290 0.610352
291 0.603516
292 0.583008
293 0.566406
294 0.580078
295 0.594727
296 0.593750
297 0.606445
298 0.605469
299 0.610352
300 0.586914
301 0.634766
302 0.563477
303 0.615234
304 0.564453
305 0.561523
306 0.599609
307 0.587891
308 0.622070
309 0.569336
310 0.628906
311 0.608398
312 0.639648
313 0.621094
314 0.606445
315 0.614258
316 0.639648
317 0.615234
318 0.609375
319 0.579102
320 0.609375
321 0.570312
322 0.591797
323 0.601562
324 0.597656
325 0.603516
326 0.604492
327 0.597656
328 0.611328
329 0.631836
330 0.626953
331 0.603516
332 0.595703
333 0.631836
334 0.596680
335 0.575195
336 0.590820
337 0.598633
338 0.566406
339 0.549805
340 0.582031
341 0.635742
342 0.620117
343 0.608398
344 0.619141
345 0.599609
346 0.647461
347 0.654297
348 0.598633
349 0.583008
350 0.577148
351 0.606445
352 0.561523
353 0.605469
354 0.577148
355 0.620117
356 0.612305
357 0.619141
358 0.591797
359 0.600586
360 0.621094
361 0.577148
362 0.599609
363 0.580078
364 0.618164
365 0.606445
366 0.606445
367 0.604492
368 0.609375
369 0.606445
370 0.572266
371 0.599609
372 0.577148
373 0.613281
374 0.624023
375 0.590820
376 0.586914
377 0.549805
378 0.599609
379 0.595703
380 0.563477
381 0.612305
382 0.574219
383 0.622070
384 0.619141
385 0.589844
386 0.599609
387 0.612305
388 0.619141
389 0.599609
390 0.614258
391 0.586914
392 0.599609
393 0.572266
394 0.593750
395 0.607422
396 0.616211
397 0.625000
398 0.607422
399 0.613281
400 0.609375
401 0.603516
402 0.600586
403 0.623047
404 0.543945
405 0.630859
406 0.619141
407 0.587891
408 0.604492
409 0.576172
410 0.585938
411 0.578125
412 0.561523
413 0.595703
414 0.583984
415 0.605469
416 0.625977
417 0.589844
418 0.620117
419 0.608398
420 0.581055
421 0.594727
422 0.593750
423 0.580078
424 0.561523
425 0.608398
426 0.603516
427 0.575195
428 0.599609
429 0.607422
430 0.592773
431 0.598633
432 0.581055
433 0.591797
434 0.590820
435 0.574219
436 0.632812
437 0.590820
438 0.578125
439 0.577148
440 0.579102
441 0.587891
442 0.597656
443 0.605469
444 0.550781
445 0.597656
446 0.578125
447 0.623047
448 0.580078
449 0.592773
450 0.563477
451 0.541992
452 0.607422
453 0.599609
454 0.613281
455 0.613281
456 0.639648
457 0.625000
458 0.622070
459 0.598633
460 0.598633
461 0.641602
462 0.616211
463 0.624023
464 0.633789
465 0.582031
466 0.617188
467 0.649414
468 0.590820
469 0.571289
470 0.609375
471 0.614258
472 0.625977
473 0.586914
474 0.602539
475 0.600586
476 0.611328
477 0.589844
478 0.619141
479 0.608398
480 0.616211
481 0.623047
482 0.619141
483 0.597656
484 0.610352
485 0.600586
486 0.607422
487 0.617188
488 0.580078
489 0.586914
490 0.585938
491 0.614258
492 0.602539
493 0.596680
494 0.583984
495 0.617188
496 0.622070
497 0.656250
498 0.606445
499 0.604492
500 0.619141
501 0.582031
502 0.594727
503 0.569336
504 0.608398
505 0.602539
506 0.569336
507 0.622070
508 0.624023
509 0.634766
510 0.594727
511 0.654297
512 0.588867
513 0.619141
514 0.617188
515 0.559570
516 0.597656
517 0.609375
518 0.638672
519 0.581055
520 0.591797
521 0.602539
522 0.587891
523 0.584961
524 0.589844
525 0.667969
526 0.602539
527 0.632812
528 0.628906
529 0.610352
530 0.581055
531 0.620117
532 0.595703
533 0.567383
534 0.563477
535 0.590820
536 0.604492
537 0.610352
538 0.606445
539 0.593750
540 0.598633
541 0.596680
542 0.619141
543 0.603516
544 0.592773
545 0.632812
546 0.560547
547 0.587891
548 0.614258
549 0.571289
550 0.550781
551 0.601562
552 0.601562
553 0.564453
554 0.588867
555 0.594727
556 0.591797
557 0.603516
558 0.583008
559 0.616211
560 0.552734
561 0.608398
562 0.583008
563 0.622070
564 0.554688
565 0.611328
566 0.609375
567 0.597656
568 0.583008
569 0.584961
570 0.600586
571 0.583984
572 0.588867
573 0.592773
574 0.597656
575 0.591797
576 0.605469
577 0.577148
578 0.599609
579 0.628906
580 0.583984
581 0.597656
582 0.593750
583 0.590820
584 0.597656
585 0.595703
586 0.575195
587 0.577148
588 0.575195
589 0.595703
590 0.587891
591 0.597656
592 0.577148
593 0.604492
594 0.587891
595 0.584961
596 0.573242
597 0.616211
598 0.594727
599 0.603516
