%!PS-Adobe-2.0 EPSF-2.0
%%Title: ../plots/td/td-minigammon-offset-0.eps
%%Creator: gnuplot 4.4 patchlevel 3
%%CreationDate: Wed Dec 14 06:44:02 2011
%%DocumentFonts: (atend)
%%BoundingBox: 50 50 410 302
%%EndComments
%%BeginProlog
/gnudict 256 dict def
gnudict begin
%
% The following true/false flags may be edited by hand if desired.
% The unit line width and grayscale image gamma correction may also be changed.
%
/Color true def
/Blacktext false def
/Solid false def
/Dashlength 1 def
/Landscape false def
/Level1 false def
/Rounded false def
/ClipToBoundingBox false def
/TransparentPatterns false def
/gnulinewidth 5.000 def
/userlinewidth gnulinewidth def
/Gamma 1.0 def
%
/vshift -46 def
/dl1 {
  10.0 Dashlength mul mul
  Rounded { currentlinewidth 0.75 mul sub dup 0 le { pop 0.01 } if } if
} def
/dl2 {
  10.0 Dashlength mul mul
  Rounded { currentlinewidth 0.75 mul add } if
} def
/hpt_ 31.5 def
/vpt_ 31.5 def
/hpt hpt_ def
/vpt vpt_ def
Level1 {} {
/SDict 10 dict def
systemdict /pdfmark known not {
  userdict /pdfmark systemdict /cleartomark get put
} if
SDict begin [
  /Title (../plots/td/td-minigammon-offset-0.eps)
  /Subject (gnuplot plot)
  /Creator (gnuplot 4.4 patchlevel 3)
  /Author (reza)
%  /Producer (gnuplot)
%  /Keywords ()
  /CreationDate (Wed Dec 14 06:44:02 2011)
  /DOCINFO pdfmark
end
} ifelse
/doclip {
  ClipToBoundingBox {
    newpath 50 50 moveto 410 50 lineto 410 302 lineto 50 302 lineto closepath
    clip
  } if
} def
%
% Gnuplot Prolog Version 4.4 (August 2010)
%
%/SuppressPDFMark true def
%
/M {moveto} bind def
/L {lineto} bind def
/R {rmoveto} bind def
/V {rlineto} bind def
/N {newpath moveto} bind def
/Z {closepath} bind def
/C {setrgbcolor} bind def
/f {rlineto fill} bind def
/g {setgray} bind def
/Gshow {show} def   % May be redefined later in the file to support UTF-8
/vpt2 vpt 2 mul def
/hpt2 hpt 2 mul def
/Lshow {currentpoint stroke M 0 vshift R 
	Blacktext {gsave 0 setgray show grestore} {show} ifelse} def
/Rshow {currentpoint stroke M dup stringwidth pop neg vshift R
	Blacktext {gsave 0 setgray show grestore} {show} ifelse} def
/Cshow {currentpoint stroke M dup stringwidth pop -2 div vshift R 
	Blacktext {gsave 0 setgray show grestore} {show} ifelse} def
/UP {dup vpt_ mul /vpt exch def hpt_ mul /hpt exch def
  /hpt2 hpt 2 mul def /vpt2 vpt 2 mul def} def
/DL {Color {setrgbcolor Solid {pop []} if 0 setdash}
 {pop pop pop 0 setgray Solid {pop []} if 0 setdash} ifelse} def
/BL {stroke userlinewidth 2 mul setlinewidth
	Rounded {1 setlinejoin 1 setlinecap} if} def
/AL {stroke userlinewidth 2 div setlinewidth
	Rounded {1 setlinejoin 1 setlinecap} if} def
/UL {dup gnulinewidth mul /userlinewidth exch def
	dup 1 lt {pop 1} if 10 mul /udl exch def} def
/PL {stroke userlinewidth setlinewidth
	Rounded {1 setlinejoin 1 setlinecap} if} def
3.8 setmiterlimit
% Default Line colors
/LCw {1 1 1} def
/LCb {0 0 0} def
/LCa {0 0 0} def
/LC0 {1 0 0} def
/LC1 {0 1 0} def
/LC2 {0 0 1} def
/LC3 {1 0 1} def
/LC4 {0 1 1} def
/LC5 {1 1 0} def
/LC6 {0 0 0} def
/LC7 {1 0.3 0} def
/LC8 {0.5 0.5 0.5} def
% Default Line Types
/LTw {PL [] 1 setgray} def
/LTb {BL [] LCb DL} def
/LTa {AL [1 udl mul 2 udl mul] 0 setdash LCa setrgbcolor} def
/LT0 {PL [] LC0 DL} def
/LT1 {PL [4 dl1 2 dl2] LC1 DL} def
/LT2 {PL [2 dl1 3 dl2] LC2 DL} def
/LT3 {PL [1 dl1 1.5 dl2] LC3 DL} def
/LT4 {PL [6 dl1 2 dl2 1 dl1 2 dl2] LC4 DL} def
/LT5 {PL [3 dl1 3 dl2 1 dl1 3 dl2] LC5 DL} def
/LT6 {PL [2 dl1 2 dl2 2 dl1 6 dl2] LC6 DL} def
/LT7 {PL [1 dl1 2 dl2 6 dl1 2 dl2 1 dl1 2 dl2] LC7 DL} def
/LT8 {PL [2 dl1 2 dl2 2 dl1 2 dl2 2 dl1 2 dl2 2 dl1 4 dl2] LC8 DL} def
/Pnt {stroke [] 0 setdash gsave 1 setlinecap M 0 0 V stroke grestore} def
/Dia {stroke [] 0 setdash 2 copy vpt add M
  hpt neg vpt neg V hpt vpt neg V
  hpt vpt V hpt neg vpt V closepath stroke
  Pnt} def
/Pls {stroke [] 0 setdash vpt sub M 0 vpt2 V
  currentpoint stroke M
  hpt neg vpt neg R hpt2 0 V stroke
 } def
/Box {stroke [] 0 setdash 2 copy exch hpt sub exch vpt add M
  0 vpt2 neg V hpt2 0 V 0 vpt2 V
  hpt2 neg 0 V closepath stroke
  Pnt} def
/Crs {stroke [] 0 setdash exch hpt sub exch vpt add M
  hpt2 vpt2 neg V currentpoint stroke M
  hpt2 neg 0 R hpt2 vpt2 V stroke} def
/TriU {stroke [] 0 setdash 2 copy vpt 1.12 mul add M
  hpt neg vpt -1.62 mul V
  hpt 2 mul 0 V
  hpt neg vpt 1.62 mul V closepath stroke
  Pnt} def
/Star {2 copy Pls Crs} def
/BoxF {stroke [] 0 setdash exch hpt sub exch vpt add M
  0 vpt2 neg V hpt2 0 V 0 vpt2 V
  hpt2 neg 0 V closepath fill} def
/TriUF {stroke [] 0 setdash vpt 1.12 mul add M
  hpt neg vpt -1.62 mul V
  hpt 2 mul 0 V
  hpt neg vpt 1.62 mul V closepath fill} def
/TriD {stroke [] 0 setdash 2 copy vpt 1.12 mul sub M
  hpt neg vpt 1.62 mul V
  hpt 2 mul 0 V
  hpt neg vpt -1.62 mul V closepath stroke
  Pnt} def
/TriDF {stroke [] 0 setdash vpt 1.12 mul sub M
  hpt neg vpt 1.62 mul V
  hpt 2 mul 0 V
  hpt neg vpt -1.62 mul V closepath fill} def
/DiaF {stroke [] 0 setdash vpt add M
  hpt neg vpt neg V hpt vpt neg V
  hpt vpt V hpt neg vpt V closepath fill} def
/Pent {stroke [] 0 setdash 2 copy gsave
  translate 0 hpt M 4 {72 rotate 0 hpt L} repeat
  closepath stroke grestore Pnt} def
/PentF {stroke [] 0 setdash gsave
  translate 0 hpt M 4 {72 rotate 0 hpt L} repeat
  closepath fill grestore} def
/Circle {stroke [] 0 setdash 2 copy
  hpt 0 360 arc stroke Pnt} def
/CircleF {stroke [] 0 setdash hpt 0 360 arc fill} def
/C0 {BL [] 0 setdash 2 copy moveto vpt 90 450 arc} bind def
/C1 {BL [] 0 setdash 2 copy moveto
	2 copy vpt 0 90 arc closepath fill
	vpt 0 360 arc closepath} bind def
/C2 {BL [] 0 setdash 2 copy moveto
	2 copy vpt 90 180 arc closepath fill
	vpt 0 360 arc closepath} bind def
/C3 {BL [] 0 setdash 2 copy moveto
	2 copy vpt 0 180 arc closepath fill
	vpt 0 360 arc closepath} bind def
/C4 {BL [] 0 setdash 2 copy moveto
	2 copy vpt 180 270 arc closepath fill
	vpt 0 360 arc closepath} bind def
/C5 {BL [] 0 setdash 2 copy moveto
	2 copy vpt 0 90 arc
	2 copy moveto
	2 copy vpt 180 270 arc closepath fill
	vpt 0 360 arc} bind def
/C6 {BL [] 0 setdash 2 copy moveto
	2 copy vpt 90 270 arc closepath fill
	vpt 0 360 arc closepath} bind def
/C7 {BL [] 0 setdash 2 copy moveto
	2 copy vpt 0 270 arc closepath fill
	vpt 0 360 arc closepath} bind def
/C8 {BL [] 0 setdash 2 copy moveto
	2 copy vpt 270 360 arc closepath fill
	vpt 0 360 arc closepath} bind def
/C9 {BL [] 0 setdash 2 copy moveto
	2 copy vpt 270 450 arc closepath fill
	vpt 0 360 arc closepath} bind def
/C10 {BL [] 0 setdash 2 copy 2 copy moveto vpt 270 360 arc closepath fill
	2 copy moveto
	2 copy vpt 90 180 arc closepath fill
	vpt 0 360 arc closepath} bind def
/C11 {BL [] 0 setdash 2 copy moveto
	2 copy vpt 0 180 arc closepath fill
	2 copy moveto
	2 copy vpt 270 360 arc closepath fill
	vpt 0 360 arc closepath} bind def
/C12 {BL [] 0 setdash 2 copy moveto
	2 copy vpt 180 360 arc closepath fill
	vpt 0 360 arc closepath} bind def
/C13 {BL [] 0 setdash 2 copy moveto
	2 copy vpt 0 90 arc closepath fill
	2 copy moveto
	2 copy vpt 180 360 arc closepath fill
	vpt 0 360 arc closepath} bind def
/C14 {BL [] 0 setdash 2 copy moveto
	2 copy vpt 90 360 arc closepath fill
	vpt 0 360 arc} bind def
/C15 {BL [] 0 setdash 2 copy vpt 0 360 arc closepath fill
	vpt 0 360 arc closepath} bind def
/Rec {newpath 4 2 roll moveto 1 index 0 rlineto 0 exch rlineto
	neg 0 rlineto closepath} bind def
/Square {dup Rec} bind def
/Bsquare {vpt sub exch vpt sub exch vpt2 Square} bind def
/S0 {BL [] 0 setdash 2 copy moveto 0 vpt rlineto BL Bsquare} bind def
/S1 {BL [] 0 setdash 2 copy vpt Square fill Bsquare} bind def
/S2 {BL [] 0 setdash 2 copy exch vpt sub exch vpt Square fill Bsquare} bind def
/S3 {BL [] 0 setdash 2 copy exch vpt sub exch vpt2 vpt Rec fill Bsquare} bind def
/S4 {BL [] 0 setdash 2 copy exch vpt sub exch vpt sub vpt Square fill Bsquare} bind def
/S5 {BL [] 0 setdash 2 copy 2 copy vpt Square fill
	exch vpt sub exch vpt sub vpt Square fill Bsquare} bind def
/S6 {BL [] 0 setdash 2 copy exch vpt sub exch vpt sub vpt vpt2 Rec fill Bsquare} bind def
/S7 {BL [] 0 setdash 2 copy exch vpt sub exch vpt sub vpt vpt2 Rec fill
	2 copy vpt Square fill Bsquare} bind def
/S8 {BL [] 0 setdash 2 copy vpt sub vpt Square fill Bsquare} bind def
/S9 {BL [] 0 setdash 2 copy vpt sub vpt vpt2 Rec fill Bsquare} bind def
/S10 {BL [] 0 setdash 2 copy vpt sub vpt Square fill 2 copy exch vpt sub exch vpt Square fill
	Bsquare} bind def
/S11 {BL [] 0 setdash 2 copy vpt sub vpt Square fill 2 copy exch vpt sub exch vpt2 vpt Rec fill
	Bsquare} bind def
/S12 {BL [] 0 setdash 2 copy exch vpt sub exch vpt sub vpt2 vpt Rec fill Bsquare} bind def
/S13 {BL [] 0 setdash 2 copy exch vpt sub exch vpt sub vpt2 vpt Rec fill
	2 copy vpt Square fill Bsquare} bind def
/S14 {BL [] 0 setdash 2 copy exch vpt sub exch vpt sub vpt2 vpt Rec fill
	2 copy exch vpt sub exch vpt Square fill Bsquare} bind def
/S15 {BL [] 0 setdash 2 copy Bsquare fill Bsquare} bind def
/D0 {gsave translate 45 rotate 0 0 S0 stroke grestore} bind def
/D1 {gsave translate 45 rotate 0 0 S1 stroke grestore} bind def
/D2 {gsave translate 45 rotate 0 0 S2 stroke grestore} bind def
/D3 {gsave translate 45 rotate 0 0 S3 stroke grestore} bind def
/D4 {gsave translate 45 rotate 0 0 S4 stroke grestore} bind def
/D5 {gsave translate 45 rotate 0 0 S5 stroke grestore} bind def
/D6 {gsave translate 45 rotate 0 0 S6 stroke grestore} bind def
/D7 {gsave translate 45 rotate 0 0 S7 stroke grestore} bind def
/D8 {gsave translate 45 rotate 0 0 S8 stroke grestore} bind def
/D9 {gsave translate 45 rotate 0 0 S9 stroke grestore} bind def
/D10 {gsave translate 45 rotate 0 0 S10 stroke grestore} bind def
/D11 {gsave translate 45 rotate 0 0 S11 stroke grestore} bind def
/D12 {gsave translate 45 rotate 0 0 S12 stroke grestore} bind def
/D13 {gsave translate 45 rotate 0 0 S13 stroke grestore} bind def
/D14 {gsave translate 45 rotate 0 0 S14 stroke grestore} bind def
/D15 {gsave translate 45 rotate 0 0 S15 stroke grestore} bind def
/DiaE {stroke [] 0 setdash vpt add M
  hpt neg vpt neg V hpt vpt neg V
  hpt vpt V hpt neg vpt V closepath stroke} def
/BoxE {stroke [] 0 setdash exch hpt sub exch vpt add M
  0 vpt2 neg V hpt2 0 V 0 vpt2 V
  hpt2 neg 0 V closepath stroke} def
/TriUE {stroke [] 0 setdash vpt 1.12 mul add M
  hpt neg vpt -1.62 mul V
  hpt 2 mul 0 V
  hpt neg vpt 1.62 mul V closepath stroke} def
/TriDE {stroke [] 0 setdash vpt 1.12 mul sub M
  hpt neg vpt 1.62 mul V
  hpt 2 mul 0 V
  hpt neg vpt -1.62 mul V closepath stroke} def
/PentE {stroke [] 0 setdash gsave
  translate 0 hpt M 4 {72 rotate 0 hpt L} repeat
  closepath stroke grestore} def
/CircE {stroke [] 0 setdash 
  hpt 0 360 arc stroke} def
/Opaque {gsave closepath 1 setgray fill grestore 0 setgray closepath} def
/DiaW {stroke [] 0 setdash vpt add M
  hpt neg vpt neg V hpt vpt neg V
  hpt vpt V hpt neg vpt V Opaque stroke} def
/BoxW {stroke [] 0 setdash exch hpt sub exch vpt add M
  0 vpt2 neg V hpt2 0 V 0 vpt2 V
  hpt2 neg 0 V Opaque stroke} def
/TriUW {stroke [] 0 setdash vpt 1.12 mul add M
  hpt neg vpt -1.62 mul V
  hpt 2 mul 0 V
  hpt neg vpt 1.62 mul V Opaque stroke} def
/TriDW {stroke [] 0 setdash vpt 1.12 mul sub M
  hpt neg vpt 1.62 mul V
  hpt 2 mul 0 V
  hpt neg vpt -1.62 mul V Opaque stroke} def
/PentW {stroke [] 0 setdash gsave
  translate 0 hpt M 4 {72 rotate 0 hpt L} repeat
  Opaque stroke grestore} def
/CircW {stroke [] 0 setdash 
  hpt 0 360 arc Opaque stroke} def
/BoxFill {gsave Rec 1 setgray fill grestore} def
/Density {
  /Fillden exch def
  currentrgbcolor
  /ColB exch def /ColG exch def /ColR exch def
  /ColR ColR Fillden mul Fillden sub 1 add def
  /ColG ColG Fillden mul Fillden sub 1 add def
  /ColB ColB Fillden mul Fillden sub 1 add def
  ColR ColG ColB setrgbcolor} def
/BoxColFill {gsave Rec PolyFill} def
/PolyFill {gsave Density fill grestore grestore} def
/h {rlineto rlineto rlineto gsave closepath fill grestore} bind def
%
% PostScript Level 1 Pattern Fill routine for rectangles
% Usage: x y w h s a XX PatternFill
%	x,y = lower left corner of box to be filled
%	w,h = width and height of box
%	  a = angle in degrees between lines and x-axis
%	 XX = 0/1 for no/yes cross-hatch
%
/PatternFill {gsave /PFa [ 9 2 roll ] def
  PFa 0 get PFa 2 get 2 div add PFa 1 get PFa 3 get 2 div add translate
  PFa 2 get -2 div PFa 3 get -2 div PFa 2 get PFa 3 get Rec
  gsave 1 setgray fill grestore clip
  currentlinewidth 0.5 mul setlinewidth
  /PFs PFa 2 get dup mul PFa 3 get dup mul add sqrt def
  0 0 M PFa 5 get rotate PFs -2 div dup translate
  0 1 PFs PFa 4 get div 1 add floor cvi
	{PFa 4 get mul 0 M 0 PFs V} for
  0 PFa 6 get ne {
	0 1 PFs PFa 4 get div 1 add floor cvi
	{PFa 4 get mul 0 2 1 roll M PFs 0 V} for
 } if
  stroke grestore} def
%
/languagelevel where
 {pop languagelevel} {1} ifelse
 2 lt
	{/InterpretLevel1 true def}
	{/InterpretLevel1 Level1 def}
 ifelse
%
% PostScript level 2 pattern fill definitions
%
/Level2PatternFill {
/Tile8x8 {/PaintType 2 /PatternType 1 /TilingType 1 /BBox [0 0 8 8] /XStep 8 /YStep 8}
	bind def
/KeepColor {currentrgbcolor [/Pattern /DeviceRGB] setcolorspace} bind def
<< Tile8x8
 /PaintProc {0.5 setlinewidth pop 0 0 M 8 8 L 0 8 M 8 0 L stroke} 
>> matrix makepattern
/Pat1 exch def
<< Tile8x8
 /PaintProc {0.5 setlinewidth pop 0 0 M 8 8 L 0 8 M 8 0 L stroke
	0 4 M 4 8 L 8 4 L 4 0 L 0 4 L stroke}
>> matrix makepattern
/Pat2 exch def
<< Tile8x8
 /PaintProc {0.5 setlinewidth pop 0 0 M 0 8 L
	8 8 L 8 0 L 0 0 L fill}
>> matrix makepattern
/Pat3 exch def
<< Tile8x8
 /PaintProc {0.5 setlinewidth pop -4 8 M 8 -4 L
	0 12 M 12 0 L stroke}
>> matrix makepattern
/Pat4 exch def
<< Tile8x8
 /PaintProc {0.5 setlinewidth pop -4 0 M 8 12 L
	0 -4 M 12 8 L stroke}
>> matrix makepattern
/Pat5 exch def
<< Tile8x8
 /PaintProc {0.5 setlinewidth pop -2 8 M 4 -4 L
	0 12 M 8 -4 L 4 12 M 10 0 L stroke}
>> matrix makepattern
/Pat6 exch def
<< Tile8x8
 /PaintProc {0.5 setlinewidth pop -2 0 M 4 12 L
	0 -4 M 8 12 L 4 -4 M 10 8 L stroke}
>> matrix makepattern
/Pat7 exch def
<< Tile8x8
 /PaintProc {0.5 setlinewidth pop 8 -2 M -4 4 L
	12 0 M -4 8 L 12 4 M 0 10 L stroke}
>> matrix makepattern
/Pat8 exch def
<< Tile8x8
 /PaintProc {0.5 setlinewidth pop 0 -2 M 12 4 L
	-4 0 M 12 8 L -4 4 M 8 10 L stroke}
>> matrix makepattern
/Pat9 exch def
/Pattern1 {PatternBgnd KeepColor Pat1 setpattern} bind def
/Pattern2 {PatternBgnd KeepColor Pat2 setpattern} bind def
/Pattern3 {PatternBgnd KeepColor Pat3 setpattern} bind def
/Pattern4 {PatternBgnd KeepColor Landscape {Pat5} {Pat4} ifelse setpattern} bind def
/Pattern5 {PatternBgnd KeepColor Landscape {Pat4} {Pat5} ifelse setpattern} bind def
/Pattern6 {PatternBgnd KeepColor Landscape {Pat9} {Pat6} ifelse setpattern} bind def
/Pattern7 {PatternBgnd KeepColor Landscape {Pat8} {Pat7} ifelse setpattern} bind def
} def
%
%
%End of PostScript Level 2 code
%
/PatternBgnd {
  TransparentPatterns {} {gsave 1 setgray fill grestore} ifelse
} def
%
% Substitute for Level 2 pattern fill codes with
% grayscale if Level 2 support is not selected.
%
/Level1PatternFill {
/Pattern1 {0.250 Density} bind def
/Pattern2 {0.500 Density} bind def
/Pattern3 {0.750 Density} bind def
/Pattern4 {0.125 Density} bind def
/Pattern5 {0.375 Density} bind def
/Pattern6 {0.625 Density} bind def
/Pattern7 {0.875 Density} bind def
} def
%
% Now test for support of Level 2 code
%
Level1 {Level1PatternFill} {Level2PatternFill} ifelse
%
/Symbol-Oblique /Symbol findfont [1 0 .167 1 0 0] makefont
dup length dict begin {1 index /FID eq {pop pop} {def} ifelse} forall
currentdict end definefont pop
end
%%EndProlog
gnudict begin
gsave
doclip
50 50 translate
0.050 0.050 scale
0 setgray
newpath
(Helvetica) findfont 140 scalefont setfont
1.000 UL
LTb
770 448 M
63 0 V
6114 0 R
-63 0 V
686 448 M
( 0.45) Rshow
1.000 UL
LTb
770 1185 M
63 0 V
6114 0 R
-63 0 V
-6198 0 R
( 0.5) Rshow
1.000 UL
LTb
770 1922 M
63 0 V
6114 0 R
-63 0 V
-6198 0 R
( 0.55) Rshow
1.000 UL
LTb
770 2660 M
63 0 V
6114 0 R
-63 0 V
-6198 0 R
( 0.6) Rshow
1.000 UL
LTb
770 3397 M
63 0 V
6114 0 R
-63 0 V
-6198 0 R
( 0.65) Rshow
1.000 UL
LTb
770 4134 M
63 0 V
6114 0 R
-63 0 V
-6198 0 R
( 0.7) Rshow
1.000 UL
LTb
770 4871 M
63 0 V
6114 0 R
-63 0 V
-6198 0 R
( 0.75) Rshow
1.000 UL
LTb
770 448 M
0 63 V
0 4360 R
0 -63 V
770 308 M
( 0) Cshow
1.000 UL
LTb
1799 448 M
0 63 V
0 4360 R
0 -63 V
0 -4500 R
( 100) Cshow
1.000 UL
LTb
2829 448 M
0 63 V
0 4360 R
0 -63 V
0 -4500 R
( 200) Cshow
1.000 UL
LTb
3858 448 M
0 63 V
0 4360 R
0 -63 V
0 -4500 R
( 300) Cshow
1.000 UL
LTb
4888 448 M
0 63 V
0 4360 R
0 -63 V
0 -4500 R
( 400) Cshow
1.000 UL
LTb
5917 448 M
0 63 V
0 4360 R
0 -63 V
0 -4500 R
( 500) Cshow
1.000 UL
LTb
6947 448 M
0 63 V
0 4360 R
0 -63 V
0 -4500 R
( 600) Cshow
1.000 UL
LTb
1.000 UL
LTb
770 4871 N
770 448 L
6177 0 V
0 4423 V
-6177 0 V
Z stroke
LCb setrgbcolor
112 2659 M
currentpoint gsave translate -270 rotate 0 0 M
(Wins against Random Agent) Cshow
grestore
LTb
LCb setrgbcolor
3858 98 M
(Iteration \(16 training games each\)) Cshow
LTb
1.000 UP
1.000 UL
LTb
% Begin plot #1
1.000 UL
LT0
LCb setrgbcolor
6296 4738 M
(TD-minigammon) Rshow
LT0
6380 4738 M
399 0 V
770 1110 M
10 401 V
11 -186 V
801 989 L
10 116 V
10 -97 V
11 117 V
10 54 V
10 16 V
11 -111 V
10 -92 V
10 251 V
11 14 V
10 91 V
10 -55 V
10 -66 V
11 -45 V
10 20 V
10 49 V
11 -159 V
10 303 V
10 -155 V
10 174 V
11 -207 V
10 288 V
10 16 V
11 -133 V
10 284 V
10 175 V
11 297 V
10 -140 V
10 637 V
10 -136 V
11 447 V
10 -218 V
10 235 V
11 469 V
10 170 V
10 -3 V
11 179 V
10 52 V
10 -9 V
10 -83 V
11 41 V
10 -77 V
10 247 V
11 71 V
10 -170 V
10 148 V
10 -95 V
11 30 V
10 101 V
10 -73 V
11 3 V
10 -231 V
10 98 V
11 114 V
10 127 V
10 -65 V
10 -17 V
11 -67 V
10 35 V
10 -55 V
11 59 V
10 -86 V
10 -153 V
10 304 V
11 -82 V
10 95 V
10 -128 V
11 24 V
10 71 V
10 -23 V
11 30 V
10 45 V
10 -91 V
10 46 V
11 13 V
10 10 V
10 9 V
11 109 V
10 -141 V
10 -137 V
10 120 V
11 34 V
10 -37 V
10 17 V
11 32 V
10 43 V
10 -3 V
11 -29 V
10 -151 V
10 91 V
10 118 V
11 -295 V
10 322 V
10 -203 V
11 -30 V
10 -115 V
10 200 V
10 -82 V
11 154 V
10 -192 V
10 229 V
11 -51 V
10 56 V
10 -110 V
11 -33 V
stroke 1872 3958 M
10 58 V
10 -62 V
10 99 V
11 -27 V
10 177 V
10 -192 V
11 21 V
10 79 V
10 -64 V
11 -24 V
10 29 V
10 -95 V
10 160 V
11 -238 V
10 354 V
10 -167 V
11 -105 V
10 124 V
10 -56 V
10 86 V
11 -180 V
10 213 V
10 2 V
11 -170 V
10 49 V
10 -85 V
11 154 V
10 -148 V
10 115 V
10 50 V
11 -140 V
10 68 V
10 97 V
11 -123 V
10 91 V
10 3 V
10 -5 V
11 -50 V
10 23 V
10 -177 V
11 75 V
10 160 V
10 -75 V
11 -164 V
10 112 V
10 -17 V
10 -3 V
11 144 V
10 29 V
10 -81 V
11 134 V
10 -91 V
10 -230 V
10 53 V
11 138 V
10 62 V
10 -137 V
11 -23 V
10 163 V
10 48 V
11 -49 V
10 -100 V
10 6 V
10 180 V
11 -155 V
10 25 V
10 15 V
11 -71 V
10 126 V
10 -32 V
11 -63 V
10 76 V
10 -134 V
10 49 V
11 -13 V
10 -1 V
10 57 V
11 -7 V
10 -183 V
10 88 V
10 40 V
11 42 V
10 73 V
10 -50 V
11 6 V
10 17 V
10 -68 V
11 26 V
10 -155 V
10 65 V
10 -64 V
11 -36 V
10 137 V
10 68 V
11 -130 V
10 202 V
10 -136 V
10 69 V
11 -4 V
10 -88 V
10 62 V
11 36 V
10 -114 V
10 74 V
stroke 2942 4085 M
11 -32 V
10 38 V
10 119 V
10 -76 V
11 -135 V
10 4 V
10 -5 V
11 -71 V
10 146 V
10 -26 V
10 13 V
11 -72 V
10 157 V
10 -47 V
11 83 V
10 -69 V
10 38 V
11 11 V
10 17 V
10 -82 V
10 -43 V
11 7 V
10 -95 V
10 172 V
11 100 V
10 -390 V
10 352 V
11 187 V
10 -134 V
10 -124 V
10 20 V
11 52 V
10 -114 V
10 10 V
11 -85 V
10 157 V
10 -239 V
10 188 V
11 -31 V
10 -88 V
10 182 V
11 101 V
10 -185 V
10 -47 V
11 -40 V
10 17 V
10 -3 V
10 -13 V
11 36 V
10 66 V
10 -36 V
11 35 V
10 36 V
10 -176 V
10 30 V
11 8 V
10 135 V
10 19 V
11 13 V
10 -13 V
10 -29 V
11 50 V
10 -89 V
10 -50 V
10 24 V
11 -73 V
10 121 V
10 118 V
11 23 V
10 -98 V
10 -138 V
10 126 V
11 -139 V
10 66 V
10 -65 V
11 50 V
10 -34 V
10 -48 V
11 61 V
10 72 V
10 -92 V
10 -25 V
11 108 V
10 97 V
10 -117 V
11 0 V
10 -42 V
10 66 V
10 91 V
11 20 V
10 23 V
10 -77 V
11 -103 V
10 97 V
10 -55 V
11 171 V
10 -95 V
10 -116 V
10 106 V
11 10 V
10 -27 V
10 -39 V
11 19 V
10 -25 V
stroke 4013 4106 M
10 19 V
11 -49 V
10 92 V
10 -126 V
10 124 V
11 36 V
10 47 V
10 -33 V
11 -40 V
10 23 V
10 -38 V
10 -114 V
11 157 V
10 -134 V
10 25 V
11 47 V
10 -105 V
10 51 V
11 -90 V
10 133 V
10 -225 V
10 216 V
11 -99 V
10 -127 V
10 159 V
11 39 V
10 123 V
10 -26 V
10 0 V
11 -112 V
10 -19 V
10 176 V
11 30 V
10 -86 V
10 -148 V
11 -39 V
10 23 V
10 75 V
10 -64 V
11 140 V
10 -112 V
10 11 V
11 -98 V
10 255 V
10 -105 V
10 173 V
11 -327 V
10 24 V
10 67 V
11 -42 V
10 37 V
10 54 V
11 -23 V
10 100 V
10 -33 V
10 -92 V
11 -37 V
10 -107 V
10 259 V
11 0 V
10 51 V
10 -72 V
11 103 V
10 -10 V
10 -183 V
10 167 V
11 -262 V
10 71 V
10 -6 V
11 114 V
10 24 V
10 -50 V
10 -56 V
11 21 V
10 59 V
10 72 V
11 -41 V
10 -175 V
10 3 V
11 225 V
10 3 V
10 -110 V
10 -44 V
11 128 V
10 -68 V
10 100 V
11 54 V
10 -56 V
10 -93 V
10 66 V
11 -3 V
10 -35 V
10 -21 V
11 -49 V
10 98 V
10 62 V
11 -18 V
10 -1 V
10 -4 V
10 -91 V
11 122 V
10 -190 V
10 -23 V
11 97 V
stroke 5084 4150 M
10 14 V
10 -155 V
10 92 V
11 93 V
10 -72 V
10 -95 V
11 -160 V
10 131 V
10 123 V
11 -133 V
10 97 V
10 -48 V
10 98 V
11 -101 V
10 218 V
10 -108 V
11 -43 V
10 -20 V
10 -87 V
11 85 V
10 23 V
10 -7 V
10 154 V
11 -124 V
10 131 V
10 -171 V
11 76 V
10 -99 V
10 39 V
10 7 V
11 -91 V
10 15 V
10 85 V
11 184 V
10 11 V
10 -362 V
11 236 V
10 -35 V
10 186 V
10 -29 V
11 -187 V
10 -124 V
10 95 V
11 46 V
10 2 V
10 -107 V
10 72 V
11 22 V
10 20 V
10 -215 V
11 180 V
10 22 V
10 17 V
11 -101 V
10 127 V
10 33 V
10 -112 V
11 -33 V
10 92 V
10 23 V
11 -53 V
10 -28 V
10 49 V
10 26 V
11 -10 V
10 26 V
10 -66 V
11 83 V
10 -115 V
10 -60 V
11 -74 V
10 157 V
10 69 V
10 -43 V
11 120 V
10 -108 V
10 -48 V
11 -16 V
10 3 V
10 84 V
10 -216 V
11 178 V
10 200 V
10 -125 V
11 -9 V
10 51 V
10 -154 V
11 -9 V
10 48 V
10 -54 V
10 26 V
11 -92 V
10 0 V
10 22 V
11 52 V
10 92 V
10 -2 V
11 72 V
10 -108 V
10 -118 V
10 -14 V
11 132 V
10 91 V
10 -215 V
stroke 6154 4024 M
11 -70 V
10 269 V
10 -26 V
10 -115 V
11 48 V
10 -239 V
10 -36 V
11 190 V
10 27 V
10 -2 V
11 51 V
10 95 V
10 -38 V
10 78 V
11 -213 V
10 -50 V
10 54 V
11 -82 V
10 337 V
10 29 V
10 -47 V
11 -143 V
10 130 V
10 -159 V
11 81 V
10 -123 V
10 77 V
11 14 V
10 -44 V
10 -119 V
10 169 V
11 -43 V
10 -74 V
10 105 V
11 -180 V
10 103 V
10 112 V
10 -82 V
11 -48 V
10 -7 V
10 56 V
11 64 V
10 -39 V
10 -87 V
11 179 V
10 -192 V
10 31 V
10 1 V
11 153 V
10 -110 V
10 45 V
11 -108 V
10 -124 V
10 353 V
11 65 V
10 -290 V
10 9 V
10 -17 V
11 21 V
10 187 V
10 -177 V
11 49 V
10 -41 V
10 61 V
10 -135 V
11 38 V
10 296 V
10 -259 V
11 138 V
10 -33 V
10 -60 V
11 -36 V
10 126 V
10 8 V
10 -77 V
11 113 V
% End plot #1
stroke
LTb
770 4871 N
770 448 L
6177 0 V
0 4423 V
-6177 0 V
Z stroke
1.000 UP
1.000 UL
LTb
stroke
grestore
end
showpage
%%Trailer
%%DocumentFonts: Helvetica
