%!PS-Adobe-2.0 EPSF-2.0
%%Title: ../plots/td/td-nannon-offset.eps
%%Creator: gnuplot 4.4 patchlevel 3
%%CreationDate: Wed Dec 14 06:44:02 2011
%%DocumentFonts: (atend)
%%BoundingBox: 50 50 410 302
%%EndComments
%%BeginProlog
/gnudict 256 dict def
gnudict begin
%
% The following true/false flags may be edited by hand if desired.
% The unit line width and grayscale image gamma correction may also be changed.
%
/Color true def
/Blacktext false def
/Solid false def
/Dashlength 1 def
/Landscape false def
/Level1 false def
/Rounded false def
/ClipToBoundingBox false def
/TransparentPatterns false def
/gnulinewidth 5.000 def
/userlinewidth gnulinewidth def
/Gamma 1.0 def
%
/vshift -46 def
/dl1 {
  10.0 Dashlength mul mul
  Rounded { currentlinewidth 0.75 mul sub dup 0 le { pop 0.01 } if } if
} def
/dl2 {
  10.0 Dashlength mul mul
  Rounded { currentlinewidth 0.75 mul add } if
} def
/hpt_ 31.5 def
/vpt_ 31.5 def
/hpt hpt_ def
/vpt vpt_ def
Level1 {} {
/SDict 10 dict def
systemdict /pdfmark known not {
  userdict /pdfmark systemdict /cleartomark get put
} if
SDict begin [
  /Title (../plots/td/td-nannon-offset.eps)
  /Subject (gnuplot plot)
  /Creator (gnuplot 4.4 patchlevel 3)
  /Author (reza)
%  /Producer (gnuplot)
%  /Keywords ()
  /CreationDate (Wed Dec 14 06:44:02 2011)
  /DOCINFO pdfmark
end
} ifelse
/doclip {
  ClipToBoundingBox {
    newpath 50 50 moveto 410 50 lineto 410 302 lineto 50 302 lineto closepath
    clip
  } if
} def
%
% Gnuplot Prolog Version 4.4 (August 2010)
%
%/SuppressPDFMark true def
%
/M {moveto} bind def
/L {lineto} bind def
/R {rmoveto} bind def
/V {rlineto} bind def
/N {newpath moveto} bind def
/Z {closepath} bind def
/C {setrgbcolor} bind def
/f {rlineto fill} bind def
/g {setgray} bind def
/Gshow {show} def   % May be redefined later in the file to support UTF-8
/vpt2 vpt 2 mul def
/hpt2 hpt 2 mul def
/Lshow {currentpoint stroke M 0 vshift R 
	Blacktext {gsave 0 setgray show grestore} {show} ifelse} def
/Rshow {currentpoint stroke M dup stringwidth pop neg vshift R
	Blacktext {gsave 0 setgray show grestore} {show} ifelse} def
/Cshow {currentpoint stroke M dup stringwidth pop -2 div vshift R 
	Blacktext {gsave 0 setgray show grestore} {show} ifelse} def
/UP {dup vpt_ mul /vpt exch def hpt_ mul /hpt exch def
  /hpt2 hpt 2 mul def /vpt2 vpt 2 mul def} def
/DL {Color {setrgbcolor Solid {pop []} if 0 setdash}
 {pop pop pop 0 setgray Solid {pop []} if 0 setdash} ifelse} def
/BL {stroke userlinewidth 2 mul setlinewidth
	Rounded {1 setlinejoin 1 setlinecap} if} def
/AL {stroke userlinewidth 2 div setlinewidth
	Rounded {1 setlinejoin 1 setlinecap} if} def
/UL {dup gnulinewidth mul /userlinewidth exch def
	dup 1 lt {pop 1} if 10 mul /udl exch def} def
/PL {stroke userlinewidth setlinewidth
	Rounded {1 setlinejoin 1 setlinecap} if} def
3.8 setmiterlimit
% Default Line colors
/LCw {1 1 1} def
/LCb {0 0 0} def
/LCa {0 0 0} def
/LC0 {1 0 0} def
/LC1 {0 1 0} def
/LC2 {0 0 1} def
/LC3 {1 0 1} def
/LC4 {0 1 1} def
/LC5 {1 1 0} def
/LC6 {0 0 0} def
/LC7 {1 0.3 0} def
/LC8 {0.5 0.5 0.5} def
% Default Line Types
/LTw {PL [] 1 setgray} def
/LTb {BL [] LCb DL} def
/LTa {AL [1 udl mul 2 udl mul] 0 setdash LCa setrgbcolor} def
/LT0 {PL [] LC0 DL} def
/LT1 {PL [4 dl1 2 dl2] LC1 DL} def
/LT2 {PL [2 dl1 3 dl2] LC2 DL} def
/LT3 {PL [1 dl1 1.5 dl2] LC3 DL} def
/LT4 {PL [6 dl1 2 dl2 1 dl1 2 dl2] LC4 DL} def
/LT5 {PL [3 dl1 3 dl2 1 dl1 3 dl2] LC5 DL} def
/LT6 {PL [2 dl1 2 dl2 2 dl1 6 dl2] LC6 DL} def
/LT7 {PL [1 dl1 2 dl2 6 dl1 2 dl2 1 dl1 2 dl2] LC7 DL} def
/LT8 {PL [2 dl1 2 dl2 2 dl1 2 dl2 2 dl1 2 dl2 2 dl1 4 dl2] LC8 DL} def
/Pnt {stroke [] 0 setdash gsave 1 setlinecap M 0 0 V stroke grestore} def
/Dia {stroke [] 0 setdash 2 copy vpt add M
  hpt neg vpt neg V hpt vpt neg V
  hpt vpt V hpt neg vpt V closepath stroke
  Pnt} def
/Pls {stroke [] 0 setdash vpt sub M 0 vpt2 V
  currentpoint stroke M
  hpt neg vpt neg R hpt2 0 V stroke
 } def
/Box {stroke [] 0 setdash 2 copy exch hpt sub exch vpt add M
  0 vpt2 neg V hpt2 0 V 0 vpt2 V
  hpt2 neg 0 V closepath stroke
  Pnt} def
/Crs {stroke [] 0 setdash exch hpt sub exch vpt add M
  hpt2 vpt2 neg V currentpoint stroke M
  hpt2 neg 0 R hpt2 vpt2 V stroke} def
/TriU {stroke [] 0 setdash 2 copy vpt 1.12 mul add M
  hpt neg vpt -1.62 mul V
  hpt 2 mul 0 V
  hpt neg vpt 1.62 mul V closepath stroke
  Pnt} def
/Star {2 copy Pls Crs} def
/BoxF {stroke [] 0 setdash exch hpt sub exch vpt add M
  0 vpt2 neg V hpt2 0 V 0 vpt2 V
  hpt2 neg 0 V closepath fill} def
/TriUF {stroke [] 0 setdash vpt 1.12 mul add M
  hpt neg vpt -1.62 mul V
  hpt 2 mul 0 V
  hpt neg vpt 1.62 mul V closepath fill} def
/TriD {stroke [] 0 setdash 2 copy vpt 1.12 mul sub M
  hpt neg vpt 1.62 mul V
  hpt 2 mul 0 V
  hpt neg vpt -1.62 mul V closepath stroke
  Pnt} def
/TriDF {stroke [] 0 setdash vpt 1.12 mul sub M
  hpt neg vpt 1.62 mul V
  hpt 2 mul 0 V
  hpt neg vpt -1.62 mul V closepath fill} def
/DiaF {stroke [] 0 setdash vpt add M
  hpt neg vpt neg V hpt vpt neg V
  hpt vpt V hpt neg vpt V closepath fill} def
/Pent {stroke [] 0 setdash 2 copy gsave
  translate 0 hpt M 4 {72 rotate 0 hpt L} repeat
  closepath stroke grestore Pnt} def
/PentF {stroke [] 0 setdash gsave
  translate 0 hpt M 4 {72 rotate 0 hpt L} repeat
  closepath fill grestore} def
/Circle {stroke [] 0 setdash 2 copy
  hpt 0 360 arc stroke Pnt} def
/CircleF {stroke [] 0 setdash hpt 0 360 arc fill} def
/C0 {BL [] 0 setdash 2 copy moveto vpt 90 450 arc} bind def
/C1 {BL [] 0 setdash 2 copy moveto
	2 copy vpt 0 90 arc closepath fill
	vpt 0 360 arc closepath} bind def
/C2 {BL [] 0 setdash 2 copy moveto
	2 copy vpt 90 180 arc closepath fill
	vpt 0 360 arc closepath} bind def
/C3 {BL [] 0 setdash 2 copy moveto
	2 copy vpt 0 180 arc closepath fill
	vpt 0 360 arc closepath} bind def
/C4 {BL [] 0 setdash 2 copy moveto
	2 copy vpt 180 270 arc closepath fill
	vpt 0 360 arc closepath} bind def
/C5 {BL [] 0 setdash 2 copy moveto
	2 copy vpt 0 90 arc
	2 copy moveto
	2 copy vpt 180 270 arc closepath fill
	vpt 0 360 arc} bind def
/C6 {BL [] 0 setdash 2 copy moveto
	2 copy vpt 90 270 arc closepath fill
	vpt 0 360 arc closepath} bind def
/C7 {BL [] 0 setdash 2 copy moveto
	2 copy vpt 0 270 arc closepath fill
	vpt 0 360 arc closepath} bind def
/C8 {BL [] 0 setdash 2 copy moveto
	2 copy vpt 270 360 arc closepath fill
	vpt 0 360 arc closepath} bind def
/C9 {BL [] 0 setdash 2 copy moveto
	2 copy vpt 270 450 arc closepath fill
	vpt 0 360 arc closepath} bind def
/C10 {BL [] 0 setdash 2 copy 2 copy moveto vpt 270 360 arc closepath fill
	2 copy moveto
	2 copy vpt 90 180 arc closepath fill
	vpt 0 360 arc closepath} bind def
/C11 {BL [] 0 setdash 2 copy moveto
	2 copy vpt 0 180 arc closepath fill
	2 copy moveto
	2 copy vpt 270 360 arc closepath fill
	vpt 0 360 arc closepath} bind def
/C12 {BL [] 0 setdash 2 copy moveto
	2 copy vpt 180 360 arc closepath fill
	vpt 0 360 arc closepath} bind def
/C13 {BL [] 0 setdash 2 copy moveto
	2 copy vpt 0 90 arc closepath fill
	2 copy moveto
	2 copy vpt 180 360 arc closepath fill
	vpt 0 360 arc closepath} bind def
/C14 {BL [] 0 setdash 2 copy moveto
	2 copy vpt 90 360 arc closepath fill
	vpt 0 360 arc} bind def
/C15 {BL [] 0 setdash 2 copy vpt 0 360 arc closepath fill
	vpt 0 360 arc closepath} bind def
/Rec {newpath 4 2 roll moveto 1 index 0 rlineto 0 exch rlineto
	neg 0 rlineto closepath} bind def
/Square {dup Rec} bind def
/Bsquare {vpt sub exch vpt sub exch vpt2 Square} bind def
/S0 {BL [] 0 setdash 2 copy moveto 0 vpt rlineto BL Bsquare} bind def
/S1 {BL [] 0 setdash 2 copy vpt Square fill Bsquare} bind def
/S2 {BL [] 0 setdash 2 copy exch vpt sub exch vpt Square fill Bsquare} bind def
/S3 {BL [] 0 setdash 2 copy exch vpt sub exch vpt2 vpt Rec fill Bsquare} bind def
/S4 {BL [] 0 setdash 2 copy exch vpt sub exch vpt sub vpt Square fill Bsquare} bind def
/S5 {BL [] 0 setdash 2 copy 2 copy vpt Square fill
	exch vpt sub exch vpt sub vpt Square fill Bsquare} bind def
/S6 {BL [] 0 setdash 2 copy exch vpt sub exch vpt sub vpt vpt2 Rec fill Bsquare} bind def
/S7 {BL [] 0 setdash 2 copy exch vpt sub exch vpt sub vpt vpt2 Rec fill
	2 copy vpt Square fill Bsquare} bind def
/S8 {BL [] 0 setdash 2 copy vpt sub vpt Square fill Bsquare} bind def
/S9 {BL [] 0 setdash 2 copy vpt sub vpt vpt2 Rec fill Bsquare} bind def
/S10 {BL [] 0 setdash 2 copy vpt sub vpt Square fill 2 copy exch vpt sub exch vpt Square fill
	Bsquare} bind def
/S11 {BL [] 0 setdash 2 copy vpt sub vpt Square fill 2 copy exch vpt sub exch vpt2 vpt Rec fill
	Bsquare} bind def
/S12 {BL [] 0 setdash 2 copy exch vpt sub exch vpt sub vpt2 vpt Rec fill Bsquare} bind def
/S13 {BL [] 0 setdash 2 copy exch vpt sub exch vpt sub vpt2 vpt Rec fill
	2 copy vpt Square fill Bsquare} bind def
/S14 {BL [] 0 setdash 2 copy exch vpt sub exch vpt sub vpt2 vpt Rec fill
	2 copy exch vpt sub exch vpt Square fill Bsquare} bind def
/S15 {BL [] 0 setdash 2 copy Bsquare fill Bsquare} bind def
/D0 {gsave translate 45 rotate 0 0 S0 stroke grestore} bind def
/D1 {gsave translate 45 rotate 0 0 S1 stroke grestore} bind def
/D2 {gsave translate 45 rotate 0 0 S2 stroke grestore} bind def
/D3 {gsave translate 45 rotate 0 0 S3 stroke grestore} bind def
/D4 {gsave translate 45 rotate 0 0 S4 stroke grestore} bind def
/D5 {gsave translate 45 rotate 0 0 S5 stroke grestore} bind def
/D6 {gsave translate 45 rotate 0 0 S6 stroke grestore} bind def
/D7 {gsave translate 45 rotate 0 0 S7 stroke grestore} bind def
/D8 {gsave translate 45 rotate 0 0 S8 stroke grestore} bind def
/D9 {gsave translate 45 rotate 0 0 S9 stroke grestore} bind def
/D10 {gsave translate 45 rotate 0 0 S10 stroke grestore} bind def
/D11 {gsave translate 45 rotate 0 0 S11 stroke grestore} bind def
/D12 {gsave translate 45 rotate 0 0 S12 stroke grestore} bind def
/D13 {gsave translate 45 rotate 0 0 S13 stroke grestore} bind def
/D14 {gsave translate 45 rotate 0 0 S14 stroke grestore} bind def
/D15 {gsave translate 45 rotate 0 0 S15 stroke grestore} bind def
/DiaE {stroke [] 0 setdash vpt add M
  hpt neg vpt neg V hpt vpt neg V
  hpt vpt V hpt neg vpt V closepath stroke} def
/BoxE {stroke [] 0 setdash exch hpt sub exch vpt add M
  0 vpt2 neg V hpt2 0 V 0 vpt2 V
  hpt2 neg 0 V closepath stroke} def
/TriUE {stroke [] 0 setdash vpt 1.12 mul add M
  hpt neg vpt -1.62 mul V
  hpt 2 mul 0 V
  hpt neg vpt 1.62 mul V closepath stroke} def
/TriDE {stroke [] 0 setdash vpt 1.12 mul sub M
  hpt neg vpt 1.62 mul V
  hpt 2 mul 0 V
  hpt neg vpt -1.62 mul V closepath stroke} def
/PentE {stroke [] 0 setdash gsave
  translate 0 hpt M 4 {72 rotate 0 hpt L} repeat
  closepath stroke grestore} def
/CircE {stroke [] 0 setdash 
  hpt 0 360 arc stroke} def
/Opaque {gsave closepath 1 setgray fill grestore 0 setgray closepath} def
/DiaW {stroke [] 0 setdash vpt add M
  hpt neg vpt neg V hpt vpt neg V
  hpt vpt V hpt neg vpt V Opaque stroke} def
/BoxW {stroke [] 0 setdash exch hpt sub exch vpt add M
  0 vpt2 neg V hpt2 0 V 0 vpt2 V
  hpt2 neg 0 V Opaque stroke} def
/TriUW {stroke [] 0 setdash vpt 1.12 mul add M
  hpt neg vpt -1.62 mul V
  hpt 2 mul 0 V
  hpt neg vpt 1.62 mul V Opaque stroke} def
/TriDW {stroke [] 0 setdash vpt 1.12 mul sub M
  hpt neg vpt 1.62 mul V
  hpt 2 mul 0 V
  hpt neg vpt -1.62 mul V Opaque stroke} def
/PentW {stroke [] 0 setdash gsave
  translate 0 hpt M 4 {72 rotate 0 hpt L} repeat
  Opaque stroke grestore} def
/CircW {stroke [] 0 setdash 
  hpt 0 360 arc Opaque stroke} def
/BoxFill {gsave Rec 1 setgray fill grestore} def
/Density {
  /Fillden exch def
  currentrgbcolor
  /ColB exch def /ColG exch def /ColR exch def
  /ColR ColR Fillden mul Fillden sub 1 add def
  /ColG ColG Fillden mul Fillden sub 1 add def
  /ColB ColB Fillden mul Fillden sub 1 add def
  ColR ColG ColB setrgbcolor} def
/BoxColFill {gsave Rec PolyFill} def
/PolyFill {gsave Density fill grestore grestore} def
/h {rlineto rlineto rlineto gsave closepath fill grestore} bind def
%
% PostScript Level 1 Pattern Fill routine for rectangles
% Usage: x y w h s a XX PatternFill
%	x,y = lower left corner of box to be filled
%	w,h = width and height of box
%	  a = angle in degrees between lines and x-axis
%	 XX = 0/1 for no/yes cross-hatch
%
/PatternFill {gsave /PFa [ 9 2 roll ] def
  PFa 0 get PFa 2 get 2 div add PFa 1 get PFa 3 get 2 div add translate
  PFa 2 get -2 div PFa 3 get -2 div PFa 2 get PFa 3 get Rec
  gsave 1 setgray fill grestore clip
  currentlinewidth 0.5 mul setlinewidth
  /PFs PFa 2 get dup mul PFa 3 get dup mul add sqrt def
  0 0 M PFa 5 get rotate PFs -2 div dup translate
  0 1 PFs PFa 4 get div 1 add floor cvi
	{PFa 4 get mul 0 M 0 PFs V} for
  0 PFa 6 get ne {
	0 1 PFs PFa 4 get div 1 add floor cvi
	{PFa 4 get mul 0 2 1 roll M PFs 0 V} for
 } if
  stroke grestore} def
%
/languagelevel where
 {pop languagelevel} {1} ifelse
 2 lt
	{/InterpretLevel1 true def}
	{/InterpretLevel1 Level1 def}
 ifelse
%
% PostScript level 2 pattern fill definitions
%
/Level2PatternFill {
/Tile8x8 {/PaintType 2 /PatternType 1 /TilingType 1 /BBox [0 0 8 8] /XStep 8 /YStep 8}
	bind def
/KeepColor {currentrgbcolor [/Pattern /DeviceRGB] setcolorspace} bind def
<< Tile8x8
 /PaintProc {0.5 setlinewidth pop 0 0 M 8 8 L 0 8 M 8 0 L stroke} 
>> matrix makepattern
/Pat1 exch def
<< Tile8x8
 /PaintProc {0.5 setlinewidth pop 0 0 M 8 8 L 0 8 M 8 0 L stroke
	0 4 M 4 8 L 8 4 L 4 0 L 0 4 L stroke}
>> matrix makepattern
/Pat2 exch def
<< Tile8x8
 /PaintProc {0.5 setlinewidth pop 0 0 M 0 8 L
	8 8 L 8 0 L 0 0 L fill}
>> matrix makepattern
/Pat3 exch def
<< Tile8x8
 /PaintProc {0.5 setlinewidth pop -4 8 M 8 -4 L
	0 12 M 12 0 L stroke}
>> matrix makepattern
/Pat4 exch def
<< Tile8x8
 /PaintProc {0.5 setlinewidth pop -4 0 M 8 12 L
	0 -4 M 12 8 L stroke}
>> matrix makepattern
/Pat5 exch def
<< Tile8x8
 /PaintProc {0.5 setlinewidth pop -2 8 M 4 -4 L
	0 12 M 8 -4 L 4 12 M 10 0 L stroke}
>> matrix makepattern
/Pat6 exch def
<< Tile8x8
 /PaintProc {0.5 setlinewidth pop -2 0 M 4 12 L
	0 -4 M 8 12 L 4 -4 M 10 8 L stroke}
>> matrix makepattern
/Pat7 exch def
<< Tile8x8
 /PaintProc {0.5 setlinewidth pop 8 -2 M -4 4 L
	12 0 M -4 8 L 12 4 M 0 10 L stroke}
>> matrix makepattern
/Pat8 exch def
<< Tile8x8
 /PaintProc {0.5 setlinewidth pop 0 -2 M 12 4 L
	-4 0 M 12 8 L -4 4 M 8 10 L stroke}
>> matrix makepattern
/Pat9 exch def
/Pattern1 {PatternBgnd KeepColor Pat1 setpattern} bind def
/Pattern2 {PatternBgnd KeepColor Pat2 setpattern} bind def
/Pattern3 {PatternBgnd KeepColor Pat3 setpattern} bind def
/Pattern4 {PatternBgnd KeepColor Landscape {Pat5} {Pat4} ifelse setpattern} bind def
/Pattern5 {PatternBgnd KeepColor Landscape {Pat4} {Pat5} ifelse setpattern} bind def
/Pattern6 {PatternBgnd KeepColor Landscape {Pat9} {Pat6} ifelse setpattern} bind def
/Pattern7 {PatternBgnd KeepColor Landscape {Pat8} {Pat7} ifelse setpattern} bind def
} def
%
%
%End of PostScript Level 2 code
%
/PatternBgnd {
  TransparentPatterns {} {gsave 1 setgray fill grestore} ifelse
} def
%
% Substitute for Level 2 pattern fill codes with
% grayscale if Level 2 support is not selected.
%
/Level1PatternFill {
/Pattern1 {0.250 Density} bind def
/Pattern2 {0.500 Density} bind def
/Pattern3 {0.750 Density} bind def
/Pattern4 {0.125 Density} bind def
/Pattern5 {0.375 Density} bind def
/Pattern6 {0.625 Density} bind def
/Pattern7 {0.875 Density} bind def
} def
%
% Now test for support of Level 2 code
%
Level1 {Level1PatternFill} {Level2PatternFill} ifelse
%
/Symbol-Oblique /Symbol findfont [1 0 .167 1 0 0] makefont
dup length dict begin {1 index /FID eq {pop pop} {def} ifelse} forall
currentdict end definefont pop
end
%%EndProlog
gnudict begin
gsave
doclip
50 50 translate
0.050 0.050 scale
0 setgray
newpath
(Helvetica) findfont 140 scalefont setfont
1.000 UL
LTb
770 448 M
63 0 V
6114 0 R
-63 0 V
686 448 M
( 0.46) Rshow
1.000 UL
LTb
770 850 M
63 0 V
6114 0 R
-63 0 V
686 850 M
( 0.48) Rshow
1.000 UL
LTb
770 1252 M
63 0 V
6114 0 R
-63 0 V
-6198 0 R
( 0.5) Rshow
1.000 UL
LTb
770 1654 M
63 0 V
6114 0 R
-63 0 V
-6198 0 R
( 0.52) Rshow
1.000 UL
LTb
770 2056 M
63 0 V
6114 0 R
-63 0 V
-6198 0 R
( 0.54) Rshow
1.000 UL
LTb
770 2458 M
63 0 V
6114 0 R
-63 0 V
-6198 0 R
( 0.56) Rshow
1.000 UL
LTb
770 2861 M
63 0 V
6114 0 R
-63 0 V
-6198 0 R
( 0.58) Rshow
1.000 UL
LTb
770 3263 M
63 0 V
6114 0 R
-63 0 V
-6198 0 R
( 0.6) Rshow
1.000 UL
LTb
770 3665 M
63 0 V
6114 0 R
-63 0 V
-6198 0 R
( 0.62) Rshow
1.000 UL
LTb
770 4067 M
63 0 V
6114 0 R
-63 0 V
-6198 0 R
( 0.64) Rshow
1.000 UL
LTb
770 4469 M
63 0 V
6114 0 R
-63 0 V
-6198 0 R
( 0.66) Rshow
1.000 UL
LTb
770 4871 M
63 0 V
6114 0 R
-63 0 V
-6198 0 R
( 0.68) Rshow
1.000 UL
LTb
770 448 M
0 63 V
0 4360 R
0 -63 V
770 308 M
( 0) Cshow
1.000 UL
LTb
1799 448 M
0 63 V
0 4360 R
0 -63 V
0 -4500 R
( 100) Cshow
1.000 UL
LTb
2829 448 M
0 63 V
0 4360 R
0 -63 V
0 -4500 R
( 200) Cshow
1.000 UL
LTb
3858 448 M
0 63 V
0 4360 R
0 -63 V
0 -4500 R
( 300) Cshow
1.000 UL
LTb
4888 448 M
0 63 V
0 4360 R
0 -63 V
0 -4500 R
( 400) Cshow
1.000 UL
LTb
5917 448 M
0 63 V
0 4360 R
0 -63 V
0 -4500 R
( 500) Cshow
1.000 UL
LTb
6947 448 M
0 63 V
0 4360 R
0 -63 V
0 -4500 R
( 600) Cshow
1.000 UL
LTb
1.000 UL
LTb
770 4871 N
770 448 L
6177 0 V
0 4423 V
-6177 0 V
Z stroke
LCb setrgbcolor
112 2659 M
currentpoint gsave translate -270 rotate 0 0 M
(Wins against Random Agent) Cshow
grestore
LTb
LCb setrgbcolor
3858 98 M
(Iteration \(16 training games each\)) Cshow
LTb
1.000 UP
1.000 UL
LTb
% Begin plot #1
1.000 UL
LT0
LCb setrgbcolor
6296 4738 M
(Offset = 0) Rshow
LT0
6380 4738 M
399 0 V
770 969 M
780 720 L
11 328 V
10 -29 V
10 229 V
10 45 V
11 -119 V
10 188 V
10 -10 V
11 55 V
10 -65 V
10 -74 V
11 -204 V
10 241 V
10 195 V
10 131 V
11 -312 V
10 141 V
10 -176 V
11 80 V
10 -90 V
10 31 V
10 73 V
11 67 V
10 47 V
10 -98 V
11 137 V
10 -141 V
10 29 V
11 -61 V
10 175 V
10 -92 V
10 -152 V
11 156 V
10 302 V
10 -564 V
11 405 V
10 -30 V
10 -217 V
11 274 V
10 -55 V
10 -31 V
10 -22 V
11 260 V
10 -8 V
10 -281 V
11 269 V
10 -10 V
10 373 V
10 -133 V
11 -126 V
10 253 V
10 -17 V
11 292 V
10 -37 V
10 27 V
11 -190 V
10 -28 V
10 322 V
10 59 V
11 -127 V
10 275 V
10 -152 V
11 -229 V
10 -16 V
10 320 V
10 -224 V
11 269 V
10 102 V
10 -65 V
11 -29 V
10 73 V
10 -116 V
11 100 V
10 226 V
10 -128 V
10 26 V
11 104 V
10 161 V
10 -81 V
11 140 V
10 141 V
10 -340 V
10 328 V
11 -149 V
10 116 V
10 65 V
11 39 V
10 -354 V
10 301 V
11 -98 V
10 435 V
10 -247 V
10 104 V
11 204 V
10 -261 V
10 81 V
11 188 V
10 34 V
10 60 V
10 -229 V
11 120 V
10 227 V
10 -65 V
11 -29 V
10 -167 V
stroke 1851 3665 M
10 136 V
11 94 V
10 -47 V
10 33 V
10 218 V
11 -336 V
10 -110 V
10 385 V
11 -314 V
10 8 V
10 239 V
11 -94 V
10 35 V
10 -84 V
10 -265 V
11 94 V
10 51 V
10 291 V
11 -222 V
10 251 V
10 -68 V
10 -91 V
11 -104 V
10 147 V
10 -145 V
11 43 V
10 104 V
10 -259 V
11 197 V
10 90 V
10 33 V
10 -161 V
11 -143 V
10 363 V
10 -135 V
11 -41 V
10 109 V
10 -227 V
10 151 V
11 88 V
10 214 V
10 -102 V
11 -190 V
10 333 V
10 -390 V
11 186 V
10 61 V
10 -186 V
10 -171 V
11 151 V
10 414 V
10 -23 V
11 -232 V
10 187 V
10 -34 V
10 -233 V
11 149 V
10 -112 V
10 192 V
11 16 V
10 -47 V
10 -208 V
11 -8 V
10 171 V
10 -4 V
10 -114 V
11 206 V
10 -185 V
10 -7 V
11 245 V
10 -247 V
10 -126 V
11 -88 V
10 235 V
10 0 V
10 8 V
11 -23 V
10 182 V
10 -98 V
11 271 V
10 -255 V
10 -136 V
10 -12 V
11 287 V
10 -204 V
10 114 V
11 169 V
10 -85 V
10 -290 V
11 78 V
10 14 V
10 237 V
10 2 V
11 -45 V
10 187 V
10 -377 V
11 17 V
10 -182 V
10 261 V
10 -145 V
11 55 V
10 -73 V
10 59 V
11 -116 V
stroke 2922 3932 M
10 224 V
10 -108 V
11 -79 V
10 185 V
10 -8 V
10 -355 V
11 139 V
10 112 V
10 -112 V
11 112 V
10 35 V
10 4 V
10 -41 V
11 83 V
10 137 V
10 -141 V
11 64 V
10 -123 V
10 0 V
11 125 V
10 93 V
10 -169 V
10 -104 V
11 -8 V
10 294 V
10 -194 V
11 -157 V
10 -31 V
10 -126 V
11 110 V
10 192 V
10 -39 V
10 106 V
11 96 V
10 -200 V
10 141 V
11 -21 V
10 -89 V
10 -4 V
10 10 V
11 -149 V
10 -82 V
10 80 V
11 426 V
10 -186 V
10 147 V
11 -102 V
10 -51 V
10 78 V
10 -72 V
11 17 V
10 -159 V
10 -31 V
11 326 V
10 -314 V
10 78 V
10 30 V
11 135 V
10 -35 V
10 -403 V
11 505 V
10 -246 V
10 124 V
11 -114 V
10 32 V
10 -224 V
10 171 V
11 49 V
10 -244 V
10 -17 V
11 123 V
10 -59 V
10 269 V
10 122 V
11 -69 V
10 42 V
10 -71 V
11 -94 V
10 225 V
10 -286 V
11 102 V
10 86 V
10 -169 V
10 158 V
11 -161 V
10 -67 V
10 153 V
11 114 V
10 -310 V
10 302 V
10 -112 V
11 39 V
10 -135 V
10 220 V
11 -424 V
10 322 V
10 -22 V
11 -75 V
10 91 V
10 222 V
10 37 V
11 -212 V
10 -41 V
10 -250 V
stroke 3992 3924 M
11 324 V
10 16 V
10 -67 V
11 202 V
10 34 V
10 -371 V
10 267 V
11 -256 V
10 75 V
10 181 V
11 135 V
10 -355 V
10 -16 V
10 218 V
11 -71 V
10 187 V
10 69 V
11 -474 V
10 77 V
10 -57 V
11 53 V
10 143 V
10 -88 V
10 49 V
11 -192 V
10 202 V
10 41 V
11 173 V
10 -336 V
10 136 V
10 -122 V
11 -206 V
10 135 V
10 -21 V
11 118 V
10 -95 V
10 159 V
11 140 V
10 -218 V
10 92 V
10 102 V
11 -71 V
10 -198 V
10 259 V
11 -63 V
10 -68 V
10 -281 V
10 236 V
11 -20 V
10 22 V
10 49 V
11 80 V
10 -67 V
10 -53 V
11 -92 V
10 -108 V
10 -102 V
10 167 V
11 296 V
10 65 V
10 -86 V
11 -202 V
10 90 V
10 67 V
11 -189 V
10 4 V
10 108 V
10 -55 V
11 149 V
10 69 V
10 -22 V
11 -164 V
10 345 V
10 -410 V
10 277 V
11 -283 V
10 -20 V
10 140 V
11 4 V
10 -209 V
10 -178 V
11 375 V
10 -110 V
10 131 V
10 -326 V
11 240 V
10 131 V
10 103 V
11 -338 V
10 385 V
10 -83 V
10 -92 V
11 320 V
10 -206 V
10 -222 V
11 393 V
10 -326 V
10 68 V
11 -269 V
10 -29 V
10 236 V
10 -165 V
11 2 V
10 78 V
stroke 5063 4089 M
10 0 V
11 -261 V
10 141 V
10 326 V
10 -145 V
11 2 V
10 -27 V
10 2 V
11 15 V
10 18 V
10 -228 V
11 106 V
10 297 V
10 -55 V
10 -181 V
11 65 V
10 -16 V
10 141 V
11 -233 V
10 -110 V
10 328 V
11 -144 V
10 -80 V
10 65 V
10 45 V
11 -51 V
10 237 V
10 -216 V
11 75 V
10 187 V
10 -232 V
10 -41 V
11 151 V
10 -218 V
10 179 V
11 -122 V
10 -59 V
10 340 V
11 -250 V
10 -110 V
10 -68 V
10 80 V
11 -25 V
10 149 V
10 -89 V
11 -5 V
10 316 V
10 -242 V
10 -78 V
11 -246 V
10 -80 V
10 369 V
11 147 V
10 -181 V
10 -88 V
11 14 V
10 25 V
10 224 V
10 -218 V
11 191 V
10 -71 V
10 165 V
11 -88 V
10 -120 V
10 186 V
10 -339 V
11 210 V
10 -250 V
10 83 V
11 135 V
10 -278 V
10 316 V
11 133 V
10 -112 V
10 -57 V
10 206 V
11 28 V
10 -297 V
10 158 V
11 -99 V
10 71 V
10 -177 V
10 163 V
11 2 V
10 -51 V
10 -25 V
11 -151 V
10 208 V
10 -26 V
11 -118 V
10 -98 V
10 200 V
10 69 V
11 -41 V
10 96 V
10 88 V
11 -200 V
10 -39 V
10 212 V
11 -118 V
10 110 V
10 -39 V
10 -183 V
11 -159 V
stroke 6134 3928 M
10 403 V
10 -189 V
11 171 V
10 -102 V
10 -98 V
10 231 V
11 -74 V
10 -18 V
10 41 V
11 6 V
10 -51 V
10 -176 V
11 210 V
10 -59 V
10 55 V
10 -173 V
11 6 V
10 -134 V
10 230 V
11 137 V
10 -357 V
10 -76 V
10 392 V
11 -29 V
10 98 V
10 -110 V
11 -118 V
10 -110 V
10 120 V
11 -108 V
10 47 V
10 96 V
10 120 V
11 -251 V
10 167 V
10 -185 V
11 452 V
10 -195 V
10 -239 V
10 267 V
11 -124 V
10 -165 V
10 47 V
11 254 V
10 -104 V
10 106 V
11 141 V
10 -281 V
10 -153 V
10 198 V
11 -224 V
10 179 V
10 112 V
11 -226 V
10 142 V
10 -222 V
11 127 V
10 48 V
10 -220 V
10 335 V
11 -39 V
10 37 V
10 -129 V
11 198 V
10 -120 V
10 -151 V
10 39 V
11 -57 V
10 36 V
10 -96 V
11 182 V
10 199 V
10 -346 V
11 96 V
10 -206 V
10 181 V
10 139 V
11 126 V
% End plot #1
% Begin plot #2
stroke
LT1
LCb setrgbcolor
6296 4598 M
(Offset = 1) Rshow
LT1
6380 4598 M
399 0 V
770 1103 M
10 29 V
791 950 L
10 2 V
10 261 V
10 35 V
11 28 V
10 -175 V
10 126 V
11 137 V
10 -159 V
10 157 V
11 -94 V
10 159 V
10 -196 V
10 -22 V
11 -6 V
10 143 V
10 79 V
11 -287 V
10 -123 V
10 369 V
10 -197 V
11 212 V
10 34 V
10 -102 V
11 -71 V
10 -53 V
10 -79 V
11 -49 V
10 128 V
10 -43 V
10 288 V
11 -66 V
10 -114 V
10 -45 V
11 316 V
10 -273 V
10 -171 V
11 143 V
10 -133 V
10 310 V
10 -131 V
11 159 V
10 -205 V
10 338 V
11 -238 V
10 107 V
10 17 V
10 191 V
11 -79 V
10 -234 V
10 205 V
11 -138 V
10 79 V
10 226 V
11 162 V
10 -200 V
10 222 V
10 -169 V
11 252 V
10 166 V
10 -11 V
11 235 V
10 -210 V
10 153 V
10 -2 V
11 134 V
10 -136 V
10 348 V
11 -37 V
10 72 V
10 24 V
11 -49 V
10 131 V
10 -70 V
10 -106 V
11 117 V
10 -80 V
10 96 V
11 -110 V
10 83 V
10 257 V
10 224 V
11 -313 V
10 69 V
10 -179 V
11 55 V
10 85 V
10 8 V
11 4 V
10 149 V
10 -26 V
10 -184 V
11 161 V
10 190 V
10 -389 V
11 122 V
10 34 V
10 41 V
10 -51 V
11 -75 V
10 153 V
10 -10 V
11 2 V
10 132 V
10 -128 V
stroke 1861 3062 M
11 -129 V
10 239 V
10 -163 V
10 91 V
11 137 V
10 26 V
10 -171 V
11 141 V
10 -200 V
10 163 V
11 -24 V
10 55 V
10 -330 V
10 489 V
11 45 V
10 -49 V
10 -172 V
11 257 V
10 -342 V
10 153 V
10 -61 V
11 -113 V
10 282 V
10 -178 V
11 135 V
10 -53 V
10 -4 V
11 159 V
10 -334 V
10 -121 V
10 312 V
11 -300 V
10 19 V
10 285 V
11 -147 V
10 -63 V
10 147 V
10 -214 V
11 222 V
10 -94 V
10 -289 V
11 137 V
10 212 V
10 -127 V
11 127 V
10 -74 V
10 212 V
10 -230 V
11 -67 V
10 283 V
10 -120 V
11 -170 V
10 -124 V
10 269 V
10 -85 V
11 140 V
10 108 V
10 -214 V
11 302 V
10 -212 V
10 -12 V
11 169 V
10 -41 V
10 -163 V
10 45 V
11 24 V
10 -89 V
10 -80 V
11 71 V
10 55 V
10 31 V
11 -202 V
10 55 V
10 -116 V
10 298 V
11 -178 V
10 -49 V
10 92 V
11 -163 V
10 128 V
10 -105 V
10 -31 V
11 -18 V
10 254 V
10 192 V
11 -147 V
10 -173 V
10 -141 V
11 53 V
10 -116 V
10 261 V
10 -110 V
11 406 V
10 -239 V
10 114 V
11 -255 V
10 27 V
10 177 V
10 80 V
11 -149 V
10 -67 V
10 157 V
11 224 V
10 -261 V
stroke 2932 3243 M
10 -167 V
11 81 V
10 102 V
10 -28 V
10 134 V
11 -310 V
10 66 V
10 -304 V
11 247 V
10 34 V
10 -73 V
10 94 V
11 -198 V
10 371 V
10 102 V
11 -259 V
10 -137 V
10 159 V
11 178 V
10 -145 V
10 -67 V
10 -27 V
11 196 V
10 -128 V
10 6 V
11 114 V
10 -339 V
10 284 V
11 175 V
10 -183 V
10 167 V
10 -59 V
11 -106 V
10 -94 V
10 320 V
11 -365 V
10 43 V
10 65 V
10 90 V
11 -19 V
10 6 V
10 -246 V
11 110 V
10 187 V
10 -12 V
11 -24 V
10 -282 V
10 257 V
10 37 V
11 -218 V
10 -96 V
10 349 V
11 -149 V
10 67 V
10 -35 V
10 161 V
11 -118 V
10 -175 V
10 277 V
11 39 V
10 -188 V
10 15 V
11 171 V
10 -71 V
10 -45 V
10 -61 V
11 83 V
10 92 V
10 -220 V
11 -139 V
10 181 V
10 -185 V
10 224 V
11 -55 V
10 -39 V
10 -46 V
11 0 V
10 34 V
10 135 V
11 -80 V
10 70 V
10 159 V
10 51 V
11 40 V
10 -159 V
10 -10 V
11 -116 V
10 -86 V
10 -51 V
10 184 V
11 -63 V
10 224 V
10 -288 V
11 369 V
10 8 V
10 -152 V
11 -167 V
10 87 V
10 -283 V
10 179 V
11 261 V
10 -86 V
10 -75 V
11 171 V
stroke 4003 3471 M
10 -122 V
10 22 V
11 -44 V
10 -153 V
10 71 V
10 157 V
11 82 V
10 -320 V
10 244 V
11 -185 V
10 159 V
10 -92 V
10 106 V
11 -10 V
10 -74 V
10 118 V
11 -211 V
10 85 V
10 49 V
11 -304 V
10 174 V
10 -106 V
10 205 V
11 -230 V
10 324 V
10 -360 V
11 75 V
10 -43 V
10 283 V
10 -318 V
11 176 V
10 -94 V
10 88 V
11 324 V
10 -282 V
10 -126 V
11 47 V
10 -96 V
10 -128 V
10 40 V
11 15 V
10 407 V
10 -201 V
11 -55 V
10 -259 V
10 181 V
10 4 V
11 88 V
10 273 V
10 112 V
11 -161 V
10 -190 V
10 -4 V
11 27 V
10 106 V
10 47 V
10 -245 V
11 37 V
10 -202 V
10 251 V
11 -175 V
10 -29 V
10 296 V
11 75 V
10 -179 V
10 2 V
10 55 V
11 30 V
10 72 V
10 165 V
11 -206 V
10 -200 V
10 12 V
10 53 V
11 98 V
10 -126 V
10 283 V
11 -183 V
10 106 V
10 89 V
11 -140 V
10 -104 V
10 10 V
10 -55 V
11 114 V
10 -29 V
10 19 V
11 326 V
10 -181 V
10 -186 V
10 25 V
11 -80 V
10 6 V
10 23 V
11 30 V
10 80 V
10 -155 V
11 -33 V
10 277 V
10 -148 V
10 -43 V
11 -94 V
10 320 V
10 -289 V
stroke 5073 3164 M
11 2 V
10 179 V
10 -124 V
10 126 V
11 -35 V
10 -138 V
10 -78 V
11 314 V
10 -200 V
10 86 V
11 -269 V
10 200 V
10 283 V
10 -318 V
11 -151 V
10 312 V
10 -361 V
11 243 V
10 -239 V
10 182 V
11 163 V
10 128 V
10 -59 V
10 -291 V
11 201 V
10 88 V
10 -312 V
11 -118 V
10 22 V
10 31 V
10 -200 V
11 396 V
10 -157 V
10 -8 V
11 -21 V
10 231 V
10 -21 V
11 45 V
10 -359 V
10 271 V
10 137 V
11 -43 V
10 133 V
10 -373 V
11 265 V
10 -23 V
10 -157 V
10 49 V
11 45 V
10 -139 V
10 80 V
11 -39 V
10 -379 V
10 599 V
11 -291 V
10 126 V
10 -37 V
10 33 V
11 -61 V
10 -20 V
10 93 V
11 94 V
10 69 V
10 -79 V
10 -179 V
11 32 V
10 55 V
10 10 V
11 80 V
10 -57 V
10 -286 V
11 -32 V
10 422 V
10 18 V
10 -155 V
11 180 V
10 118 V
10 -308 V
11 2 V
10 65 V
10 -55 V
10 -104 V
11 -226 V
10 501 V
10 -320 V
11 241 V
10 -25 V
10 -63 V
11 98 V
10 -118 V
10 255 V
10 -269 V
11 224 V
10 -277 V
10 93 V
11 -6 V
10 76 V
10 -61 V
11 -11 V
10 82 V
10 -157 V
10 102 V
11 -94 V
10 114 V
stroke 6144 3255 M
10 133 V
11 -66 V
10 -108 V
10 -101 V
10 91 V
11 -375 V
10 549 V
10 -188 V
11 -67 V
10 -6 V
10 258 V
11 -55 V
10 -303 V
10 391 V
10 -67 V
11 41 V
10 -443 V
10 180 V
11 -8 V
10 158 V
10 -207 V
10 289 V
11 -212 V
10 236 V
10 -397 V
11 228 V
10 90 V
10 -200 V
11 19 V
10 144 V
10 27 V
10 -218 V
11 142 V
10 157 V
10 -426 V
11 112 V
10 274 V
10 95 V
10 117 V
11 -341 V
10 51 V
10 -187 V
11 534 V
10 -567 V
10 322 V
11 -342 V
10 199 V
10 -177 V
10 186 V
11 146 V
10 -89 V
10 -133 V
11 -122 V
10 226 V
10 39 V
11 -123 V
10 139 V
10 -220 V
10 128 V
11 -51 V
10 45 V
10 25 V
11 -41 V
10 2 V
10 190 V
10 50 V
11 -148 V
10 -15 V
10 106 V
11 -281 V
10 47 V
10 155 V
11 4 V
10 -169 V
10 118 V
10 -49 V
11 -116 V
% End plot #2
% Begin plot #3
stroke
LT2
LCb setrgbcolor
6296 4458 M
(Offset = 2) Rshow
LT2
6380 4458 M
399 0 V
770 1284 M
10 -14 V
11 -236 V
10 189 V
10 -38 V
10 140 V
11 -175 V
10 299 V
10 -244 V
11 -49 V
10 94 V
10 -131 V
11 88 V
10 -73 V
10 99 V
10 11 V
11 -8 V
10 -82 V
10 86 V
11 85 V
10 -69 V
10 -71 V
10 93 V
11 106 V
10 -34 V
10 -163 V
11 16 V
10 41 V
10 77 V
11 167 V
10 -318 V
10 121 V
10 -53 V
11 -17 V
10 -255 V
10 269 V
11 41 V
10 41 V
10 35 V
11 -4 V
10 -2 V
10 46 V
10 37 V
11 200 V
10 45 V
10 -278 V
11 162 V
10 -49 V
10 136 V
10 -185 V
11 242 V
10 -230 V
10 454 V
11 -505 V
10 132 V
10 145 V
11 94 V
10 -18 V
10 232 V
10 -153 V
11 -414 V
10 385 V
10 109 V
11 -2 V
10 118 V
10 -121 V
10 -20 V
11 265 V
10 -43 V
10 -12 V
11 -122 V
10 316 V
10 20 V
11 79 V
10 2 V
10 -65 V
10 11 V
11 144 V
10 19 V
10 -270 V
11 339 V
10 -35 V
10 -28 V
10 148 V
11 -110 V
10 286 V
10 45 V
11 -25 V
10 92 V
10 -135 V
11 -95 V
10 301 V
10 57 V
10 -159 V
11 120 V
10 125 V
10 -347 V
11 49 V
10 17 V
10 24 V
10 -47 V
11 -43 V
10 131 V
stroke 1820 2962 M
10 16 V
11 -128 V
10 44 V
10 31 V
11 22 V
10 -165 V
10 223 V
10 44 V
11 -79 V
10 73 V
10 149 V
11 -14 V
10 -259 V
10 147 V
11 140 V
10 -271 V
10 275 V
10 -122 V
11 139 V
10 -141 V
10 114 V
11 -36 V
10 108 V
10 -78 V
10 -4 V
11 53 V
10 35 V
10 -206 V
11 226 V
10 -51 V
10 49 V
11 -82 V
10 -134 V
10 31 V
10 -241 V
11 80 V
10 150 V
10 84 V
11 -14 V
10 -98 V
10 -131 V
10 434 V
11 -256 V
10 16 V
10 -163 V
11 51 V
10 75 V
10 385 V
11 -413 V
10 259 V
10 -227 V
10 255 V
11 -259 V
10 86 V
10 143 V
11 -15 V
10 -91 V
10 67 V
10 10 V
11 -39 V
10 -43 V
10 -246 V
11 126 V
10 53 V
10 47 V
11 -271 V
10 289 V
10 -14 V
10 -108 V
11 -41 V
10 94 V
10 65 V
11 -195 V
10 185 V
10 -159 V
11 316 V
10 -90 V
10 119 V
10 -186 V
11 47 V
10 -83 V
10 24 V
11 -18 V
10 -161 V
10 197 V
10 -177 V
11 206 V
10 -265 V
10 120 V
11 129 V
10 -102 V
10 47 V
11 140 V
10 -20 V
10 -129 V
10 159 V
11 -18 V
10 -185 V
10 150 V
11 316 V
10 -552 V
10 -6 V
10 197 V
11 41 V
stroke 2891 3257 M
10 -53 V
10 -128 V
11 308 V
10 -221 V
10 -6 V
11 53 V
10 -4 V
10 19 V
10 -86 V
11 71 V
10 92 V
10 -153 V
11 -16 V
10 77 V
10 -44 V
10 -51 V
11 -163 V
10 93 V
10 184 V
11 -198 V
10 90 V
10 181 V
11 -204 V
10 -222 V
10 127 V
10 55 V
11 -66 V
10 4 V
10 94 V
11 -116 V
10 28 V
10 214 V
11 170 V
10 -267 V
10 112 V
10 -127 V
11 -118 V
10 251 V
10 -173 V
11 28 V
10 -87 V
10 108 V
10 210 V
11 -111 V
10 -75 V
10 37 V
11 -70 V
10 165 V
10 -324 V
11 243 V
10 204 V
10 -222 V
10 -117 V
11 -34 V
10 177 V
10 67 V
11 125 V
10 -420 V
10 393 V
10 -204 V
11 202 V
10 -83 V
10 -131 V
11 110 V
10 -28 V
10 55 V
11 -12 V
10 -84 V
10 128 V
10 -189 V
11 361 V
10 -194 V
10 0 V
11 -118 V
10 -332 V
10 48 V
10 176 V
11 146 V
10 -177 V
10 -59 V
11 187 V
10 -63 V
10 -61 V
11 -65 V
10 328 V
10 -299 V
10 -58 V
11 174 V
10 0 V
10 44 V
11 -97 V
10 220 V
10 -110 V
10 -194 V
11 147 V
10 -120 V
10 517 V
11 -371 V
10 -24 V
10 110 V
11 -273 V
10 240 V
10 155 V
10 -41 V
stroke 3961 3322 M
11 11 V
10 -149 V
10 47 V
11 -106 V
10 183 V
10 139 V
11 -131 V
10 49 V
10 -136 V
10 204 V
11 -214 V
10 220 V
10 -220 V
11 -11 V
10 -20 V
10 132 V
10 -16 V
11 -214 V
10 43 V
10 159 V
11 -108 V
10 39 V
10 -133 V
11 -85 V
10 20 V
10 316 V
10 -69 V
11 -19 V
10 -96 V
10 -106 V
11 253 V
10 -202 V
10 361 V
10 -65 V
11 -363 V
10 296 V
10 -106 V
11 -17 V
10 -40 V
10 -4 V
11 -78 V
10 -35 V
10 43 V
10 78 V
11 155 V
10 -53 V
10 -108 V
11 -29 V
10 110 V
10 -128 V
10 136 V
11 88 V
10 -65 V
10 -90 V
11 -155 V
10 241 V
10 -172 V
11 115 V
10 69 V
10 -163 V
10 45 V
11 148 V
10 17 V
10 26 V
11 -338 V
10 206 V
10 -55 V
11 12 V
10 -169 V
10 259 V
10 134 V
11 -298 V
10 7 V
10 73 V
11 -33 V
10 322 V
10 -191 V
10 67 V
11 -83 V
10 -86 V
10 102 V
11 96 V
10 -121 V
10 -40 V
11 89 V
10 -155 V
10 106 V
10 157 V
11 -142 V
10 -9 V
10 -289 V
11 241 V
10 -23 V
10 -37 V
10 202 V
11 -138 V
10 8 V
10 26 V
11 -401 V
10 185 V
10 -22 V
11 59 V
10 208 V
10 20 V
stroke 5032 3308 M
10 -16 V
11 -80 V
10 27 V
10 0 V
11 -51 V
10 128 V
10 -238 V
10 -165 V
11 414 V
10 -110 V
10 20 V
11 -310 V
10 104 V
10 175 V
11 53 V
10 -195 V
10 97 V
10 -110 V
11 131 V
10 -216 V
10 106 V
11 216 V
10 -302 V
10 51 V
11 224 V
10 -136 V
10 30 V
10 123 V
11 -131 V
10 -114 V
10 55 V
11 -6 V
10 173 V
10 -91 V
10 -176 V
11 65 V
10 -167 V
10 339 V
11 -159 V
10 -66 V
10 337 V
11 -88 V
10 110 V
10 153 V
10 -86 V
11 -281 V
10 37 V
10 47 V
11 -25 V
10 -16 V
10 -2 V
10 -2 V
11 220 V
10 -281 V
10 51 V
11 151 V
10 -373 V
10 322 V
11 93 V
10 -165 V
10 173 V
10 -165 V
11 153 V
10 -151 V
10 123 V
11 -76 V
10 10 V
10 129 V
10 -182 V
11 102 V
10 -91 V
10 230 V
11 -155 V
10 -432 V
10 241 V
11 -166 V
10 102 V
10 68 V
10 95 V
11 -246 V
10 428 V
10 -334 V
11 216 V
10 -121 V
10 90 V
10 106 V
11 -145 V
10 -110 V
10 -10 V
11 281 V
10 -216 V
10 -112 V
11 94 V
10 165 V
10 -98 V
10 -198 V
11 58 V
10 128 V
10 175 V
11 -171 V
10 -153 V
10 100 V
11 169 V
10 -98 V
stroke 6103 3208 M
10 -110 V
10 -61 V
11 -10 V
10 118 V
10 2 V
11 133 V
10 45 V
10 -102 V
10 -192 V
11 39 V
10 73 V
10 332 V
11 -144 V
10 -86 V
10 -279 V
11 128 V
10 0 V
10 167 V
10 -59 V
11 96 V
10 -190 V
10 -22 V
11 -96 V
10 -32 V
10 126 V
10 14 V
11 222 V
10 64 V
10 -200 V
11 128 V
10 -293 V
10 -27 V
11 422 V
10 29 V
10 -131 V
10 8 V
11 -226 V
10 149 V
10 -306 V
11 253 V
10 61 V
10 -301 V
10 148 V
11 94 V
10 -26 V
10 -13 V
11 19 V
10 -11 V
10 139 V
11 -155 V
10 2 V
10 -37 V
10 -81 V
11 198 V
10 98 V
10 -82 V
11 -206 V
10 202 V
10 -39 V
11 127 V
10 -35 V
10 -75 V
10 195 V
11 -100 V
10 -175 V
10 118 V
11 -138 V
10 4 V
10 38 V
10 -57 V
11 33 V
10 -51 V
10 114 V
11 -8 V
10 -8 V
10 35 V
11 -241 V
10 187 V
10 302 V
10 -63 V
11 29 V
% End plot #3
% Begin plot #4
stroke
LT3
LCb setrgbcolor
6296 4318 M
(Offset = 3) Rshow
LT3
6380 4318 M
399 0 V
770 914 M
10 128 V
11 110 V
10 53 V
811 979 L
10 87 V
11 92 V
842 834 L
10 402 V
863 993 L
10 -43 V
10 194 V
11 -112 V
10 -55 V
10 49 V
10 161 V
11 -84 V
10 67 V
10 68 V
11 -159 V
10 63 V
986 916 L
10 126 V
11 134 V
10 -207 V
10 273 V
11 -292 V
10 216 V
10 -10 V
11 -383 V
10 206 V
10 118 V
10 0 V
11 220 V
10 -304 V
10 324 V
11 -28 V
10 216 V
10 -287 V
11 -23 V
10 165 V
10 -165 V
10 424 V
11 -204 V
10 39 V
10 251 V
11 -243 V
10 114 V
10 155 V
10 39 V
11 2 V
10 -45 V
10 -2 V
11 80 V
10 16 V
10 -57 V
11 45 V
10 273 V
10 -253 V
10 183 V
11 110 V
10 -26 V
10 275 V
11 -71 V
10 -70 V
10 263 V
10 -161 V
11 0 V
10 261 V
10 -175 V
11 -33 V
10 233 V
10 -322 V
11 240 V
10 55 V
10 -132 V
10 297 V
11 190 V
10 -336 V
10 12 V
11 -45 V
10 214 V
10 -41 V
10 49 V
11 -28 V
10 106 V
10 -151 V
11 151 V
10 4 V
10 -39 V
11 -2 V
10 -92 V
10 287 V
10 -144 V
11 -116 V
10 148 V
10 37 V
11 -167 V
10 28 V
10 204 V
10 -75 V
11 259 V
10 -353 V
10 0 V
11 73 V
10 -112 V
10 94 V
11 102 V
10 -149 V
10 29 V
10 181 V
11 94 V
10 -84 V
10 -108 V
11 84 V
10 45 V
10 -92 V
11 165 V
10 -183 V
10 165 V
10 -298 V
11 112 V
10 68 V
10 -66 V
11 104 V
10 -118 V
stroke 2057 2982 M
10 49 V
10 0 V
11 -108 V
10 147 V
10 126 V
11 -163 V
10 23 V
10 -261 V
11 12 V
10 198 V
10 165 V
10 -406 V
11 6 V
10 398 V
10 57 V
11 -123 V
10 45 V
10 55 V
10 -77 V
11 -27 V
10 82 V
10 102 V
11 -251 V
10 153 V
10 33 V
11 -107 V
10 29 V
10 -31 V
10 -71 V
11 273 V
10 2 V
10 -324 V
11 198 V
10 14 V
10 -83 V
10 75 V
11 100 V
10 -112 V
10 177 V
11 -8 V
10 -216 V
10 139 V
11 77 V
10 -202 V
10 31 V
10 -231 V
11 164 V
10 77 V
10 -86 V
11 88 V
10 96 V
10 -137 V
11 98 V
10 35 V
10 -277 V
10 83 V
11 129 V
10 -84 V
10 189 V
11 -154 V
10 -33 V
10 51 V
10 -291 V
11 346 V
10 -41 V
10 -104 V
11 78 V
10 -161 V
10 293 V
11 -277 V
10 479 V
10 -137 V
10 19 V
11 -241 V
10 186 V
10 79 V
11 -240 V
10 85 V
10 -120 V
10 -126 V
11 189 V
10 -181 V
10 126 V
11 80 V
10 -51 V
10 -220 V
11 -2 V
10 20 V
10 312 V
10 -43 V
11 -98 V
10 -189 V
10 24 V
11 69 V
10 -77 V
10 159 V
10 163 V
11 -171 V
10 -92 V
10 196 V
11 38 V
10 58 V
10 -174 V
11 23 V
stroke 3128 3172 M
10 -57 V
10 187 V
10 20 V
11 -136 V
10 8 V
10 -79 V
11 277 V
10 -35 V
10 -4 V
11 -83 V
10 -21 V
10 27 V
10 -102 V
11 -35 V
10 116 V
10 35 V
11 153 V
10 -561 V
10 35 V
10 593 V
11 -387 V
10 326 V
10 -212 V
11 -2 V
10 73 V
10 -126 V
11 257 V
10 -198 V
10 -253 V
10 330 V
11 -157 V
10 -112 V
10 125 V
11 -90 V
10 90 V
10 91 V
10 -175 V
11 -87 V
10 44 V
10 -120 V
11 234 V
10 172 V
10 44 V
11 -34 V
10 53 V
10 -92 V
10 -90 V
11 -8 V
10 15 V
10 -131 V
11 8 V
10 53 V
10 -47 V
10 59 V
11 -28 V
10 98 V
10 12 V
11 -135 V
10 292 V
10 -371 V
11 124 V
10 -175 V
10 177 V
10 165 V
11 -203 V
10 118 V
10 33 V
11 -123 V
10 -110 V
10 110 V
10 306 V
11 -71 V
10 -345 V
10 222 V
11 -189 V
10 204 V
10 110 V
11 -127 V
10 -55 V
10 -51 V
10 198 V
11 -369 V
10 86 V
10 114 V
11 -208 V
10 218 V
10 -232 V
11 365 V
10 -210 V
10 -125 V
10 200 V
11 57 V
10 177 V
10 -47 V
11 -112 V
10 -185 V
10 -137 V
10 188 V
11 -41 V
10 133 V
10 -206 V
11 43 V
10 91 V
10 -106 V
stroke 4198 3043 M
11 70 V
10 157 V
10 -280 V
10 65 V
11 -89 V
10 10 V
10 114 V
11 -45 V
10 33 V
10 86 V
10 -123 V
11 -77 V
10 367 V
10 -141 V
11 -69 V
10 -59 V
10 51 V
11 -64 V
10 -69 V
10 259 V
10 -8 V
11 67 V
10 -22 V
10 87 V
11 -100 V
10 -112 V
10 241 V
10 67 V
11 -245 V
10 -40 V
10 -70 V
11 21 V
10 236 V
10 -140 V
11 -29 V
10 137 V
10 -229 V
10 63 V
11 88 V
10 31 V
10 -82 V
11 57 V
10 -69 V
10 26 V
11 -299 V
10 147 V
10 22 V
10 51 V
11 8 V
10 102 V
10 98 V
11 -247 V
10 90 V
10 -220 V
10 30 V
11 216 V
10 -50 V
10 -35 V
11 -55 V
10 -35 V
10 237 V
11 -113 V
10 214 V
10 -179 V
10 102 V
11 -90 V
10 170 V
10 -196 V
11 -23 V
10 57 V
10 53 V
10 -57 V
11 72 V
10 -279 V
10 366 V
11 202 V
10 -534 V
10 445 V
11 -298 V
10 -45 V
10 104 V
10 106 V
11 -304 V
10 216 V
10 -289 V
11 208 V
10 -135 V
10 188 V
10 165 V
11 -22 V
10 -247 V
10 49 V
11 -41 V
10 43 V
10 161 V
11 -296 V
10 80 V
10 145 V
10 -459 V
11 243 V
10 44 V
10 227 V
11 46 V
10 -240 V
stroke 5269 3133 M
10 -194 V
11 202 V
10 84 V
10 -174 V
10 33 V
11 0 V
10 243 V
10 -62 V
11 5 V
10 8 V
10 177 V
10 -243 V
11 176 V
10 -332 V
10 179 V
11 -155 V
10 165 V
10 200 V
11 -214 V
10 289 V
10 -242 V
10 -375 V
11 159 V
10 140 V
10 -69 V
11 134 V
10 -203 V
10 199 V
10 186 V
11 -336 V
10 207 V
10 -53 V
11 -311 V
10 99 V
10 127 V
11 -169 V
10 -178 V
10 221 V
10 28 V
11 -159 V
10 255 V
10 -16 V
11 65 V
10 -63 V
10 -119 V
10 159 V
11 -6 V
10 -98 V
10 90 V
11 -16 V
10 36 V
10 174 V
11 -123 V
10 -112 V
10 82 V
10 96 V
11 -86 V
10 80 V
10 -231 V
11 78 V
10 -159 V
10 134 V
10 173 V
11 -273 V
10 153 V
10 -10 V
11 -4 V
10 -153 V
10 104 V
11 181 V
10 -159 V
10 235 V
10 10 V
11 -155 V
10 -63 V
10 -96 V
11 -33 V
10 125 V
10 183 V
11 -356 V
10 440 V
10 -149 V
10 -73 V
11 -117 V
10 45 V
10 -71 V
11 22 V
10 174 V
10 -326 V
10 291 V
11 -10 V
10 -175 V
10 332 V
11 -204 V
10 -76 V
10 106 V
11 -32 V
10 -65 V
10 -29 V
10 161 V
11 127 V
10 -86 V
10 -41 V
11 69 V
stroke 6340 3320 M
10 -22 V
10 -92 V
10 31 V
11 -86 V
10 12 V
10 98 V
11 49 V
10 -238 V
10 210 V
11 -82 V
10 -140 V
10 212 V
10 -129 V
11 -43 V
10 -40 V
10 -157 V
11 291 V
10 -122 V
10 -122 V
10 -115 V
11 147 V
10 -167 V
10 236 V
11 -118 V
10 231 V
10 -31 V
11 77 V
10 -30 V
10 -63 V
10 -121 V
11 37 V
10 -126 V
10 146 V
11 347 V
10 -230 V
10 -96 V
11 -108 V
10 34 V
10 110 V
10 -220 V
11 308 V
10 25 V
10 154 V
11 -46 V
10 -112 V
10 356 V
10 -356 V
11 -155 V
10 210 V
10 154 V
11 -112 V
10 135 V
10 -65 V
11 44 V
10 -20 V
10 53 V
10 -161 V
11 122 V
% End plot #4
% Begin plot #5
stroke
LT4
LCb setrgbcolor
6296 4178 M
(Offset = 4) Rshow
LT4
6380 4178 M
399 0 V
770 1024 M
10 301 V
11 129 V
10 -355 V
10 226 V
10 -314 V
832 885 L
10 92 V
10 40 V
863 887 L
10 -35 V
10 216 V
894 779 L
10 328 V
914 722 L
10 220 V
935 803 L
10 176 V
955 877 L
11 -25 V
10 57 V
986 807 L
10 -16 V
11 165 V
10 2 V
10 -259 V
11 98 V
10 68 V
10 201 V
11 -100 V
10 62 V
10 -284 V
10 192 V
11 -18 V
10 22 V
10 65 V
11 -22 V
10 102 V
10 -80 V
11 169 V
10 -40 V
10 -106 V
10 324 V
11 -80 V
10 -28 V
10 -143 V
11 424 V
10 175 V
10 -90 V
10 139 V
11 -122 V
10 49 V
10 55 V
11 149 V
10 -15 V
10 43 V
11 259 V
10 24 V
10 216 V
10 -30 V
11 24 V
10 198 V
10 -141 V
11 292 V
10 -108 V
10 91 V
10 121 V
11 -202 V
10 279 V
10 -354 V
11 203 V
10 66 V
10 -51 V
11 75 V
10 204 V
10 179 V
10 -359 V
11 280 V
10 -243 V
10 59 V
11 -34 V
10 179 V
10 -173 V
10 -61 V
11 334 V
10 -286 V
10 272 V
11 44 V
10 165 V
10 117 V
11 -39 V
10 -273 V
10 159 V
10 -59 V
11 -39 V
10 185 V
10 -34 V
11 -153 V
10 310 V
10 -255 V
10 35 V
11 -39 V
10 75 V
10 320 V
11 -322 V
10 -45 V
10 68 V
11 183 V
10 -30 V
10 -176 V
10 -124 V
11 348 V
10 -103 V
10 6 V
11 -347 V
10 343 V
10 -178 V
11 359 V
10 -155 V
10 306 V
10 -394 V
11 -130 V
10 326 V
10 31 V
11 -100 V
10 26 V
stroke 2057 3632 M
10 -130 V
10 202 V
11 2 V
10 -127 V
10 86 V
11 169 V
10 -271 V
10 -165 V
11 218 V
10 22 V
10 -63 V
10 -145 V
11 192 V
10 -108 V
10 24 V
11 113 V
10 -4 V
10 112 V
10 -194 V
11 26 V
10 159 V
10 -275 V
11 49 V
10 33 V
10 -33 V
11 110 V
10 -20 V
10 88 V
10 -82 V
11 -16 V
10 293 V
10 -51 V
11 -271 V
10 -39 V
10 70 V
10 20 V
11 224 V
10 -191 V
10 155 V
11 -316 V
10 -25 V
10 -38 V
11 289 V
10 -249 V
10 247 V
10 96 V
11 -149 V
10 -263 V
10 157 V
11 -116 V
10 220 V
10 26 V
11 -144 V
10 110 V
10 -41 V
10 51 V
11 -16 V
10 -343 V
10 485 V
11 -203 V
10 214 V
10 -314 V
10 -29 V
11 236 V
10 15 V
10 -202 V
11 135 V
10 18 V
10 4 V
11 -334 V
10 161 V
10 87 V
10 157 V
11 39 V
10 -412 V
10 316 V
11 51 V
10 -128 V
10 -33 V
10 153 V
11 6 V
10 -65 V
10 198 V
11 -369 V
10 -82 V
10 -12 V
11 379 V
10 -210 V
10 277 V
10 -122 V
11 24 V
10 -140 V
10 30 V
11 -46 V
10 38 V
10 76 V
10 -135 V
11 -65 V
10 53 V
10 102 V
11 -12 V
10 -294 V
10 477 V
11 -143 V
stroke 3128 3691 M
10 55 V
10 -305 V
10 24 V
11 151 V
10 24 V
10 -157 V
11 263 V
10 -187 V
10 65 V
11 -22 V
10 -137 V
10 255 V
10 -33 V
11 12 V
10 113 V
10 89 V
11 -75 V
10 -259 V
10 184 V
10 -66 V
11 19 V
10 20 V
10 -49 V
11 126 V
10 -40 V
10 -265 V
11 216 V
10 16 V
10 -314 V
10 -69 V
11 295 V
10 37 V
10 -16 V
11 -180 V
10 117 V
10 6 V
10 153 V
11 -324 V
10 326 V
10 -151 V
11 -12 V
10 275 V
10 -259 V
11 87 V
10 157 V
10 -106 V
10 -42 V
11 -100 V
10 -88 V
10 71 V
11 202 V
10 8 V
10 -226 V
10 -10 V
11 165 V
10 -31 V
10 -211 V
11 236 V
10 39 V
10 189 V
11 -230 V
10 53 V
10 -20 V
10 195 V
11 -204 V
10 -44 V
10 -9 V
11 161 V
10 -101 V
10 -104 V
10 195 V
11 -136 V
10 2 V
10 -141 V
11 192 V
10 73 V
10 -143 V
11 -195 V
10 365 V
10 -186 V
10 133 V
11 -308 V
10 301 V
10 -236 V
11 296 V
10 -133 V
10 4 V
11 300 V
10 -316 V
10 12 V
10 220 V
11 -326 V
10 77 V
10 -144 V
11 142 V
10 147 V
10 -67 V
10 -192 V
11 161 V
10 -44 V
10 75 V
11 -43 V
10 -210 V
10 96 V
stroke 4198 3620 M
11 65 V
10 196 V
10 -84 V
10 -165 V
11 -242 V
10 367 V
10 -112 V
11 -37 V
10 173 V
10 -161 V
10 289 V
11 -163 V
10 25 V
10 -49 V
11 86 V
10 -153 V
10 14 V
11 353 V
10 -294 V
10 287 V
10 -462 V
11 271 V
10 -218 V
10 171 V
11 -78 V
10 -277 V
10 255 V
10 16 V
11 -110 V
10 -8 V
10 53 V
11 -37 V
10 -122 V
10 10 V
11 233 V
10 -92 V
10 265 V
10 -192 V
11 13 V
10 -117 V
10 51 V
11 141 V
10 -177 V
10 250 V
11 -83 V
10 -171 V
10 157 V
10 -62 V
11 37 V
10 122 V
10 -163 V
11 265 V
10 -157 V
10 -199 V
10 130 V
11 82 V
10 -235 V
10 171 V
11 -232 V
10 100 V
10 328 V
11 -120 V
10 -286 V
10 265 V
10 -75 V
11 77 V
10 -40 V
10 -78 V
11 104 V
10 -169 V
10 450 V
10 -580 V
11 159 V
10 112 V
10 69 V
11 96 V
10 -249 V
10 -163 V
11 328 V
10 -326 V
10 21 V
10 120 V
11 -57 V
10 85 V
10 -34 V
11 -8 V
10 128 V
10 -112 V
10 24 V
11 -299 V
10 395 V
10 -297 V
11 85 V
10 59 V
10 -163 V
11 -14 V
10 136 V
10 263 V
10 -89 V
11 -159 V
10 -19 V
10 96 V
11 71 V
10 -48 V
stroke 5269 3702 M
10 197 V
11 -281 V
10 96 V
10 -90 V
10 151 V
11 -167 V
10 255 V
10 -361 V
11 -98 V
10 112 V
10 418 V
10 -330 V
11 385 V
10 -220 V
10 -67 V
11 24 V
10 -126 V
10 183 V
11 -28 V
10 8 V
10 -169 V
10 330 V
11 -151 V
10 -12 V
10 -121 V
11 261 V
10 39 V
10 -285 V
10 120 V
11 47 V
10 -224 V
10 161 V
11 -29 V
10 -242 V
10 103 V
11 200 V
10 -38 V
10 -143 V
10 57 V
11 -116 V
10 314 V
10 -94 V
11 -14 V
10 191 V
10 -306 V
10 216 V
11 -167 V
10 -102 V
10 19 V
11 232 V
10 59 V
10 -356 V
11 154 V
10 -106 V
10 104 V
10 -38 V
11 18 V
10 169 V
10 -71 V
11 35 V
10 205 V
10 -369 V
10 78 V
11 147 V
10 -35 V
10 -33 V
11 -124 V
10 263 V
10 -149 V
11 49 V
10 -151 V
10 104 V
10 6 V
11 -201 V
10 140 V
10 -108 V
11 63 V
10 29 V
10 -208 V
11 -63 V
10 63 V
10 -165 V
10 340 V
11 31 V
10 -226 V
10 179 V
11 -96 V
10 -73 V
10 226 V
10 -189 V
11 75 V
10 100 V
10 75 V
11 10 V
10 41 V
10 -2 V
11 -401 V
10 91 V
10 -20 V
10 122 V
11 -53 V
10 296 V
10 -261 V
11 -22 V
stroke 6340 3592 M
10 24 V
10 -194 V
10 304 V
11 -126 V
10 140 V
10 -275 V
11 208 V
10 -167 V
10 39 V
11 116 V
10 153 V
10 -196 V
10 -84 V
11 192 V
10 -14 V
10 -116 V
11 83 V
10 98 V
10 342 V
10 -383 V
11 41 V
10 -145 V
10 296 V
11 -424 V
10 336 V
10 -202 V
11 61 V
10 23 V
10 -69 V
10 132 V
11 -130 V
10 65 V
10 77 V
11 -146 V
10 97 V
10 206 V
11 -173 V
10 135 V
10 -194 V
10 59 V
11 45 V
10 -80 V
10 78 V
11 120 V
10 -84 V
10 -126 V
10 175 V
11 -97 V
10 0 V
10 79 V
11 -120 V
10 0 V
10 -61 V
11 -17 V
10 269 V
10 106 V
10 -383 V
11 68 V
% End plot #5
stroke
LTb
770 4871 N
770 448 L
6177 0 V
0 4423 V
-6177 0 V
Z stroke
1.000 UP
1.000 UL
LTb
stroke
grestore
end
showpage
%%Trailer
%%DocumentFonts: Helvetica
