%!PS-Adobe-2.0 EPSF-2.0
%%Title: ../plots/domainstats/states-sorted-by-ply-visit-count-minigammon-offset-4.eps
%%Creator: gnuplot 4.4 patchlevel 3
%%CreationDate: Wed Dec 14 04:42:15 2011
%%DocumentFonts: (atend)
%%BoundingBox: 50 50 410 302
%%EndComments
%%BeginProlog
/gnudict 256 dict def
gnudict begin
%
% The following true/false flags may be edited by hand if desired.
% The unit line width and grayscale image gamma correction may also be changed.
%
/Color true def
/Blacktext false def
/Solid false def
/Dashlength 1 def
/Landscape false def
/Level1 false def
/Rounded false def
/ClipToBoundingBox false def
/TransparentPatterns false def
/gnulinewidth 5.000 def
/userlinewidth gnulinewidth def
/Gamma 1.0 def
%
/vshift -46 def
/dl1 {
  10.0 Dashlength mul mul
  Rounded { currentlinewidth 0.75 mul sub dup 0 le { pop 0.01 } if } if
} def
/dl2 {
  10.0 Dashlength mul mul
  Rounded { currentlinewidth 0.75 mul add } if
} def
/hpt_ 31.5 def
/vpt_ 31.5 def
/hpt hpt_ def
/vpt vpt_ def
Level1 {} {
/SDict 10 dict def
systemdict /pdfmark known not {
  userdict /pdfmark systemdict /cleartomark get put
} if
SDict begin [
  /Title (../plots/domainstats/states-sorted-by-ply-visit-count-minigammon-offset-4.eps)
  /Subject (gnuplot plot)
  /Creator (gnuplot 4.4 patchlevel 3)
  /Author (reza)
%  /Producer (gnuplot)
%  /Keywords ()
  /CreationDate (Wed Dec 14 04:42:15 2011)
  /DOCINFO pdfmark
end
} ifelse
/doclip {
  ClipToBoundingBox {
    newpath 50 50 moveto 410 50 lineto 410 302 lineto 50 302 lineto closepath
    clip
  } if
} def
%
% Gnuplot Prolog Version 4.4 (August 2010)
%
%/SuppressPDFMark true def
%
/M {moveto} bind def
/L {lineto} bind def
/R {rmoveto} bind def
/V {rlineto} bind def
/N {newpath moveto} bind def
/Z {closepath} bind def
/C {setrgbcolor} bind def
/f {rlineto fill} bind def
/g {setgray} bind def
/Gshow {show} def   % May be redefined later in the file to support UTF-8
/vpt2 vpt 2 mul def
/hpt2 hpt 2 mul def
/Lshow {currentpoint stroke M 0 vshift R 
	Blacktext {gsave 0 setgray show grestore} {show} ifelse} def
/Rshow {currentpoint stroke M dup stringwidth pop neg vshift R
	Blacktext {gsave 0 setgray show grestore} {show} ifelse} def
/Cshow {currentpoint stroke M dup stringwidth pop -2 div vshift R 
	Blacktext {gsave 0 setgray show grestore} {show} ifelse} def
/UP {dup vpt_ mul /vpt exch def hpt_ mul /hpt exch def
  /hpt2 hpt 2 mul def /vpt2 vpt 2 mul def} def
/DL {Color {setrgbcolor Solid {pop []} if 0 setdash}
 {pop pop pop 0 setgray Solid {pop []} if 0 setdash} ifelse} def
/BL {stroke userlinewidth 2 mul setlinewidth
	Rounded {1 setlinejoin 1 setlinecap} if} def
/AL {stroke userlinewidth 2 div setlinewidth
	Rounded {1 setlinejoin 1 setlinecap} if} def
/UL {dup gnulinewidth mul /userlinewidth exch def
	dup 1 lt {pop 1} if 10 mul /udl exch def} def
/PL {stroke userlinewidth setlinewidth
	Rounded {1 setlinejoin 1 setlinecap} if} def
3.8 setmiterlimit
% Default Line colors
/LCw {1 1 1} def
/LCb {0 0 0} def
/LCa {0 0 0} def
/LC0 {1 0 0} def
/LC1 {0 1 0} def
/LC2 {0 0 1} def
/LC3 {1 0 1} def
/LC4 {0 1 1} def
/LC5 {1 1 0} def
/LC6 {0 0 0} def
/LC7 {1 0.3 0} def
/LC8 {0.5 0.5 0.5} def
% Default Line Types
/LTw {PL [] 1 setgray} def
/LTb {BL [] LCb DL} def
/LTa {AL [1 udl mul 2 udl mul] 0 setdash LCa setrgbcolor} def
/LT0 {PL [] LC0 DL} def
/LT1 {PL [4 dl1 2 dl2] LC1 DL} def
/LT2 {PL [2 dl1 3 dl2] LC2 DL} def
/LT3 {PL [1 dl1 1.5 dl2] LC3 DL} def
/LT4 {PL [6 dl1 2 dl2 1 dl1 2 dl2] LC4 DL} def
/LT5 {PL [3 dl1 3 dl2 1 dl1 3 dl2] LC5 DL} def
/LT6 {PL [2 dl1 2 dl2 2 dl1 6 dl2] LC6 DL} def
/LT7 {PL [1 dl1 2 dl2 6 dl1 2 dl2 1 dl1 2 dl2] LC7 DL} def
/LT8 {PL [2 dl1 2 dl2 2 dl1 2 dl2 2 dl1 2 dl2 2 dl1 4 dl2] LC8 DL} def
/Pnt {stroke [] 0 setdash gsave 1 setlinecap M 0 0 V stroke grestore} def
/Dia {stroke [] 0 setdash 2 copy vpt add M
  hpt neg vpt neg V hpt vpt neg V
  hpt vpt V hpt neg vpt V closepath stroke
  Pnt} def
/Pls {stroke [] 0 setdash vpt sub M 0 vpt2 V
  currentpoint stroke M
  hpt neg vpt neg R hpt2 0 V stroke
 } def
/Box {stroke [] 0 setdash 2 copy exch hpt sub exch vpt add M
  0 vpt2 neg V hpt2 0 V 0 vpt2 V
  hpt2 neg 0 V closepath stroke
  Pnt} def
/Crs {stroke [] 0 setdash exch hpt sub exch vpt add M
  hpt2 vpt2 neg V currentpoint stroke M
  hpt2 neg 0 R hpt2 vpt2 V stroke} def
/TriU {stroke [] 0 setdash 2 copy vpt 1.12 mul add M
  hpt neg vpt -1.62 mul V
  hpt 2 mul 0 V
  hpt neg vpt 1.62 mul V closepath stroke
  Pnt} def
/Star {2 copy Pls Crs} def
/BoxF {stroke [] 0 setdash exch hpt sub exch vpt add M
  0 vpt2 neg V hpt2 0 V 0 vpt2 V
  hpt2 neg 0 V closepath fill} def
/TriUF {stroke [] 0 setdash vpt 1.12 mul add M
  hpt neg vpt -1.62 mul V
  hpt 2 mul 0 V
  hpt neg vpt 1.62 mul V closepath fill} def
/TriD {stroke [] 0 setdash 2 copy vpt 1.12 mul sub M
  hpt neg vpt 1.62 mul V
  hpt 2 mul 0 V
  hpt neg vpt -1.62 mul V closepath stroke
  Pnt} def
/TriDF {stroke [] 0 setdash vpt 1.12 mul sub M
  hpt neg vpt 1.62 mul V
  hpt 2 mul 0 V
  hpt neg vpt -1.62 mul V closepath fill} def
/DiaF {stroke [] 0 setdash vpt add M
  hpt neg vpt neg V hpt vpt neg V
  hpt vpt V hpt neg vpt V closepath fill} def
/Pent {stroke [] 0 setdash 2 copy gsave
  translate 0 hpt M 4 {72 rotate 0 hpt L} repeat
  closepath stroke grestore Pnt} def
/PentF {stroke [] 0 setdash gsave
  translate 0 hpt M 4 {72 rotate 0 hpt L} repeat
  closepath fill grestore} def
/Circle {stroke [] 0 setdash 2 copy
  hpt 0 360 arc stroke Pnt} def
/CircleF {stroke [] 0 setdash hpt 0 360 arc fill} def
/C0 {BL [] 0 setdash 2 copy moveto vpt 90 450 arc} bind def
/C1 {BL [] 0 setdash 2 copy moveto
	2 copy vpt 0 90 arc closepath fill
	vpt 0 360 arc closepath} bind def
/C2 {BL [] 0 setdash 2 copy moveto
	2 copy vpt 90 180 arc closepath fill
	vpt 0 360 arc closepath} bind def
/C3 {BL [] 0 setdash 2 copy moveto
	2 copy vpt 0 180 arc closepath fill
	vpt 0 360 arc closepath} bind def
/C4 {BL [] 0 setdash 2 copy moveto
	2 copy vpt 180 270 arc closepath fill
	vpt 0 360 arc closepath} bind def
/C5 {BL [] 0 setdash 2 copy moveto
	2 copy vpt 0 90 arc
	2 copy moveto
	2 copy vpt 180 270 arc closepath fill
	vpt 0 360 arc} bind def
/C6 {BL [] 0 setdash 2 copy moveto
	2 copy vpt 90 270 arc closepath fill
	vpt 0 360 arc closepath} bind def
/C7 {BL [] 0 setdash 2 copy moveto
	2 copy vpt 0 270 arc closepath fill
	vpt 0 360 arc closepath} bind def
/C8 {BL [] 0 setdash 2 copy moveto
	2 copy vpt 270 360 arc closepath fill
	vpt 0 360 arc closepath} bind def
/C9 {BL [] 0 setdash 2 copy moveto
	2 copy vpt 270 450 arc closepath fill
	vpt 0 360 arc closepath} bind def
/C10 {BL [] 0 setdash 2 copy 2 copy moveto vpt 270 360 arc closepath fill
	2 copy moveto
	2 copy vpt 90 180 arc closepath fill
	vpt 0 360 arc closepath} bind def
/C11 {BL [] 0 setdash 2 copy moveto
	2 copy vpt 0 180 arc closepath fill
	2 copy moveto
	2 copy vpt 270 360 arc closepath fill
	vpt 0 360 arc closepath} bind def
/C12 {BL [] 0 setdash 2 copy moveto
	2 copy vpt 180 360 arc closepath fill
	vpt 0 360 arc closepath} bind def
/C13 {BL [] 0 setdash 2 copy moveto
	2 copy vpt 0 90 arc closepath fill
	2 copy moveto
	2 copy vpt 180 360 arc closepath fill
	vpt 0 360 arc closepath} bind def
/C14 {BL [] 0 setdash 2 copy moveto
	2 copy vpt 90 360 arc closepath fill
	vpt 0 360 arc} bind def
/C15 {BL [] 0 setdash 2 copy vpt 0 360 arc closepath fill
	vpt 0 360 arc closepath} bind def
/Rec {newpath 4 2 roll moveto 1 index 0 rlineto 0 exch rlineto
	neg 0 rlineto closepath} bind def
/Square {dup Rec} bind def
/Bsquare {vpt sub exch vpt sub exch vpt2 Square} bind def
/S0 {BL [] 0 setdash 2 copy moveto 0 vpt rlineto BL Bsquare} bind def
/S1 {BL [] 0 setdash 2 copy vpt Square fill Bsquare} bind def
/S2 {BL [] 0 setdash 2 copy exch vpt sub exch vpt Square fill Bsquare} bind def
/S3 {BL [] 0 setdash 2 copy exch vpt sub exch vpt2 vpt Rec fill Bsquare} bind def
/S4 {BL [] 0 setdash 2 copy exch vpt sub exch vpt sub vpt Square fill Bsquare} bind def
/S5 {BL [] 0 setdash 2 copy 2 copy vpt Square fill
	exch vpt sub exch vpt sub vpt Square fill Bsquare} bind def
/S6 {BL [] 0 setdash 2 copy exch vpt sub exch vpt sub vpt vpt2 Rec fill Bsquare} bind def
/S7 {BL [] 0 setdash 2 copy exch vpt sub exch vpt sub vpt vpt2 Rec fill
	2 copy vpt Square fill Bsquare} bind def
/S8 {BL [] 0 setdash 2 copy vpt sub vpt Square fill Bsquare} bind def
/S9 {BL [] 0 setdash 2 copy vpt sub vpt vpt2 Rec fill Bsquare} bind def
/S10 {BL [] 0 setdash 2 copy vpt sub vpt Square fill 2 copy exch vpt sub exch vpt Square fill
	Bsquare} bind def
/S11 {BL [] 0 setdash 2 copy vpt sub vpt Square fill 2 copy exch vpt sub exch vpt2 vpt Rec fill
	Bsquare} bind def
/S12 {BL [] 0 setdash 2 copy exch vpt sub exch vpt sub vpt2 vpt Rec fill Bsquare} bind def
/S13 {BL [] 0 setdash 2 copy exch vpt sub exch vpt sub vpt2 vpt Rec fill
	2 copy vpt Square fill Bsquare} bind def
/S14 {BL [] 0 setdash 2 copy exch vpt sub exch vpt sub vpt2 vpt Rec fill
	2 copy exch vpt sub exch vpt Square fill Bsquare} bind def
/S15 {BL [] 0 setdash 2 copy Bsquare fill Bsquare} bind def
/D0 {gsave translate 45 rotate 0 0 S0 stroke grestore} bind def
/D1 {gsave translate 45 rotate 0 0 S1 stroke grestore} bind def
/D2 {gsave translate 45 rotate 0 0 S2 stroke grestore} bind def
/D3 {gsave translate 45 rotate 0 0 S3 stroke grestore} bind def
/D4 {gsave translate 45 rotate 0 0 S4 stroke grestore} bind def
/D5 {gsave translate 45 rotate 0 0 S5 stroke grestore} bind def
/D6 {gsave translate 45 rotate 0 0 S6 stroke grestore} bind def
/D7 {gsave translate 45 rotate 0 0 S7 stroke grestore} bind def
/D8 {gsave translate 45 rotate 0 0 S8 stroke grestore} bind def
/D9 {gsave translate 45 rotate 0 0 S9 stroke grestore} bind def
/D10 {gsave translate 45 rotate 0 0 S10 stroke grestore} bind def
/D11 {gsave translate 45 rotate 0 0 S11 stroke grestore} bind def
/D12 {gsave translate 45 rotate 0 0 S12 stroke grestore} bind def
/D13 {gsave translate 45 rotate 0 0 S13 stroke grestore} bind def
/D14 {gsave translate 45 rotate 0 0 S14 stroke grestore} bind def
/D15 {gsave translate 45 rotate 0 0 S15 stroke grestore} bind def
/DiaE {stroke [] 0 setdash vpt add M
  hpt neg vpt neg V hpt vpt neg V
  hpt vpt V hpt neg vpt V closepath stroke} def
/BoxE {stroke [] 0 setdash exch hpt sub exch vpt add M
  0 vpt2 neg V hpt2 0 V 0 vpt2 V
  hpt2 neg 0 V closepath stroke} def
/TriUE {stroke [] 0 setdash vpt 1.12 mul add M
  hpt neg vpt -1.62 mul V
  hpt 2 mul 0 V
  hpt neg vpt 1.62 mul V closepath stroke} def
/TriDE {stroke [] 0 setdash vpt 1.12 mul sub M
  hpt neg vpt 1.62 mul V
  hpt 2 mul 0 V
  hpt neg vpt -1.62 mul V closepath stroke} def
/PentE {stroke [] 0 setdash gsave
  translate 0 hpt M 4 {72 rotate 0 hpt L} repeat
  closepath stroke grestore} def
/CircE {stroke [] 0 setdash 
  hpt 0 360 arc stroke} def
/Opaque {gsave closepath 1 setgray fill grestore 0 setgray closepath} def
/DiaW {stroke [] 0 setdash vpt add M
  hpt neg vpt neg V hpt vpt neg V
  hpt vpt V hpt neg vpt V Opaque stroke} def
/BoxW {stroke [] 0 setdash exch hpt sub exch vpt add M
  0 vpt2 neg V hpt2 0 V 0 vpt2 V
  hpt2 neg 0 V Opaque stroke} def
/TriUW {stroke [] 0 setdash vpt 1.12 mul add M
  hpt neg vpt -1.62 mul V
  hpt 2 mul 0 V
  hpt neg vpt 1.62 mul V Opaque stroke} def
/TriDW {stroke [] 0 setdash vpt 1.12 mul sub M
  hpt neg vpt 1.62 mul V
  hpt 2 mul 0 V
  hpt neg vpt -1.62 mul V Opaque stroke} def
/PentW {stroke [] 0 setdash gsave
  translate 0 hpt M 4 {72 rotate 0 hpt L} repeat
  Opaque stroke grestore} def
/CircW {stroke [] 0 setdash 
  hpt 0 360 arc Opaque stroke} def
/BoxFill {gsave Rec 1 setgray fill grestore} def
/Density {
  /Fillden exch def
  currentrgbcolor
  /ColB exch def /ColG exch def /ColR exch def
  /ColR ColR Fillden mul Fillden sub 1 add def
  /ColG ColG Fillden mul Fillden sub 1 add def
  /ColB ColB Fillden mul Fillden sub 1 add def
  ColR ColG ColB setrgbcolor} def
/BoxColFill {gsave Rec PolyFill} def
/PolyFill {gsave Density fill grestore grestore} def
/h {rlineto rlineto rlineto gsave closepath fill grestore} bind def
%
% PostScript Level 1 Pattern Fill routine for rectangles
% Usage: x y w h s a XX PatternFill
%	x,y = lower left corner of box to be filled
%	w,h = width and height of box
%	  a = angle in degrees between lines and x-axis
%	 XX = 0/1 for no/yes cross-hatch
%
/PatternFill {gsave /PFa [ 9 2 roll ] def
  PFa 0 get PFa 2 get 2 div add PFa 1 get PFa 3 get 2 div add translate
  PFa 2 get -2 div PFa 3 get -2 div PFa 2 get PFa 3 get Rec
  gsave 1 setgray fill grestore clip
  currentlinewidth 0.5 mul setlinewidth
  /PFs PFa 2 get dup mul PFa 3 get dup mul add sqrt def
  0 0 M PFa 5 get rotate PFs -2 div dup translate
  0 1 PFs PFa 4 get div 1 add floor cvi
	{PFa 4 get mul 0 M 0 PFs V} for
  0 PFa 6 get ne {
	0 1 PFs PFa 4 get div 1 add floor cvi
	{PFa 4 get mul 0 2 1 roll M PFs 0 V} for
 } if
  stroke grestore} def
%
/languagelevel where
 {pop languagelevel} {1} ifelse
 2 lt
	{/InterpretLevel1 true def}
	{/InterpretLevel1 Level1 def}
 ifelse
%
% PostScript level 2 pattern fill definitions
%
/Level2PatternFill {
/Tile8x8 {/PaintType 2 /PatternType 1 /TilingType 1 /BBox [0 0 8 8] /XStep 8 /YStep 8}
	bind def
/KeepColor {currentrgbcolor [/Pattern /DeviceRGB] setcolorspace} bind def
<< Tile8x8
 /PaintProc {0.5 setlinewidth pop 0 0 M 8 8 L 0 8 M 8 0 L stroke} 
>> matrix makepattern
/Pat1 exch def
<< Tile8x8
 /PaintProc {0.5 setlinewidth pop 0 0 M 8 8 L 0 8 M 8 0 L stroke
	0 4 M 4 8 L 8 4 L 4 0 L 0 4 L stroke}
>> matrix makepattern
/Pat2 exch def
<< Tile8x8
 /PaintProc {0.5 setlinewidth pop 0 0 M 0 8 L
	8 8 L 8 0 L 0 0 L fill}
>> matrix makepattern
/Pat3 exch def
<< Tile8x8
 /PaintProc {0.5 setlinewidth pop -4 8 M 8 -4 L
	0 12 M 12 0 L stroke}
>> matrix makepattern
/Pat4 exch def
<< Tile8x8
 /PaintProc {0.5 setlinewidth pop -4 0 M 8 12 L
	0 -4 M 12 8 L stroke}
>> matrix makepattern
/Pat5 exch def
<< Tile8x8
 /PaintProc {0.5 setlinewidth pop -2 8 M 4 -4 L
	0 12 M 8 -4 L 4 12 M 10 0 L stroke}
>> matrix makepattern
/Pat6 exch def
<< Tile8x8
 /PaintProc {0.5 setlinewidth pop -2 0 M 4 12 L
	0 -4 M 8 12 L 4 -4 M 10 8 L stroke}
>> matrix makepattern
/Pat7 exch def
<< Tile8x8
 /PaintProc {0.5 setlinewidth pop 8 -2 M -4 4 L
	12 0 M -4 8 L 12 4 M 0 10 L stroke}
>> matrix makepattern
/Pat8 exch def
<< Tile8x8
 /PaintProc {0.5 setlinewidth pop 0 -2 M 12 4 L
	-4 0 M 12 8 L -4 4 M 8 10 L stroke}
>> matrix makepattern
/Pat9 exch def
/Pattern1 {PatternBgnd KeepColor Pat1 setpattern} bind def
/Pattern2 {PatternBgnd KeepColor Pat2 setpattern} bind def
/Pattern3 {PatternBgnd KeepColor Pat3 setpattern} bind def
/Pattern4 {PatternBgnd KeepColor Landscape {Pat5} {Pat4} ifelse setpattern} bind def
/Pattern5 {PatternBgnd KeepColor Landscape {Pat4} {Pat5} ifelse setpattern} bind def
/Pattern6 {PatternBgnd KeepColor Landscape {Pat9} {Pat6} ifelse setpattern} bind def
/Pattern7 {PatternBgnd KeepColor Landscape {Pat8} {Pat7} ifelse setpattern} bind def
} def
%
%
%End of PostScript Level 2 code
%
/PatternBgnd {
  TransparentPatterns {} {gsave 1 setgray fill grestore} ifelse
} def
%
% Substitute for Level 2 pattern fill codes with
% grayscale if Level 2 support is not selected.
%
/Level1PatternFill {
/Pattern1 {0.250 Density} bind def
/Pattern2 {0.500 Density} bind def
/Pattern3 {0.750 Density} bind def
/Pattern4 {0.125 Density} bind def
/Pattern5 {0.375 Density} bind def
/Pattern6 {0.625 Density} bind def
/Pattern7 {0.875 Density} bind def
} def
%
% Now test for support of Level 2 code
%
Level1 {Level1PatternFill} {Level2PatternFill} ifelse
%
/Symbol-Oblique /Symbol findfont [1 0 .167 1 0 0] makefont
dup length dict begin {1 index /FID eq {pop pop} {def} ifelse} forall
currentdict end definefont pop
end
%%EndProlog
gnudict begin
gsave
doclip
50 50 translate
0.050 0.050 scale
0 setgray
newpath
(Helvetica) findfont 140 scalefont setfont
1.000 UL
LTb
770 448 M
63 0 V
6114 0 R
-63 0 V
686 448 M
( 0) Rshow
1.000 UL
LTb
770 890 M
63 0 V
6114 0 R
-63 0 V
686 890 M
( 100) Rshow
1.000 UL
LTb
770 1333 M
63 0 V
6114 0 R
-63 0 V
-6198 0 R
( 200) Rshow
1.000 UL
LTb
770 1775 M
63 0 V
6114 0 R
-63 0 V
-6198 0 R
( 300) Rshow
1.000 UL
LTb
770 2217 M
63 0 V
6114 0 R
-63 0 V
-6198 0 R
( 400) Rshow
1.000 UL
LTb
770 2660 M
63 0 V
6114 0 R
-63 0 V
-6198 0 R
( 500) Rshow
1.000 UL
LTb
770 3102 M
63 0 V
6114 0 R
-63 0 V
-6198 0 R
( 600) Rshow
1.000 UL
LTb
770 3544 M
63 0 V
6114 0 R
-63 0 V
-6198 0 R
( 700) Rshow
1.000 UL
LTb
770 3986 M
63 0 V
6114 0 R
-63 0 V
-6198 0 R
( 800) Rshow
1.000 UL
LTb
770 4429 M
63 0 V
6114 0 R
-63 0 V
-6198 0 R
( 900) Rshow
1.000 UL
LTb
770 4871 M
63 0 V
6114 0 R
-63 0 V
-6198 0 R
( 1000) Rshow
1.000 UL
LTb
770 448 M
0 63 V
0 4360 R
0 -63 V
770 308 M
( 0) Cshow
1.000 UL
LTb
1388 448 M
0 63 V
0 4360 R
0 -63 V
0 -4500 R
( 100) Cshow
1.000 UL
LTb
2005 448 M
0 63 V
0 4360 R
0 -63 V
0 -4500 R
( 200) Cshow
1.000 UL
LTb
2623 448 M
0 63 V
0 4360 R
0 -63 V
0 -4500 R
( 300) Cshow
1.000 UL
LTb
3241 448 M
0 63 V
0 4360 R
0 -63 V
0 -4500 R
( 400) Cshow
1.000 UL
LTb
3858 448 M
0 63 V
0 4360 R
0 -63 V
0 -4500 R
( 500) Cshow
1.000 UL
LTb
4476 448 M
0 63 V
0 4360 R
0 -63 V
0 -4500 R
( 600) Cshow
1.000 UL
LTb
5094 448 M
0 63 V
0 4360 R
0 -63 V
0 -4500 R
( 700) Cshow
1.000 UL
LTb
5712 448 M
0 63 V
0 4360 R
0 -63 V
0 -4500 R
( 800) Cshow
1.000 UL
LTb
6329 448 M
0 63 V
0 4360 R
0 -63 V
0 -4500 R
( 900) Cshow
1.000 UL
LTb
6947 448 M
0 63 V
0 4360 R
0 -63 V
0 -4500 R
( 1000) Cshow
1.000 UL
LTb
1.000 UL
LTb
770 4871 N
770 448 L
6177 0 V
0 4423 V
-6177 0 V
Z stroke
LCb setrgbcolor
112 2659 M
currentpoint gsave translate -270 rotate 0 0 M
(Visit Count) Cshow
grestore
LTb
LCb setrgbcolor
3858 98 M
(States \(Sorted by Earliest Visit Time\)) Cshow
LTb
1.000 UP
1.000 UL
LTb
% Begin plot #1
1.000 UP
1.000 UL
LT0
LCb setrgbcolor
6296 4738 M
(Offset = 4) Rshow
LT0
770 4871 Pls
776 1505 Pls
782 1602 Pls
789 1461 Pls
795 1647 Pls
801 1669 Pls
807 2031 Pls
813 1496 Pls
819 1713 Pls
826 585 Pls
832 660 Pls
838 753 Pls
844 921 Pls
850 576 Pls
856 625 Pls
863 541 Pls
869 700 Pls
875 713 Pls
881 917 Pls
887 651 Pls
894 930 Pls
900 700 Pls
906 868 Pls
912 713 Pls
918 536 Pls
924 749 Pls
931 572 Pls
937 687 Pls
943 607 Pls
949 559 Pls
955 718 Pls
961 612 Pls
968 651 Pls
974 620 Pls
980 585 Pls
986 850 Pls
992 678 Pls
999 797 Pls
1005 727 Pls
1011 505 Pls
1017 603 Pls
1023 541 Pls
1029 581 Pls
1036 536 Pls
1042 594 Pls
1048 519 Pls
1054 705 Pls
1060 616 Pls
1066 758 Pls
1073 510 Pls
1079 607 Pls
1085 824 Pls
1091 674 Pls
1097 700 Pls
1104 523 Pls
1110 581 Pls
1116 501 Pls
1122 470 Pls
1128 470 Pls
1134 532 Pls
1141 559 Pls
1147 643 Pls
1153 594 Pls
1159 501 Pls
1165 505 Pls
1172 665 Pls
1178 682 Pls
1184 550 Pls
1190 625 Pls
1196 651 Pls
1202 585 Pls
1209 581 Pls
1215 461 Pls
1221 519 Pls
1227 461 Pls
1233 479 Pls
1239 585 Pls
1246 572 Pls
1252 576 Pls
1258 510 Pls
1264 497 Pls
1270 523 Pls
1277 638 Pls
1283 643 Pls
1289 563 Pls
1295 674 Pls
1301 691 Pls
1307 528 Pls
1314 567 Pls
1320 501 Pls
1326 514 Pls
1332 470 Pls
1338 475 Pls
1344 483 Pls
1351 470 Pls
1357 461 Pls
1363 488 Pls
1369 475 Pls
1375 576 Pls
1382 483 Pls
1388 505 Pls
1394 475 Pls
1400 554 Pls
1406 616 Pls
1412 625 Pls
1419 550 Pls
1425 585 Pls
1431 585 Pls
1437 519 Pls
1443 510 Pls
1449 505 Pls
1456 479 Pls
1462 475 Pls
1468 488 Pls
1474 457 Pls
1480 457 Pls
1487 528 Pls
1493 519 Pls
1499 559 Pls
1505 492 Pls
1511 519 Pls
1517 466 Pls
1524 612 Pls
1530 660 Pls
1536 700 Pls
1542 948 Pls
1548 545 Pls
1554 532 Pls
1561 682 Pls
1567 789 Pls
1573 536 Pls
1579 505 Pls
1585 598 Pls
1592 612 Pls
1598 744 Pls
1604 475 Pls
1610 479 Pls
1616 594 Pls
1622 647 Pls
1629 585 Pls
1635 598 Pls
1641 545 Pls
1647 483 Pls
1653 457 Pls
1659 470 Pls
1666 567 Pls
1672 536 Pls
1678 528 Pls
1684 541 Pls
1690 497 Pls
1697 514 Pls
1703 528 Pls
1709 625 Pls
1715 452 Pls
1721 452 Pls
1727 505 Pls
1734 483 Pls
1740 550 Pls
1746 541 Pls
1752 488 Pls
1758 514 Pls
1764 563 Pls
1771 466 Pls
1777 483 Pls
1783 514 Pls
1789 563 Pls
1795 598 Pls
1802 682 Pls
1808 452 Pls
1814 497 Pls
1820 550 Pls
1826 541 Pls
1832 532 Pls
1839 594 Pls
1845 475 Pls
1851 452 Pls
1857 466 Pls
1863 585 Pls
1870 457 Pls
1876 510 Pls
1882 660 Pls
1888 466 Pls
1894 563 Pls
1900 475 Pls
1907 625 Pls
1913 492 Pls
1919 572 Pls
1925 505 Pls
1931 501 Pls
1937 536 Pls
1944 519 Pls
1950 466 Pls
1956 461 Pls
1962 470 Pls
1968 452 Pls
1975 475 Pls
1981 501 Pls
1987 452 Pls
1993 466 Pls
1999 545 Pls
2005 461 Pls
2012 475 Pls
2018 541 Pls
2024 559 Pls
2030 643 Pls
2036 514 Pls
2042 669 Pls
2049 603 Pls
2055 629 Pls
2061 523 Pls
2067 514 Pls
2073 497 Pls
2080 479 Pls
2086 492 Pls
2092 483 Pls
2098 590 Pls
2104 452 Pls
2110 452 Pls
2117 461 Pls
2123 483 Pls
2129 452 Pls
2135 532 Pls
2141 457 Pls
2147 497 Pls
2154 501 Pls
2160 457 Pls
2166 554 Pls
2172 541 Pls
2178 598 Pls
2185 475 Pls
2191 505 Pls
2197 594 Pls
2203 567 Pls
2209 674 Pls
2215 488 Pls
2222 497 Pls
2228 479 Pls
2234 461 Pls
2240 457 Pls
2246 492 Pls
2252 475 Pls
2259 457 Pls
2265 452 Pls
2271 457 Pls
2277 461 Pls
2283 452 Pls
2290 461 Pls
2296 461 Pls
2302 563 Pls
2308 497 Pls
2314 497 Pls
2320 466 Pls
2327 483 Pls
2333 475 Pls
2339 505 Pls
2345 505 Pls
2351 519 Pls
2357 497 Pls
2364 452 Pls
2370 466 Pls
2376 479 Pls
2382 479 Pls
2388 479 Pls
2395 457 Pls
2401 452 Pls
2407 576 Pls
2413 665 Pls
2419 523 Pls
2425 576 Pls
2432 643 Pls
2438 475 Pls
2444 536 Pls
2450 457 Pls
2456 452 Pls
2462 545 Pls
2469 466 Pls
2475 514 Pls
2481 466 Pls
2487 457 Pls
2493 475 Pls
2500 470 Pls
2506 475 Pls
2512 514 Pls
2518 528 Pls
2524 629 Pls
2530 775 Pls
2537 643 Pls
2543 545 Pls
2549 665 Pls
2555 643 Pls
2561 563 Pls
2568 563 Pls
2574 705 Pls
2580 475 Pls
2586 505 Pls
2592 452 Pls
2598 488 Pls
2605 466 Pls
2611 705 Pls
2617 572 Pls
2623 629 Pls
2629 665 Pls
2635 514 Pls
2642 620 Pls
2648 545 Pls
2654 651 Pls
2660 466 Pls
2666 528 Pls
2673 483 Pls
2679 461 Pls
2685 519 Pls
2691 510 Pls
2697 452 Pls
2703 452 Pls
2710 475 Pls
2716 497 Pls
2722 625 Pls
2728 483 Pls
2734 545 Pls
2740 559 Pls
2747 497 Pls
2753 528 Pls
2759 559 Pls
2765 541 Pls
2771 651 Pls
2778 629 Pls
2784 492 Pls
2790 501 Pls
2796 475 Pls
2802 461 Pls
2808 457 Pls
2815 470 Pls
2821 497 Pls
2827 479 Pls
2833 457 Pls
2839 488 Pls
2845 470 Pls
2852 479 Pls
2858 475 Pls
2864 519 Pls
2870 523 Pls
2876 475 Pls
2883 466 Pls
2889 466 Pls
2895 479 Pls
2901 488 Pls
2907 581 Pls
2913 519 Pls
2920 479 Pls
2926 510 Pls
2932 629 Pls
2938 620 Pls
2944 749 Pls
2950 470 Pls
2957 510 Pls
2963 479 Pls
2969 475 Pls
2975 452 Pls
2981 457 Pls
2988 457 Pls
2994 492 Pls
3000 612 Pls
3006 483 Pls
3012 541 Pls
3018 585 Pls
3025 457 Pls
3031 457 Pls
3037 461 Pls
3043 470 Pls
3049 559 Pls
3055 452 Pls
3062 501 Pls
3068 505 Pls
3074 559 Pls
3080 457 Pls
3086 718 Pls
3093 718 Pls
3099 961 Pls
3105 528 Pls
3111 510 Pls
3117 638 Pls
3123 519 Pls
3130 691 Pls
3136 634 Pls
3142 457 Pls
3148 470 Pls
3154 457 Pls
3160 452 Pls
3167 492 Pls
3173 554 Pls
3179 501 Pls
3185 620 Pls
3191 545 Pls
3198 576 Pls
3204 598 Pls
3210 497 Pls
3216 483 Pls
3222 563 Pls
3228 501 Pls
3235 483 Pls
3241 488 Pls
3247 452 Pls
3253 457 Pls
3259 497 Pls
3266 559 Pls
3272 466 Pls
3278 452 Pls
3284 457 Pls
3290 452 Pls
3296 457 Pls
3303 452 Pls
3309 461 Pls
3315 488 Pls
3321 514 Pls
3327 488 Pls
3333 470 Pls
3340 461 Pls
3346 510 Pls
3352 488 Pls
3358 647 Pls
3364 492 Pls
3371 457 Pls
3377 532 Pls
3383 475 Pls
3389 475 Pls
3395 563 Pls
3401 607 Pls
3408 501 Pls
3414 488 Pls
3420 461 Pls
3426 483 Pls
3432 505 Pls
3438 457 Pls
3445 461 Pls
3451 457 Pls
3457 470 Pls
3463 466 Pls
3469 461 Pls
3476 457 Pls
3482 466 Pls
3488 461 Pls
3494 452 Pls
3500 457 Pls
3506 452 Pls
3513 497 Pls
3519 470 Pls
3525 461 Pls
3531 483 Pls
3537 457 Pls
3543 457 Pls
3550 483 Pls
3556 470 Pls
3562 457 Pls
3568 457 Pls
3574 466 Pls
3581 559 Pls
3587 567 Pls
3593 488 Pls
3599 519 Pls
3605 488 Pls
3611 483 Pls
3618 483 Pls
3624 466 Pls
3630 452 Pls
3636 461 Pls
3642 452 Pls
3648 479 Pls
3655 492 Pls
3661 488 Pls
3667 452 Pls
3673 457 Pls
3679 475 Pls
3686 452 Pls
3692 457 Pls
3698 475 Pls
3704 461 Pls
3710 492 Pls
3716 514 Pls
3723 753 Pls
3729 532 Pls
3735 536 Pls
3741 616 Pls
3747 625 Pls
3753 541 Pls
3760 532 Pls
3766 466 Pls
3772 514 Pls
3778 479 Pls
3784 585 Pls
3791 536 Pls
3797 475 Pls
3803 545 Pls
3809 828 Pls
3815 696 Pls
3821 457 Pls
3828 483 Pls
3834 483 Pls
3840 470 Pls
3846 479 Pls
3852 890 Pls
3858 647 Pls
3865 696 Pls
3871 457 Pls
3877 470 Pls
3883 457 Pls
3889 475 Pls
3896 505 Pls
3902 470 Pls
3908 572 Pls
3914 457 Pls
3920 470 Pls
3926 479 Pls
3933 479 Pls
3939 470 Pls
3945 528 Pls
3951 519 Pls
3957 567 Pls
3964 541 Pls
3970 528 Pls
3976 497 Pls
3982 479 Pls
3988 550 Pls
3994 501 Pls
4001 461 Pls
4007 501 Pls
4013 590 Pls
4019 470 Pls
4025 510 Pls
4031 528 Pls
4038 457 Pls
4044 457 Pls
4050 479 Pls
4056 452 Pls
4062 452 Pls
4069 452 Pls
4075 488 Pls
4081 492 Pls
4087 466 Pls
4093 457 Pls
4099 452 Pls
4106 457 Pls
4112 461 Pls
4118 550 Pls
4124 466 Pls
4130 475 Pls
4136 590 Pls
4143 461 Pls
4149 479 Pls
4155 528 Pls
4161 528 Pls
4167 510 Pls
4174 466 Pls
4180 461 Pls
4186 470 Pls
4192 492 Pls
4198 452 Pls
4204 457 Pls
4211 452 Pls
4217 457 Pls
4223 457 Pls
4229 492 Pls
4235 479 Pls
4241 452 Pls
4248 452 Pls
4254 466 Pls
4260 514 Pls
4266 457 Pls
4272 483 Pls
4279 461 Pls
4285 505 Pls
4291 461 Pls
4297 470 Pls
4303 576 Pls
4309 647 Pls
4316 501 Pls
4322 461 Pls
4328 492 Pls
4334 479 Pls
4340 585 Pls
4346 576 Pls
4353 541 Pls
4359 532 Pls
4365 510 Pls
4371 452 Pls
4377 457 Pls
4384 545 Pls
4390 532 Pls
4396 452 Pls
4402 497 Pls
4408 479 Pls
4414 598 Pls
4421 691 Pls
4427 687 Pls
4433 492 Pls
4439 576 Pls
4445 727 Pls
4451 532 Pls
4458 492 Pls
4464 466 Pls
4470 536 Pls
4476 497 Pls
4482 457 Pls
4489 457 Pls
4495 466 Pls
4501 479 Pls
4507 510 Pls
4513 505 Pls
4519 470 Pls
4526 687 Pls
4532 771 Pls
4538 634 Pls
4544 696 Pls
4550 634 Pls
4557 523 Pls
4563 488 Pls
4569 457 Pls
4575 475 Pls
4581 461 Pls
4587 475 Pls
4594 488 Pls
4600 837 Pls
4606 824 Pls
4612 581 Pls
4618 705 Pls
4624 572 Pls
4631 488 Pls
4637 470 Pls
4643 461 Pls
4649 466 Pls
4655 452 Pls
4662 492 Pls
4668 475 Pls
4674 475 Pls
4680 461 Pls
4686 479 Pls
4692 492 Pls
4699 461 Pls
4705 510 Pls
4711 559 Pls
4717 479 Pls
4723 466 Pls
4729 470 Pls
4736 470 Pls
4742 457 Pls
4748 461 Pls
4754 523 Pls
4760 452 Pls
4767 452 Pls
4773 457 Pls
4779 479 Pls
4785 479 Pls
4791 452 Pls
4797 452 Pls
4804 452 Pls
4810 501 Pls
4816 475 Pls
4822 466 Pls
4828 470 Pls
4834 488 Pls
4841 479 Pls
4847 470 Pls
4853 470 Pls
4859 475 Pls
4865 457 Pls
4872 475 Pls
4878 536 Pls
4884 620 Pls
4890 470 Pls
4896 470 Pls
4902 651 Pls
4909 656 Pls
4915 766 Pls
4921 674 Pls
4927 722 Pls
4933 466 Pls
4939 563 Pls
4946 581 Pls
4952 470 Pls
4958 457 Pls
4964 483 Pls
4970 528 Pls
4977 452 Pls
4983 479 Pls
4989 576 Pls
4995 594 Pls
5001 510 Pls
5007 470 Pls
5014 722 Pls
5020 567 Pls
5026 585 Pls
5032 532 Pls
5038 461 Pls
5044 452 Pls
5051 466 Pls
5057 452 Pls
5063 452 Pls
5069 651 Pls
5075 457 Pls
5082 559 Pls
5088 634 Pls
5094 598 Pls
5100 572 Pls
5106 470 Pls
5112 563 Pls
5119 545 Pls
5125 479 Pls
5131 466 Pls
5137 497 Pls
5143 479 Pls
5149 470 Pls
5156 452 Pls
5162 452 Pls
5168 452 Pls
5174 466 Pls
5180 452 Pls
5187 452 Pls
5193 452 Pls
5199 461 Pls
5205 457 Pls
5211 475 Pls
5217 519 Pls
5224 505 Pls
5230 497 Pls
5236 492 Pls
5242 457 Pls
5248 457 Pls
5255 452 Pls
5261 545 Pls
5267 536 Pls
5273 532 Pls
5279 528 Pls
5285 452 Pls
5292 590 Pls
5298 528 Pls
5304 638 Pls
5310 598 Pls
5316 483 Pls
5322 550 Pls
5329 452 Pls
5335 452 Pls
5341 452 Pls
5347 466 Pls
5353 461 Pls
5360 492 Pls
5366 581 Pls
5372 722 Pls
5378 612 Pls
5384 475 Pls
5390 452 Pls
5397 452 Pls
5403 452 Pls
5409 713 Pls
5415 567 Pls
5421 687 Pls
5427 510 Pls
5434 643 Pls
5440 594 Pls
5446 514 Pls
5452 488 Pls
5458 461 Pls
5465 629 Pls
5471 479 Pls
5477 457 Pls
5483 457 Pls
5489 572 Pls
5495 603 Pls
5502 497 Pls
5508 457 Pls
5514 873 Pls
5520 758 Pls
5526 762 Pls
5532 674 Pls
5539 497 Pls
5545 634 Pls
5551 501 Pls
5557 470 Pls
5563 475 Pls
5570 452 Pls
5576 452 Pls
5582 466 Pls
5588 457 Pls
5594 452 Pls
5600 461 Pls
5607 452 Pls
5613 452 Pls
5619 461 Pls
5625 497 Pls
5631 461 Pls
5637 457 Pls
5644 457 Pls
5650 466 Pls
5656 629 Pls
5662 572 Pls
5668 457 Pls
5675 452 Pls
5681 466 Pls
5687 497 Pls
5693 479 Pls
5699 598 Pls
5705 607 Pls
5712 576 Pls
5718 859 Pls
5724 797 Pls
5730 475 Pls
5736 452 Pls
5742 514 Pls
5749 554 Pls
5755 523 Pls
5761 528 Pls
5767 492 Pls
5773 452 Pls
5780 519 Pls
5786 665 Pls
5792 607 Pls
5798 567 Pls
5804 457 Pls
5810 846 Pls
5817 1235 Pls
5823 811 Pls
5829 939 Pls
5835 501 Pls
5841 545 Pls
5847 461 Pls
5854 452 Pls
5860 930 Pls
5866 620 Pls
5872 452 Pls
5878 452 Pls
5885 452 Pls
5891 461 Pls
5897 452 Pls
5903 452 Pls
5909 457 Pls
5915 452 Pls
5922 452 Pls
5928 452 Pls
5934 479 Pls
5940 461 Pls
5946 457 Pls
5953 452 Pls
5959 466 Pls
5965 466 Pls
5971 479 Pls
5977 519 Pls
5983 603 Pls
5990 572 Pls
5996 501 Pls
6002 457 Pls
6008 461 Pls
6014 629 Pls
6020 656 Pls
6027 837 Pls
6033 554 Pls
6039 457 Pls
6045 452 Pls
6051 660 Pls
6058 505 Pls
6064 505 Pls
6070 452 Pls
6076 563 Pls
6082 850 Pls
6088 638 Pls
6095 483 Pls
6101 452 Pls
6107 1315 Pls
6113 567 Pls
6119 678 Pls
6125 554 Pls
6132 598 Pls
6138 497 Pls
6144 452 Pls
6150 709 Pls
6156 1315 Pls
6163 753 Pls
6169 550 Pls
6175 550 Pls
6181 466 Pls
6187 466 Pls
6193 452 Pls
6200 457 Pls
6206 452 Pls
6212 466 Pls
6218 452 Pls
6224 519 Pls
6230 452 Pls
6237 634 Pls
6243 452 Pls
6249 660 Pls
6255 452 Pls
6261 1748 Pls
6268 567 Pls
6274 523 Pls
6280 452 Pls
6286 452 Pls
6292 461 Pls
6298 452 Pls
6305 461 Pls
6311 457 Pls
6317 452 Pls
6323 452 Pls
6329 452 Pls
6335 466 Pls
6342 452 Pls
6348 452 Pls
6354 452 Pls
6360 452 Pls
6366 452 Pls
6373 452 Pls
6379 452 Pls
6385 452 Pls
6391 452 Pls
6579 4738 Pls
% End plot #1
1.000 UL
LTb
770 4871 N
770 448 L
6177 0 V
0 4423 V
-6177 0 V
Z stroke
1.000 UP
1.000 UL
LTb
stroke
grestore
end
showpage
%%Trailer
%%DocumentFonts: Helvetica
