%!PS-Adobe-2.0 EPSF-2.0
%%Title: ../plots/domainstats/states-sorted-by-ply-visit-count-minigammon-p-0.00.eps
%%Creator: gnuplot 4.4 patchlevel 3
%%CreationDate: Wed Dec 14 04:42:16 2011
%%DocumentFonts: (atend)
%%BoundingBox: 50 50 410 302
%%EndComments
%%BeginProlog
/gnudict 256 dict def
gnudict begin
%
% The following true/false flags may be edited by hand if desired.
% The unit line width and grayscale image gamma correction may also be changed.
%
/Color true def
/Blacktext false def
/Solid false def
/Dashlength 1 def
/Landscape false def
/Level1 false def
/Rounded false def
/ClipToBoundingBox false def
/TransparentPatterns false def
/gnulinewidth 5.000 def
/userlinewidth gnulinewidth def
/Gamma 1.0 def
%
/vshift -46 def
/dl1 {
  10.0 Dashlength mul mul
  Rounded { currentlinewidth 0.75 mul sub dup 0 le { pop 0.01 } if } if
} def
/dl2 {
  10.0 Dashlength mul mul
  Rounded { currentlinewidth 0.75 mul add } if
} def
/hpt_ 31.5 def
/vpt_ 31.5 def
/hpt hpt_ def
/vpt vpt_ def
Level1 {} {
/SDict 10 dict def
systemdict /pdfmark known not {
  userdict /pdfmark systemdict /cleartomark get put
} if
SDict begin [
  /Title (../plots/domainstats/states-sorted-by-ply-visit-count-minigammon-p-0.00.eps)
  /Subject (gnuplot plot)
  /Creator (gnuplot 4.4 patchlevel 3)
  /Author (reza)
%  /Producer (gnuplot)
%  /Keywords ()
  /CreationDate (Wed Dec 14 04:42:16 2011)
  /DOCINFO pdfmark
end
} ifelse
/doclip {
  ClipToBoundingBox {
    newpath 50 50 moveto 410 50 lineto 410 302 lineto 50 302 lineto closepath
    clip
  } if
} def
%
% Gnuplot Prolog Version 4.4 (August 2010)
%
%/SuppressPDFMark true def
%
/M {moveto} bind def
/L {lineto} bind def
/R {rmoveto} bind def
/V {rlineto} bind def
/N {newpath moveto} bind def
/Z {closepath} bind def
/C {setrgbcolor} bind def
/f {rlineto fill} bind def
/g {setgray} bind def
/Gshow {show} def   % May be redefined later in the file to support UTF-8
/vpt2 vpt 2 mul def
/hpt2 hpt 2 mul def
/Lshow {currentpoint stroke M 0 vshift R 
	Blacktext {gsave 0 setgray show grestore} {show} ifelse} def
/Rshow {currentpoint stroke M dup stringwidth pop neg vshift R
	Blacktext {gsave 0 setgray show grestore} {show} ifelse} def
/Cshow {currentpoint stroke M dup stringwidth pop -2 div vshift R 
	Blacktext {gsave 0 setgray show grestore} {show} ifelse} def
/UP {dup vpt_ mul /vpt exch def hpt_ mul /hpt exch def
  /hpt2 hpt 2 mul def /vpt2 vpt 2 mul def} def
/DL {Color {setrgbcolor Solid {pop []} if 0 setdash}
 {pop pop pop 0 setgray Solid {pop []} if 0 setdash} ifelse} def
/BL {stroke userlinewidth 2 mul setlinewidth
	Rounded {1 setlinejoin 1 setlinecap} if} def
/AL {stroke userlinewidth 2 div setlinewidth
	Rounded {1 setlinejoin 1 setlinecap} if} def
/UL {dup gnulinewidth mul /userlinewidth exch def
	dup 1 lt {pop 1} if 10 mul /udl exch def} def
/PL {stroke userlinewidth setlinewidth
	Rounded {1 setlinejoin 1 setlinecap} if} def
3.8 setmiterlimit
% Default Line colors
/LCw {1 1 1} def
/LCb {0 0 0} def
/LCa {0 0 0} def
/LC0 {1 0 0} def
/LC1 {0 1 0} def
/LC2 {0 0 1} def
/LC3 {1 0 1} def
/LC4 {0 1 1} def
/LC5 {1 1 0} def
/LC6 {0 0 0} def
/LC7 {1 0.3 0} def
/LC8 {0.5 0.5 0.5} def
% Default Line Types
/LTw {PL [] 1 setgray} def
/LTb {BL [] LCb DL} def
/LTa {AL [1 udl mul 2 udl mul] 0 setdash LCa setrgbcolor} def
/LT0 {PL [] LC0 DL} def
/LT1 {PL [4 dl1 2 dl2] LC1 DL} def
/LT2 {PL [2 dl1 3 dl2] LC2 DL} def
/LT3 {PL [1 dl1 1.5 dl2] LC3 DL} def
/LT4 {PL [6 dl1 2 dl2 1 dl1 2 dl2] LC4 DL} def
/LT5 {PL [3 dl1 3 dl2 1 dl1 3 dl2] LC5 DL} def
/LT6 {PL [2 dl1 2 dl2 2 dl1 6 dl2] LC6 DL} def
/LT7 {PL [1 dl1 2 dl2 6 dl1 2 dl2 1 dl1 2 dl2] LC7 DL} def
/LT8 {PL [2 dl1 2 dl2 2 dl1 2 dl2 2 dl1 2 dl2 2 dl1 4 dl2] LC8 DL} def
/Pnt {stroke [] 0 setdash gsave 1 setlinecap M 0 0 V stroke grestore} def
/Dia {stroke [] 0 setdash 2 copy vpt add M
  hpt neg vpt neg V hpt vpt neg V
  hpt vpt V hpt neg vpt V closepath stroke
  Pnt} def
/Pls {stroke [] 0 setdash vpt sub M 0 vpt2 V
  currentpoint stroke M
  hpt neg vpt neg R hpt2 0 V stroke
 } def
/Box {stroke [] 0 setdash 2 copy exch hpt sub exch vpt add M
  0 vpt2 neg V hpt2 0 V 0 vpt2 V
  hpt2 neg 0 V closepath stroke
  Pnt} def
/Crs {stroke [] 0 setdash exch hpt sub exch vpt add M
  hpt2 vpt2 neg V currentpoint stroke M
  hpt2 neg 0 R hpt2 vpt2 V stroke} def
/TriU {stroke [] 0 setdash 2 copy vpt 1.12 mul add M
  hpt neg vpt -1.62 mul V
  hpt 2 mul 0 V
  hpt neg vpt 1.62 mul V closepath stroke
  Pnt} def
/Star {2 copy Pls Crs} def
/BoxF {stroke [] 0 setdash exch hpt sub exch vpt add M
  0 vpt2 neg V hpt2 0 V 0 vpt2 V
  hpt2 neg 0 V closepath fill} def
/TriUF {stroke [] 0 setdash vpt 1.12 mul add M
  hpt neg vpt -1.62 mul V
  hpt 2 mul 0 V
  hpt neg vpt 1.62 mul V closepath fill} def
/TriD {stroke [] 0 setdash 2 copy vpt 1.12 mul sub M
  hpt neg vpt 1.62 mul V
  hpt 2 mul 0 V
  hpt neg vpt -1.62 mul V closepath stroke
  Pnt} def
/TriDF {stroke [] 0 setdash vpt 1.12 mul sub M
  hpt neg vpt 1.62 mul V
  hpt 2 mul 0 V
  hpt neg vpt -1.62 mul V closepath fill} def
/DiaF {stroke [] 0 setdash vpt add M
  hpt neg vpt neg V hpt vpt neg V
  hpt vpt V hpt neg vpt V closepath fill} def
/Pent {stroke [] 0 setdash 2 copy gsave
  translate 0 hpt M 4 {72 rotate 0 hpt L} repeat
  closepath stroke grestore Pnt} def
/PentF {stroke [] 0 setdash gsave
  translate 0 hpt M 4 {72 rotate 0 hpt L} repeat
  closepath fill grestore} def
/Circle {stroke [] 0 setdash 2 copy
  hpt 0 360 arc stroke Pnt} def
/CircleF {stroke [] 0 setdash hpt 0 360 arc fill} def
/C0 {BL [] 0 setdash 2 copy moveto vpt 90 450 arc} bind def
/C1 {BL [] 0 setdash 2 copy moveto
	2 copy vpt 0 90 arc closepath fill
	vpt 0 360 arc closepath} bind def
/C2 {BL [] 0 setdash 2 copy moveto
	2 copy vpt 90 180 arc closepath fill
	vpt 0 360 arc closepath} bind def
/C3 {BL [] 0 setdash 2 copy moveto
	2 copy vpt 0 180 arc closepath fill
	vpt 0 360 arc closepath} bind def
/C4 {BL [] 0 setdash 2 copy moveto
	2 copy vpt 180 270 arc closepath fill
	vpt 0 360 arc closepath} bind def
/C5 {BL [] 0 setdash 2 copy moveto
	2 copy vpt 0 90 arc
	2 copy moveto
	2 copy vpt 180 270 arc closepath fill
	vpt 0 360 arc} bind def
/C6 {BL [] 0 setdash 2 copy moveto
	2 copy vpt 90 270 arc closepath fill
	vpt 0 360 arc closepath} bind def
/C7 {BL [] 0 setdash 2 copy moveto
	2 copy vpt 0 270 arc closepath fill
	vpt 0 360 arc closepath} bind def
/C8 {BL [] 0 setdash 2 copy moveto
	2 copy vpt 270 360 arc closepath fill
	vpt 0 360 arc closepath} bind def
/C9 {BL [] 0 setdash 2 copy moveto
	2 copy vpt 270 450 arc closepath fill
	vpt 0 360 arc closepath} bind def
/C10 {BL [] 0 setdash 2 copy 2 copy moveto vpt 270 360 arc closepath fill
	2 copy moveto
	2 copy vpt 90 180 arc closepath fill
	vpt 0 360 arc closepath} bind def
/C11 {BL [] 0 setdash 2 copy moveto
	2 copy vpt 0 180 arc closepath fill
	2 copy moveto
	2 copy vpt 270 360 arc closepath fill
	vpt 0 360 arc closepath} bind def
/C12 {BL [] 0 setdash 2 copy moveto
	2 copy vpt 180 360 arc closepath fill
	vpt 0 360 arc closepath} bind def
/C13 {BL [] 0 setdash 2 copy moveto
	2 copy vpt 0 90 arc closepath fill
	2 copy moveto
	2 copy vpt 180 360 arc closepath fill
	vpt 0 360 arc closepath} bind def
/C14 {BL [] 0 setdash 2 copy moveto
	2 copy vpt 90 360 arc closepath fill
	vpt 0 360 arc} bind def
/C15 {BL [] 0 setdash 2 copy vpt 0 360 arc closepath fill
	vpt 0 360 arc closepath} bind def
/Rec {newpath 4 2 roll moveto 1 index 0 rlineto 0 exch rlineto
	neg 0 rlineto closepath} bind def
/Square {dup Rec} bind def
/Bsquare {vpt sub exch vpt sub exch vpt2 Square} bind def
/S0 {BL [] 0 setdash 2 copy moveto 0 vpt rlineto BL Bsquare} bind def
/S1 {BL [] 0 setdash 2 copy vpt Square fill Bsquare} bind def
/S2 {BL [] 0 setdash 2 copy exch vpt sub exch vpt Square fill Bsquare} bind def
/S3 {BL [] 0 setdash 2 copy exch vpt sub exch vpt2 vpt Rec fill Bsquare} bind def
/S4 {BL [] 0 setdash 2 copy exch vpt sub exch vpt sub vpt Square fill Bsquare} bind def
/S5 {BL [] 0 setdash 2 copy 2 copy vpt Square fill
	exch vpt sub exch vpt sub vpt Square fill Bsquare} bind def
/S6 {BL [] 0 setdash 2 copy exch vpt sub exch vpt sub vpt vpt2 Rec fill Bsquare} bind def
/S7 {BL [] 0 setdash 2 copy exch vpt sub exch vpt sub vpt vpt2 Rec fill
	2 copy vpt Square fill Bsquare} bind def
/S8 {BL [] 0 setdash 2 copy vpt sub vpt Square fill Bsquare} bind def
/S9 {BL [] 0 setdash 2 copy vpt sub vpt vpt2 Rec fill Bsquare} bind def
/S10 {BL [] 0 setdash 2 copy vpt sub vpt Square fill 2 copy exch vpt sub exch vpt Square fill
	Bsquare} bind def
/S11 {BL [] 0 setdash 2 copy vpt sub vpt Square fill 2 copy exch vpt sub exch vpt2 vpt Rec fill
	Bsquare} bind def
/S12 {BL [] 0 setdash 2 copy exch vpt sub exch vpt sub vpt2 vpt Rec fill Bsquare} bind def
/S13 {BL [] 0 setdash 2 copy exch vpt sub exch vpt sub vpt2 vpt Rec fill
	2 copy vpt Square fill Bsquare} bind def
/S14 {BL [] 0 setdash 2 copy exch vpt sub exch vpt sub vpt2 vpt Rec fill
	2 copy exch vpt sub exch vpt Square fill Bsquare} bind def
/S15 {BL [] 0 setdash 2 copy Bsquare fill Bsquare} bind def
/D0 {gsave translate 45 rotate 0 0 S0 stroke grestore} bind def
/D1 {gsave translate 45 rotate 0 0 S1 stroke grestore} bind def
/D2 {gsave translate 45 rotate 0 0 S2 stroke grestore} bind def
/D3 {gsave translate 45 rotate 0 0 S3 stroke grestore} bind def
/D4 {gsave translate 45 rotate 0 0 S4 stroke grestore} bind def
/D5 {gsave translate 45 rotate 0 0 S5 stroke grestore} bind def
/D6 {gsave translate 45 rotate 0 0 S6 stroke grestore} bind def
/D7 {gsave translate 45 rotate 0 0 S7 stroke grestore} bind def
/D8 {gsave translate 45 rotate 0 0 S8 stroke grestore} bind def
/D9 {gsave translate 45 rotate 0 0 S9 stroke grestore} bind def
/D10 {gsave translate 45 rotate 0 0 S10 stroke grestore} bind def
/D11 {gsave translate 45 rotate 0 0 S11 stroke grestore} bind def
/D12 {gsave translate 45 rotate 0 0 S12 stroke grestore} bind def
/D13 {gsave translate 45 rotate 0 0 S13 stroke grestore} bind def
/D14 {gsave translate 45 rotate 0 0 S14 stroke grestore} bind def
/D15 {gsave translate 45 rotate 0 0 S15 stroke grestore} bind def
/DiaE {stroke [] 0 setdash vpt add M
  hpt neg vpt neg V hpt vpt neg V
  hpt vpt V hpt neg vpt V closepath stroke} def
/BoxE {stroke [] 0 setdash exch hpt sub exch vpt add M
  0 vpt2 neg V hpt2 0 V 0 vpt2 V
  hpt2 neg 0 V closepath stroke} def
/TriUE {stroke [] 0 setdash vpt 1.12 mul add M
  hpt neg vpt -1.62 mul V
  hpt 2 mul 0 V
  hpt neg vpt 1.62 mul V closepath stroke} def
/TriDE {stroke [] 0 setdash vpt 1.12 mul sub M
  hpt neg vpt 1.62 mul V
  hpt 2 mul 0 V
  hpt neg vpt -1.62 mul V closepath stroke} def
/PentE {stroke [] 0 setdash gsave
  translate 0 hpt M 4 {72 rotate 0 hpt L} repeat
  closepath stroke grestore} def
/CircE {stroke [] 0 setdash 
  hpt 0 360 arc stroke} def
/Opaque {gsave closepath 1 setgray fill grestore 0 setgray closepath} def
/DiaW {stroke [] 0 setdash vpt add M
  hpt neg vpt neg V hpt vpt neg V
  hpt vpt V hpt neg vpt V Opaque stroke} def
/BoxW {stroke [] 0 setdash exch hpt sub exch vpt add M
  0 vpt2 neg V hpt2 0 V 0 vpt2 V
  hpt2 neg 0 V Opaque stroke} def
/TriUW {stroke [] 0 setdash vpt 1.12 mul add M
  hpt neg vpt -1.62 mul V
  hpt 2 mul 0 V
  hpt neg vpt 1.62 mul V Opaque stroke} def
/TriDW {stroke [] 0 setdash vpt 1.12 mul sub M
  hpt neg vpt 1.62 mul V
  hpt 2 mul 0 V
  hpt neg vpt -1.62 mul V Opaque stroke} def
/PentW {stroke [] 0 setdash gsave
  translate 0 hpt M 4 {72 rotate 0 hpt L} repeat
  Opaque stroke grestore} def
/CircW {stroke [] 0 setdash 
  hpt 0 360 arc Opaque stroke} def
/BoxFill {gsave Rec 1 setgray fill grestore} def
/Density {
  /Fillden exch def
  currentrgbcolor
  /ColB exch def /ColG exch def /ColR exch def
  /ColR ColR Fillden mul Fillden sub 1 add def
  /ColG ColG Fillden mul Fillden sub 1 add def
  /ColB ColB Fillden mul Fillden sub 1 add def
  ColR ColG ColB setrgbcolor} def
/BoxColFill {gsave Rec PolyFill} def
/PolyFill {gsave Density fill grestore grestore} def
/h {rlineto rlineto rlineto gsave closepath fill grestore} bind def
%
% PostScript Level 1 Pattern Fill routine for rectangles
% Usage: x y w h s a XX PatternFill
%	x,y = lower left corner of box to be filled
%	w,h = width and height of box
%	  a = angle in degrees between lines and x-axis
%	 XX = 0/1 for no/yes cross-hatch
%
/PatternFill {gsave /PFa [ 9 2 roll ] def
  PFa 0 get PFa 2 get 2 div add PFa 1 get PFa 3 get 2 div add translate
  PFa 2 get -2 div PFa 3 get -2 div PFa 2 get PFa 3 get Rec
  gsave 1 setgray fill grestore clip
  currentlinewidth 0.5 mul setlinewidth
  /PFs PFa 2 get dup mul PFa 3 get dup mul add sqrt def
  0 0 M PFa 5 get rotate PFs -2 div dup translate
  0 1 PFs PFa 4 get div 1 add floor cvi
	{PFa 4 get mul 0 M 0 PFs V} for
  0 PFa 6 get ne {
	0 1 PFs PFa 4 get div 1 add floor cvi
	{PFa 4 get mul 0 2 1 roll M PFs 0 V} for
 } if
  stroke grestore} def
%
/languagelevel where
 {pop languagelevel} {1} ifelse
 2 lt
	{/InterpretLevel1 true def}
	{/InterpretLevel1 Level1 def}
 ifelse
%
% PostScript level 2 pattern fill definitions
%
/Level2PatternFill {
/Tile8x8 {/PaintType 2 /PatternType 1 /TilingType 1 /BBox [0 0 8 8] /XStep 8 /YStep 8}
	bind def
/KeepColor {currentrgbcolor [/Pattern /DeviceRGB] setcolorspace} bind def
<< Tile8x8
 /PaintProc {0.5 setlinewidth pop 0 0 M 8 8 L 0 8 M 8 0 L stroke} 
>> matrix makepattern
/Pat1 exch def
<< Tile8x8
 /PaintProc {0.5 setlinewidth pop 0 0 M 8 8 L 0 8 M 8 0 L stroke
	0 4 M 4 8 L 8 4 L 4 0 L 0 4 L stroke}
>> matrix makepattern
/Pat2 exch def
<< Tile8x8
 /PaintProc {0.5 setlinewidth pop 0 0 M 0 8 L
	8 8 L 8 0 L 0 0 L fill}
>> matrix makepattern
/Pat3 exch def
<< Tile8x8
 /PaintProc {0.5 setlinewidth pop -4 8 M 8 -4 L
	0 12 M 12 0 L stroke}
>> matrix makepattern
/Pat4 exch def
<< Tile8x8
 /PaintProc {0.5 setlinewidth pop -4 0 M 8 12 L
	0 -4 M 12 8 L stroke}
>> matrix makepattern
/Pat5 exch def
<< Tile8x8
 /PaintProc {0.5 setlinewidth pop -2 8 M 4 -4 L
	0 12 M 8 -4 L 4 12 M 10 0 L stroke}
>> matrix makepattern
/Pat6 exch def
<< Tile8x8
 /PaintProc {0.5 setlinewidth pop -2 0 M 4 12 L
	0 -4 M 8 12 L 4 -4 M 10 8 L stroke}
>> matrix makepattern
/Pat7 exch def
<< Tile8x8
 /PaintProc {0.5 setlinewidth pop 8 -2 M -4 4 L
	12 0 M -4 8 L 12 4 M 0 10 L stroke}
>> matrix makepattern
/Pat8 exch def
<< Tile8x8
 /PaintProc {0.5 setlinewidth pop 0 -2 M 12 4 L
	-4 0 M 12 8 L -4 4 M 8 10 L stroke}
>> matrix makepattern
/Pat9 exch def
/Pattern1 {PatternBgnd KeepColor Pat1 setpattern} bind def
/Pattern2 {PatternBgnd KeepColor Pat2 setpattern} bind def
/Pattern3 {PatternBgnd KeepColor Pat3 setpattern} bind def
/Pattern4 {PatternBgnd KeepColor Landscape {Pat5} {Pat4} ifelse setpattern} bind def
/Pattern5 {PatternBgnd KeepColor Landscape {Pat4} {Pat5} ifelse setpattern} bind def
/Pattern6 {PatternBgnd KeepColor Landscape {Pat9} {Pat6} ifelse setpattern} bind def
/Pattern7 {PatternBgnd KeepColor Landscape {Pat8} {Pat7} ifelse setpattern} bind def
} def
%
%
%End of PostScript Level 2 code
%
/PatternBgnd {
  TransparentPatterns {} {gsave 1 setgray fill grestore} ifelse
} def
%
% Substitute for Level 2 pattern fill codes with
% grayscale if Level 2 support is not selected.
%
/Level1PatternFill {
/Pattern1 {0.250 Density} bind def
/Pattern2 {0.500 Density} bind def
/Pattern3 {0.750 Density} bind def
/Pattern4 {0.125 Density} bind def
/Pattern5 {0.375 Density} bind def
/Pattern6 {0.625 Density} bind def
/Pattern7 {0.875 Density} bind def
} def
%
% Now test for support of Level 2 code
%
Level1 {Level1PatternFill} {Level2PatternFill} ifelse
%
/Symbol-Oblique /Symbol findfont [1 0 .167 1 0 0] makefont
dup length dict begin {1 index /FID eq {pop pop} {def} ifelse} forall
currentdict end definefont pop
end
%%EndProlog
gnudict begin
gsave
doclip
50 50 translate
0.050 0.050 scale
0 setgray
newpath
(Helvetica) findfont 140 scalefont setfont
1.000 UL
LTb
770 448 M
63 0 V
6114 0 R
-63 0 V
686 448 M
( 0) Rshow
1.000 UL
LTb
770 890 M
63 0 V
6114 0 R
-63 0 V
686 890 M
( 100) Rshow
1.000 UL
LTb
770 1333 M
63 0 V
6114 0 R
-63 0 V
-6198 0 R
( 200) Rshow
1.000 UL
LTb
770 1775 M
63 0 V
6114 0 R
-63 0 V
-6198 0 R
( 300) Rshow
1.000 UL
LTb
770 2217 M
63 0 V
6114 0 R
-63 0 V
-6198 0 R
( 400) Rshow
1.000 UL
LTb
770 2660 M
63 0 V
6114 0 R
-63 0 V
-6198 0 R
( 500) Rshow
1.000 UL
LTb
770 3102 M
63 0 V
6114 0 R
-63 0 V
-6198 0 R
( 600) Rshow
1.000 UL
LTb
770 3544 M
63 0 V
6114 0 R
-63 0 V
-6198 0 R
( 700) Rshow
1.000 UL
LTb
770 3986 M
63 0 V
6114 0 R
-63 0 V
-6198 0 R
( 800) Rshow
1.000 UL
LTb
770 4429 M
63 0 V
6114 0 R
-63 0 V
-6198 0 R
( 900) Rshow
1.000 UL
LTb
770 4871 M
63 0 V
6114 0 R
-63 0 V
-6198 0 R
( 1000) Rshow
1.000 UL
LTb
770 448 M
0 63 V
0 4360 R
0 -63 V
770 308 M
( 0) Cshow
1.000 UL
LTb
1388 448 M
0 63 V
0 4360 R
0 -63 V
0 -4500 R
( 100) Cshow
1.000 UL
LTb
2005 448 M
0 63 V
0 4360 R
0 -63 V
0 -4500 R
( 200) Cshow
1.000 UL
LTb
2623 448 M
0 63 V
0 4360 R
0 -63 V
0 -4500 R
( 300) Cshow
1.000 UL
LTb
3241 448 M
0 63 V
0 4360 R
0 -63 V
0 -4500 R
( 400) Cshow
1.000 UL
LTb
3858 448 M
0 63 V
0 4360 R
0 -63 V
0 -4500 R
( 500) Cshow
1.000 UL
LTb
4476 448 M
0 63 V
0 4360 R
0 -63 V
0 -4500 R
( 600) Cshow
1.000 UL
LTb
5094 448 M
0 63 V
0 4360 R
0 -63 V
0 -4500 R
( 700) Cshow
1.000 UL
LTb
5712 448 M
0 63 V
0 4360 R
0 -63 V
0 -4500 R
( 800) Cshow
1.000 UL
LTb
6329 448 M
0 63 V
0 4360 R
0 -63 V
0 -4500 R
( 900) Cshow
1.000 UL
LTb
6947 448 M
0 63 V
0 4360 R
0 -63 V
0 -4500 R
( 1000) Cshow
1.000 UL
LTb
1.000 UL
LTb
770 4871 N
770 448 L
6177 0 V
0 4423 V
-6177 0 V
Z stroke
LCb setrgbcolor
112 2659 M
currentpoint gsave translate -270 rotate 0 0 M
(Visit Count) Cshow
grestore
LTb
LCb setrgbcolor
3858 98 M
(States \(Sorted by Earliest Visit Time\)) Cshow
LTb
1.000 UP
1.000 UL
LTb
% Begin plot #1
1.000 UP
1.000 UL
LT0
LCb setrgbcolor
6296 4738 M
(p = 0.00) Rshow
LT0
770 4871 Pls
776 1456 Pls
782 1651 Pls
789 1540 Pls
795 1567 Pls
801 1633 Pls
807 1815 Pls
813 1642 Pls
819 1748 Pls
826 585 Pls
832 665 Pls
838 735 Pls
844 895 Pls
850 603 Pls
856 660 Pls
863 598 Pls
869 651 Pls
875 705 Pls
881 815 Pls
887 696 Pls
894 939 Pls
900 634 Pls
906 886 Pls
912 674 Pls
918 620 Pls
924 740 Pls
931 550 Pls
937 740 Pls
943 598 Pls
949 559 Pls
955 766 Pls
961 598 Pls
968 656 Pls
974 598 Pls
980 629 Pls
986 890 Pls
992 687 Pls
999 895 Pls
1005 727 Pls
1011 505 Pls
1017 607 Pls
1023 554 Pls
1029 585 Pls
1036 523 Pls
1042 572 Pls
1048 528 Pls
1054 740 Pls
1060 616 Pls
1066 665 Pls
1073 528 Pls
1079 559 Pls
1085 749 Pls
1091 660 Pls
1097 784 Pls
1104 514 Pls
1110 585 Pls
1116 559 Pls
1122 479 Pls
1128 470 Pls
1134 576 Pls
1141 514 Pls
1147 603 Pls
1153 603 Pls
1159 488 Pls
1165 492 Pls
1172 651 Pls
1178 669 Pls
1184 594 Pls
1190 603 Pls
1196 709 Pls
1202 607 Pls
1209 567 Pls
1215 488 Pls
1221 505 Pls
1227 461 Pls
1233 457 Pls
1239 554 Pls
1246 554 Pls
1252 563 Pls
1258 545 Pls
1264 497 Pls
1270 532 Pls
1277 638 Pls
1283 629 Pls
1289 594 Pls
1295 682 Pls
1301 669 Pls
1307 554 Pls
1314 572 Pls
1320 505 Pls
1326 475 Pls
1332 466 Pls
1338 466 Pls
1344 470 Pls
1351 479 Pls
1357 466 Pls
1363 488 Pls
1369 488 Pls
1375 497 Pls
1382 470 Pls
1388 514 Pls
1394 497 Pls
1400 603 Pls
1406 598 Pls
1412 612 Pls
1419 585 Pls
1425 585 Pls
1431 559 Pls
1437 536 Pls
1443 510 Pls
1449 488 Pls
1456 475 Pls
1462 470 Pls
1468 475 Pls
1474 461 Pls
1480 483 Pls
1487 528 Pls
1493 501 Pls
1499 554 Pls
1505 519 Pls
1511 523 Pls
1517 488 Pls
1524 536 Pls
1530 669 Pls
1536 744 Pls
1542 890 Pls
1548 541 Pls
1554 559 Pls
1561 643 Pls
1567 850 Pls
1573 514 Pls
1579 488 Pls
1585 470 Pls
1592 554 Pls
1598 585 Pls
1604 669 Pls
1610 709 Pls
1616 488 Pls
1622 483 Pls
1629 634 Pls
1635 700 Pls
1641 567 Pls
1647 563 Pls
1653 585 Pls
1659 452 Pls
1666 466 Pls
1672 532 Pls
1678 550 Pls
1684 497 Pls
1690 523 Pls
1697 488 Pls
1703 532 Pls
1709 514 Pls
1715 594 Pls
1721 452 Pls
1727 457 Pls
1734 479 Pls
1740 470 Pls
1746 567 Pls
1752 567 Pls
1758 483 Pls
1764 505 Pls
1771 541 Pls
1777 567 Pls
1783 452 Pls
1789 492 Pls
1795 501 Pls
1802 567 Pls
1808 576 Pls
1814 651 Pls
1820 470 Pls
1826 457 Pls
1832 479 Pls
1839 536 Pls
1845 528 Pls
1851 559 Pls
1857 572 Pls
1863 461 Pls
1870 475 Pls
1876 505 Pls
1882 466 Pls
1888 536 Pls
1894 612 Pls
1900 479 Pls
1907 510 Pls
1913 470 Pls
1919 528 Pls
1925 452 Pls
1931 501 Pls
1937 594 Pls
1944 505 Pls
1950 501 Pls
1956 532 Pls
1962 519 Pls
1968 483 Pls
1975 457 Pls
1981 461 Pls
1987 550 Pls
1993 461 Pls
1999 563 Pls
2005 452 Pls
2012 488 Pls
2018 523 Pls
2024 466 Pls
2030 536 Pls
2036 643 Pls
2042 550 Pls
2049 625 Pls
2055 554 Pls
2061 528 Pls
2067 523 Pls
2073 488 Pls
2080 497 Pls
2086 488 Pls
2092 581 Pls
2098 457 Pls
2104 461 Pls
2110 457 Pls
2117 488 Pls
2123 519 Pls
2129 461 Pls
2135 510 Pls
2141 505 Pls
2147 461 Pls
2154 510 Pls
2160 545 Pls
2166 528 Pls
2172 598 Pls
2178 501 Pls
2185 492 Pls
2191 523 Pls
2197 612 Pls
2203 563 Pls
2209 674 Pls
2215 510 Pls
2222 523 Pls
2228 452 Pls
2234 457 Pls
2240 452 Pls
2246 466 Pls
2252 466 Pls
2259 457 Pls
2265 452 Pls
2271 492 Pls
2277 466 Pls
2283 452 Pls
2290 461 Pls
2296 452 Pls
2302 461 Pls
2308 466 Pls
2314 466 Pls
2320 510 Pls
2327 501 Pls
2333 497 Pls
2339 461 Pls
2345 457 Pls
2351 470 Pls
2357 461 Pls
2364 505 Pls
2370 483 Pls
2376 510 Pls
2382 505 Pls
2388 501 Pls
2395 457 Pls
2401 466 Pls
2407 479 Pls
2413 470 Pls
2419 479 Pls
2425 536 Pls
2432 660 Pls
2438 514 Pls
2444 590 Pls
2450 629 Pls
2456 475 Pls
2462 514 Pls
2469 457 Pls
2475 470 Pls
2481 523 Pls
2487 483 Pls
2493 492 Pls
2500 466 Pls
2506 457 Pls
2512 470 Pls
2518 461 Pls
2524 643 Pls
2530 612 Pls
2537 740 Pls
2543 647 Pls
2549 519 Pls
2555 718 Pls
2561 612 Pls
2568 550 Pls
2574 576 Pls
2580 696 Pls
2586 483 Pls
2592 536 Pls
2598 457 Pls
2605 523 Pls
2611 536 Pls
2617 696 Pls
2623 594 Pls
2629 674 Pls
2635 572 Pls
2642 497 Pls
2648 452 Pls
2654 479 Pls
2660 510 Pls
2666 528 Pls
2673 625 Pls
2679 488 Pls
2685 475 Pls
2691 475 Pls
2697 466 Pls
2703 470 Pls
2710 514 Pls
2716 488 Pls
2722 461 Pls
2728 466 Pls
2734 457 Pls
2740 452 Pls
2747 483 Pls
2753 581 Pls
2759 483 Pls
2765 559 Pls
2771 559 Pls
2778 452 Pls
2784 523 Pls
2790 563 Pls
2796 603 Pls
2802 594 Pls
2808 510 Pls
2815 501 Pls
2821 461 Pls
2827 528 Pls
2833 475 Pls
2839 452 Pls
2845 457 Pls
2852 483 Pls
2858 457 Pls
2864 483 Pls
2870 461 Pls
2876 461 Pls
2883 470 Pls
2889 479 Pls
2895 461 Pls
2901 475 Pls
2907 475 Pls
2913 505 Pls
2920 483 Pls
2926 461 Pls
2932 479 Pls
2938 492 Pls
2944 457 Pls
2950 497 Pls
2957 585 Pls
2963 457 Pls
2969 492 Pls
2975 488 Pls
2981 461 Pls
2988 572 Pls
2994 576 Pls
3000 629 Pls
3006 735 Pls
3012 497 Pls
3018 475 Pls
3025 457 Pls
3031 452 Pls
3037 501 Pls
3043 488 Pls
3049 594 Pls
3055 501 Pls
3062 559 Pls
3068 501 Pls
3074 452 Pls
3080 483 Pls
3086 452 Pls
3093 567 Pls
3099 457 Pls
3105 505 Pls
3111 492 Pls
3117 457 Pls
3123 501 Pls
3130 545 Pls
3136 497 Pls
3142 452 Pls
3148 559 Pls
3154 718 Pls
3160 735 Pls
3167 868 Pls
3173 585 Pls
3179 541 Pls
3185 457 Pls
3191 643 Pls
3198 488 Pls
3204 744 Pls
3210 594 Pls
3216 457 Pls
3222 470 Pls
3228 457 Pls
3235 461 Pls
3241 510 Pls
3247 475 Pls
3253 470 Pls
3259 519 Pls
3266 651 Pls
3272 466 Pls
3278 510 Pls
3284 541 Pls
3290 466 Pls
3296 594 Pls
3303 607 Pls
3309 620 Pls
3315 559 Pls
3321 452 Pls
3327 470 Pls
3333 545 Pls
3340 452 Pls
3346 457 Pls
3352 475 Pls
3358 457 Pls
3364 466 Pls
3371 466 Pls
3377 510 Pls
3383 523 Pls
3389 452 Pls
3395 457 Pls
3401 452 Pls
3408 457 Pls
3414 466 Pls
3420 461 Pls
3426 492 Pls
3432 497 Pls
3438 523 Pls
3445 470 Pls
3451 501 Pls
3457 461 Pls
3463 470 Pls
3469 483 Pls
3476 572 Pls
3482 492 Pls
3488 457 Pls
3494 563 Pls
3500 510 Pls
3506 510 Pls
3513 461 Pls
3519 612 Pls
3525 519 Pls
3531 590 Pls
3537 505 Pls
3543 461 Pls
3550 488 Pls
3556 488 Pls
3562 514 Pls
3568 483 Pls
3574 466 Pls
3581 475 Pls
3587 452 Pls
3593 461 Pls
3599 457 Pls
3605 475 Pls
3611 466 Pls
3618 475 Pls
3624 470 Pls
3630 452 Pls
3636 452 Pls
3642 466 Pls
3648 457 Pls
3655 479 Pls
3661 457 Pls
3667 461 Pls
3673 457 Pls
3679 457 Pls
3686 497 Pls
3692 457 Pls
3698 466 Pls
3704 452 Pls
3710 616 Pls
3716 541 Pls
3723 505 Pls
3729 523 Pls
3735 550 Pls
3741 461 Pls
3747 461 Pls
3753 483 Pls
3760 457 Pls
3766 457 Pls
3772 483 Pls
3778 461 Pls
3784 488 Pls
3791 479 Pls
3797 452 Pls
3803 452 Pls
3809 457 Pls
3815 554 Pls
3821 470 Pls
3828 457 Pls
3834 749 Pls
3840 492 Pls
3846 528 Pls
3852 647 Pls
3858 581 Pls
3865 563 Pls
3871 620 Pls
3877 505 Pls
3883 541 Pls
3889 479 Pls
3896 576 Pls
3902 475 Pls
3908 528 Pls
3914 603 Pls
3920 766 Pls
3926 731 Pls
3933 479 Pls
3939 479 Pls
3945 501 Pls
3951 461 Pls
3957 629 Pls
3964 700 Pls
3970 669 Pls
3976 479 Pls
3982 492 Pls
3988 457 Pls
3994 567 Pls
4001 550 Pls
4007 475 Pls
4013 452 Pls
4019 457 Pls
4025 470 Pls
4031 470 Pls
4038 479 Pls
4044 466 Pls
4050 497 Pls
4056 492 Pls
4062 519 Pls
4069 470 Pls
4075 528 Pls
4081 598 Pls
4087 567 Pls
4093 647 Pls
4099 457 Pls
4106 470 Pls
4112 488 Pls
4118 488 Pls
4124 452 Pls
4130 594 Pls
4136 461 Pls
4143 457 Pls
4149 479 Pls
4155 452 Pls
4161 457 Pls
4167 466 Pls
4174 488 Pls
4180 501 Pls
4186 466 Pls
4192 461 Pls
4198 567 Pls
4204 483 Pls
4211 492 Pls
4217 563 Pls
4223 452 Pls
4229 475 Pls
4235 492 Pls
4241 514 Pls
4248 488 Pls
4254 541 Pls
4260 501 Pls
4266 492 Pls
4272 461 Pls
4279 479 Pls
4285 457 Pls
4291 457 Pls
4297 452 Pls
4303 497 Pls
4309 466 Pls
4316 461 Pls
4322 479 Pls
4328 497 Pls
4334 452 Pls
4340 457 Pls
4346 452 Pls
4353 488 Pls
4359 483 Pls
4365 475 Pls
4371 461 Pls
4377 483 Pls
4384 497 Pls
4390 519 Pls
4396 598 Pls
4402 461 Pls
4408 457 Pls
4414 461 Pls
4421 466 Pls
4427 497 Pls
4433 510 Pls
4439 470 Pls
4445 483 Pls
4451 470 Pls
4458 470 Pls
4464 497 Pls
4470 505 Pls
4476 492 Pls
4482 483 Pls
4489 457 Pls
4495 612 Pls
4501 758 Pls
4507 651 Pls
4513 475 Pls
4519 466 Pls
4526 483 Pls
4532 488 Pls
4538 603 Pls
4544 766 Pls
4550 820 Pls
4557 735 Pls
4563 488 Pls
4569 461 Pls
4575 452 Pls
4581 470 Pls
4587 461 Pls
4594 461 Pls
4600 479 Pls
4606 519 Pls
4612 505 Pls
4618 528 Pls
4624 519 Pls
4631 771 Pls
4637 567 Pls
4643 705 Pls
4649 505 Pls
4655 475 Pls
4662 488 Pls
4668 505 Pls
4674 758 Pls
4680 550 Pls
4686 709 Pls
4692 665 Pls
4699 585 Pls
4705 501 Pls
4711 510 Pls
4717 470 Pls
4723 461 Pls
4729 501 Pls
4736 492 Pls
4742 461 Pls
4748 457 Pls
4754 452 Pls
4760 452 Pls
4767 466 Pls
4773 457 Pls
4779 452 Pls
4785 457 Pls
4791 466 Pls
4797 528 Pls
4804 457 Pls
4810 475 Pls
4816 457 Pls
4822 483 Pls
4828 461 Pls
4834 461 Pls
4841 457 Pls
4847 475 Pls
4853 475 Pls
4859 466 Pls
4865 470 Pls
4872 452 Pls
4878 461 Pls
4884 457 Pls
4890 461 Pls
4896 452 Pls
4902 461 Pls
4909 497 Pls
4915 452 Pls
4921 470 Pls
4927 461 Pls
4933 612 Pls
4939 523 Pls
4946 585 Pls
4952 470 Pls
4958 523 Pls
4964 466 Pls
4970 452 Pls
4977 501 Pls
4983 634 Pls
4989 510 Pls
4995 501 Pls
5001 523 Pls
5007 501 Pls
5014 541 Pls
5020 457 Pls
5026 470 Pls
5032 572 Pls
5038 488 Pls
5044 532 Pls
5051 567 Pls
5057 713 Pls
5063 563 Pls
5069 691 Pls
5075 488 Pls
5082 466 Pls
5088 727 Pls
5094 846 Pls
5100 457 Pls
5106 470 Pls
5112 466 Pls
5119 457 Pls
5125 461 Pls
5131 674 Pls
5137 598 Pls
5143 452 Pls
5149 505 Pls
5156 452 Pls
5162 501 Pls
5168 576 Pls
5174 545 Pls
5180 594 Pls
5187 802 Pls
5193 475 Pls
5199 466 Pls
5205 452 Pls
5211 514 Pls
5217 452 Pls
5224 461 Pls
5230 452 Pls
5236 452 Pls
5242 461 Pls
5248 461 Pls
5255 461 Pls
5261 452 Pls
5267 457 Pls
5273 457 Pls
5279 497 Pls
5285 532 Pls
5292 505 Pls
5298 528 Pls
5304 550 Pls
5310 457 Pls
5316 466 Pls
5322 523 Pls
5329 585 Pls
5335 660 Pls
5341 581 Pls
5347 559 Pls
5353 590 Pls
5360 559 Pls
5366 545 Pls
5372 492 Pls
5378 461 Pls
5384 457 Pls
5390 457 Pls
5397 461 Pls
5403 457 Pls
5409 488 Pls
5415 488 Pls
5421 479 Pls
5427 461 Pls
5434 647 Pls
5440 643 Pls
5446 536 Pls
5452 616 Pls
5458 598 Pls
5465 457 Pls
5471 461 Pls
5477 452 Pls
5483 576 Pls
5489 629 Pls
5495 523 Pls
5502 598 Pls
5508 554 Pls
5514 505 Pls
5520 457 Pls
5526 483 Pls
5532 457 Pls
5539 452 Pls
5545 554 Pls
5551 479 Pls
5557 457 Pls
5563 452 Pls
5570 452 Pls
5576 634 Pls
5582 532 Pls
5588 682 Pls
5594 603 Pls
5600 581 Pls
5607 466 Pls
5613 466 Pls
5619 908 Pls
5625 780 Pls
5631 820 Pls
5637 607 Pls
5644 492 Pls
5650 607 Pls
5656 550 Pls
5662 492 Pls
5668 461 Pls
5675 475 Pls
5681 452 Pls
5687 705 Pls
5693 483 Pls
5699 545 Pls
5705 505 Pls
5712 461 Pls
5718 457 Pls
5724 452 Pls
5730 461 Pls
5736 452 Pls
5742 457 Pls
5749 466 Pls
5755 457 Pls
5761 492 Pls
5767 461 Pls
5773 452 Pls
5780 457 Pls
5786 452 Pls
5792 505 Pls
5798 514 Pls
5804 576 Pls
5810 519 Pls
5817 590 Pls
5823 461 Pls
5829 510 Pls
5835 682 Pls
5841 705 Pls
5847 722 Pls
5854 536 Pls
5860 797 Pls
5866 713 Pls
5872 766 Pls
5878 466 Pls
5885 620 Pls
5891 505 Pls
5897 528 Pls
5903 514 Pls
5909 457 Pls
5915 452 Pls
5922 638 Pls
5928 651 Pls
5934 457 Pls
5940 616 Pls
5946 612 Pls
5953 452 Pls
5959 634 Pls
5965 855 Pls
5971 563 Pls
5977 612 Pls
5983 457 Pls
5990 1231 Pls
5996 806 Pls
6002 660 Pls
6008 457 Pls
6014 457 Pls
6020 466 Pls
6027 461 Pls
6033 452 Pls
6039 452 Pls
6045 470 Pls
6051 457 Pls
6058 452 Pls
6064 457 Pls
6070 470 Pls
6076 488 Pls
6082 585 Pls
6088 457 Pls
6095 452 Pls
6101 457 Pls
6107 452 Pls
6113 550 Pls
6119 563 Pls
6125 784 Pls
6132 696 Pls
6138 629 Pls
6144 461 Pls
6150 581 Pls
6156 908 Pls
6163 1182 Pls
6169 824 Pls
6175 585 Pls
6181 461 Pls
6187 452 Pls
6193 1748 Pls
6200 713 Pls
6206 532 Pls
6212 855 Pls
6218 554 Pls
6224 594 Pls
6230 523 Pls
6237 452 Pls
6243 452 Pls
6249 452 Pls
6255 452 Pls
6261 452 Pls
6268 457 Pls
6274 457 Pls
6280 452 Pls
6286 452 Pls
6292 519 Pls
6298 452 Pls
6305 457 Pls
6311 452 Pls
6317 718 Pls
6323 514 Pls
6329 519 Pls
6335 452 Pls
6342 1253 Pls
6348 452 Pls
6354 452 Pls
6360 457 Pls
6366 457 Pls
6373 523 Pls
6379 475 Pls
6385 452 Pls
6391 452 Pls
6397 457 Pls
6403 461 Pls
6410 452 Pls
6416 452 Pls
6422 452 Pls
6428 452 Pls
6434 452 Pls
6579 4738 Pls
% End plot #1
1.000 UL
LTb
770 4871 N
770 448 L
6177 0 V
0 4423 V
-6177 0 V
Z stroke
1.000 UP
1.000 UL
LTb
stroke
grestore
end
showpage
%%Trailer
%%DocumentFonts: Helvetica
