%!PS-Adobe-2.0 EPSF-2.0
%%Title: ../plots/domainstats/states-sorted-by-ply-visit-count-minigammon-offset-2.eps
%%Creator: gnuplot 4.4 patchlevel 3
%%CreationDate: Wed Dec 14 04:42:15 2011
%%DocumentFonts: (atend)
%%BoundingBox: 50 50 410 302
%%EndComments
%%BeginProlog
/gnudict 256 dict def
gnudict begin
%
% The following true/false flags may be edited by hand if desired.
% The unit line width and grayscale image gamma correction may also be changed.
%
/Color true def
/Blacktext false def
/Solid false def
/Dashlength 1 def
/Landscape false def
/Level1 false def
/Rounded false def
/ClipToBoundingBox false def
/TransparentPatterns false def
/gnulinewidth 5.000 def
/userlinewidth gnulinewidth def
/Gamma 1.0 def
%
/vshift -46 def
/dl1 {
  10.0 Dashlength mul mul
  Rounded { currentlinewidth 0.75 mul sub dup 0 le { pop 0.01 } if } if
} def
/dl2 {
  10.0 Dashlength mul mul
  Rounded { currentlinewidth 0.75 mul add } if
} def
/hpt_ 31.5 def
/vpt_ 31.5 def
/hpt hpt_ def
/vpt vpt_ def
Level1 {} {
/SDict 10 dict def
systemdict /pdfmark known not {
  userdict /pdfmark systemdict /cleartomark get put
} if
SDict begin [
  /Title (../plots/domainstats/states-sorted-by-ply-visit-count-minigammon-offset-2.eps)
  /Subject (gnuplot plot)
  /Creator (gnuplot 4.4 patchlevel 3)
  /Author (reza)
%  /Producer (gnuplot)
%  /Keywords ()
  /CreationDate (Wed Dec 14 04:42:15 2011)
  /DOCINFO pdfmark
end
} ifelse
/doclip {
  ClipToBoundingBox {
    newpath 50 50 moveto 410 50 lineto 410 302 lineto 50 302 lineto closepath
    clip
  } if
} def
%
% Gnuplot Prolog Version 4.4 (August 2010)
%
%/SuppressPDFMark true def
%
/M {moveto} bind def
/L {lineto} bind def
/R {rmoveto} bind def
/V {rlineto} bind def
/N {newpath moveto} bind def
/Z {closepath} bind def
/C {setrgbcolor} bind def
/f {rlineto fill} bind def
/g {setgray} bind def
/Gshow {show} def   % May be redefined later in the file to support UTF-8
/vpt2 vpt 2 mul def
/hpt2 hpt 2 mul def
/Lshow {currentpoint stroke M 0 vshift R 
	Blacktext {gsave 0 setgray show grestore} {show} ifelse} def
/Rshow {currentpoint stroke M dup stringwidth pop neg vshift R
	Blacktext {gsave 0 setgray show grestore} {show} ifelse} def
/Cshow {currentpoint stroke M dup stringwidth pop -2 div vshift R 
	Blacktext {gsave 0 setgray show grestore} {show} ifelse} def
/UP {dup vpt_ mul /vpt exch def hpt_ mul /hpt exch def
  /hpt2 hpt 2 mul def /vpt2 vpt 2 mul def} def
/DL {Color {setrgbcolor Solid {pop []} if 0 setdash}
 {pop pop pop 0 setgray Solid {pop []} if 0 setdash} ifelse} def
/BL {stroke userlinewidth 2 mul setlinewidth
	Rounded {1 setlinejoin 1 setlinecap} if} def
/AL {stroke userlinewidth 2 div setlinewidth
	Rounded {1 setlinejoin 1 setlinecap} if} def
/UL {dup gnulinewidth mul /userlinewidth exch def
	dup 1 lt {pop 1} if 10 mul /udl exch def} def
/PL {stroke userlinewidth setlinewidth
	Rounded {1 setlinejoin 1 setlinecap} if} def
3.8 setmiterlimit
% Default Line colors
/LCw {1 1 1} def
/LCb {0 0 0} def
/LCa {0 0 0} def
/LC0 {1 0 0} def
/LC1 {0 1 0} def
/LC2 {0 0 1} def
/LC3 {1 0 1} def
/LC4 {0 1 1} def
/LC5 {1 1 0} def
/LC6 {0 0 0} def
/LC7 {1 0.3 0} def
/LC8 {0.5 0.5 0.5} def
% Default Line Types
/LTw {PL [] 1 setgray} def
/LTb {BL [] LCb DL} def
/LTa {AL [1 udl mul 2 udl mul] 0 setdash LCa setrgbcolor} def
/LT0 {PL [] LC0 DL} def
/LT1 {PL [4 dl1 2 dl2] LC1 DL} def
/LT2 {PL [2 dl1 3 dl2] LC2 DL} def
/LT3 {PL [1 dl1 1.5 dl2] LC3 DL} def
/LT4 {PL [6 dl1 2 dl2 1 dl1 2 dl2] LC4 DL} def
/LT5 {PL [3 dl1 3 dl2 1 dl1 3 dl2] LC5 DL} def
/LT6 {PL [2 dl1 2 dl2 2 dl1 6 dl2] LC6 DL} def
/LT7 {PL [1 dl1 2 dl2 6 dl1 2 dl2 1 dl1 2 dl2] LC7 DL} def
/LT8 {PL [2 dl1 2 dl2 2 dl1 2 dl2 2 dl1 2 dl2 2 dl1 4 dl2] LC8 DL} def
/Pnt {stroke [] 0 setdash gsave 1 setlinecap M 0 0 V stroke grestore} def
/Dia {stroke [] 0 setdash 2 copy vpt add M
  hpt neg vpt neg V hpt vpt neg V
  hpt vpt V hpt neg vpt V closepath stroke
  Pnt} def
/Pls {stroke [] 0 setdash vpt sub M 0 vpt2 V
  currentpoint stroke M
  hpt neg vpt neg R hpt2 0 V stroke
 } def
/Box {stroke [] 0 setdash 2 copy exch hpt sub exch vpt add M
  0 vpt2 neg V hpt2 0 V 0 vpt2 V
  hpt2 neg 0 V closepath stroke
  Pnt} def
/Crs {stroke [] 0 setdash exch hpt sub exch vpt add M
  hpt2 vpt2 neg V currentpoint stroke M
  hpt2 neg 0 R hpt2 vpt2 V stroke} def
/TriU {stroke [] 0 setdash 2 copy vpt 1.12 mul add M
  hpt neg vpt -1.62 mul V
  hpt 2 mul 0 V
  hpt neg vpt 1.62 mul V closepath stroke
  Pnt} def
/Star {2 copy Pls Crs} def
/BoxF {stroke [] 0 setdash exch hpt sub exch vpt add M
  0 vpt2 neg V hpt2 0 V 0 vpt2 V
  hpt2 neg 0 V closepath fill} def
/TriUF {stroke [] 0 setdash vpt 1.12 mul add M
  hpt neg vpt -1.62 mul V
  hpt 2 mul 0 V
  hpt neg vpt 1.62 mul V closepath fill} def
/TriD {stroke [] 0 setdash 2 copy vpt 1.12 mul sub M
  hpt neg vpt 1.62 mul V
  hpt 2 mul 0 V
  hpt neg vpt -1.62 mul V closepath stroke
  Pnt} def
/TriDF {stroke [] 0 setdash vpt 1.12 mul sub M
  hpt neg vpt 1.62 mul V
  hpt 2 mul 0 V
  hpt neg vpt -1.62 mul V closepath fill} def
/DiaF {stroke [] 0 setdash vpt add M
  hpt neg vpt neg V hpt vpt neg V
  hpt vpt V hpt neg vpt V closepath fill} def
/Pent {stroke [] 0 setdash 2 copy gsave
  translate 0 hpt M 4 {72 rotate 0 hpt L} repeat
  closepath stroke grestore Pnt} def
/PentF {stroke [] 0 setdash gsave
  translate 0 hpt M 4 {72 rotate 0 hpt L} repeat
  closepath fill grestore} def
/Circle {stroke [] 0 setdash 2 copy
  hpt 0 360 arc stroke Pnt} def
/CircleF {stroke [] 0 setdash hpt 0 360 arc fill} def
/C0 {BL [] 0 setdash 2 copy moveto vpt 90 450 arc} bind def
/C1 {BL [] 0 setdash 2 copy moveto
	2 copy vpt 0 90 arc closepath fill
	vpt 0 360 arc closepath} bind def
/C2 {BL [] 0 setdash 2 copy moveto
	2 copy vpt 90 180 arc closepath fill
	vpt 0 360 arc closepath} bind def
/C3 {BL [] 0 setdash 2 copy moveto
	2 copy vpt 0 180 arc closepath fill
	vpt 0 360 arc closepath} bind def
/C4 {BL [] 0 setdash 2 copy moveto
	2 copy vpt 180 270 arc closepath fill
	vpt 0 360 arc closepath} bind def
/C5 {BL [] 0 setdash 2 copy moveto
	2 copy vpt 0 90 arc
	2 copy moveto
	2 copy vpt 180 270 arc closepath fill
	vpt 0 360 arc} bind def
/C6 {BL [] 0 setdash 2 copy moveto
	2 copy vpt 90 270 arc closepath fill
	vpt 0 360 arc closepath} bind def
/C7 {BL [] 0 setdash 2 copy moveto
	2 copy vpt 0 270 arc closepath fill
	vpt 0 360 arc closepath} bind def
/C8 {BL [] 0 setdash 2 copy moveto
	2 copy vpt 270 360 arc closepath fill
	vpt 0 360 arc closepath} bind def
/C9 {BL [] 0 setdash 2 copy moveto
	2 copy vpt 270 450 arc closepath fill
	vpt 0 360 arc closepath} bind def
/C10 {BL [] 0 setdash 2 copy 2 copy moveto vpt 270 360 arc closepath fill
	2 copy moveto
	2 copy vpt 90 180 arc closepath fill
	vpt 0 360 arc closepath} bind def
/C11 {BL [] 0 setdash 2 copy moveto
	2 copy vpt 0 180 arc closepath fill
	2 copy moveto
	2 copy vpt 270 360 arc closepath fill
	vpt 0 360 arc closepath} bind def
/C12 {BL [] 0 setdash 2 copy moveto
	2 copy vpt 180 360 arc closepath fill
	vpt 0 360 arc closepath} bind def
/C13 {BL [] 0 setdash 2 copy moveto
	2 copy vpt 0 90 arc closepath fill
	2 copy moveto
	2 copy vpt 180 360 arc closepath fill
	vpt 0 360 arc closepath} bind def
/C14 {BL [] 0 setdash 2 copy moveto
	2 copy vpt 90 360 arc closepath fill
	vpt 0 360 arc} bind def
/C15 {BL [] 0 setdash 2 copy vpt 0 360 arc closepath fill
	vpt 0 360 arc closepath} bind def
/Rec {newpath 4 2 roll moveto 1 index 0 rlineto 0 exch rlineto
	neg 0 rlineto closepath} bind def
/Square {dup Rec} bind def
/Bsquare {vpt sub exch vpt sub exch vpt2 Square} bind def
/S0 {BL [] 0 setdash 2 copy moveto 0 vpt rlineto BL Bsquare} bind def
/S1 {BL [] 0 setdash 2 copy vpt Square fill Bsquare} bind def
/S2 {BL [] 0 setdash 2 copy exch vpt sub exch vpt Square fill Bsquare} bind def
/S3 {BL [] 0 setdash 2 copy exch vpt sub exch vpt2 vpt Rec fill Bsquare} bind def
/S4 {BL [] 0 setdash 2 copy exch vpt sub exch vpt sub vpt Square fill Bsquare} bind def
/S5 {BL [] 0 setdash 2 copy 2 copy vpt Square fill
	exch vpt sub exch vpt sub vpt Square fill Bsquare} bind def
/S6 {BL [] 0 setdash 2 copy exch vpt sub exch vpt sub vpt vpt2 Rec fill Bsquare} bind def
/S7 {BL [] 0 setdash 2 copy exch vpt sub exch vpt sub vpt vpt2 Rec fill
	2 copy vpt Square fill Bsquare} bind def
/S8 {BL [] 0 setdash 2 copy vpt sub vpt Square fill Bsquare} bind def
/S9 {BL [] 0 setdash 2 copy vpt sub vpt vpt2 Rec fill Bsquare} bind def
/S10 {BL [] 0 setdash 2 copy vpt sub vpt Square fill 2 copy exch vpt sub exch vpt Square fill
	Bsquare} bind def
/S11 {BL [] 0 setdash 2 copy vpt sub vpt Square fill 2 copy exch vpt sub exch vpt2 vpt Rec fill
	Bsquare} bind def
/S12 {BL [] 0 setdash 2 copy exch vpt sub exch vpt sub vpt2 vpt Rec fill Bsquare} bind def
/S13 {BL [] 0 setdash 2 copy exch vpt sub exch vpt sub vpt2 vpt Rec fill
	2 copy vpt Square fill Bsquare} bind def
/S14 {BL [] 0 setdash 2 copy exch vpt sub exch vpt sub vpt2 vpt Rec fill
	2 copy exch vpt sub exch vpt Square fill Bsquare} bind def
/S15 {BL [] 0 setdash 2 copy Bsquare fill Bsquare} bind def
/D0 {gsave translate 45 rotate 0 0 S0 stroke grestore} bind def
/D1 {gsave translate 45 rotate 0 0 S1 stroke grestore} bind def
/D2 {gsave translate 45 rotate 0 0 S2 stroke grestore} bind def
/D3 {gsave translate 45 rotate 0 0 S3 stroke grestore} bind def
/D4 {gsave translate 45 rotate 0 0 S4 stroke grestore} bind def
/D5 {gsave translate 45 rotate 0 0 S5 stroke grestore} bind def
/D6 {gsave translate 45 rotate 0 0 S6 stroke grestore} bind def
/D7 {gsave translate 45 rotate 0 0 S7 stroke grestore} bind def
/D8 {gsave translate 45 rotate 0 0 S8 stroke grestore} bind def
/D9 {gsave translate 45 rotate 0 0 S9 stroke grestore} bind def
/D10 {gsave translate 45 rotate 0 0 S10 stroke grestore} bind def
/D11 {gsave translate 45 rotate 0 0 S11 stroke grestore} bind def
/D12 {gsave translate 45 rotate 0 0 S12 stroke grestore} bind def
/D13 {gsave translate 45 rotate 0 0 S13 stroke grestore} bind def
/D14 {gsave translate 45 rotate 0 0 S14 stroke grestore} bind def
/D15 {gsave translate 45 rotate 0 0 S15 stroke grestore} bind def
/DiaE {stroke [] 0 setdash vpt add M
  hpt neg vpt neg V hpt vpt neg V
  hpt vpt V hpt neg vpt V closepath stroke} def
/BoxE {stroke [] 0 setdash exch hpt sub exch vpt add M
  0 vpt2 neg V hpt2 0 V 0 vpt2 V
  hpt2 neg 0 V closepath stroke} def
/TriUE {stroke [] 0 setdash vpt 1.12 mul add M
  hpt neg vpt -1.62 mul V
  hpt 2 mul 0 V
  hpt neg vpt 1.62 mul V closepath stroke} def
/TriDE {stroke [] 0 setdash vpt 1.12 mul sub M
  hpt neg vpt 1.62 mul V
  hpt 2 mul 0 V
  hpt neg vpt -1.62 mul V closepath stroke} def
/PentE {stroke [] 0 setdash gsave
  translate 0 hpt M 4 {72 rotate 0 hpt L} repeat
  closepath stroke grestore} def
/CircE {stroke [] 0 setdash 
  hpt 0 360 arc stroke} def
/Opaque {gsave closepath 1 setgray fill grestore 0 setgray closepath} def
/DiaW {stroke [] 0 setdash vpt add M
  hpt neg vpt neg V hpt vpt neg V
  hpt vpt V hpt neg vpt V Opaque stroke} def
/BoxW {stroke [] 0 setdash exch hpt sub exch vpt add M
  0 vpt2 neg V hpt2 0 V 0 vpt2 V
  hpt2 neg 0 V Opaque stroke} def
/TriUW {stroke [] 0 setdash vpt 1.12 mul add M
  hpt neg vpt -1.62 mul V
  hpt 2 mul 0 V
  hpt neg vpt 1.62 mul V Opaque stroke} def
/TriDW {stroke [] 0 setdash vpt 1.12 mul sub M
  hpt neg vpt 1.62 mul V
  hpt 2 mul 0 V
  hpt neg vpt -1.62 mul V Opaque stroke} def
/PentW {stroke [] 0 setdash gsave
  translate 0 hpt M 4 {72 rotate 0 hpt L} repeat
  Opaque stroke grestore} def
/CircW {stroke [] 0 setdash 
  hpt 0 360 arc Opaque stroke} def
/BoxFill {gsave Rec 1 setgray fill grestore} def
/Density {
  /Fillden exch def
  currentrgbcolor
  /ColB exch def /ColG exch def /ColR exch def
  /ColR ColR Fillden mul Fillden sub 1 add def
  /ColG ColG Fillden mul Fillden sub 1 add def
  /ColB ColB Fillden mul Fillden sub 1 add def
  ColR ColG ColB setrgbcolor} def
/BoxColFill {gsave Rec PolyFill} def
/PolyFill {gsave Density fill grestore grestore} def
/h {rlineto rlineto rlineto gsave closepath fill grestore} bind def
%
% PostScript Level 1 Pattern Fill routine for rectangles
% Usage: x y w h s a XX PatternFill
%	x,y = lower left corner of box to be filled
%	w,h = width and height of box
%	  a = angle in degrees between lines and x-axis
%	 XX = 0/1 for no/yes cross-hatch
%
/PatternFill {gsave /PFa [ 9 2 roll ] def
  PFa 0 get PFa 2 get 2 div add PFa 1 get PFa 3 get 2 div add translate
  PFa 2 get -2 div PFa 3 get -2 div PFa 2 get PFa 3 get Rec
  gsave 1 setgray fill grestore clip
  currentlinewidth 0.5 mul setlinewidth
  /PFs PFa 2 get dup mul PFa 3 get dup mul add sqrt def
  0 0 M PFa 5 get rotate PFs -2 div dup translate
  0 1 PFs PFa 4 get div 1 add floor cvi
	{PFa 4 get mul 0 M 0 PFs V} for
  0 PFa 6 get ne {
	0 1 PFs PFa 4 get div 1 add floor cvi
	{PFa 4 get mul 0 2 1 roll M PFs 0 V} for
 } if
  stroke grestore} def
%
/languagelevel where
 {pop languagelevel} {1} ifelse
 2 lt
	{/InterpretLevel1 true def}
	{/InterpretLevel1 Level1 def}
 ifelse
%
% PostScript level 2 pattern fill definitions
%
/Level2PatternFill {
/Tile8x8 {/PaintType 2 /PatternType 1 /TilingType 1 /BBox [0 0 8 8] /XStep 8 /YStep 8}
	bind def
/KeepColor {currentrgbcolor [/Pattern /DeviceRGB] setcolorspace} bind def
<< Tile8x8
 /PaintProc {0.5 setlinewidth pop 0 0 M 8 8 L 0 8 M 8 0 L stroke} 
>> matrix makepattern
/Pat1 exch def
<< Tile8x8
 /PaintProc {0.5 setlinewidth pop 0 0 M 8 8 L 0 8 M 8 0 L stroke
	0 4 M 4 8 L 8 4 L 4 0 L 0 4 L stroke}
>> matrix makepattern
/Pat2 exch def
<< Tile8x8
 /PaintProc {0.5 setlinewidth pop 0 0 M 0 8 L
	8 8 L 8 0 L 0 0 L fill}
>> matrix makepattern
/Pat3 exch def
<< Tile8x8
 /PaintProc {0.5 setlinewidth pop -4 8 M 8 -4 L
	0 12 M 12 0 L stroke}
>> matrix makepattern
/Pat4 exch def
<< Tile8x8
 /PaintProc {0.5 setlinewidth pop -4 0 M 8 12 L
	0 -4 M 12 8 L stroke}
>> matrix makepattern
/Pat5 exch def
<< Tile8x8
 /PaintProc {0.5 setlinewidth pop -2 8 M 4 -4 L
	0 12 M 8 -4 L 4 12 M 10 0 L stroke}
>> matrix makepattern
/Pat6 exch def
<< Tile8x8
 /PaintProc {0.5 setlinewidth pop -2 0 M 4 12 L
	0 -4 M 8 12 L 4 -4 M 10 8 L stroke}
>> matrix makepattern
/Pat7 exch def
<< Tile8x8
 /PaintProc {0.5 setlinewidth pop 8 -2 M -4 4 L
	12 0 M -4 8 L 12 4 M 0 10 L stroke}
>> matrix makepattern
/Pat8 exch def
<< Tile8x8
 /PaintProc {0.5 setlinewidth pop 0 -2 M 12 4 L
	-4 0 M 12 8 L -4 4 M 8 10 L stroke}
>> matrix makepattern
/Pat9 exch def
/Pattern1 {PatternBgnd KeepColor Pat1 setpattern} bind def
/Pattern2 {PatternBgnd KeepColor Pat2 setpattern} bind def
/Pattern3 {PatternBgnd KeepColor Pat3 setpattern} bind def
/Pattern4 {PatternBgnd KeepColor Landscape {Pat5} {Pat4} ifelse setpattern} bind def
/Pattern5 {PatternBgnd KeepColor Landscape {Pat4} {Pat5} ifelse setpattern} bind def
/Pattern6 {PatternBgnd KeepColor Landscape {Pat9} {Pat6} ifelse setpattern} bind def
/Pattern7 {PatternBgnd KeepColor Landscape {Pat8} {Pat7} ifelse setpattern} bind def
} def
%
%
%End of PostScript Level 2 code
%
/PatternBgnd {
  TransparentPatterns {} {gsave 1 setgray fill grestore} ifelse
} def
%
% Substitute for Level 2 pattern fill codes with
% grayscale if Level 2 support is not selected.
%
/Level1PatternFill {
/Pattern1 {0.250 Density} bind def
/Pattern2 {0.500 Density} bind def
/Pattern3 {0.750 Density} bind def
/Pattern4 {0.125 Density} bind def
/Pattern5 {0.375 Density} bind def
/Pattern6 {0.625 Density} bind def
/Pattern7 {0.875 Density} bind def
} def
%
% Now test for support of Level 2 code
%
Level1 {Level1PatternFill} {Level2PatternFill} ifelse
%
/Symbol-Oblique /Symbol findfont [1 0 .167 1 0 0] makefont
dup length dict begin {1 index /FID eq {pop pop} {def} ifelse} forall
currentdict end definefont pop
end
%%EndProlog
gnudict begin
gsave
doclip
50 50 translate
0.050 0.050 scale
0 setgray
newpath
(Helvetica) findfont 140 scalefont setfont
1.000 UL
LTb
770 448 M
63 0 V
6114 0 R
-63 0 V
686 448 M
( 0) Rshow
1.000 UL
LTb
770 890 M
63 0 V
6114 0 R
-63 0 V
686 890 M
( 100) Rshow
1.000 UL
LTb
770 1333 M
63 0 V
6114 0 R
-63 0 V
-6198 0 R
( 200) Rshow
1.000 UL
LTb
770 1775 M
63 0 V
6114 0 R
-63 0 V
-6198 0 R
( 300) Rshow
1.000 UL
LTb
770 2217 M
63 0 V
6114 0 R
-63 0 V
-6198 0 R
( 400) Rshow
1.000 UL
LTb
770 2660 M
63 0 V
6114 0 R
-63 0 V
-6198 0 R
( 500) Rshow
1.000 UL
LTb
770 3102 M
63 0 V
6114 0 R
-63 0 V
-6198 0 R
( 600) Rshow
1.000 UL
LTb
770 3544 M
63 0 V
6114 0 R
-63 0 V
-6198 0 R
( 700) Rshow
1.000 UL
LTb
770 3986 M
63 0 V
6114 0 R
-63 0 V
-6198 0 R
( 800) Rshow
1.000 UL
LTb
770 4429 M
63 0 V
6114 0 R
-63 0 V
-6198 0 R
( 900) Rshow
1.000 UL
LTb
770 4871 M
63 0 V
6114 0 R
-63 0 V
-6198 0 R
( 1000) Rshow
1.000 UL
LTb
770 448 M
0 63 V
0 4360 R
0 -63 V
770 308 M
( 0) Cshow
1.000 UL
LTb
1652 448 M
0 63 V
0 4360 R
0 -63 V
0 -4500 R
( 200) Cshow
1.000 UL
LTb
2535 448 M
0 63 V
0 4360 R
0 -63 V
0 -4500 R
( 400) Cshow
1.000 UL
LTb
3417 448 M
0 63 V
0 4360 R
0 -63 V
0 -4500 R
( 600) Cshow
1.000 UL
LTb
4300 448 M
0 63 V
0 4360 R
0 -63 V
0 -4500 R
( 800) Cshow
1.000 UL
LTb
5182 448 M
0 63 V
0 4360 R
0 -63 V
0 -4500 R
( 1000) Cshow
1.000 UL
LTb
6065 448 M
0 63 V
0 4360 R
0 -63 V
0 -4500 R
( 1200) Cshow
1.000 UL
LTb
6947 448 M
0 63 V
0 4360 R
0 -63 V
0 -4500 R
( 1400) Cshow
1.000 UL
LTb
1.000 UL
LTb
770 4871 N
770 448 L
6177 0 V
0 4423 V
-6177 0 V
Z stroke
LCb setrgbcolor
112 2659 M
currentpoint gsave translate -270 rotate 0 0 M
(Visit Count) Cshow
grestore
LTb
LCb setrgbcolor
3858 98 M
(States \(Sorted by Earliest Visit Time\)) Cshow
LTb
1.000 UP
1.000 UL
LTb
% Begin plot #1
1.000 UP
1.000 UL
LT0
LCb setrgbcolor
6296 4738 M
(Offset = 2) Rshow
LT0
770 4871 Pls
774 1523 Pls
779 1585 Pls
783 1602 Pls
788 1505 Pls
792 1695 Pls
796 2027 Pls
801 1563 Pls
805 1625 Pls
810 590 Pls
814 696 Pls
819 691 Pls
823 908 Pls
827 563 Pls
832 665 Pls
836 563 Pls
841 828 Pls
845 758 Pls
849 1005 Pls
854 647 Pls
858 912 Pls
863 705 Pls
867 974 Pls
871 775 Pls
876 634 Pls
880 665 Pls
885 559 Pls
889 691 Pls
894 581 Pls
898 536 Pls
902 696 Pls
907 651 Pls
911 740 Pls
916 718 Pls
920 594 Pls
924 881 Pls
929 749 Pls
933 846 Pls
938 735 Pls
942 563 Pls
946 590 Pls
951 572 Pls
955 550 Pls
960 550 Pls
964 612 Pls
969 559 Pls
973 793 Pls
977 731 Pls
982 541 Pls
986 576 Pls
991 603 Pls
995 868 Pls
999 784 Pls
1004 908 Pls
1008 607 Pls
1013 585 Pls
1017 536 Pls
1021 475 Pls
1026 554 Pls
1030 674 Pls
1035 974 Pls
1039 545 Pls
1044 629 Pls
1048 514 Pls
1052 603 Pls
1057 895 Pls
1061 1080 Pls
1066 780 Pls
1070 647 Pls
1074 1098 Pls
1079 678 Pls
1083 1063 Pls
1088 479 Pls
1092 510 Pls
1096 461 Pls
1101 545 Pls
1105 656 Pls
1110 731 Pls
1114 497 Pls
1119 528 Pls
1123 497 Pls
1127 567 Pls
1132 749 Pls
1136 762 Pls
1141 665 Pls
1145 731 Pls
1149 850 Pls
1154 647 Pls
1158 766 Pls
1163 514 Pls
1167 492 Pls
1172 466 Pls
1176 492 Pls
1180 457 Pls
1185 488 Pls
1189 475 Pls
1194 505 Pls
1198 523 Pls
1202 550 Pls
1207 479 Pls
1211 554 Pls
1216 475 Pls
1220 479 Pls
1224 532 Pls
1229 567 Pls
1233 709 Pls
1238 713 Pls
1242 466 Pls
1247 545 Pls
1251 585 Pls
1255 594 Pls
1260 528 Pls
1264 572 Pls
1269 466 Pls
1273 466 Pls
1277 554 Pls
1282 563 Pls
1286 590 Pls
1291 479 Pls
1295 563 Pls
1299 519 Pls
1304 594 Pls
1308 974 Pls
1313 598 Pls
1317 1160 Pls
1322 656 Pls
1326 1151 Pls
1330 1010 Pls
1335 2527 Pls
1339 497 Pls
1344 479 Pls
1348 545 Pls
1352 616 Pls
1357 536 Pls
1361 634 Pls
1366 532 Pls
1370 594 Pls
1374 744 Pls
1379 1089 Pls
1383 470 Pls
1388 585 Pls
1392 492 Pls
1397 505 Pls
1401 488 Pls
1405 572 Pls
1410 519 Pls
1414 501 Pls
1419 461 Pls
1423 483 Pls
1427 470 Pls
1432 475 Pls
1436 470 Pls
1441 528 Pls
1445 470 Pls
1449 483 Pls
1454 452 Pls
1458 461 Pls
1463 461 Pls
1467 470 Pls
1472 497 Pls
1476 514 Pls
1480 594 Pls
1485 1165 Pls
1489 497 Pls
1494 603 Pls
1498 952 Pls
1502 461 Pls
1507 501 Pls
1511 541 Pls
1516 722 Pls
1520 488 Pls
1524 550 Pls
1529 638 Pls
1533 470 Pls
1538 510 Pls
1542 466 Pls
1547 497 Pls
1551 497 Pls
1555 678 Pls
1560 505 Pls
1564 563 Pls
1569 1080 Pls
1573 514 Pls
1577 1213 Pls
1582 483 Pls
1586 523 Pls
1591 833 Pls
1595 532 Pls
1599 607 Pls
1604 1368 Pls
1608 497 Pls
1613 510 Pls
1617 576 Pls
1622 483 Pls
1626 528 Pls
1630 687 Pls
1635 877 Pls
1639 528 Pls
1644 598 Pls
1648 559 Pls
1652 771 Pls
1657 731 Pls
1661 1381 Pls
1666 784 Pls
1670 1337 Pls
1674 479 Pls
1679 545 Pls
1683 735 Pls
1688 505 Pls
1692 771 Pls
1697 510 Pls
1701 585 Pls
1705 510 Pls
1710 461 Pls
1714 492 Pls
1719 501 Pls
1723 550 Pls
1727 475 Pls
1732 510 Pls
1736 466 Pls
1741 541 Pls
1745 461 Pls
1749 505 Pls
1754 634 Pls
1758 470 Pls
1763 488 Pls
1767 501 Pls
1772 541 Pls
1776 616 Pls
1780 550 Pls
1785 678 Pls
1789 479 Pls
1794 452 Pls
1798 461 Pls
1802 475 Pls
1807 488 Pls
1811 457 Pls
1816 492 Pls
1820 457 Pls
1825 461 Pls
1829 466 Pls
1833 488 Pls
1838 461 Pls
1842 479 Pls
1847 466 Pls
1851 514 Pls
1855 505 Pls
1860 483 Pls
1864 470 Pls
1869 457 Pls
1873 466 Pls
1877 470 Pls
1882 457 Pls
1886 461 Pls
1891 466 Pls
1895 572 Pls
1900 519 Pls
1904 926 Pls
1908 1125 Pls
1913 461 Pls
1917 479 Pls
1922 581 Pls
1926 612 Pls
1930 497 Pls
1935 559 Pls
1939 457 Pls
1944 483 Pls
1948 497 Pls
1952 921 Pls
1957 461 Pls
1961 643 Pls
1966 1921 Pls
1970 545 Pls
1975 470 Pls
1979 492 Pls
1983 576 Pls
1988 1076 Pls
1992 1058 Pls
1997 647 Pls
2001 470 Pls
2005 483 Pls
2010 789 Pls
2014 855 Pls
2019 820 Pls
2023 532 Pls
2027 1182 Pls
2032 1050 Pls
2036 492 Pls
2041 572 Pls
2045 811 Pls
2050 475 Pls
2054 660 Pls
2058 590 Pls
2063 572 Pls
2067 483 Pls
2072 475 Pls
2076 461 Pls
2080 461 Pls
2085 567 Pls
2089 461 Pls
2094 483 Pls
2098 492 Pls
2102 479 Pls
2107 452 Pls
2111 514 Pls
2116 475 Pls
2120 483 Pls
2125 492 Pls
2129 479 Pls
2133 501 Pls
2138 528 Pls
2142 466 Pls
2147 475 Pls
2151 466 Pls
2155 457 Pls
2160 470 Pls
2164 457 Pls
2169 479 Pls
2173 475 Pls
2177 466 Pls
2182 457 Pls
2186 466 Pls
2191 466 Pls
2195 470 Pls
2200 452 Pls
2204 470 Pls
2208 470 Pls
2213 461 Pls
2217 461 Pls
2222 470 Pls
2226 470 Pls
2230 497 Pls
2235 457 Pls
2239 470 Pls
2244 457 Pls
2248 470 Pls
2252 452 Pls
2257 461 Pls
2261 766 Pls
2266 492 Pls
2270 523 Pls
2275 1226 Pls
2279 461 Pls
2283 470 Pls
2288 479 Pls
2292 452 Pls
2297 550 Pls
2301 457 Pls
2305 470 Pls
2310 461 Pls
2314 479 Pls
2319 572 Pls
2323 643 Pls
2327 452 Pls
2332 505 Pls
2336 581 Pls
2341 466 Pls
2345 475 Pls
2350 492 Pls
2354 581 Pls
2358 749 Pls
2363 466 Pls
2367 528 Pls
2372 572 Pls
2376 859 Pls
2380 811 Pls
2385 541 Pls
2389 1014 Pls
2394 541 Pls
2398 452 Pls
2402 833 Pls
2407 488 Pls
2411 514 Pls
2416 828 Pls
2420 1142 Pls
2425 598 Pls
2429 523 Pls
2433 466 Pls
2438 665 Pls
2442 731 Pls
2447 643 Pls
2451 563 Pls
2455 483 Pls
2460 452 Pls
2464 559 Pls
2469 475 Pls
2473 470 Pls
2477 466 Pls
2482 461 Pls
2486 651 Pls
2491 550 Pls
2495 625 Pls
2500 536 Pls
2504 996 Pls
2508 749 Pls
2513 713 Pls
2517 457 Pls
2522 452 Pls
2526 470 Pls
2530 470 Pls
2535 492 Pls
2539 475 Pls
2544 470 Pls
2548 452 Pls
2553 466 Pls
2557 452 Pls
2561 457 Pls
2566 545 Pls
2570 536 Pls
2575 457 Pls
2579 625 Pls
2583 461 Pls
2588 479 Pls
2592 740 Pls
2597 492 Pls
2601 470 Pls
2605 656 Pls
2610 651 Pls
2614 452 Pls
2619 452 Pls
2623 457 Pls
2628 461 Pls
2632 475 Pls
2636 452 Pls
2641 461 Pls
2645 452 Pls
2650 457 Pls
2654 457 Pls
2658 461 Pls
2663 466 Pls
2667 457 Pls
2672 452 Pls
2676 461 Pls
2680 457 Pls
2685 452 Pls
2689 452 Pls
2694 479 Pls
2698 731 Pls
2703 638 Pls
2707 780 Pls
2711 457 Pls
2716 466 Pls
2720 475 Pls
2725 461 Pls
2729 541 Pls
2733 660 Pls
2738 647 Pls
2742 514 Pls
2747 501 Pls
2751 475 Pls
2755 461 Pls
2760 731 Pls
2764 528 Pls
2769 470 Pls
2773 488 Pls
2778 466 Pls
2782 660 Pls
2786 452 Pls
2791 567 Pls
2795 457 Pls
2800 1266 Pls
2804 457 Pls
2808 475 Pls
2813 457 Pls
2817 461 Pls
2822 651 Pls
2826 908 Pls
2830 607 Pls
2835 576 Pls
2839 461 Pls
2844 483 Pls
2848 581 Pls
2853 461 Pls
2857 505 Pls
2861 691 Pls
2866 461 Pls
2870 466 Pls
2875 634 Pls
2879 616 Pls
2883 731 Pls
2888 718 Pls
2892 452 Pls
2897 466 Pls
2901 461 Pls
2905 470 Pls
2910 452 Pls
2914 501 Pls
2919 492 Pls
2923 457 Pls
2928 475 Pls
2932 457 Pls
2936 475 Pls
2941 483 Pls
2945 475 Pls
2950 629 Pls
2954 479 Pls
2958 466 Pls
2963 678 Pls
2967 488 Pls
2972 899 Pls
2976 475 Pls
2980 457 Pls
2985 452 Pls
2989 452 Pls
2994 452 Pls
2998 461 Pls
3003 457 Pls
3007 470 Pls
3011 470 Pls
3016 457 Pls
3020 452 Pls
3025 457 Pls
3029 629 Pls
3033 470 Pls
3038 452 Pls
3042 598 Pls
3047 479 Pls
3051 585 Pls
3055 740 Pls
3060 479 Pls
3064 559 Pls
3069 519 Pls
3073 691 Pls
3078 572 Pls
3082 457 Pls
3086 483 Pls
3091 519 Pls
3095 541 Pls
3100 634 Pls
3104 514 Pls
3108 461 Pls
3113 452 Pls
3117 488 Pls
3122 461 Pls
3126 559 Pls
3130 461 Pls
3135 457 Pls
3139 598 Pls
3144 461 Pls
3148 483 Pls
3153 638 Pls
3157 612 Pls
3161 665 Pls
3166 797 Pls
3170 824 Pls
3175 457 Pls
3179 452 Pls
3183 585 Pls
3188 523 Pls
3192 492 Pls
3197 576 Pls
3201 873 Pls
3206 700 Pls
3210 775 Pls
3214 461 Pls
3219 505 Pls
3223 470 Pls
3228 620 Pls
3232 461 Pls
3236 483 Pls
3241 563 Pls
3245 523 Pls
3250 536 Pls
3254 740 Pls
3258 620 Pls
3263 687 Pls
3267 643 Pls
3272 510 Pls
3276 470 Pls
3281 470 Pls
3285 466 Pls
3289 475 Pls
3294 452 Pls
3298 594 Pls
3303 612 Pls
3307 452 Pls
3311 492 Pls
3316 461 Pls
3320 528 Pls
3325 585 Pls
3329 497 Pls
3333 952 Pls
3338 935 Pls
3342 452 Pls
3347 590 Pls
3351 475 Pls
3356 461 Pls
3360 461 Pls
3364 466 Pls
3369 461 Pls
3373 470 Pls
3378 452 Pls
3382 457 Pls
3386 457 Pls
3391 457 Pls
3395 452 Pls
3400 452 Pls
3404 475 Pls
3408 457 Pls
3413 536 Pls
3417 612 Pls
3422 505 Pls
3426 492 Pls
3431 554 Pls
3435 488 Pls
3439 647 Pls
3444 563 Pls
3448 559 Pls
3453 532 Pls
3457 713 Pls
3461 594 Pls
3466 492 Pls
3470 452 Pls
3475 598 Pls
3479 457 Pls
3483 483 Pls
3488 541 Pls
3492 523 Pls
3497 466 Pls
3501 461 Pls
3506 501 Pls
3510 581 Pls
3514 501 Pls
3519 572 Pls
3523 492 Pls
3528 563 Pls
3532 452 Pls
3536 541 Pls
3541 594 Pls
3545 514 Pls
3550 572 Pls
3554 457 Pls
3558 709 Pls
3563 510 Pls
3567 625 Pls
3572 492 Pls
3576 585 Pls
3581 492 Pls
3585 466 Pls
3589 457 Pls
3594 452 Pls
3598 461 Pls
3603 475 Pls
3607 452 Pls
3611 550 Pls
3616 567 Pls
3620 576 Pls
3625 585 Pls
3629 616 Pls
3633 846 Pls
3638 744 Pls
3642 492 Pls
3647 554 Pls
3651 554 Pls
3656 603 Pls
3660 669 Pls
3664 868 Pls
3669 466 Pls
3673 452 Pls
3678 466 Pls
3682 452 Pls
3686 452 Pls
3691 616 Pls
3695 492 Pls
3700 559 Pls
3704 452 Pls
3708 651 Pls
3713 510 Pls
3717 554 Pls
3722 612 Pls
3726 452 Pls
3731 470 Pls
3735 475 Pls
3739 479 Pls
3744 643 Pls
3748 466 Pls
3753 457 Pls
3757 461 Pls
3761 607 Pls
3766 492 Pls
3770 510 Pls
3775 479 Pls
3779 576 Pls
3783 452 Pls
3788 528 Pls
3792 567 Pls
3797 505 Pls
3801 488 Pls
3806 457 Pls
3810 669 Pls
3814 528 Pls
3819 523 Pls
3823 510 Pls
3828 536 Pls
3832 488 Pls
3836 488 Pls
3841 523 Pls
3845 475 Pls
3850 585 Pls
3854 585 Pls
3859 572 Pls
3863 488 Pls
3867 576 Pls
3872 514 Pls
3876 510 Pls
3881 572 Pls
3885 470 Pls
3889 492 Pls
3894 470 Pls
3898 457 Pls
3903 457 Pls
3907 475 Pls
3911 528 Pls
3916 457 Pls
3920 687 Pls
3925 567 Pls
3929 576 Pls
3934 550 Pls
3938 647 Pls
3942 660 Pls
3947 629 Pls
3951 705 Pls
3956 647 Pls
3960 492 Pls
3964 532 Pls
3969 545 Pls
3973 660 Pls
3978 616 Pls
3982 625 Pls
3986 616 Pls
3991 479 Pls
3995 492 Pls
4000 492 Pls
4004 461 Pls
4009 457 Pls
4013 452 Pls
4017 457 Pls
4022 452 Pls
4026 554 Pls
4031 607 Pls
4035 545 Pls
4039 607 Pls
4044 452 Pls
4048 452 Pls
4053 470 Pls
4057 554 Pls
4061 550 Pls
4066 563 Pls
4070 501 Pls
4075 501 Pls
4079 514 Pls
4084 554 Pls
4088 519 Pls
4092 581 Pls
4097 461 Pls
4101 470 Pls
4106 452 Pls
4110 452 Pls
4114 461 Pls
4119 497 Pls
4123 567 Pls
4128 519 Pls
4132 479 Pls
4136 466 Pls
4141 457 Pls
4145 528 Pls
4150 563 Pls
4154 559 Pls
4159 541 Pls
4163 479 Pls
4167 470 Pls
4172 594 Pls
4176 501 Pls
4181 457 Pls
4185 545 Pls
4189 545 Pls
4194 457 Pls
4198 545 Pls
4203 492 Pls
4207 629 Pls
4211 501 Pls
4216 514 Pls
4220 572 Pls
4225 523 Pls
4229 514 Pls
4234 470 Pls
4238 475 Pls
4242 457 Pls
4247 501 Pls
4251 643 Pls
4256 554 Pls
4260 505 Pls
4264 585 Pls
4269 501 Pls
4273 528 Pls
4278 545 Pls
4282 744 Pls
4286 598 Pls
4291 718 Pls
4295 532 Pls
4300 510 Pls
4304 541 Pls
4309 483 Pls
4313 585 Pls
4317 523 Pls
4322 523 Pls
4326 563 Pls
4331 523 Pls
4335 501 Pls
4339 452 Pls
4344 528 Pls
4348 550 Pls
4353 585 Pls
4357 536 Pls
4361 629 Pls
4366 457 Pls
4370 576 Pls
4375 457 Pls
4379 576 Pls
4384 452 Pls
4388 466 Pls
4392 532 Pls
4397 452 Pls
4401 550 Pls
4406 488 Pls
4410 497 Pls
4414 550 Pls
4419 470 Pls
4423 479 Pls
4428 466 Pls
4432 479 Pls
4436 581 Pls
4441 452 Pls
4445 488 Pls
4450 545 Pls
4454 505 Pls
4459 466 Pls
4463 457 Pls
4467 510 Pls
4472 488 Pls
4476 501 Pls
4481 510 Pls
4485 466 Pls
4489 488 Pls
4494 563 Pls
4498 603 Pls
4503 536 Pls
4507 501 Pls
4511 567 Pls
4516 598 Pls
4520 483 Pls
4525 510 Pls
4529 514 Pls
4534 519 Pls
4538 585 Pls
4542 576 Pls
4547 625 Pls
4551 519 Pls
4556 638 Pls
4560 612 Pls
4564 514 Pls
4569 501 Pls
4573 612 Pls
4578 594 Pls
4582 554 Pls
4587 585 Pls
4591 536 Pls
4595 519 Pls
4600 457 Pls
4604 452 Pls
4609 479 Pls
4613 505 Pls
4617 479 Pls
4622 452 Pls
4626 585 Pls
4631 492 Pls
4635 532 Pls
4639 616 Pls
4644 634 Pls
4648 528 Pls
4653 532 Pls
4657 528 Pls
4662 528 Pls
4666 479 Pls
4670 479 Pls
4675 519 Pls
4679 665 Pls
4684 452 Pls
4688 452 Pls
4692 519 Pls
4697 479 Pls
4701 497 Pls
4706 452 Pls
4710 457 Pls
4714 505 Pls
4719 457 Pls
4723 452 Pls
4728 457 Pls
4732 488 Pls
4737 483 Pls
4741 470 Pls
4745 523 Pls
4750 541 Pls
4754 466 Pls
4759 541 Pls
4763 452 Pls
4767 497 Pls
4772 514 Pls
4776 461 Pls
4781 470 Pls
4785 488 Pls
4789 572 Pls
4794 554 Pls
4798 528 Pls
4803 581 Pls
4807 523 Pls
4812 528 Pls
4816 488 Pls
4820 466 Pls
4825 452 Pls
4829 488 Pls
4834 452 Pls
4838 576 Pls
4842 501 Pls
4847 505 Pls
4851 497 Pls
4856 505 Pls
4860 519 Pls
4864 647 Pls
4869 488 Pls
4873 554 Pls
4878 488 Pls
4882 505 Pls
4887 466 Pls
4891 488 Pls
4895 457 Pls
4900 457 Pls
4904 523 Pls
4909 483 Pls
4913 497 Pls
4917 510 Pls
4922 452 Pls
4926 603 Pls
4931 497 Pls
4935 572 Pls
4939 497 Pls
4944 550 Pls
4948 722 Pls
4953 634 Pls
4957 576 Pls
4962 492 Pls
4966 545 Pls
4970 536 Pls
4975 519 Pls
4979 656 Pls
4984 660 Pls
4988 567 Pls
4992 554 Pls
4997 505 Pls
5001 713 Pls
5006 563 Pls
5010 523 Pls
5014 466 Pls
5019 541 Pls
5023 452 Pls
5028 470 Pls
5032 492 Pls
5037 452 Pls
5041 541 Pls
5045 510 Pls
5050 563 Pls
5054 479 Pls
5059 452 Pls
5063 550 Pls
5067 505 Pls
5072 674 Pls
5076 479 Pls
5081 457 Pls
5085 483 Pls
5089 475 Pls
5094 523 Pls
5098 479 Pls
5103 629 Pls
5107 550 Pls
5112 718 Pls
5116 629 Pls
5120 461 Pls
5125 718 Pls
5129 488 Pls
5134 452 Pls
5138 585 Pls
5142 497 Pls
5147 505 Pls
5151 647 Pls
5156 492 Pls
5160 514 Pls
5164 479 Pls
5169 758 Pls
5173 541 Pls
5178 563 Pls
5182 567 Pls
5187 598 Pls
5191 603 Pls
5195 554 Pls
5200 837 Pls
5204 585 Pls
5209 598 Pls
5213 488 Pls
5217 1107 Pls
5222 581 Pls
5226 943 Pls
5231 501 Pls
5235 550 Pls
5240 483 Pls
5244 607 Pls
5248 505 Pls
5253 475 Pls
5257 452 Pls
5262 466 Pls
5266 466 Pls
5270 505 Pls
5275 470 Pls
5279 475 Pls
5284 452 Pls
5288 523 Pls
5292 492 Pls
5297 466 Pls
5301 483 Pls
5306 466 Pls
5310 488 Pls
5315 470 Pls
5319 483 Pls
5323 536 Pls
5328 475 Pls
5332 523 Pls
5337 470 Pls
5341 523 Pls
5345 452 Pls
5350 594 Pls
5354 965 Pls
5359 643 Pls
5363 576 Pls
5367 510 Pls
5372 607 Pls
5376 669 Pls
5381 705 Pls
5385 612 Pls
5390 576 Pls
5394 536 Pls
5398 519 Pls
5403 483 Pls
5407 457 Pls
5412 483 Pls
5416 514 Pls
5420 457 Pls
5425 488 Pls
5429 457 Pls
5434 475 Pls
5438 488 Pls
5442 470 Pls
5447 466 Pls
5451 470 Pls
5456 461 Pls
5460 452 Pls
5465 475 Pls
5469 452 Pls
5473 541 Pls
5478 501 Pls
5482 452 Pls
5487 470 Pls
5491 475 Pls
5495 461 Pls
5500 567 Pls
5504 457 Pls
5509 572 Pls
5513 466 Pls
5517 457 Pls
5522 466 Pls
5526 461 Pls
5531 475 Pls
5535 470 Pls
5540 457 Pls
5544 452 Pls
5548 461 Pls
5553 461 Pls
5557 475 Pls
5562 581 Pls
5566 483 Pls
5570 492 Pls
5575 483 Pls
5579 470 Pls
5584 501 Pls
5588 470 Pls
5592 497 Pls
5597 488 Pls
5601 479 Pls
5606 497 Pls
5610 466 Pls
5615 492 Pls
5619 488 Pls
5623 461 Pls
5628 470 Pls
5632 466 Pls
5637 466 Pls
5641 483 Pls
5645 475 Pls
5650 488 Pls
5654 492 Pls
5659 545 Pls
5663 452 Pls
5667 470 Pls
5672 483 Pls
5676 497 Pls
5681 470 Pls
5685 466 Pls
5690 470 Pls
5694 475 Pls
5698 457 Pls
5703 457 Pls
5707 457 Pls
5712 488 Pls
5716 483 Pls
5720 461 Pls
5725 461 Pls
5729 452 Pls
5734 457 Pls
5738 475 Pls
5742 452 Pls
5747 466 Pls
5751 483 Pls
5756 457 Pls
5760 483 Pls
5765 470 Pls
5769 452 Pls
5773 461 Pls
5778 510 Pls
5782 461 Pls
5787 470 Pls
5791 457 Pls
5795 492 Pls
5800 488 Pls
5804 483 Pls
5809 452 Pls
5813 457 Pls
5817 452 Pls
5822 461 Pls
5826 475 Pls
5831 452 Pls
5835 497 Pls
5840 479 Pls
5844 466 Pls
5848 452 Pls
5853 475 Pls
5857 466 Pls
5862 452 Pls
5866 466 Pls
5870 470 Pls
5875 466 Pls
5879 452 Pls
5884 461 Pls
5888 457 Pls
5892 479 Pls
5897 452 Pls
5901 488 Pls
5906 457 Pls
5910 457 Pls
5915 470 Pls
5919 479 Pls
5923 452 Pls
5928 452 Pls
5932 461 Pls
5937 488 Pls
5941 466 Pls
5945 452 Pls
5950 452 Pls
5954 457 Pls
5959 461 Pls
5963 452 Pls
5968 452 Pls
5972 461 Pls
5976 457 Pls
5981 452 Pls
5985 457 Pls
5990 466 Pls
5994 457 Pls
5998 457 Pls
6003 461 Pls
6007 452 Pls
6012 452 Pls
6016 452 Pls
6020 452 Pls
6025 461 Pls
6029 461 Pls
6034 452 Pls
6038 452 Pls
6043 452 Pls
6047 452 Pls
6051 452 Pls
6056 452 Pls
6060 452 Pls
6065 452 Pls
6069 452 Pls
6073 452 Pls
6078 452 Pls
6082 452 Pls
6087 452 Pls
6091 452 Pls
6095 457 Pls
6579 4738 Pls
% End plot #1
1.000 UL
LTb
770 4871 N
770 448 L
6177 0 V
0 4423 V
-6177 0 V
Z stroke
1.000 UP
1.000 UL
LTb
stroke
grestore
end
showpage
%%Trailer
%%DocumentFonts: Helvetica
