%!PS-Adobe-2.0 EPSF-2.0
%%Title: ../plots/domainstats/states-sorted-by-ply-visit-count-over-avg-num-plies-minigammon-p-0.00.eps
%%Creator: gnuplot 4.4 patchlevel 3
%%CreationDate: Wed Dec 14 04:42:16 2011
%%DocumentFonts: (atend)
%%BoundingBox: 50 50 410 302
%%EndComments
%%BeginProlog
/gnudict 256 dict def
gnudict begin
%
% The following true/false flags may be edited by hand if desired.
% The unit line width and grayscale image gamma correction may also be changed.
%
/Color true def
/Blacktext false def
/Solid false def
/Dashlength 1 def
/Landscape false def
/Level1 false def
/Rounded false def
/ClipToBoundingBox false def
/TransparentPatterns false def
/gnulinewidth 5.000 def
/userlinewidth gnulinewidth def
/Gamma 1.0 def
%
/vshift -46 def
/dl1 {
  10.0 Dashlength mul mul
  Rounded { currentlinewidth 0.75 mul sub dup 0 le { pop 0.01 } if } if
} def
/dl2 {
  10.0 Dashlength mul mul
  Rounded { currentlinewidth 0.75 mul add } if
} def
/hpt_ 31.5 def
/vpt_ 31.5 def
/hpt hpt_ def
/vpt vpt_ def
Level1 {} {
/SDict 10 dict def
systemdict /pdfmark known not {
  userdict /pdfmark systemdict /cleartomark get put
} if
SDict begin [
  /Title (../plots/domainstats/states-sorted-by-ply-visit-count-over-avg-num-plies-minigammon-p-0.00.eps)
  /Subject (gnuplot plot)
  /Creator (gnuplot 4.4 patchlevel 3)
  /Author (reza)
%  /Producer (gnuplot)
%  /Keywords ()
  /CreationDate (Wed Dec 14 04:42:16 2011)
  /DOCINFO pdfmark
end
} ifelse
/doclip {
  ClipToBoundingBox {
    newpath 50 50 moveto 410 50 lineto 410 302 lineto 50 302 lineto closepath
    clip
  } if
} def
%
% Gnuplot Prolog Version 4.4 (August 2010)
%
%/SuppressPDFMark true def
%
/M {moveto} bind def
/L {lineto} bind def
/R {rmoveto} bind def
/V {rlineto} bind def
/N {newpath moveto} bind def
/Z {closepath} bind def
/C {setrgbcolor} bind def
/f {rlineto fill} bind def
/g {setgray} bind def
/Gshow {show} def   % May be redefined later in the file to support UTF-8
/vpt2 vpt 2 mul def
/hpt2 hpt 2 mul def
/Lshow {currentpoint stroke M 0 vshift R 
	Blacktext {gsave 0 setgray show grestore} {show} ifelse} def
/Rshow {currentpoint stroke M dup stringwidth pop neg vshift R
	Blacktext {gsave 0 setgray show grestore} {show} ifelse} def
/Cshow {currentpoint stroke M dup stringwidth pop -2 div vshift R 
	Blacktext {gsave 0 setgray show grestore} {show} ifelse} def
/UP {dup vpt_ mul /vpt exch def hpt_ mul /hpt exch def
  /hpt2 hpt 2 mul def /vpt2 vpt 2 mul def} def
/DL {Color {setrgbcolor Solid {pop []} if 0 setdash}
 {pop pop pop 0 setgray Solid {pop []} if 0 setdash} ifelse} def
/BL {stroke userlinewidth 2 mul setlinewidth
	Rounded {1 setlinejoin 1 setlinecap} if} def
/AL {stroke userlinewidth 2 div setlinewidth
	Rounded {1 setlinejoin 1 setlinecap} if} def
/UL {dup gnulinewidth mul /userlinewidth exch def
	dup 1 lt {pop 1} if 10 mul /udl exch def} def
/PL {stroke userlinewidth setlinewidth
	Rounded {1 setlinejoin 1 setlinecap} if} def
3.8 setmiterlimit
% Default Line colors
/LCw {1 1 1} def
/LCb {0 0 0} def
/LCa {0 0 0} def
/LC0 {1 0 0} def
/LC1 {0 1 0} def
/LC2 {0 0 1} def
/LC3 {1 0 1} def
/LC4 {0 1 1} def
/LC5 {1 1 0} def
/LC6 {0 0 0} def
/LC7 {1 0.3 0} def
/LC8 {0.5 0.5 0.5} def
% Default Line Types
/LTw {PL [] 1 setgray} def
/LTb {BL [] LCb DL} def
/LTa {AL [1 udl mul 2 udl mul] 0 setdash LCa setrgbcolor} def
/LT0 {PL [] LC0 DL} def
/LT1 {PL [4 dl1 2 dl2] LC1 DL} def
/LT2 {PL [2 dl1 3 dl2] LC2 DL} def
/LT3 {PL [1 dl1 1.5 dl2] LC3 DL} def
/LT4 {PL [6 dl1 2 dl2 1 dl1 2 dl2] LC4 DL} def
/LT5 {PL [3 dl1 3 dl2 1 dl1 3 dl2] LC5 DL} def
/LT6 {PL [2 dl1 2 dl2 2 dl1 6 dl2] LC6 DL} def
/LT7 {PL [1 dl1 2 dl2 6 dl1 2 dl2 1 dl1 2 dl2] LC7 DL} def
/LT8 {PL [2 dl1 2 dl2 2 dl1 2 dl2 2 dl1 2 dl2 2 dl1 4 dl2] LC8 DL} def
/Pnt {stroke [] 0 setdash gsave 1 setlinecap M 0 0 V stroke grestore} def
/Dia {stroke [] 0 setdash 2 copy vpt add M
  hpt neg vpt neg V hpt vpt neg V
  hpt vpt V hpt neg vpt V closepath stroke
  Pnt} def
/Pls {stroke [] 0 setdash vpt sub M 0 vpt2 V
  currentpoint stroke M
  hpt neg vpt neg R hpt2 0 V stroke
 } def
/Box {stroke [] 0 setdash 2 copy exch hpt sub exch vpt add M
  0 vpt2 neg V hpt2 0 V 0 vpt2 V
  hpt2 neg 0 V closepath stroke
  Pnt} def
/Crs {stroke [] 0 setdash exch hpt sub exch vpt add M
  hpt2 vpt2 neg V currentpoint stroke M
  hpt2 neg 0 R hpt2 vpt2 V stroke} def
/TriU {stroke [] 0 setdash 2 copy vpt 1.12 mul add M
  hpt neg vpt -1.62 mul V
  hpt 2 mul 0 V
  hpt neg vpt 1.62 mul V closepath stroke
  Pnt} def
/Star {2 copy Pls Crs} def
/BoxF {stroke [] 0 setdash exch hpt sub exch vpt add M
  0 vpt2 neg V hpt2 0 V 0 vpt2 V
  hpt2 neg 0 V closepath fill} def
/TriUF {stroke [] 0 setdash vpt 1.12 mul add M
  hpt neg vpt -1.62 mul V
  hpt 2 mul 0 V
  hpt neg vpt 1.62 mul V closepath fill} def
/TriD {stroke [] 0 setdash 2 copy vpt 1.12 mul sub M
  hpt neg vpt 1.62 mul V
  hpt 2 mul 0 V
  hpt neg vpt -1.62 mul V closepath stroke
  Pnt} def
/TriDF {stroke [] 0 setdash vpt 1.12 mul sub M
  hpt neg vpt 1.62 mul V
  hpt 2 mul 0 V
  hpt neg vpt -1.62 mul V closepath fill} def
/DiaF {stroke [] 0 setdash vpt add M
  hpt neg vpt neg V hpt vpt neg V
  hpt vpt V hpt neg vpt V closepath fill} def
/Pent {stroke [] 0 setdash 2 copy gsave
  translate 0 hpt M 4 {72 rotate 0 hpt L} repeat
  closepath stroke grestore Pnt} def
/PentF {stroke [] 0 setdash gsave
  translate 0 hpt M 4 {72 rotate 0 hpt L} repeat
  closepath fill grestore} def
/Circle {stroke [] 0 setdash 2 copy
  hpt 0 360 arc stroke Pnt} def
/CircleF {stroke [] 0 setdash hpt 0 360 arc fill} def
/C0 {BL [] 0 setdash 2 copy moveto vpt 90 450 arc} bind def
/C1 {BL [] 0 setdash 2 copy moveto
	2 copy vpt 0 90 arc closepath fill
	vpt 0 360 arc closepath} bind def
/C2 {BL [] 0 setdash 2 copy moveto
	2 copy vpt 90 180 arc closepath fill
	vpt 0 360 arc closepath} bind def
/C3 {BL [] 0 setdash 2 copy moveto
	2 copy vpt 0 180 arc closepath fill
	vpt 0 360 arc closepath} bind def
/C4 {BL [] 0 setdash 2 copy moveto
	2 copy vpt 180 270 arc closepath fill
	vpt 0 360 arc closepath} bind def
/C5 {BL [] 0 setdash 2 copy moveto
	2 copy vpt 0 90 arc
	2 copy moveto
	2 copy vpt 180 270 arc closepath fill
	vpt 0 360 arc} bind def
/C6 {BL [] 0 setdash 2 copy moveto
	2 copy vpt 90 270 arc closepath fill
	vpt 0 360 arc closepath} bind def
/C7 {BL [] 0 setdash 2 copy moveto
	2 copy vpt 0 270 arc closepath fill
	vpt 0 360 arc closepath} bind def
/C8 {BL [] 0 setdash 2 copy moveto
	2 copy vpt 270 360 arc closepath fill
	vpt 0 360 arc closepath} bind def
/C9 {BL [] 0 setdash 2 copy moveto
	2 copy vpt 270 450 arc closepath fill
	vpt 0 360 arc closepath} bind def
/C10 {BL [] 0 setdash 2 copy 2 copy moveto vpt 270 360 arc closepath fill
	2 copy moveto
	2 copy vpt 90 180 arc closepath fill
	vpt 0 360 arc closepath} bind def
/C11 {BL [] 0 setdash 2 copy moveto
	2 copy vpt 0 180 arc closepath fill
	2 copy moveto
	2 copy vpt 270 360 arc closepath fill
	vpt 0 360 arc closepath} bind def
/C12 {BL [] 0 setdash 2 copy moveto
	2 copy vpt 180 360 arc closepath fill
	vpt 0 360 arc closepath} bind def
/C13 {BL [] 0 setdash 2 copy moveto
	2 copy vpt 0 90 arc closepath fill
	2 copy moveto
	2 copy vpt 180 360 arc closepath fill
	vpt 0 360 arc closepath} bind def
/C14 {BL [] 0 setdash 2 copy moveto
	2 copy vpt 90 360 arc closepath fill
	vpt 0 360 arc} bind def
/C15 {BL [] 0 setdash 2 copy vpt 0 360 arc closepath fill
	vpt 0 360 arc closepath} bind def
/Rec {newpath 4 2 roll moveto 1 index 0 rlineto 0 exch rlineto
	neg 0 rlineto closepath} bind def
/Square {dup Rec} bind def
/Bsquare {vpt sub exch vpt sub exch vpt2 Square} bind def
/S0 {BL [] 0 setdash 2 copy moveto 0 vpt rlineto BL Bsquare} bind def
/S1 {BL [] 0 setdash 2 copy vpt Square fill Bsquare} bind def
/S2 {BL [] 0 setdash 2 copy exch vpt sub exch vpt Square fill Bsquare} bind def
/S3 {BL [] 0 setdash 2 copy exch vpt sub exch vpt2 vpt Rec fill Bsquare} bind def
/S4 {BL [] 0 setdash 2 copy exch vpt sub exch vpt sub vpt Square fill Bsquare} bind def
/S5 {BL [] 0 setdash 2 copy 2 copy vpt Square fill
	exch vpt sub exch vpt sub vpt Square fill Bsquare} bind def
/S6 {BL [] 0 setdash 2 copy exch vpt sub exch vpt sub vpt vpt2 Rec fill Bsquare} bind def
/S7 {BL [] 0 setdash 2 copy exch vpt sub exch vpt sub vpt vpt2 Rec fill
	2 copy vpt Square fill Bsquare} bind def
/S8 {BL [] 0 setdash 2 copy vpt sub vpt Square fill Bsquare} bind def
/S9 {BL [] 0 setdash 2 copy vpt sub vpt vpt2 Rec fill Bsquare} bind def
/S10 {BL [] 0 setdash 2 copy vpt sub vpt Square fill 2 copy exch vpt sub exch vpt Square fill
	Bsquare} bind def
/S11 {BL [] 0 setdash 2 copy vpt sub vpt Square fill 2 copy exch vpt sub exch vpt2 vpt Rec fill
	Bsquare} bind def
/S12 {BL [] 0 setdash 2 copy exch vpt sub exch vpt sub vpt2 vpt Rec fill Bsquare} bind def
/S13 {BL [] 0 setdash 2 copy exch vpt sub exch vpt sub vpt2 vpt Rec fill
	2 copy vpt Square fill Bsquare} bind def
/S14 {BL [] 0 setdash 2 copy exch vpt sub exch vpt sub vpt2 vpt Rec fill
	2 copy exch vpt sub exch vpt Square fill Bsquare} bind def
/S15 {BL [] 0 setdash 2 copy Bsquare fill Bsquare} bind def
/D0 {gsave translate 45 rotate 0 0 S0 stroke grestore} bind def
/D1 {gsave translate 45 rotate 0 0 S1 stroke grestore} bind def
/D2 {gsave translate 45 rotate 0 0 S2 stroke grestore} bind def
/D3 {gsave translate 45 rotate 0 0 S3 stroke grestore} bind def
/D4 {gsave translate 45 rotate 0 0 S4 stroke grestore} bind def
/D5 {gsave translate 45 rotate 0 0 S5 stroke grestore} bind def
/D6 {gsave translate 45 rotate 0 0 S6 stroke grestore} bind def
/D7 {gsave translate 45 rotate 0 0 S7 stroke grestore} bind def
/D8 {gsave translate 45 rotate 0 0 S8 stroke grestore} bind def
/D9 {gsave translate 45 rotate 0 0 S9 stroke grestore} bind def
/D10 {gsave translate 45 rotate 0 0 S10 stroke grestore} bind def
/D11 {gsave translate 45 rotate 0 0 S11 stroke grestore} bind def
/D12 {gsave translate 45 rotate 0 0 S12 stroke grestore} bind def
/D13 {gsave translate 45 rotate 0 0 S13 stroke grestore} bind def
/D14 {gsave translate 45 rotate 0 0 S14 stroke grestore} bind def
/D15 {gsave translate 45 rotate 0 0 S15 stroke grestore} bind def
/DiaE {stroke [] 0 setdash vpt add M
  hpt neg vpt neg V hpt vpt neg V
  hpt vpt V hpt neg vpt V closepath stroke} def
/BoxE {stroke [] 0 setdash exch hpt sub exch vpt add M
  0 vpt2 neg V hpt2 0 V 0 vpt2 V
  hpt2 neg 0 V closepath stroke} def
/TriUE {stroke [] 0 setdash vpt 1.12 mul add M
  hpt neg vpt -1.62 mul V
  hpt 2 mul 0 V
  hpt neg vpt 1.62 mul V closepath stroke} def
/TriDE {stroke [] 0 setdash vpt 1.12 mul sub M
  hpt neg vpt 1.62 mul V
  hpt 2 mul 0 V
  hpt neg vpt -1.62 mul V closepath stroke} def
/PentE {stroke [] 0 setdash gsave
  translate 0 hpt M 4 {72 rotate 0 hpt L} repeat
  closepath stroke grestore} def
/CircE {stroke [] 0 setdash 
  hpt 0 360 arc stroke} def
/Opaque {gsave closepath 1 setgray fill grestore 0 setgray closepath} def
/DiaW {stroke [] 0 setdash vpt add M
  hpt neg vpt neg V hpt vpt neg V
  hpt vpt V hpt neg vpt V Opaque stroke} def
/BoxW {stroke [] 0 setdash exch hpt sub exch vpt add M
  0 vpt2 neg V hpt2 0 V 0 vpt2 V
  hpt2 neg 0 V Opaque stroke} def
/TriUW {stroke [] 0 setdash vpt 1.12 mul add M
  hpt neg vpt -1.62 mul V
  hpt 2 mul 0 V
  hpt neg vpt 1.62 mul V Opaque stroke} def
/TriDW {stroke [] 0 setdash vpt 1.12 mul sub M
  hpt neg vpt 1.62 mul V
  hpt 2 mul 0 V
  hpt neg vpt -1.62 mul V Opaque stroke} def
/PentW {stroke [] 0 setdash gsave
  translate 0 hpt M 4 {72 rotate 0 hpt L} repeat
  Opaque stroke grestore} def
/CircW {stroke [] 0 setdash 
  hpt 0 360 arc Opaque stroke} def
/BoxFill {gsave Rec 1 setgray fill grestore} def
/Density {
  /Fillden exch def
  currentrgbcolor
  /ColB exch def /ColG exch def /ColR exch def
  /ColR ColR Fillden mul Fillden sub 1 add def
  /ColG ColG Fillden mul Fillden sub 1 add def
  /ColB ColB Fillden mul Fillden sub 1 add def
  ColR ColG ColB setrgbcolor} def
/BoxColFill {gsave Rec PolyFill} def
/PolyFill {gsave Density fill grestore grestore} def
/h {rlineto rlineto rlineto gsave closepath fill grestore} bind def
%
% PostScript Level 1 Pattern Fill routine for rectangles
% Usage: x y w h s a XX PatternFill
%	x,y = lower left corner of box to be filled
%	w,h = width and height of box
%	  a = angle in degrees between lines and x-axis
%	 XX = 0/1 for no/yes cross-hatch
%
/PatternFill {gsave /PFa [ 9 2 roll ] def
  PFa 0 get PFa 2 get 2 div add PFa 1 get PFa 3 get 2 div add translate
  PFa 2 get -2 div PFa 3 get -2 div PFa 2 get PFa 3 get Rec
  gsave 1 setgray fill grestore clip
  currentlinewidth 0.5 mul setlinewidth
  /PFs PFa 2 get dup mul PFa 3 get dup mul add sqrt def
  0 0 M PFa 5 get rotate PFs -2 div dup translate
  0 1 PFs PFa 4 get div 1 add floor cvi
	{PFa 4 get mul 0 M 0 PFs V} for
  0 PFa 6 get ne {
	0 1 PFs PFa 4 get div 1 add floor cvi
	{PFa 4 get mul 0 2 1 roll M PFs 0 V} for
 } if
  stroke grestore} def
%
/languagelevel where
 {pop languagelevel} {1} ifelse
 2 lt
	{/InterpretLevel1 true def}
	{/InterpretLevel1 Level1 def}
 ifelse
%
% PostScript level 2 pattern fill definitions
%
/Level2PatternFill {
/Tile8x8 {/PaintType 2 /PatternType 1 /TilingType 1 /BBox [0 0 8 8] /XStep 8 /YStep 8}
	bind def
/KeepColor {currentrgbcolor [/Pattern /DeviceRGB] setcolorspace} bind def
<< Tile8x8
 /PaintProc {0.5 setlinewidth pop 0 0 M 8 8 L 0 8 M 8 0 L stroke} 
>> matrix makepattern
/Pat1 exch def
<< Tile8x8
 /PaintProc {0.5 setlinewidth pop 0 0 M 8 8 L 0 8 M 8 0 L stroke
	0 4 M 4 8 L 8 4 L 4 0 L 0 4 L stroke}
>> matrix makepattern
/Pat2 exch def
<< Tile8x8
 /PaintProc {0.5 setlinewidth pop 0 0 M 0 8 L
	8 8 L 8 0 L 0 0 L fill}
>> matrix makepattern
/Pat3 exch def
<< Tile8x8
 /PaintProc {0.5 setlinewidth pop -4 8 M 8 -4 L
	0 12 M 12 0 L stroke}
>> matrix makepattern
/Pat4 exch def
<< Tile8x8
 /PaintProc {0.5 setlinewidth pop -4 0 M 8 12 L
	0 -4 M 12 8 L stroke}
>> matrix makepattern
/Pat5 exch def
<< Tile8x8
 /PaintProc {0.5 setlinewidth pop -2 8 M 4 -4 L
	0 12 M 8 -4 L 4 12 M 10 0 L stroke}
>> matrix makepattern
/Pat6 exch def
<< Tile8x8
 /PaintProc {0.5 setlinewidth pop -2 0 M 4 12 L
	0 -4 M 8 12 L 4 -4 M 10 8 L stroke}
>> matrix makepattern
/Pat7 exch def
<< Tile8x8
 /PaintProc {0.5 setlinewidth pop 8 -2 M -4 4 L
	12 0 M -4 8 L 12 4 M 0 10 L stroke}
>> matrix makepattern
/Pat8 exch def
<< Tile8x8
 /PaintProc {0.5 setlinewidth pop 0 -2 M 12 4 L
	-4 0 M 12 8 L -4 4 M 8 10 L stroke}
>> matrix makepattern
/Pat9 exch def
/Pattern1 {PatternBgnd KeepColor Pat1 setpattern} bind def
/Pattern2 {PatternBgnd KeepColor Pat2 setpattern} bind def
/Pattern3 {PatternBgnd KeepColor Pat3 setpattern} bind def
/Pattern4 {PatternBgnd KeepColor Landscape {Pat5} {Pat4} ifelse setpattern} bind def
/Pattern5 {PatternBgnd KeepColor Landscape {Pat4} {Pat5} ifelse setpattern} bind def
/Pattern6 {PatternBgnd KeepColor Landscape {Pat9} {Pat6} ifelse setpattern} bind def
/Pattern7 {PatternBgnd KeepColor Landscape {Pat8} {Pat7} ifelse setpattern} bind def
} def
%
%
%End of PostScript Level 2 code
%
/PatternBgnd {
  TransparentPatterns {} {gsave 1 setgray fill grestore} ifelse
} def
%
% Substitute for Level 2 pattern fill codes with
% grayscale if Level 2 support is not selected.
%
/Level1PatternFill {
/Pattern1 {0.250 Density} bind def
/Pattern2 {0.500 Density} bind def
/Pattern3 {0.750 Density} bind def
/Pattern4 {0.125 Density} bind def
/Pattern5 {0.375 Density} bind def
/Pattern6 {0.625 Density} bind def
/Pattern7 {0.875 Density} bind def
} def
%
% Now test for support of Level 2 code
%
Level1 {Level1PatternFill} {Level2PatternFill} ifelse
%
/Symbol-Oblique /Symbol findfont [1 0 .167 1 0 0] makefont
dup length dict begin {1 index /FID eq {pop pop} {def} ifelse} forall
currentdict end definefont pop
end
%%EndProlog
gnudict begin
gsave
doclip
50 50 translate
0.050 0.050 scale
0 setgray
newpath
(Helvetica) findfont 140 scalefont setfont
1.000 UL
LTb
602 448 M
63 0 V
6282 0 R
-63 0 V
518 448 M
( 0) Rshow
1.000 UL
LTb
602 890 M
63 0 V
6282 0 R
-63 0 V
518 890 M
( 5) Rshow
1.000 UL
LTb
602 1333 M
63 0 V
6282 0 R
-63 0 V
-6366 0 R
( 10) Rshow
1.000 UL
LTb
602 1775 M
63 0 V
6282 0 R
-63 0 V
-6366 0 R
( 15) Rshow
1.000 UL
LTb
602 2217 M
63 0 V
6282 0 R
-63 0 V
-6366 0 R
( 20) Rshow
1.000 UL
LTb
602 2659 M
63 0 V
6282 0 R
-63 0 V
-6366 0 R
( 25) Rshow
1.000 UL
LTb
602 3102 M
63 0 V
6282 0 R
-63 0 V
-6366 0 R
( 30) Rshow
1.000 UL
LTb
602 3544 M
63 0 V
6282 0 R
-63 0 V
-6366 0 R
( 35) Rshow
1.000 UL
LTb
602 3986 M
63 0 V
6282 0 R
-63 0 V
-6366 0 R
( 40) Rshow
1.000 UL
LTb
602 4429 M
63 0 V
6282 0 R
-63 0 V
-6366 0 R
( 45) Rshow
1.000 UL
LTb
602 4871 M
63 0 V
6282 0 R
-63 0 V
-6366 0 R
( 50) Rshow
1.000 UL
LTb
602 448 M
0 63 V
0 4360 R
0 -63 V
602 308 M
( 0) Cshow
1.000 UL
LTb
1236 448 M
0 63 V
0 4360 R
0 -63 V
0 -4500 R
( 100) Cshow
1.000 UL
LTb
1871 448 M
0 63 V
0 4360 R
0 -63 V
0 -4500 R
( 200) Cshow
1.000 UL
LTb
2505 448 M
0 63 V
0 4360 R
0 -63 V
0 -4500 R
( 300) Cshow
1.000 UL
LTb
3140 448 M
0 63 V
0 4360 R
0 -63 V
0 -4500 R
( 400) Cshow
1.000 UL
LTb
3774 448 M
0 63 V
0 4360 R
0 -63 V
0 -4500 R
( 500) Cshow
1.000 UL
LTb
4409 448 M
0 63 V
0 4360 R
0 -63 V
0 -4500 R
( 600) Cshow
1.000 UL
LTb
5043 448 M
0 63 V
0 4360 R
0 -63 V
0 -4500 R
( 700) Cshow
1.000 UL
LTb
5678 448 M
0 63 V
0 4360 R
0 -63 V
0 -4500 R
( 800) Cshow
1.000 UL
LTb
6312 448 M
0 63 V
0 4360 R
0 -63 V
0 -4500 R
( 900) Cshow
1.000 UL
LTb
6947 448 M
0 63 V
0 4360 R
0 -63 V
0 -4500 R
( 1000) Cshow
1.000 UL
LTb
1.000 UL
LTb
602 4871 N
602 448 L
6345 0 V
0 4423 V
-6345 0 V
Z stroke
LCb setrgbcolor
112 2659 M
currentpoint gsave translate -270 rotate 0 0 M
(Visit Count per 1000 Plies) Cshow
grestore
LTb
LCb setrgbcolor
3774 98 M
(States \(Sorted by Earliest Visit Time\)) Cshow
LTb
1.000 UP
1.000 UL
LTb
% Begin plot #1
1.000 UP
1.000 UL
LT0
LCb setrgbcolor
6296 4738 M
(p = 0.00) Rshow
LT0
602 4782 Pls
608 1436 Pls
615 1627 Pls
621 1518 Pls
627 1544 Pls
634 1609 Pls
640 1787 Pls
646 1618 Pls
653 1722 Pls
659 582 Pls
665 660 Pls
672 730 Pls
678 886 Pls
684 600 Pls
691 656 Pls
697 595 Pls
704 647 Pls
710 699 Pls
716 808 Pls
723 691 Pls
729 929 Pls
735 630 Pls
742 877 Pls
748 669 Pls
754 617 Pls
761 734 Pls
767 548 Pls
773 734 Pls
780 595 Pls
786 556 Pls
792 760 Pls
799 595 Pls
805 652 Pls
811 595 Pls
818 626 Pls
824 881 Pls
830 682 Pls
837 886 Pls
843 721 Pls
849 504 Pls
856 604 Pls
862 552 Pls
868 582 Pls
875 522 Pls
881 569 Pls
888 526 Pls
894 734 Pls
900 613 Pls
907 660 Pls
913 526 Pls
919 556 Pls
926 743 Pls
932 656 Pls
938 777 Pls
945 513 Pls
951 582 Pls
957 556 Pls
964 478 Pls
970 470 Pls
976 574 Pls
983 513 Pls
989 600 Pls
995 600 Pls
1002 487 Pls
1008 491 Pls
1014 647 Pls
1021 665 Pls
1027 591 Pls
1033 600 Pls
1040 704 Pls
1046 604 Pls
1052 565 Pls
1059 487 Pls
1065 504 Pls
1072 461 Pls
1078 457 Pls
1084 552 Pls
1091 552 Pls
1097 561 Pls
1103 543 Pls
1110 496 Pls
1116 530 Pls
1122 634 Pls
1129 626 Pls
1135 591 Pls
1141 678 Pls
1148 665 Pls
1154 552 Pls
1160 569 Pls
1167 504 Pls
1173 474 Pls
1179 465 Pls
1186 465 Pls
1192 470 Pls
1198 478 Pls
1205 465 Pls
1211 487 Pls
1217 487 Pls
1224 496 Pls
1230 470 Pls
1236 513 Pls
1243 496 Pls
1249 600 Pls
1256 595 Pls
1262 608 Pls
1268 582 Pls
1275 582 Pls
1281 556 Pls
1287 535 Pls
1294 509 Pls
1300 487 Pls
1306 474 Pls
1313 470 Pls
1319 474 Pls
1325 461 Pls
1332 483 Pls
1338 526 Pls
1344 500 Pls
1351 552 Pls
1357 517 Pls
1363 522 Pls
1370 487 Pls
1376 535 Pls
1382 665 Pls
1389 738 Pls
1395 881 Pls
1401 539 Pls
1408 556 Pls
1414 639 Pls
1421 842 Pls
1427 513 Pls
1433 487 Pls
1440 470 Pls
1446 552 Pls
1452 582 Pls
1459 665 Pls
1465 704 Pls
1471 487 Pls
1478 483 Pls
1484 630 Pls
1490 695 Pls
1497 565 Pls
1503 561 Pls
1509 582 Pls
1516 452 Pls
1522 465 Pls
1528 530 Pls
1535 548 Pls
1541 496 Pls
1547 522 Pls
1554 487 Pls
1560 530 Pls
1566 513 Pls
1573 591 Pls
1579 452 Pls
1585 457 Pls
1592 478 Pls
1598 470 Pls
1605 565 Pls
1611 565 Pls
1617 483 Pls
1624 504 Pls
1630 539 Pls
1636 565 Pls
1643 452 Pls
1649 491 Pls
1655 500 Pls
1662 565 Pls
1668 574 Pls
1674 647 Pls
1681 470 Pls
1687 457 Pls
1693 478 Pls
1700 535 Pls
1706 526 Pls
1712 556 Pls
1719 569 Pls
1725 461 Pls
1731 474 Pls
1738 504 Pls
1744 465 Pls
1750 535 Pls
1757 608 Pls
1763 478 Pls
1769 509 Pls
1776 470 Pls
1782 526 Pls
1789 452 Pls
1795 500 Pls
1801 591 Pls
1808 504 Pls
1814 500 Pls
1820 530 Pls
1827 517 Pls
1833 483 Pls
1839 457 Pls
1846 461 Pls
1852 548 Pls
1858 461 Pls
1865 561 Pls
1871 452 Pls
1877 487 Pls
1884 522 Pls
1890 465 Pls
1896 535 Pls
1903 639 Pls
1909 548 Pls
1915 621 Pls
1922 552 Pls
1928 526 Pls
1934 522 Pls
1941 487 Pls
1947 496 Pls
1953 487 Pls
1960 578 Pls
1966 457 Pls
1973 461 Pls
1979 457 Pls
1985 487 Pls
1992 517 Pls
1998 461 Pls
2004 509 Pls
2011 504 Pls
2017 461 Pls
2023 509 Pls
2030 543 Pls
2036 526 Pls
2042 595 Pls
2049 500 Pls
2055 491 Pls
2061 522 Pls
2068 608 Pls
2074 561 Pls
2080 669 Pls
2087 509 Pls
2093 522 Pls
2099 452 Pls
2106 457 Pls
2112 452 Pls
2118 465 Pls
2125 465 Pls
2131 457 Pls
2137 452 Pls
2144 491 Pls
2150 465 Pls
2157 452 Pls
2163 461 Pls
2169 452 Pls
2176 461 Pls
2182 465 Pls
2188 465 Pls
2195 509 Pls
2201 500 Pls
2207 496 Pls
2214 461 Pls
2220 457 Pls
2226 470 Pls
2233 461 Pls
2239 504 Pls
2245 483 Pls
2252 509 Pls
2258 504 Pls
2264 500 Pls
2271 457 Pls
2277 465 Pls
2283 478 Pls
2290 470 Pls
2296 478 Pls
2302 535 Pls
2309 656 Pls
2315 513 Pls
2321 587 Pls
2328 626 Pls
2334 474 Pls
2341 513 Pls
2347 457 Pls
2353 470 Pls
2360 522 Pls
2366 483 Pls
2372 491 Pls
2379 465 Pls
2385 457 Pls
2391 470 Pls
2398 461 Pls
2404 639 Pls
2410 608 Pls
2417 734 Pls
2423 643 Pls
2429 517 Pls
2436 712 Pls
2442 608 Pls
2448 548 Pls
2455 574 Pls
2461 691 Pls
2467 483 Pls
2474 535 Pls
2480 457 Pls
2486 522 Pls
2493 535 Pls
2499 691 Pls
2505 591 Pls
2512 669 Pls
2518 569 Pls
2525 496 Pls
2531 452 Pls
2537 478 Pls
2544 509 Pls
2550 526 Pls
2556 621 Pls
2563 487 Pls
2569 474 Pls
2575 474 Pls
2582 465 Pls
2588 470 Pls
2594 513 Pls
2601 487 Pls
2607 461 Pls
2613 465 Pls
2620 457 Pls
2626 452 Pls
2632 483 Pls
2639 578 Pls
2645 483 Pls
2651 556 Pls
2658 556 Pls
2664 452 Pls
2670 522 Pls
2677 561 Pls
2683 600 Pls
2690 591 Pls
2696 509 Pls
2702 500 Pls
2709 461 Pls
2715 526 Pls
2721 474 Pls
2728 452 Pls
2734 457 Pls
2740 483 Pls
2747 457 Pls
2753 483 Pls
2759 461 Pls
2766 461 Pls
2772 470 Pls
2778 478 Pls
2785 461 Pls
2791 474 Pls
2797 474 Pls
2804 504 Pls
2810 483 Pls
2816 461 Pls
2823 478 Pls
2829 491 Pls
2835 457 Pls
2842 496 Pls
2848 582 Pls
2854 457 Pls
2861 491 Pls
2867 487 Pls
2874 461 Pls
2880 569 Pls
2886 574 Pls
2893 626 Pls
2899 730 Pls
2905 496 Pls
2912 474 Pls
2918 457 Pls
2924 452 Pls
2931 500 Pls
2937 487 Pls
2943 591 Pls
2950 500 Pls
2956 556 Pls
2962 500 Pls
2969 452 Pls
2975 483 Pls
2981 452 Pls
2988 565 Pls
2994 457 Pls
3000 504 Pls
3007 491 Pls
3013 457 Pls
3019 500 Pls
3026 543 Pls
3032 496 Pls
3038 452 Pls
3045 556 Pls
3051 712 Pls
3058 730 Pls
3064 860 Pls
3070 582 Pls
3077 539 Pls
3083 457 Pls
3089 639 Pls
3096 487 Pls
3102 738 Pls
3108 591 Pls
3115 457 Pls
3121 470 Pls
3127 457 Pls
3134 461 Pls
3140 509 Pls
3146 474 Pls
3153 470 Pls
3159 517 Pls
3165 647 Pls
3172 465 Pls
3178 509 Pls
3184 539 Pls
3191 465 Pls
3197 591 Pls
3203 604 Pls
3210 617 Pls
3216 556 Pls
3222 452 Pls
3229 470 Pls
3235 543 Pls
3242 452 Pls
3248 457 Pls
3254 474 Pls
3261 457 Pls
3267 465 Pls
3273 465 Pls
3280 509 Pls
3286 522 Pls
3292 452 Pls
3299 457 Pls
3305 452 Pls
3311 457 Pls
3318 465 Pls
3324 461 Pls
3330 491 Pls
3337 496 Pls
3343 522 Pls
3349 470 Pls
3356 500 Pls
3362 461 Pls
3368 470 Pls
3375 483 Pls
3381 569 Pls
3387 491 Pls
3394 457 Pls
3400 561 Pls
3406 509 Pls
3413 509 Pls
3419 461 Pls
3426 608 Pls
3432 517 Pls
3438 587 Pls
3445 504 Pls
3451 461 Pls
3457 487 Pls
3464 487 Pls
3470 513 Pls
3476 483 Pls
3483 465 Pls
3489 474 Pls
3495 452 Pls
3502 461 Pls
3508 457 Pls
3514 474 Pls
3521 465 Pls
3527 474 Pls
3533 470 Pls
3540 452 Pls
3546 452 Pls
3552 465 Pls
3559 457 Pls
3565 478 Pls
3571 457 Pls
3578 461 Pls
3584 457 Pls
3590 457 Pls
3597 496 Pls
3603 457 Pls
3610 465 Pls
3616 452 Pls
3622 613 Pls
3629 539 Pls
3635 504 Pls
3641 522 Pls
3648 548 Pls
3654 461 Pls
3660 461 Pls
3667 483 Pls
3673 457 Pls
3679 457 Pls
3686 483 Pls
3692 461 Pls
3698 487 Pls
3705 478 Pls
3711 452 Pls
3717 452 Pls
3724 457 Pls
3730 552 Pls
3736 470 Pls
3743 457 Pls
3749 743 Pls
3755 491 Pls
3762 526 Pls
3768 643 Pls
3774 578 Pls
3781 561 Pls
3787 617 Pls
3794 504 Pls
3800 539 Pls
3806 478 Pls
3813 574 Pls
3819 474 Pls
3825 526 Pls
3832 600 Pls
3838 760 Pls
3844 725 Pls
3851 478 Pls
3857 478 Pls
3863 500 Pls
3870 461 Pls
3876 626 Pls
3882 695 Pls
3889 665 Pls
3895 478 Pls
3901 491 Pls
3908 457 Pls
3914 565 Pls
3920 548 Pls
3927 474 Pls
3933 452 Pls
3939 457 Pls
3946 470 Pls
3952 470 Pls
3959 478 Pls
3965 465 Pls
3971 496 Pls
3978 491 Pls
3984 517 Pls
3990 470 Pls
3997 526 Pls
4003 595 Pls
4009 565 Pls
4016 643 Pls
4022 457 Pls
4028 470 Pls
4035 487 Pls
4041 487 Pls
4047 452 Pls
4054 591 Pls
4060 461 Pls
4066 457 Pls
4073 478 Pls
4079 452 Pls
4085 457 Pls
4092 465 Pls
4098 487 Pls
4104 500 Pls
4111 465 Pls
4117 461 Pls
4123 565 Pls
4130 483 Pls
4136 491 Pls
4143 561 Pls
4149 452 Pls
4155 474 Pls
4162 491 Pls
4168 513 Pls
4174 487 Pls
4181 539 Pls
4187 500 Pls
4193 491 Pls
4200 461 Pls
4206 478 Pls
4212 457 Pls
4219 457 Pls
4225 452 Pls
4231 496 Pls
4238 465 Pls
4244 461 Pls
4250 478 Pls
4257 496 Pls
4263 452 Pls
4269 457 Pls
4276 452 Pls
4282 487 Pls
4288 483 Pls
4295 474 Pls
4301 461 Pls
4307 483 Pls
4314 496 Pls
4320 517 Pls
4327 595 Pls
4333 461 Pls
4339 457 Pls
4346 461 Pls
4352 465 Pls
4358 496 Pls
4365 509 Pls
4371 470 Pls
4377 483 Pls
4384 470 Pls
4390 470 Pls
4396 496 Pls
4403 504 Pls
4409 491 Pls
4415 483 Pls
4422 457 Pls
4428 608 Pls
4434 751 Pls
4441 647 Pls
4447 474 Pls
4453 465 Pls
4460 483 Pls
4466 487 Pls
4472 600 Pls
4479 760 Pls
4485 812 Pls
4491 730 Pls
4498 487 Pls
4504 461 Pls
4511 452 Pls
4517 470 Pls
4523 461 Pls
4530 461 Pls
4536 478 Pls
4542 517 Pls
4549 504 Pls
4555 526 Pls
4561 517 Pls
4568 764 Pls
4574 565 Pls
4580 699 Pls
4587 504 Pls
4593 474 Pls
4599 487 Pls
4606 504 Pls
4612 751 Pls
4618 548 Pls
4625 704 Pls
4631 660 Pls
4637 582 Pls
4644 500 Pls
4650 509 Pls
4656 470 Pls
4663 461 Pls
4669 500 Pls
4675 491 Pls
4682 461 Pls
4688 457 Pls
4695 452 Pls
4701 452 Pls
4707 465 Pls
4714 457 Pls
4720 452 Pls
4726 457 Pls
4733 465 Pls
4739 526 Pls
4745 457 Pls
4752 474 Pls
4758 457 Pls
4764 483 Pls
4771 461 Pls
4777 461 Pls
4783 457 Pls
4790 474 Pls
4796 474 Pls
4802 465 Pls
4809 470 Pls
4815 452 Pls
4821 461 Pls
4828 457 Pls
4834 461 Pls
4840 452 Pls
4847 461 Pls
4853 496 Pls
4859 452 Pls
4866 470 Pls
4872 461 Pls
4879 608 Pls
4885 522 Pls
4891 582 Pls
4898 470 Pls
4904 522 Pls
4910 465 Pls
4917 452 Pls
4923 500 Pls
4929 630 Pls
4936 509 Pls
4942 500 Pls
4948 522 Pls
4955 500 Pls
4961 539 Pls
4967 457 Pls
4974 470 Pls
4980 569 Pls
4986 487 Pls
4993 530 Pls
4999 565 Pls
5005 708 Pls
5012 561 Pls
5018 686 Pls
5024 487 Pls
5031 465 Pls
5037 721 Pls
5043 838 Pls
5050 457 Pls
5056 470 Pls
5063 465 Pls
5069 457 Pls
5075 461 Pls
5082 669 Pls
5088 595 Pls
5094 452 Pls
5101 504 Pls
5107 452 Pls
5113 500 Pls
5120 574 Pls
5126 543 Pls
5132 591 Pls
5139 795 Pls
5145 474 Pls
5151 465 Pls
5158 452 Pls
5164 513 Pls
5170 452 Pls
5177 461 Pls
5183 452 Pls
5189 452 Pls
5196 461 Pls
5202 461 Pls
5208 461 Pls
5215 452 Pls
5221 457 Pls
5228 457 Pls
5234 496 Pls
5240 530 Pls
5247 504 Pls
5253 526 Pls
5259 548 Pls
5266 457 Pls
5272 465 Pls
5278 522 Pls
5285 582 Pls
5291 656 Pls
5297 578 Pls
5304 556 Pls
5310 587 Pls
5316 556 Pls
5323 543 Pls
5329 491 Pls
5335 461 Pls
5342 457 Pls
5348 457 Pls
5354 461 Pls
5361 457 Pls
5367 487 Pls
5373 487 Pls
5380 478 Pls
5386 461 Pls
5392 643 Pls
5399 639 Pls
5405 535 Pls
5412 613 Pls
5418 595 Pls
5424 457 Pls
5431 461 Pls
5437 452 Pls
5443 574 Pls
5450 626 Pls
5456 522 Pls
5462 595 Pls
5469 552 Pls
5475 504 Pls
5481 457 Pls
5488 483 Pls
5494 457 Pls
5500 452 Pls
5507 552 Pls
5513 478 Pls
5519 457 Pls
5526 452 Pls
5532 452 Pls
5538 630 Pls
5545 530 Pls
5551 678 Pls
5557 600 Pls
5564 578 Pls
5570 465 Pls
5576 465 Pls
5583 899 Pls
5589 773 Pls
5596 812 Pls
5602 604 Pls
5608 491 Pls
5615 604 Pls
5621 548 Pls
5627 491 Pls
5634 461 Pls
5640 474 Pls
5646 452 Pls
5653 699 Pls
5659 483 Pls
5665 543 Pls
5672 504 Pls
5678 461 Pls
5684 457 Pls
5691 452 Pls
5697 461 Pls
5703 452 Pls
5710 457 Pls
5716 465 Pls
5722 457 Pls
5729 491 Pls
5735 461 Pls
5741 452 Pls
5748 457 Pls
5754 452 Pls
5760 504 Pls
5767 513 Pls
5773 574 Pls
5780 517 Pls
5786 587 Pls
5792 461 Pls
5799 509 Pls
5805 678 Pls
5811 699 Pls
5818 717 Pls
5824 535 Pls
5830 790 Pls
5837 708 Pls
5843 760 Pls
5849 465 Pls
5856 617 Pls
5862 504 Pls
5868 526 Pls
5875 513 Pls
5881 457 Pls
5887 452 Pls
5894 634 Pls
5900 647 Pls
5906 457 Pls
5913 613 Pls
5919 608 Pls
5925 452 Pls
5932 630 Pls
5938 847 Pls
5944 561 Pls
5951 608 Pls
5957 457 Pls
5964 1215 Pls
5970 799 Pls
5976 656 Pls
5983 457 Pls
5989 457 Pls
5995 465 Pls
6002 461 Pls
6008 452 Pls
6014 452 Pls
6021 470 Pls
6027 457 Pls
6033 452 Pls
6040 457 Pls
6046 470 Pls
6052 487 Pls
6059 582 Pls
6065 457 Pls
6071 452 Pls
6078 457 Pls
6084 452 Pls
6090 548 Pls
6097 561 Pls
6103 777 Pls
6109 691 Pls
6116 626 Pls
6122 461 Pls
6128 578 Pls
6135 899 Pls
6141 1167 Pls
6148 816 Pls
6154 582 Pls
6160 461 Pls
6167 452 Pls
6173 1722 Pls
6179 708 Pls
6186 530 Pls
6192 847 Pls
6198 552 Pls
6205 591 Pls
6211 522 Pls
6217 452 Pls
6224 452 Pls
6230 452 Pls
6236 452 Pls
6243 452 Pls
6249 457 Pls
6255 457 Pls
6262 452 Pls
6268 452 Pls
6274 517 Pls
6281 452 Pls
6287 457 Pls
6293 452 Pls
6300 712 Pls
6306 513 Pls
6312 517 Pls
6319 452 Pls
6325 1237 Pls
6332 452 Pls
6338 452 Pls
6344 457 Pls
6351 457 Pls
6357 522 Pls
6363 474 Pls
6370 452 Pls
6376 452 Pls
6382 457 Pls
6389 461 Pls
6395 452 Pls
6401 452 Pls
6408 452 Pls
6414 452 Pls
6420 452 Pls
6579 4738 Pls
% End plot #1
1.000 UL
LTb
602 4871 N
602 448 L
6345 0 V
0 4423 V
-6345 0 V
Z stroke
1.000 UP
1.000 UL
LTb
stroke
grestore
end
showpage
%%Trailer
%%DocumentFonts: Helvetica
