%!PS-Adobe-2.0 EPSF-2.0
%%Title: ../plots/domainstats/states-sorted-by-ply-visit-count-nannon-p-0.50.eps
%%Creator: gnuplot 4.4 patchlevel 3
%%CreationDate: Wed Dec 14 04:42:17 2011
%%DocumentFonts: (atend)
%%BoundingBox: 50 50 410 302
%%EndComments
%%BeginProlog
/gnudict 256 dict def
gnudict begin
%
% The following true/false flags may be edited by hand if desired.
% The unit line width and grayscale image gamma correction may also be changed.
%
/Color true def
/Blacktext false def
/Solid false def
/Dashlength 1 def
/Landscape false def
/Level1 false def
/Rounded false def
/ClipToBoundingBox false def
/TransparentPatterns false def
/gnulinewidth 5.000 def
/userlinewidth gnulinewidth def
/Gamma 1.0 def
%
/vshift -46 def
/dl1 {
  10.0 Dashlength mul mul
  Rounded { currentlinewidth 0.75 mul sub dup 0 le { pop 0.01 } if } if
} def
/dl2 {
  10.0 Dashlength mul mul
  Rounded { currentlinewidth 0.75 mul add } if
} def
/hpt_ 31.5 def
/vpt_ 31.5 def
/hpt hpt_ def
/vpt vpt_ def
Level1 {} {
/SDict 10 dict def
systemdict /pdfmark known not {
  userdict /pdfmark systemdict /cleartomark get put
} if
SDict begin [
  /Title (../plots/domainstats/states-sorted-by-ply-visit-count-nannon-p-0.50.eps)
  /Subject (gnuplot plot)
  /Creator (gnuplot 4.4 patchlevel 3)
  /Author (reza)
%  /Producer (gnuplot)
%  /Keywords ()
  /CreationDate (Wed Dec 14 04:42:17 2011)
  /DOCINFO pdfmark
end
} ifelse
/doclip {
  ClipToBoundingBox {
    newpath 50 50 moveto 410 50 lineto 410 302 lineto 50 302 lineto closepath
    clip
  } if
} def
%
% Gnuplot Prolog Version 4.4 (August 2010)
%
%/SuppressPDFMark true def
%
/M {moveto} bind def
/L {lineto} bind def
/R {rmoveto} bind def
/V {rlineto} bind def
/N {newpath moveto} bind def
/Z {closepath} bind def
/C {setrgbcolor} bind def
/f {rlineto fill} bind def
/g {setgray} bind def
/Gshow {show} def   % May be redefined later in the file to support UTF-8
/vpt2 vpt 2 mul def
/hpt2 hpt 2 mul def
/Lshow {currentpoint stroke M 0 vshift R 
	Blacktext {gsave 0 setgray show grestore} {show} ifelse} def
/Rshow {currentpoint stroke M dup stringwidth pop neg vshift R
	Blacktext {gsave 0 setgray show grestore} {show} ifelse} def
/Cshow {currentpoint stroke M dup stringwidth pop -2 div vshift R 
	Blacktext {gsave 0 setgray show grestore} {show} ifelse} def
/UP {dup vpt_ mul /vpt exch def hpt_ mul /hpt exch def
  /hpt2 hpt 2 mul def /vpt2 vpt 2 mul def} def
/DL {Color {setrgbcolor Solid {pop []} if 0 setdash}
 {pop pop pop 0 setgray Solid {pop []} if 0 setdash} ifelse} def
/BL {stroke userlinewidth 2 mul setlinewidth
	Rounded {1 setlinejoin 1 setlinecap} if} def
/AL {stroke userlinewidth 2 div setlinewidth
	Rounded {1 setlinejoin 1 setlinecap} if} def
/UL {dup gnulinewidth mul /userlinewidth exch def
	dup 1 lt {pop 1} if 10 mul /udl exch def} def
/PL {stroke userlinewidth setlinewidth
	Rounded {1 setlinejoin 1 setlinecap} if} def
3.8 setmiterlimit
% Default Line colors
/LCw {1 1 1} def
/LCb {0 0 0} def
/LCa {0 0 0} def
/LC0 {1 0 0} def
/LC1 {0 1 0} def
/LC2 {0 0 1} def
/LC3 {1 0 1} def
/LC4 {0 1 1} def
/LC5 {1 1 0} def
/LC6 {0 0 0} def
/LC7 {1 0.3 0} def
/LC8 {0.5 0.5 0.5} def
% Default Line Types
/LTw {PL [] 1 setgray} def
/LTb {BL [] LCb DL} def
/LTa {AL [1 udl mul 2 udl mul] 0 setdash LCa setrgbcolor} def
/LT0 {PL [] LC0 DL} def
/LT1 {PL [4 dl1 2 dl2] LC1 DL} def
/LT2 {PL [2 dl1 3 dl2] LC2 DL} def
/LT3 {PL [1 dl1 1.5 dl2] LC3 DL} def
/LT4 {PL [6 dl1 2 dl2 1 dl1 2 dl2] LC4 DL} def
/LT5 {PL [3 dl1 3 dl2 1 dl1 3 dl2] LC5 DL} def
/LT6 {PL [2 dl1 2 dl2 2 dl1 6 dl2] LC6 DL} def
/LT7 {PL [1 dl1 2 dl2 6 dl1 2 dl2 1 dl1 2 dl2] LC7 DL} def
/LT8 {PL [2 dl1 2 dl2 2 dl1 2 dl2 2 dl1 2 dl2 2 dl1 4 dl2] LC8 DL} def
/Pnt {stroke [] 0 setdash gsave 1 setlinecap M 0 0 V stroke grestore} def
/Dia {stroke [] 0 setdash 2 copy vpt add M
  hpt neg vpt neg V hpt vpt neg V
  hpt vpt V hpt neg vpt V closepath stroke
  Pnt} def
/Pls {stroke [] 0 setdash vpt sub M 0 vpt2 V
  currentpoint stroke M
  hpt neg vpt neg R hpt2 0 V stroke
 } def
/Box {stroke [] 0 setdash 2 copy exch hpt sub exch vpt add M
  0 vpt2 neg V hpt2 0 V 0 vpt2 V
  hpt2 neg 0 V closepath stroke
  Pnt} def
/Crs {stroke [] 0 setdash exch hpt sub exch vpt add M
  hpt2 vpt2 neg V currentpoint stroke M
  hpt2 neg 0 R hpt2 vpt2 V stroke} def
/TriU {stroke [] 0 setdash 2 copy vpt 1.12 mul add M
  hpt neg vpt -1.62 mul V
  hpt 2 mul 0 V
  hpt neg vpt 1.62 mul V closepath stroke
  Pnt} def
/Star {2 copy Pls Crs} def
/BoxF {stroke [] 0 setdash exch hpt sub exch vpt add M
  0 vpt2 neg V hpt2 0 V 0 vpt2 V
  hpt2 neg 0 V closepath fill} def
/TriUF {stroke [] 0 setdash vpt 1.12 mul add M
  hpt neg vpt -1.62 mul V
  hpt 2 mul 0 V
  hpt neg vpt 1.62 mul V closepath fill} def
/TriD {stroke [] 0 setdash 2 copy vpt 1.12 mul sub M
  hpt neg vpt 1.62 mul V
  hpt 2 mul 0 V
  hpt neg vpt -1.62 mul V closepath stroke
  Pnt} def
/TriDF {stroke [] 0 setdash vpt 1.12 mul sub M
  hpt neg vpt 1.62 mul V
  hpt 2 mul 0 V
  hpt neg vpt -1.62 mul V closepath fill} def
/DiaF {stroke [] 0 setdash vpt add M
  hpt neg vpt neg V hpt vpt neg V
  hpt vpt V hpt neg vpt V closepath fill} def
/Pent {stroke [] 0 setdash 2 copy gsave
  translate 0 hpt M 4 {72 rotate 0 hpt L} repeat
  closepath stroke grestore Pnt} def
/PentF {stroke [] 0 setdash gsave
  translate 0 hpt M 4 {72 rotate 0 hpt L} repeat
  closepath fill grestore} def
/Circle {stroke [] 0 setdash 2 copy
  hpt 0 360 arc stroke Pnt} def
/CircleF {stroke [] 0 setdash hpt 0 360 arc fill} def
/C0 {BL [] 0 setdash 2 copy moveto vpt 90 450 arc} bind def
/C1 {BL [] 0 setdash 2 copy moveto
	2 copy vpt 0 90 arc closepath fill
	vpt 0 360 arc closepath} bind def
/C2 {BL [] 0 setdash 2 copy moveto
	2 copy vpt 90 180 arc closepath fill
	vpt 0 360 arc closepath} bind def
/C3 {BL [] 0 setdash 2 copy moveto
	2 copy vpt 0 180 arc closepath fill
	vpt 0 360 arc closepath} bind def
/C4 {BL [] 0 setdash 2 copy moveto
	2 copy vpt 180 270 arc closepath fill
	vpt 0 360 arc closepath} bind def
/C5 {BL [] 0 setdash 2 copy moveto
	2 copy vpt 0 90 arc
	2 copy moveto
	2 copy vpt 180 270 arc closepath fill
	vpt 0 360 arc} bind def
/C6 {BL [] 0 setdash 2 copy moveto
	2 copy vpt 90 270 arc closepath fill
	vpt 0 360 arc closepath} bind def
/C7 {BL [] 0 setdash 2 copy moveto
	2 copy vpt 0 270 arc closepath fill
	vpt 0 360 arc closepath} bind def
/C8 {BL [] 0 setdash 2 copy moveto
	2 copy vpt 270 360 arc closepath fill
	vpt 0 360 arc closepath} bind def
/C9 {BL [] 0 setdash 2 copy moveto
	2 copy vpt 270 450 arc closepath fill
	vpt 0 360 arc closepath} bind def
/C10 {BL [] 0 setdash 2 copy 2 copy moveto vpt 270 360 arc closepath fill
	2 copy moveto
	2 copy vpt 90 180 arc closepath fill
	vpt 0 360 arc closepath} bind def
/C11 {BL [] 0 setdash 2 copy moveto
	2 copy vpt 0 180 arc closepath fill
	2 copy moveto
	2 copy vpt 270 360 arc closepath fill
	vpt 0 360 arc closepath} bind def
/C12 {BL [] 0 setdash 2 copy moveto
	2 copy vpt 180 360 arc closepath fill
	vpt 0 360 arc closepath} bind def
/C13 {BL [] 0 setdash 2 copy moveto
	2 copy vpt 0 90 arc closepath fill
	2 copy moveto
	2 copy vpt 180 360 arc closepath fill
	vpt 0 360 arc closepath} bind def
/C14 {BL [] 0 setdash 2 copy moveto
	2 copy vpt 90 360 arc closepath fill
	vpt 0 360 arc} bind def
/C15 {BL [] 0 setdash 2 copy vpt 0 360 arc closepath fill
	vpt 0 360 arc closepath} bind def
/Rec {newpath 4 2 roll moveto 1 index 0 rlineto 0 exch rlineto
	neg 0 rlineto closepath} bind def
/Square {dup Rec} bind def
/Bsquare {vpt sub exch vpt sub exch vpt2 Square} bind def
/S0 {BL [] 0 setdash 2 copy moveto 0 vpt rlineto BL Bsquare} bind def
/S1 {BL [] 0 setdash 2 copy vpt Square fill Bsquare} bind def
/S2 {BL [] 0 setdash 2 copy exch vpt sub exch vpt Square fill Bsquare} bind def
/S3 {BL [] 0 setdash 2 copy exch vpt sub exch vpt2 vpt Rec fill Bsquare} bind def
/S4 {BL [] 0 setdash 2 copy exch vpt sub exch vpt sub vpt Square fill Bsquare} bind def
/S5 {BL [] 0 setdash 2 copy 2 copy vpt Square fill
	exch vpt sub exch vpt sub vpt Square fill Bsquare} bind def
/S6 {BL [] 0 setdash 2 copy exch vpt sub exch vpt sub vpt vpt2 Rec fill Bsquare} bind def
/S7 {BL [] 0 setdash 2 copy exch vpt sub exch vpt sub vpt vpt2 Rec fill
	2 copy vpt Square fill Bsquare} bind def
/S8 {BL [] 0 setdash 2 copy vpt sub vpt Square fill Bsquare} bind def
/S9 {BL [] 0 setdash 2 copy vpt sub vpt vpt2 Rec fill Bsquare} bind def
/S10 {BL [] 0 setdash 2 copy vpt sub vpt Square fill 2 copy exch vpt sub exch vpt Square fill
	Bsquare} bind def
/S11 {BL [] 0 setdash 2 copy vpt sub vpt Square fill 2 copy exch vpt sub exch vpt2 vpt Rec fill
	Bsquare} bind def
/S12 {BL [] 0 setdash 2 copy exch vpt sub exch vpt sub vpt2 vpt Rec fill Bsquare} bind def
/S13 {BL [] 0 setdash 2 copy exch vpt sub exch vpt sub vpt2 vpt Rec fill
	2 copy vpt Square fill Bsquare} bind def
/S14 {BL [] 0 setdash 2 copy exch vpt sub exch vpt sub vpt2 vpt Rec fill
	2 copy exch vpt sub exch vpt Square fill Bsquare} bind def
/S15 {BL [] 0 setdash 2 copy Bsquare fill Bsquare} bind def
/D0 {gsave translate 45 rotate 0 0 S0 stroke grestore} bind def
/D1 {gsave translate 45 rotate 0 0 S1 stroke grestore} bind def
/D2 {gsave translate 45 rotate 0 0 S2 stroke grestore} bind def
/D3 {gsave translate 45 rotate 0 0 S3 stroke grestore} bind def
/D4 {gsave translate 45 rotate 0 0 S4 stroke grestore} bind def
/D5 {gsave translate 45 rotate 0 0 S5 stroke grestore} bind def
/D6 {gsave translate 45 rotate 0 0 S6 stroke grestore} bind def
/D7 {gsave translate 45 rotate 0 0 S7 stroke grestore} bind def
/D8 {gsave translate 45 rotate 0 0 S8 stroke grestore} bind def
/D9 {gsave translate 45 rotate 0 0 S9 stroke grestore} bind def
/D10 {gsave translate 45 rotate 0 0 S10 stroke grestore} bind def
/D11 {gsave translate 45 rotate 0 0 S11 stroke grestore} bind def
/D12 {gsave translate 45 rotate 0 0 S12 stroke grestore} bind def
/D13 {gsave translate 45 rotate 0 0 S13 stroke grestore} bind def
/D14 {gsave translate 45 rotate 0 0 S14 stroke grestore} bind def
/D15 {gsave translate 45 rotate 0 0 S15 stroke grestore} bind def
/DiaE {stroke [] 0 setdash vpt add M
  hpt neg vpt neg V hpt vpt neg V
  hpt vpt V hpt neg vpt V closepath stroke} def
/BoxE {stroke [] 0 setdash exch hpt sub exch vpt add M
  0 vpt2 neg V hpt2 0 V 0 vpt2 V
  hpt2 neg 0 V closepath stroke} def
/TriUE {stroke [] 0 setdash vpt 1.12 mul add M
  hpt neg vpt -1.62 mul V
  hpt 2 mul 0 V
  hpt neg vpt 1.62 mul V closepath stroke} def
/TriDE {stroke [] 0 setdash vpt 1.12 mul sub M
  hpt neg vpt 1.62 mul V
  hpt 2 mul 0 V
  hpt neg vpt -1.62 mul V closepath stroke} def
/PentE {stroke [] 0 setdash gsave
  translate 0 hpt M 4 {72 rotate 0 hpt L} repeat
  closepath stroke grestore} def
/CircE {stroke [] 0 setdash 
  hpt 0 360 arc stroke} def
/Opaque {gsave closepath 1 setgray fill grestore 0 setgray closepath} def
/DiaW {stroke [] 0 setdash vpt add M
  hpt neg vpt neg V hpt vpt neg V
  hpt vpt V hpt neg vpt V Opaque stroke} def
/BoxW {stroke [] 0 setdash exch hpt sub exch vpt add M
  0 vpt2 neg V hpt2 0 V 0 vpt2 V
  hpt2 neg 0 V Opaque stroke} def
/TriUW {stroke [] 0 setdash vpt 1.12 mul add M
  hpt neg vpt -1.62 mul V
  hpt 2 mul 0 V
  hpt neg vpt 1.62 mul V Opaque stroke} def
/TriDW {stroke [] 0 setdash vpt 1.12 mul sub M
  hpt neg vpt 1.62 mul V
  hpt 2 mul 0 V
  hpt neg vpt -1.62 mul V Opaque stroke} def
/PentW {stroke [] 0 setdash gsave
  translate 0 hpt M 4 {72 rotate 0 hpt L} repeat
  Opaque stroke grestore} def
/CircW {stroke [] 0 setdash 
  hpt 0 360 arc Opaque stroke} def
/BoxFill {gsave Rec 1 setgray fill grestore} def
/Density {
  /Fillden exch def
  currentrgbcolor
  /ColB exch def /ColG exch def /ColR exch def
  /ColR ColR Fillden mul Fillden sub 1 add def
  /ColG ColG Fillden mul Fillden sub 1 add def
  /ColB ColB Fillden mul Fillden sub 1 add def
  ColR ColG ColB setrgbcolor} def
/BoxColFill {gsave Rec PolyFill} def
/PolyFill {gsave Density fill grestore grestore} def
/h {rlineto rlineto rlineto gsave closepath fill grestore} bind def
%
% PostScript Level 1 Pattern Fill routine for rectangles
% Usage: x y w h s a XX PatternFill
%	x,y = lower left corner of box to be filled
%	w,h = width and height of box
%	  a = angle in degrees between lines and x-axis
%	 XX = 0/1 for no/yes cross-hatch
%
/PatternFill {gsave /PFa [ 9 2 roll ] def
  PFa 0 get PFa 2 get 2 div add PFa 1 get PFa 3 get 2 div add translate
  PFa 2 get -2 div PFa 3 get -2 div PFa 2 get PFa 3 get Rec
  gsave 1 setgray fill grestore clip
  currentlinewidth 0.5 mul setlinewidth
  /PFs PFa 2 get dup mul PFa 3 get dup mul add sqrt def
  0 0 M PFa 5 get rotate PFs -2 div dup translate
  0 1 PFs PFa 4 get div 1 add floor cvi
	{PFa 4 get mul 0 M 0 PFs V} for
  0 PFa 6 get ne {
	0 1 PFs PFa 4 get div 1 add floor cvi
	{PFa 4 get mul 0 2 1 roll M PFs 0 V} for
 } if
  stroke grestore} def
%
/languagelevel where
 {pop languagelevel} {1} ifelse
 2 lt
	{/InterpretLevel1 true def}
	{/InterpretLevel1 Level1 def}
 ifelse
%
% PostScript level 2 pattern fill definitions
%
/Level2PatternFill {
/Tile8x8 {/PaintType 2 /PatternType 1 /TilingType 1 /BBox [0 0 8 8] /XStep 8 /YStep 8}
	bind def
/KeepColor {currentrgbcolor [/Pattern /DeviceRGB] setcolorspace} bind def
<< Tile8x8
 /PaintProc {0.5 setlinewidth pop 0 0 M 8 8 L 0 8 M 8 0 L stroke} 
>> matrix makepattern
/Pat1 exch def
<< Tile8x8
 /PaintProc {0.5 setlinewidth pop 0 0 M 8 8 L 0 8 M 8 0 L stroke
	0 4 M 4 8 L 8 4 L 4 0 L 0 4 L stroke}
>> matrix makepattern
/Pat2 exch def
<< Tile8x8
 /PaintProc {0.5 setlinewidth pop 0 0 M 0 8 L
	8 8 L 8 0 L 0 0 L fill}
>> matrix makepattern
/Pat3 exch def
<< Tile8x8
 /PaintProc {0.5 setlinewidth pop -4 8 M 8 -4 L
	0 12 M 12 0 L stroke}
>> matrix makepattern
/Pat4 exch def
<< Tile8x8
 /PaintProc {0.5 setlinewidth pop -4 0 M 8 12 L
	0 -4 M 12 8 L stroke}
>> matrix makepattern
/Pat5 exch def
<< Tile8x8
 /PaintProc {0.5 setlinewidth pop -2 8 M 4 -4 L
	0 12 M 8 -4 L 4 12 M 10 0 L stroke}
>> matrix makepattern
/Pat6 exch def
<< Tile8x8
 /PaintProc {0.5 setlinewidth pop -2 0 M 4 12 L
	0 -4 M 8 12 L 4 -4 M 10 8 L stroke}
>> matrix makepattern
/Pat7 exch def
<< Tile8x8
 /PaintProc {0.5 setlinewidth pop 8 -2 M -4 4 L
	12 0 M -4 8 L 12 4 M 0 10 L stroke}
>> matrix makepattern
/Pat8 exch def
<< Tile8x8
 /PaintProc {0.5 setlinewidth pop 0 -2 M 12 4 L
	-4 0 M 12 8 L -4 4 M 8 10 L stroke}
>> matrix makepattern
/Pat9 exch def
/Pattern1 {PatternBgnd KeepColor Pat1 setpattern} bind def
/Pattern2 {PatternBgnd KeepColor Pat2 setpattern} bind def
/Pattern3 {PatternBgnd KeepColor Pat3 setpattern} bind def
/Pattern4 {PatternBgnd KeepColor Landscape {Pat5} {Pat4} ifelse setpattern} bind def
/Pattern5 {PatternBgnd KeepColor Landscape {Pat4} {Pat5} ifelse setpattern} bind def
/Pattern6 {PatternBgnd KeepColor Landscape {Pat9} {Pat6} ifelse setpattern} bind def
/Pattern7 {PatternBgnd KeepColor Landscape {Pat8} {Pat7} ifelse setpattern} bind def
} def
%
%
%End of PostScript Level 2 code
%
/PatternBgnd {
  TransparentPatterns {} {gsave 1 setgray fill grestore} ifelse
} def
%
% Substitute for Level 2 pattern fill codes with
% grayscale if Level 2 support is not selected.
%
/Level1PatternFill {
/Pattern1 {0.250 Density} bind def
/Pattern2 {0.500 Density} bind def
/Pattern3 {0.750 Density} bind def
/Pattern4 {0.125 Density} bind def
/Pattern5 {0.375 Density} bind def
/Pattern6 {0.625 Density} bind def
/Pattern7 {0.875 Density} bind def
} def
%
% Now test for support of Level 2 code
%
Level1 {Level1PatternFill} {Level2PatternFill} ifelse
%
/Symbol-Oblique /Symbol findfont [1 0 .167 1 0 0] makefont
dup length dict begin {1 index /FID eq {pop pop} {def} ifelse} forall
currentdict end definefont pop
end
%%EndProlog
gnudict begin
gsave
doclip
50 50 translate
0.050 0.050 scale
0 setgray
newpath
(Helvetica) findfont 140 scalefont setfont
1.000 UL
LTb
770 448 M
63 0 V
6114 0 R
-63 0 V
686 448 M
( 0) Rshow
1.000 UL
LTb
770 1185 M
63 0 V
6114 0 R
-63 0 V
-6198 0 R
( 200) Rshow
1.000 UL
LTb
770 1922 M
63 0 V
6114 0 R
-63 0 V
-6198 0 R
( 400) Rshow
1.000 UL
LTb
770 2660 M
63 0 V
6114 0 R
-63 0 V
-6198 0 R
( 600) Rshow
1.000 UL
LTb
770 3397 M
63 0 V
6114 0 R
-63 0 V
-6198 0 R
( 800) Rshow
1.000 UL
LTb
770 4134 M
63 0 V
6114 0 R
-63 0 V
-6198 0 R
( 1000) Rshow
1.000 UL
LTb
770 4871 M
63 0 V
6114 0 R
-63 0 V
-6198 0 R
( 1200) Rshow
1.000 UL
LTb
770 448 M
0 63 V
0 4360 R
0 -63 V
770 308 M
( 0) Cshow
1.000 UL
LTb
1456 448 M
0 63 V
0 4360 R
0 -63 V
0 -4500 R
( 200) Cshow
1.000 UL
LTb
2143 448 M
0 63 V
0 4360 R
0 -63 V
0 -4500 R
( 400) Cshow
1.000 UL
LTb
2829 448 M
0 63 V
0 4360 R
0 -63 V
0 -4500 R
( 600) Cshow
1.000 UL
LTb
3515 448 M
0 63 V
0 4360 R
0 -63 V
0 -4500 R
( 800) Cshow
1.000 UL
LTb
4202 448 M
0 63 V
0 4360 R
0 -63 V
0 -4500 R
( 1000) Cshow
1.000 UL
LTb
4888 448 M
0 63 V
0 4360 R
0 -63 V
0 -4500 R
( 1200) Cshow
1.000 UL
LTb
5574 448 M
0 63 V
0 4360 R
0 -63 V
0 -4500 R
( 1400) Cshow
1.000 UL
LTb
6261 448 M
0 63 V
0 4360 R
0 -63 V
0 -4500 R
( 1600) Cshow
1.000 UL
LTb
6947 448 M
0 63 V
0 4360 R
0 -63 V
0 -4500 R
( 1800) Cshow
1.000 UL
LTb
1.000 UL
LTb
770 4871 N
770 448 L
6177 0 V
0 4423 V
-6177 0 V
Z stroke
LCb setrgbcolor
112 2659 M
currentpoint gsave translate -270 rotate 0 0 M
(Visit Count) Cshow
grestore
LTb
LCb setrgbcolor
3858 98 M
(States \(Sorted by Earliest Visit Time\)) Cshow
LTb
1.000 UP
1.000 UL
LTb
% Begin plot #1
1.000 UP
1.000 UL
LT0
LCb setrgbcolor
6296 4738 M
(p = 0.50) Rshow
LT0
770 4362 Pls
773 599 Pls
777 651 Pls
780 595 Pls
784 721 Pls
787 846 Pls
791 533 Pls
794 662 Pls
797 1030 Pls
801 1008 Pls
804 850 Pls
808 551 Pls
811 621 Pls
815 713 Pls
818 654 Pls
821 570 Pls
825 640 Pls
828 533 Pls
832 477 Pls
835 503 Pls
839 463 Pls
842 525 Pls
845 470 Pls
849 481 Pls
852 481 Pls
856 470 Pls
859 518 Pls
863 470 Pls
866 485 Pls
870 463 Pls
873 455 Pls
876 463 Pls
880 485 Pls
883 481 Pls
887 459 Pls
890 466 Pls
894 481 Pls
897 548 Pls
900 489 Pls
904 592 Pls
907 489 Pls
911 540 Pls
914 536 Pls
918 474 Pls
921 503 Pls
924 474 Pls
928 511 Pls
931 529 Pls
935 485 Pls
938 477 Pls
942 466 Pls
945 503 Pls
948 496 Pls
952 492 Pls
955 500 Pls
959 492 Pls
962 481 Pls
966 489 Pls
969 481 Pls
972 474 Pls
976 489 Pls
979 496 Pls
983 474 Pls
986 463 Pls
990 459 Pls
993 489 Pls
996 481 Pls
1000 481 Pls
1003 481 Pls
1007 503 Pls
1010 606 Pls
1014 680 Pls
1017 603 Pls
1021 474 Pls
1024 470 Pls
1027 466 Pls
1031 544 Pls
1034 503 Pls
1038 511 Pls
1041 536 Pls
1045 507 Pls
1048 522 Pls
1051 485 Pls
1055 514 Pls
1058 507 Pls
1062 492 Pls
1065 477 Pls
1069 474 Pls
1072 525 Pls
1075 525 Pls
1079 500 Pls
1082 477 Pls
1086 463 Pls
1089 466 Pls
1093 492 Pls
1096 477 Pls
1099 470 Pls
1103 470 Pls
1106 599 Pls
1110 643 Pls
1113 496 Pls
1117 492 Pls
1120 500 Pls
1123 459 Pls
1127 474 Pls
1130 477 Pls
1134 500 Pls
1137 485 Pls
1141 481 Pls
1144 514 Pls
1147 496 Pls
1151 529 Pls
1154 474 Pls
1158 529 Pls
1161 496 Pls
1165 522 Pls
1168 514 Pls
1172 511 Pls
1175 507 Pls
1178 536 Pls
1182 492 Pls
1185 577 Pls
1189 492 Pls
1192 470 Pls
1196 470 Pls
1199 489 Pls
1202 540 Pls
1206 536 Pls
1209 544 Pls
1213 466 Pls
1216 466 Pls
1220 481 Pls
1223 474 Pls
1226 503 Pls
1230 463 Pls
1233 466 Pls
1237 470 Pls
1240 455 Pls
1244 463 Pls
1247 477 Pls
1250 481 Pls
1254 522 Pls
1257 485 Pls
1261 503 Pls
1264 459 Pls
1268 503 Pls
1271 522 Pls
1274 489 Pls
1278 470 Pls
1281 455 Pls
1285 452 Pls
1288 452 Pls
1292 459 Pls
1295 455 Pls
1298 452 Pls
1302 452 Pls
1305 455 Pls
1309 459 Pls
1312 463 Pls
1316 503 Pls
1319 455 Pls
1322 452 Pls
1326 466 Pls
1329 463 Pls
1333 452 Pls
1336 452 Pls
1340 466 Pls
1343 459 Pls
1347 459 Pls
1350 459 Pls
1353 466 Pls
1357 455 Pls
1360 455 Pls
1364 463 Pls
1367 466 Pls
1371 452 Pls
1374 459 Pls
1377 452 Pls
1381 455 Pls
1384 455 Pls
1388 452 Pls
1391 455 Pls
1395 459 Pls
1398 463 Pls
1401 470 Pls
1405 466 Pls
1408 455 Pls
1412 452 Pls
1415 452 Pls
1419 452 Pls
1422 452 Pls
1425 459 Pls
1429 452 Pls
1432 452 Pls
1436 455 Pls
1439 489 Pls
1443 463 Pls
1446 474 Pls
1449 463 Pls
1453 455 Pls
1456 452 Pls
1460 452 Pls
1463 496 Pls
1467 489 Pls
1470 474 Pls
1473 470 Pls
1477 489 Pls
1480 470 Pls
1484 474 Pls
1487 459 Pls
1491 470 Pls
1494 485 Pls
1498 492 Pls
1501 481 Pls
1504 481 Pls
1508 496 Pls
1511 477 Pls
1515 470 Pls
1518 466 Pls
1522 481 Pls
1525 507 Pls
1528 507 Pls
1532 481 Pls
1535 459 Pls
1539 474 Pls
1542 492 Pls
1546 463 Pls
1549 485 Pls
1552 466 Pls
1556 492 Pls
1559 474 Pls
1563 470 Pls
1566 452 Pls
1570 452 Pls
1573 455 Pls
1576 507 Pls
1580 466 Pls
1583 477 Pls
1587 452 Pls
1590 452 Pls
1594 455 Pls
1597 466 Pls
1600 489 Pls
1604 459 Pls
1607 459 Pls
1611 466 Pls
1614 452 Pls
1618 455 Pls
1621 455 Pls
1624 452 Pls
1628 466 Pls
1631 452 Pls
1635 455 Pls
1638 470 Pls
1642 477 Pls
1645 455 Pls
1649 452 Pls
1652 455 Pls
1655 466 Pls
1659 463 Pls
1662 455 Pls
1666 466 Pls
1669 463 Pls
1673 459 Pls
1676 452 Pls
1679 463 Pls
1683 463 Pls
1686 452 Pls
1690 466 Pls
1693 489 Pls
1697 492 Pls
1700 466 Pls
1703 466 Pls
1707 459 Pls
1710 459 Pls
1714 463 Pls
1717 463 Pls
1721 470 Pls
1724 474 Pls
1727 455 Pls
1731 474 Pls
1734 459 Pls
1738 459 Pls
1741 459 Pls
1745 474 Pls
1748 477 Pls
1751 477 Pls
1755 470 Pls
1758 459 Pls
1762 470 Pls
1765 459 Pls
1769 459 Pls
1772 459 Pls
1775 470 Pls
1779 459 Pls
1782 466 Pls
1786 459 Pls
1789 452 Pls
1793 452 Pls
1796 459 Pls
1799 455 Pls
1803 452 Pls
1806 470 Pls
1810 466 Pls
1813 477 Pls
1817 463 Pls
1820 459 Pls
1824 481 Pls
1827 459 Pls
1830 455 Pls
1834 459 Pls
1837 474 Pls
1841 466 Pls
1844 463 Pls
1848 455 Pls
1851 455 Pls
1854 466 Pls
1858 455 Pls
1861 463 Pls
1865 455 Pls
1868 474 Pls
1872 452 Pls
1875 455 Pls
1878 470 Pls
1882 474 Pls
1885 481 Pls
1889 511 Pls
1892 481 Pls
1896 507 Pls
1899 511 Pls
1902 485 Pls
1906 470 Pls
1909 470 Pls
1913 514 Pls
1916 507 Pls
1920 470 Pls
1923 463 Pls
1926 500 Pls
1930 470 Pls
1933 459 Pls
1937 474 Pls
1940 492 Pls
1944 466 Pls
1947 452 Pls
1950 452 Pls
1954 455 Pls
1957 459 Pls
1961 463 Pls
1964 470 Pls
1968 470 Pls
1971 485 Pls
1975 481 Pls
1978 455 Pls
1981 463 Pls
1985 536 Pls
1988 496 Pls
1992 459 Pls
1995 489 Pls
1999 511 Pls
2002 466 Pls
2005 500 Pls
2009 459 Pls
2012 455 Pls
2016 463 Pls
2019 511 Pls
2023 463 Pls
2026 518 Pls
2029 452 Pls
2033 463 Pls
2036 466 Pls
2040 489 Pls
2043 485 Pls
2047 452 Pls
2050 452 Pls
2053 463 Pls
2057 485 Pls
2060 470 Pls
2064 459 Pls
2067 463 Pls
2071 481 Pls
2074 459 Pls
2077 452 Pls
2081 455 Pls
2084 452 Pls
2088 452 Pls
2091 455 Pls
2095 463 Pls
2098 452 Pls
2101 459 Pls
2105 452 Pls
2108 459 Pls
2112 455 Pls
2115 452 Pls
2119 455 Pls
2122 452 Pls
2126 455 Pls
2129 466 Pls
2132 463 Pls
2136 470 Pls
2139 466 Pls
2143 455 Pls
2146 452 Pls
2150 470 Pls
2153 489 Pls
2156 466 Pls
2160 481 Pls
2163 452 Pls
2167 459 Pls
2170 459 Pls
2174 452 Pls
2177 452 Pls
2180 459 Pls
2184 466 Pls
2187 455 Pls
2191 459 Pls
2194 485 Pls
2198 489 Pls
2201 466 Pls
2204 455 Pls
2208 463 Pls
2211 466 Pls
2215 466 Pls
2218 459 Pls
2222 452 Pls
2225 455 Pls
2228 474 Pls
2232 459 Pls
2235 455 Pls
2239 452 Pls
2242 459 Pls
2246 459 Pls
2249 463 Pls
2252 477 Pls
2256 489 Pls
2259 459 Pls
2263 463 Pls
2266 474 Pls
2270 455 Pls
2273 452 Pls
2277 455 Pls
2280 466 Pls
2283 455 Pls
2287 474 Pls
2290 455 Pls
2294 455 Pls
2297 466 Pls
2301 452 Pls
2304 455 Pls
2307 459 Pls
2311 455 Pls
2314 455 Pls
2318 452 Pls
2321 452 Pls
2325 455 Pls
2328 452 Pls
2331 459 Pls
2335 455 Pls
2338 452 Pls
2342 452 Pls
2345 452 Pls
2349 452 Pls
2352 459 Pls
2355 463 Pls
2359 466 Pls
2362 455 Pls
2366 452 Pls
2369 452 Pls
2373 452 Pls
2376 463 Pls
2379 452 Pls
2383 452 Pls
2386 452 Pls
2390 466 Pls
2393 452 Pls
2397 463 Pls
2400 455 Pls
2403 455 Pls
2407 470 Pls
2410 463 Pls
2414 452 Pls
2417 459 Pls
2421 455 Pls
2424 455 Pls
2427 452 Pls
2431 452 Pls
2434 452 Pls
2438 455 Pls
2441 455 Pls
2445 463 Pls
2448 455 Pls
2452 477 Pls
2455 466 Pls
2458 492 Pls
2462 470 Pls
2465 459 Pls
2469 485 Pls
2472 470 Pls
2476 470 Pls
2479 466 Pls
2482 474 Pls
2486 511 Pls
2489 470 Pls
2493 452 Pls
2496 474 Pls
2500 463 Pls
2503 503 Pls
2506 470 Pls
2510 459 Pls
2513 477 Pls
2517 466 Pls
2520 455 Pls
2524 459 Pls
2527 459 Pls
2530 459 Pls
2534 463 Pls
2537 477 Pls
2541 470 Pls
2544 455 Pls
2548 474 Pls
2551 477 Pls
2554 485 Pls
2558 466 Pls
2561 474 Pls
2565 459 Pls
2568 455 Pls
2572 459 Pls
2575 485 Pls
2578 466 Pls
2582 455 Pls
2585 463 Pls
2589 452 Pls
2592 470 Pls
2596 463 Pls
2599 463 Pls
2603 455 Pls
2606 485 Pls
2609 455 Pls
2613 452 Pls
2616 466 Pls
2620 452 Pls
2623 455 Pls
2627 459 Pls
2630 452 Pls
2633 470 Pls
2637 463 Pls
2640 452 Pls
2644 466 Pls
2647 485 Pls
2651 455 Pls
2654 492 Pls
2657 507 Pls
2661 518 Pls
2664 489 Pls
2668 452 Pls
2671 459 Pls
2675 485 Pls
2678 511 Pls
2681 455 Pls
2685 463 Pls
2688 485 Pls
2692 500 Pls
2695 470 Pls
2699 466 Pls
2702 470 Pls
2705 474 Pls
2709 455 Pls
2712 452 Pls
2716 452 Pls
2719 455 Pls
2723 466 Pls
2726 452 Pls
2729 459 Pls
2733 452 Pls
2736 452 Pls
2740 455 Pls
2743 452 Pls
2747 455 Pls
2750 455 Pls
2754 459 Pls
2757 452 Pls
2760 466 Pls
2764 459 Pls
2767 455 Pls
2771 474 Pls
2774 470 Pls
2778 455 Pls
2781 463 Pls
2784 455 Pls
2788 463 Pls
2791 452 Pls
2795 452 Pls
2798 452 Pls
2802 463 Pls
2805 463 Pls
2808 463 Pls
2812 463 Pls
2815 463 Pls
2819 477 Pls
2822 455 Pls
2826 481 Pls
2829 455 Pls
2832 466 Pls
2836 463 Pls
2839 463 Pls
2843 466 Pls
2846 463 Pls
2850 455 Pls
2853 455 Pls
2856 470 Pls
2860 452 Pls
2863 463 Pls
2867 459 Pls
2870 466 Pls
2874 463 Pls
2877 466 Pls
2880 455 Pls
2884 452 Pls
2887 455 Pls
2891 452 Pls
2894 459 Pls
2898 452 Pls
2901 455 Pls
2904 459 Pls
2908 455 Pls
2911 452 Pls
2915 466 Pls
2918 455 Pls
2922 452 Pls
2925 455 Pls
2929 500 Pls
2932 466 Pls
2935 507 Pls
2939 470 Pls
2942 481 Pls
2946 481 Pls
2949 477 Pls
2953 511 Pls
2956 470 Pls
2959 492 Pls
2963 477 Pls
2966 470 Pls
2970 474 Pls
2973 463 Pls
2977 500 Pls
2980 474 Pls
2983 463 Pls
2987 470 Pls
2990 474 Pls
2994 477 Pls
2997 463 Pls
3001 463 Pls
3004 470 Pls
3007 485 Pls
3011 466 Pls
3014 507 Pls
3018 466 Pls
3021 477 Pls
3025 452 Pls
3028 477 Pls
3031 463 Pls
3035 470 Pls
3038 466 Pls
3042 470 Pls
3045 477 Pls
3049 481 Pls
3052 459 Pls
3055 452 Pls
3059 452 Pls
3062 511 Pls
3066 470 Pls
3069 452 Pls
3073 485 Pls
3076 485 Pls
3080 463 Pls
3083 470 Pls
3086 477 Pls
3090 459 Pls
3093 466 Pls
3097 474 Pls
3100 452 Pls
3104 470 Pls
3107 455 Pls
3110 452 Pls
3114 452 Pls
3117 452 Pls
3121 525 Pls
3124 492 Pls
3128 463 Pls
3131 489 Pls
3134 496 Pls
3138 463 Pls
3141 466 Pls
3145 463 Pls
3148 489 Pls
3152 496 Pls
3155 459 Pls
3158 459 Pls
3162 485 Pls
3165 485 Pls
3169 455 Pls
3172 455 Pls
3176 452 Pls
3179 452 Pls
3182 455 Pls
3186 455 Pls
3189 455 Pls
3193 455 Pls
3196 455 Pls
3200 452 Pls
3203 452 Pls
3206 466 Pls
3210 452 Pls
3213 452 Pls
3217 452 Pls
3220 452 Pls
3224 459 Pls
3227 459 Pls
3231 455 Pls
3234 485 Pls
3237 466 Pls
3241 466 Pls
3244 452 Pls
3248 452 Pls
3251 452 Pls
3255 455 Pls
3258 466 Pls
3261 459 Pls
3265 463 Pls
3268 463 Pls
3272 477 Pls
3275 492 Pls
3279 455 Pls
3282 455 Pls
3285 466 Pls
3289 481 Pls
3292 459 Pls
3296 455 Pls
3299 459 Pls
3303 452 Pls
3306 455 Pls
3309 452 Pls
3313 466 Pls
3316 459 Pls
3320 455 Pls
3323 466 Pls
3327 459 Pls
3330 452 Pls
3333 452 Pls
3337 452 Pls
3340 485 Pls
3344 489 Pls
3347 452 Pls
3351 452 Pls
3354 459 Pls
3357 459 Pls
3361 452 Pls
3364 452 Pls
3368 452 Pls
3371 452 Pls
3375 459 Pls
3378 455 Pls
3381 455 Pls
3385 459 Pls
3388 452 Pls
3392 455 Pls
3395 452 Pls
3399 455 Pls
3402 459 Pls
3406 452 Pls
3409 452 Pls
3412 452 Pls
3416 452 Pls
3419 459 Pls
3423 452 Pls
3426 452 Pls
3430 452 Pls
3433 455 Pls
3436 455 Pls
3440 452 Pls
3443 459 Pls
3447 463 Pls
3450 452 Pls
3454 455 Pls
3457 452 Pls
3460 459 Pls
3464 452 Pls
3467 452 Pls
3471 452 Pls
3474 455 Pls
3478 459 Pls
3481 452 Pls
3484 474 Pls
3488 474 Pls
3491 459 Pls
3495 459 Pls
3498 466 Pls
3502 459 Pls
3505 455 Pls
3508 459 Pls
3512 481 Pls
3515 466 Pls
3519 463 Pls
3522 459 Pls
3526 466 Pls
3529 452 Pls
3532 463 Pls
3536 500 Pls
3539 459 Pls
3543 452 Pls
3546 474 Pls
3550 463 Pls
3553 477 Pls
3557 455 Pls
3560 459 Pls
3563 463 Pls
3567 455 Pls
3570 452 Pls
3574 492 Pls
3577 459 Pls
3581 452 Pls
3584 477 Pls
3587 481 Pls
3591 477 Pls
3594 459 Pls
3598 452 Pls
3601 459 Pls
3605 470 Pls
3608 463 Pls
3611 455 Pls
3615 463 Pls
3618 455 Pls
3622 474 Pls
3625 459 Pls
3629 455 Pls
3632 452 Pls
3635 459 Pls
3639 455 Pls
3642 455 Pls
3646 452 Pls
3649 481 Pls
3653 477 Pls
3656 474 Pls
3659 489 Pls
3663 452 Pls
3666 466 Pls
3670 474 Pls
3673 455 Pls
3677 452 Pls
3680 455 Pls
3683 452 Pls
3687 452 Pls
3690 466 Pls
3694 466 Pls
3697 455 Pls
3701 463 Pls
3704 455 Pls
3708 466 Pls
3711 452 Pls
3714 466 Pls
3718 459 Pls
3721 455 Pls
3725 459 Pls
3728 452 Pls
3732 452 Pls
3735 459 Pls
3738 452 Pls
3742 536 Pls
3745 555 Pls
3749 536 Pls
3752 477 Pls
3756 496 Pls
3759 481 Pls
3762 559 Pls
3766 466 Pls
3769 503 Pls
3773 503 Pls
3776 470 Pls
3780 463 Pls
3783 477 Pls
3786 455 Pls
3790 459 Pls
3793 503 Pls
3797 481 Pls
3800 466 Pls
3804 503 Pls
3807 463 Pls
3810 474 Pls
3814 463 Pls
3817 455 Pls
3821 474 Pls
3824 474 Pls
3828 459 Pls
3831 459 Pls
3834 459 Pls
3838 452 Pls
3841 455 Pls
3845 452 Pls
3848 452 Pls
3852 455 Pls
3855 452 Pls
3858 452 Pls
3862 452 Pls
3865 463 Pls
3869 470 Pls
3872 452 Pls
3876 452 Pls
3879 459 Pls
3883 463 Pls
3886 455 Pls
3889 452 Pls
3893 452 Pls
3896 452 Pls
3900 455 Pls
3903 452 Pls
3907 452 Pls
3910 455 Pls
3913 463 Pls
3917 463 Pls
3920 466 Pls
3924 455 Pls
3927 459 Pls
3931 455 Pls
3934 463 Pls
3937 463 Pls
3941 459 Pls
3944 455 Pls
3948 459 Pls
3951 452 Pls
3955 455 Pls
3958 463 Pls
3961 466 Pls
3965 470 Pls
3968 459 Pls
3972 455 Pls
3975 455 Pls
3979 452 Pls
3982 452 Pls
3985 455 Pls
3989 452 Pls
3992 452 Pls
3996 455 Pls
3999 477 Pls
4003 485 Pls
4006 477 Pls
4009 470 Pls
4013 496 Pls
4016 496 Pls
4020 514 Pls
4023 496 Pls
4027 492 Pls
4030 466 Pls
4034 489 Pls
4037 459 Pls
4040 470 Pls
4044 481 Pls
4047 485 Pls
4051 511 Pls
4054 489 Pls
4058 525 Pls
4061 481 Pls
4064 514 Pls
4068 455 Pls
4071 470 Pls
4075 463 Pls
4078 459 Pls
4082 463 Pls
4085 481 Pls
4088 507 Pls
4092 474 Pls
4095 481 Pls
4099 507 Pls
4102 481 Pls
4106 459 Pls
4109 544 Pls
4112 492 Pls
4116 463 Pls
4119 489 Pls
4123 455 Pls
4126 459 Pls
4130 466 Pls
4133 470 Pls
4136 452 Pls
4140 533 Pls
4143 466 Pls
4147 466 Pls
4150 455 Pls
4154 452 Pls
4157 455 Pls
4160 452 Pls
4164 452 Pls
4167 463 Pls
4171 459 Pls
4174 463 Pls
4178 459 Pls
4181 544 Pls
4185 529 Pls
4188 466 Pls
4191 514 Pls
4195 489 Pls
4198 466 Pls
4202 459 Pls
4205 477 Pls
4209 463 Pls
4212 455 Pls
4215 463 Pls
4219 459 Pls
4222 452 Pls
4226 466 Pls
4229 455 Pls
4233 459 Pls
4236 455 Pls
4239 459 Pls
4243 452 Pls
4246 452 Pls
4250 455 Pls
4253 452 Pls
4257 452 Pls
4260 452 Pls
4263 455 Pls
4267 452 Pls
4270 452 Pls
4274 452 Pls
4277 452 Pls
4281 452 Pls
4284 455 Pls
4287 452 Pls
4291 452 Pls
4294 466 Pls
4298 452 Pls
4301 455 Pls
4305 459 Pls
4308 477 Pls
4311 463 Pls
4315 455 Pls
4318 463 Pls
4322 459 Pls
4325 455 Pls
4329 452 Pls
4332 455 Pls
4336 455 Pls
4339 455 Pls
4342 463 Pls
4346 455 Pls
4349 466 Pls
4353 452 Pls
4356 470 Pls
4360 455 Pls
4363 452 Pls
4366 452 Pls
4370 452 Pls
4373 452 Pls
4377 452 Pls
4380 452 Pls
4384 452 Pls
4387 452 Pls
4390 452 Pls
4394 455 Pls
4397 452 Pls
4401 459 Pls
4404 452 Pls
4408 452 Pls
4411 452 Pls
4414 452 Pls
4418 459 Pls
4421 459 Pls
4425 455 Pls
4428 452 Pls
4432 452 Pls
4435 452 Pls
4438 455 Pls
4442 452 Pls
4445 452 Pls
4449 459 Pls
4452 452 Pls
4456 455 Pls
4459 466 Pls
4462 452 Pls
4466 452 Pls
4469 452 Pls
4473 466 Pls
4476 477 Pls
4480 470 Pls
4483 459 Pls
4486 455 Pls
4490 470 Pls
4493 481 Pls
4497 455 Pls
4500 492 Pls
4504 459 Pls
4507 474 Pls
4511 459 Pls
4514 481 Pls
4517 455 Pls
4521 466 Pls
4524 459 Pls
4528 481 Pls
4531 455 Pls
4535 463 Pls
4538 452 Pls
4541 485 Pls
4545 522 Pls
4548 481 Pls
4552 477 Pls
4555 466 Pls
4559 474 Pls
4562 463 Pls
4565 455 Pls
4569 474 Pls
4572 466 Pls
4576 452 Pls
4579 463 Pls
4583 492 Pls
4586 455 Pls
4589 466 Pls
4593 481 Pls
4596 452 Pls
4600 455 Pls
4603 452 Pls
4607 511 Pls
4610 459 Pls
4613 470 Pls
4617 477 Pls
4620 477 Pls
4624 470 Pls
4627 459 Pls
4631 455 Pls
4634 459 Pls
4637 459 Pls
4641 452 Pls
4644 455 Pls
4648 452 Pls
4651 470 Pls
4655 481 Pls
4658 477 Pls
4662 459 Pls
4665 452 Pls
4668 459 Pls
4672 463 Pls
4675 452 Pls
4679 466 Pls
4682 459 Pls
4686 459 Pls
4689 452 Pls
4692 466 Pls
4696 452 Pls
4699 463 Pls
4703 455 Pls
4706 459 Pls
4710 452 Pls
4713 455 Pls
4716 511 Pls
4720 584 Pls
4723 525 Pls
4727 485 Pls
4730 489 Pls
4734 466 Pls
4737 470 Pls
4740 470 Pls
4744 474 Pls
4747 518 Pls
4751 459 Pls
4754 474 Pls
4758 470 Pls
4761 500 Pls
4764 463 Pls
4768 463 Pls
4771 492 Pls
4775 459 Pls
4778 474 Pls
4782 466 Pls
4785 466 Pls
4788 455 Pls
4792 507 Pls
4795 489 Pls
4799 466 Pls
4802 463 Pls
4806 500 Pls
4809 470 Pls
4813 466 Pls
4816 459 Pls
4819 489 Pls
4823 470 Pls
4826 525 Pls
4830 459 Pls
4833 455 Pls
4837 452 Pls
4840 452 Pls
4843 452 Pls
4847 463 Pls
4850 459 Pls
4854 455 Pls
4857 452 Pls
4861 455 Pls
4864 455 Pls
4867 466 Pls
4871 455 Pls
4874 459 Pls
4878 481 Pls
4881 452 Pls
4885 459 Pls
4888 452 Pls
4891 452 Pls
4895 452 Pls
4898 459 Pls
4902 466 Pls
4905 466 Pls
4909 492 Pls
4912 463 Pls
4915 466 Pls
4919 459 Pls
4922 514 Pls
4926 452 Pls
4929 452 Pls
4933 452 Pls
4936 507 Pls
4939 477 Pls
4943 463 Pls
4946 455 Pls
4950 474 Pls
4953 452 Pls
4957 452 Pls
4960 518 Pls
4963 496 Pls
4967 470 Pls
4970 503 Pls
4974 496 Pls
4977 463 Pls
4981 481 Pls
4984 452 Pls
4988 452 Pls
4991 496 Pls
4994 466 Pls
4998 452 Pls
5001 455 Pls
5005 452 Pls
5008 584 Pls
5012 533 Pls
5015 489 Pls
5018 481 Pls
5022 477 Pls
5025 455 Pls
5029 614 Pls
5032 474 Pls
5036 474 Pls
5039 452 Pls
5042 470 Pls
5046 463 Pls
5049 625 Pls
5053 481 Pls
5056 466 Pls
5060 455 Pls
5063 455 Pls
5066 500 Pls
5070 477 Pls
5073 481 Pls
5077 470 Pls
5080 452 Pls
5084 452 Pls
5087 452 Pls
5090 455 Pls
5094 455 Pls
5097 466 Pls
5101 459 Pls
5104 463 Pls
5108 452 Pls
5111 452 Pls
5114 477 Pls
5118 452 Pls
5121 455 Pls
5125 459 Pls
5128 452 Pls
5132 455 Pls
5135 455 Pls
5139 452 Pls
5142 452 Pls
5145 455 Pls
5149 452 Pls
5152 452 Pls
5156 455 Pls
5159 452 Pls
5163 452 Pls
5166 452 Pls
5169 452 Pls
5173 452 Pls
5176 459 Pls
5180 452 Pls
5183 455 Pls
5187 452 Pls
5190 452 Pls
5193 459 Pls
5197 452 Pls
5200 463 Pls
5204 452 Pls
5207 452 Pls
5211 452 Pls
5214 452 Pls
5217 452 Pls
5221 452 Pls
5224 455 Pls
5228 452 Pls
5231 459 Pls
5235 455 Pls
5238 452 Pls
5241 452 Pls
5245 452 Pls
5248 459 Pls
5252 466 Pls
5255 481 Pls
5259 455 Pls
5262 466 Pls
5265 459 Pls
5269 463 Pls
5272 485 Pls
5276 455 Pls
5279 463 Pls
5283 463 Pls
5286 452 Pls
5290 463 Pls
5293 455 Pls
5296 466 Pls
5300 507 Pls
5303 474 Pls
5307 459 Pls
5310 474 Pls
5314 463 Pls
5317 474 Pls
5320 455 Pls
5324 485 Pls
5327 474 Pls
5331 470 Pls
5334 459 Pls
5338 466 Pls
5341 455 Pls
5344 452 Pls
5348 485 Pls
5351 459 Pls
5355 459 Pls
5358 455 Pls
5362 463 Pls
5365 455 Pls
5368 463 Pls
5372 452 Pls
5375 455 Pls
5379 452 Pls
5382 452 Pls
5386 455 Pls
5389 463 Pls
5392 614 Pls
5396 507 Pls
5399 507 Pls
5403 573 Pls
5406 485 Pls
5410 540 Pls
5413 470 Pls
5416 577 Pls
5420 548 Pls
5423 577 Pls
5427 477 Pls
5430 507 Pls
5434 485 Pls
5437 466 Pls
5440 452 Pls
5444 455 Pls
5447 636 Pls
5451 503 Pls
5454 573 Pls
5458 500 Pls
5461 474 Pls
5465 470 Pls
5468 452 Pls
5471 496 Pls
5475 470 Pls
5478 584 Pls
5482 496 Pls
5485 606 Pls
5489 522 Pls
5492 485 Pls
5495 533 Pls
5499 459 Pls
5502 452 Pls
5506 452 Pls
5509 452 Pls
5513 452 Pls
5516 455 Pls
5519 459 Pls
5523 455 Pls
5526 452 Pls
5530 455 Pls
5533 455 Pls
5537 455 Pls
5540 452 Pls
5543 452 Pls
5547 452 Pls
5550 459 Pls
5554 452 Pls
5557 459 Pls
5561 452 Pls
5564 463 Pls
5567 452 Pls
5571 452 Pls
5574 452 Pls
5578 459 Pls
5581 474 Pls
5585 452 Pls
5588 503 Pls
5591 522 Pls
5595 455 Pls
5598 452 Pls
5602 452 Pls
5605 455 Pls
5609 474 Pls
5612 455 Pls
5616 452 Pls
5619 477 Pls
5622 459 Pls
5626 455 Pls
5629 452 Pls
5633 551 Pls
5636 481 Pls
5640 452 Pls
5643 481 Pls
5646 489 Pls
5650 452 Pls
5653 496 Pls
5657 507 Pls
5660 463 Pls
5664 610 Pls
5667 459 Pls
5670 455 Pls
5674 452 Pls
5677 452 Pls
5681 452 Pls
5684 459 Pls
5688 452 Pls
5691 463 Pls
5694 452 Pls
5698 466 Pls
5701 452 Pls
5705 452 Pls
5708 452 Pls
5712 452 Pls
5715 455 Pls
5718 455 Pls
5722 452 Pls
5725 452 Pls
5729 452 Pls
5732 452 Pls
5736 452 Pls
5739 452 Pls
5742 452 Pls
5746 452 Pls
5749 452 Pls
5753 459 Pls
5756 455 Pls
5760 463 Pls
5763 470 Pls
5767 474 Pls
5770 455 Pls
5773 452 Pls
5777 481 Pls
5780 459 Pls
5784 452 Pls
5787 477 Pls
5791 463 Pls
5794 452 Pls
5797 485 Pls
5801 489 Pls
5804 477 Pls
5808 466 Pls
5811 463 Pls
5815 452 Pls
5818 452 Pls
5821 452 Pls
5825 489 Pls
5828 452 Pls
5832 452 Pls
5835 477 Pls
5839 466 Pls
5842 463 Pls
5845 459 Pls
5849 459 Pls
5852 455 Pls
5856 455 Pls
5859 452 Pls
5863 522 Pls
5866 470 Pls
5869 477 Pls
5873 500 Pls
5876 500 Pls
5880 470 Pls
5883 452 Pls
5887 599 Pls
5890 511 Pls
5893 477 Pls
5897 459 Pls
5900 455 Pls
5904 459 Pls
5907 452 Pls
5911 452 Pls
5914 470 Pls
5917 455 Pls
5921 629 Pls
5924 489 Pls
5928 481 Pls
5931 466 Pls
5935 455 Pls
5938 455 Pls
5942 455 Pls
5945 463 Pls
5948 466 Pls
5952 452 Pls
5955 452 Pls
5959 459 Pls
5962 452 Pls
5966 452 Pls
5969 470 Pls
5972 455 Pls
5976 452 Pls
5979 452 Pls
5983 455 Pls
5986 452 Pls
5990 470 Pls
5993 455 Pls
5996 459 Pls
6000 459 Pls
6003 452 Pls
6007 466 Pls
6010 452 Pls
6014 452 Pls
6017 452 Pls
6020 452 Pls
6024 452 Pls
6027 452 Pls
6031 507 Pls
6034 455 Pls
6038 459 Pls
6041 452 Pls
6044 452 Pls
6048 452 Pls
6051 452 Pls
6055 452 Pls
6058 452 Pls
6062 452 Pls
6065 452 Pls
6068 452 Pls
6072 455 Pls
6075 452 Pls
6079 452 Pls
6082 452 Pls
6086 455 Pls
6089 455 Pls
6093 452 Pls
6096 452 Pls
6099 463 Pls
6103 452 Pls
6106 452 Pls
6110 455 Pls
6113 452 Pls
6117 459 Pls
6120 463 Pls
6123 459 Pls
6127 452 Pls
6130 452 Pls
6134 455 Pls
6137 455 Pls
6141 452 Pls
6144 452 Pls
6147 455 Pls
6151 452 Pls
6154 459 Pls
6158 452 Pls
6161 455 Pls
6165 452 Pls
6168 452 Pls
6171 452 Pls
6175 452 Pls
6178 452 Pls
6182 452 Pls
6185 452 Pls
6189 452 Pls
6192 459 Pls
6195 455 Pls
6199 455 Pls
6202 455 Pls
6206 452 Pls
6209 459 Pls
6213 452 Pls
6216 452 Pls
6219 455 Pls
6223 452 Pls
6226 452 Pls
6230 455 Pls
6233 452 Pls
6237 452 Pls
6240 452 Pls
6244 452 Pls
6247 452 Pls
6250 452 Pls
6254 452 Pls
6257 452 Pls
6261 452 Pls
6264 455 Pls
6268 452 Pls
6271 452 Pls
6274 452 Pls
6278 452 Pls
6281 455 Pls
6285 452 Pls
6288 452 Pls
6292 452 Pls
6295 452 Pls
6298 452 Pls
6302 452 Pls
6305 452 Pls
6309 452 Pls
6312 452 Pls
6316 452 Pls
6319 452 Pls
6322 452 Pls
6579 4738 Pls
% End plot #1
1.000 UL
LTb
770 4871 N
770 448 L
6177 0 V
0 4423 V
-6177 0 V
Z stroke
1.000 UP
1.000 UL
LTb
stroke
grestore
end
showpage
%%Trailer
%%DocumentFonts: Helvetica
