%!PS-Adobe-2.0 EPSF-2.0
%%Title: ../plots/domainstats/states-sorted-by-ply-visit-count-over-avg-num-plies-minigammon-offset-4.eps
%%Creator: gnuplot 4.4 patchlevel 3
%%CreationDate: Wed Dec 14 04:42:15 2011
%%DocumentFonts: (atend)
%%BoundingBox: 50 50 410 302
%%EndComments
%%BeginProlog
/gnudict 256 dict def
gnudict begin
%
% The following true/false flags may be edited by hand if desired.
% The unit line width and grayscale image gamma correction may also be changed.
%
/Color true def
/Blacktext false def
/Solid false def
/Dashlength 1 def
/Landscape false def
/Level1 false def
/Rounded false def
/ClipToBoundingBox false def
/TransparentPatterns false def
/gnulinewidth 5.000 def
/userlinewidth gnulinewidth def
/Gamma 1.0 def
%
/vshift -46 def
/dl1 {
  10.0 Dashlength mul mul
  Rounded { currentlinewidth 0.75 mul sub dup 0 le { pop 0.01 } if } if
} def
/dl2 {
  10.0 Dashlength mul mul
  Rounded { currentlinewidth 0.75 mul add } if
} def
/hpt_ 31.5 def
/vpt_ 31.5 def
/hpt hpt_ def
/vpt vpt_ def
Level1 {} {
/SDict 10 dict def
systemdict /pdfmark known not {
  userdict /pdfmark systemdict /cleartomark get put
} if
SDict begin [
  /Title (../plots/domainstats/states-sorted-by-ply-visit-count-over-avg-num-plies-minigammon-offset-4.eps)
  /Subject (gnuplot plot)
  /Creator (gnuplot 4.4 patchlevel 3)
  /Author (reza)
%  /Producer (gnuplot)
%  /Keywords ()
  /CreationDate (Wed Dec 14 04:42:15 2011)
  /DOCINFO pdfmark
end
} ifelse
/doclip {
  ClipToBoundingBox {
    newpath 50 50 moveto 410 50 lineto 410 302 lineto 50 302 lineto closepath
    clip
  } if
} def
%
% Gnuplot Prolog Version 4.4 (August 2010)
%
%/SuppressPDFMark true def
%
/M {moveto} bind def
/L {lineto} bind def
/R {rmoveto} bind def
/V {rlineto} bind def
/N {newpath moveto} bind def
/Z {closepath} bind def
/C {setrgbcolor} bind def
/f {rlineto fill} bind def
/g {setgray} bind def
/Gshow {show} def   % May be redefined later in the file to support UTF-8
/vpt2 vpt 2 mul def
/hpt2 hpt 2 mul def
/Lshow {currentpoint stroke M 0 vshift R 
	Blacktext {gsave 0 setgray show grestore} {show} ifelse} def
/Rshow {currentpoint stroke M dup stringwidth pop neg vshift R
	Blacktext {gsave 0 setgray show grestore} {show} ifelse} def
/Cshow {currentpoint stroke M dup stringwidth pop -2 div vshift R 
	Blacktext {gsave 0 setgray show grestore} {show} ifelse} def
/UP {dup vpt_ mul /vpt exch def hpt_ mul /hpt exch def
  /hpt2 hpt 2 mul def /vpt2 vpt 2 mul def} def
/DL {Color {setrgbcolor Solid {pop []} if 0 setdash}
 {pop pop pop 0 setgray Solid {pop []} if 0 setdash} ifelse} def
/BL {stroke userlinewidth 2 mul setlinewidth
	Rounded {1 setlinejoin 1 setlinecap} if} def
/AL {stroke userlinewidth 2 div setlinewidth
	Rounded {1 setlinejoin 1 setlinecap} if} def
/UL {dup gnulinewidth mul /userlinewidth exch def
	dup 1 lt {pop 1} if 10 mul /udl exch def} def
/PL {stroke userlinewidth setlinewidth
	Rounded {1 setlinejoin 1 setlinecap} if} def
3.8 setmiterlimit
% Default Line colors
/LCw {1 1 1} def
/LCb {0 0 0} def
/LCa {0 0 0} def
/LC0 {1 0 0} def
/LC1 {0 1 0} def
/LC2 {0 0 1} def
/LC3 {1 0 1} def
/LC4 {0 1 1} def
/LC5 {1 1 0} def
/LC6 {0 0 0} def
/LC7 {1 0.3 0} def
/LC8 {0.5 0.5 0.5} def
% Default Line Types
/LTw {PL [] 1 setgray} def
/LTb {BL [] LCb DL} def
/LTa {AL [1 udl mul 2 udl mul] 0 setdash LCa setrgbcolor} def
/LT0 {PL [] LC0 DL} def
/LT1 {PL [4 dl1 2 dl2] LC1 DL} def
/LT2 {PL [2 dl1 3 dl2] LC2 DL} def
/LT3 {PL [1 dl1 1.5 dl2] LC3 DL} def
/LT4 {PL [6 dl1 2 dl2 1 dl1 2 dl2] LC4 DL} def
/LT5 {PL [3 dl1 3 dl2 1 dl1 3 dl2] LC5 DL} def
/LT6 {PL [2 dl1 2 dl2 2 dl1 6 dl2] LC6 DL} def
/LT7 {PL [1 dl1 2 dl2 6 dl1 2 dl2 1 dl1 2 dl2] LC7 DL} def
/LT8 {PL [2 dl1 2 dl2 2 dl1 2 dl2 2 dl1 2 dl2 2 dl1 4 dl2] LC8 DL} def
/Pnt {stroke [] 0 setdash gsave 1 setlinecap M 0 0 V stroke grestore} def
/Dia {stroke [] 0 setdash 2 copy vpt add M
  hpt neg vpt neg V hpt vpt neg V
  hpt vpt V hpt neg vpt V closepath stroke
  Pnt} def
/Pls {stroke [] 0 setdash vpt sub M 0 vpt2 V
  currentpoint stroke M
  hpt neg vpt neg R hpt2 0 V stroke
 } def
/Box {stroke [] 0 setdash 2 copy exch hpt sub exch vpt add M
  0 vpt2 neg V hpt2 0 V 0 vpt2 V
  hpt2 neg 0 V closepath stroke
  Pnt} def
/Crs {stroke [] 0 setdash exch hpt sub exch vpt add M
  hpt2 vpt2 neg V currentpoint stroke M
  hpt2 neg 0 R hpt2 vpt2 V stroke} def
/TriU {stroke [] 0 setdash 2 copy vpt 1.12 mul add M
  hpt neg vpt -1.62 mul V
  hpt 2 mul 0 V
  hpt neg vpt 1.62 mul V closepath stroke
  Pnt} def
/Star {2 copy Pls Crs} def
/BoxF {stroke [] 0 setdash exch hpt sub exch vpt add M
  0 vpt2 neg V hpt2 0 V 0 vpt2 V
  hpt2 neg 0 V closepath fill} def
/TriUF {stroke [] 0 setdash vpt 1.12 mul add M
  hpt neg vpt -1.62 mul V
  hpt 2 mul 0 V
  hpt neg vpt 1.62 mul V closepath fill} def
/TriD {stroke [] 0 setdash 2 copy vpt 1.12 mul sub M
  hpt neg vpt 1.62 mul V
  hpt 2 mul 0 V
  hpt neg vpt -1.62 mul V closepath stroke
  Pnt} def
/TriDF {stroke [] 0 setdash vpt 1.12 mul sub M
  hpt neg vpt 1.62 mul V
  hpt 2 mul 0 V
  hpt neg vpt -1.62 mul V closepath fill} def
/DiaF {stroke [] 0 setdash vpt add M
  hpt neg vpt neg V hpt vpt neg V
  hpt vpt V hpt neg vpt V closepath fill} def
/Pent {stroke [] 0 setdash 2 copy gsave
  translate 0 hpt M 4 {72 rotate 0 hpt L} repeat
  closepath stroke grestore Pnt} def
/PentF {stroke [] 0 setdash gsave
  translate 0 hpt M 4 {72 rotate 0 hpt L} repeat
  closepath fill grestore} def
/Circle {stroke [] 0 setdash 2 copy
  hpt 0 360 arc stroke Pnt} def
/CircleF {stroke [] 0 setdash hpt 0 360 arc fill} def
/C0 {BL [] 0 setdash 2 copy moveto vpt 90 450 arc} bind def
/C1 {BL [] 0 setdash 2 copy moveto
	2 copy vpt 0 90 arc closepath fill
	vpt 0 360 arc closepath} bind def
/C2 {BL [] 0 setdash 2 copy moveto
	2 copy vpt 90 180 arc closepath fill
	vpt 0 360 arc closepath} bind def
/C3 {BL [] 0 setdash 2 copy moveto
	2 copy vpt 0 180 arc closepath fill
	vpt 0 360 arc closepath} bind def
/C4 {BL [] 0 setdash 2 copy moveto
	2 copy vpt 180 270 arc closepath fill
	vpt 0 360 arc closepath} bind def
/C5 {BL [] 0 setdash 2 copy moveto
	2 copy vpt 0 90 arc
	2 copy moveto
	2 copy vpt 180 270 arc closepath fill
	vpt 0 360 arc} bind def
/C6 {BL [] 0 setdash 2 copy moveto
	2 copy vpt 90 270 arc closepath fill
	vpt 0 360 arc closepath} bind def
/C7 {BL [] 0 setdash 2 copy moveto
	2 copy vpt 0 270 arc closepath fill
	vpt 0 360 arc closepath} bind def
/C8 {BL [] 0 setdash 2 copy moveto
	2 copy vpt 270 360 arc closepath fill
	vpt 0 360 arc closepath} bind def
/C9 {BL [] 0 setdash 2 copy moveto
	2 copy vpt 270 450 arc closepath fill
	vpt 0 360 arc closepath} bind def
/C10 {BL [] 0 setdash 2 copy 2 copy moveto vpt 270 360 arc closepath fill
	2 copy moveto
	2 copy vpt 90 180 arc closepath fill
	vpt 0 360 arc closepath} bind def
/C11 {BL [] 0 setdash 2 copy moveto
	2 copy vpt 0 180 arc closepath fill
	2 copy moveto
	2 copy vpt 270 360 arc closepath fill
	vpt 0 360 arc closepath} bind def
/C12 {BL [] 0 setdash 2 copy moveto
	2 copy vpt 180 360 arc closepath fill
	vpt 0 360 arc closepath} bind def
/C13 {BL [] 0 setdash 2 copy moveto
	2 copy vpt 0 90 arc closepath fill
	2 copy moveto
	2 copy vpt 180 360 arc closepath fill
	vpt 0 360 arc closepath} bind def
/C14 {BL [] 0 setdash 2 copy moveto
	2 copy vpt 90 360 arc closepath fill
	vpt 0 360 arc} bind def
/C15 {BL [] 0 setdash 2 copy vpt 0 360 arc closepath fill
	vpt 0 360 arc closepath} bind def
/Rec {newpath 4 2 roll moveto 1 index 0 rlineto 0 exch rlineto
	neg 0 rlineto closepath} bind def
/Square {dup Rec} bind def
/Bsquare {vpt sub exch vpt sub exch vpt2 Square} bind def
/S0 {BL [] 0 setdash 2 copy moveto 0 vpt rlineto BL Bsquare} bind def
/S1 {BL [] 0 setdash 2 copy vpt Square fill Bsquare} bind def
/S2 {BL [] 0 setdash 2 copy exch vpt sub exch vpt Square fill Bsquare} bind def
/S3 {BL [] 0 setdash 2 copy exch vpt sub exch vpt2 vpt Rec fill Bsquare} bind def
/S4 {BL [] 0 setdash 2 copy exch vpt sub exch vpt sub vpt Square fill Bsquare} bind def
/S5 {BL [] 0 setdash 2 copy 2 copy vpt Square fill
	exch vpt sub exch vpt sub vpt Square fill Bsquare} bind def
/S6 {BL [] 0 setdash 2 copy exch vpt sub exch vpt sub vpt vpt2 Rec fill Bsquare} bind def
/S7 {BL [] 0 setdash 2 copy exch vpt sub exch vpt sub vpt vpt2 Rec fill
	2 copy vpt Square fill Bsquare} bind def
/S8 {BL [] 0 setdash 2 copy vpt sub vpt Square fill Bsquare} bind def
/S9 {BL [] 0 setdash 2 copy vpt sub vpt vpt2 Rec fill Bsquare} bind def
/S10 {BL [] 0 setdash 2 copy vpt sub vpt Square fill 2 copy exch vpt sub exch vpt Square fill
	Bsquare} bind def
/S11 {BL [] 0 setdash 2 copy vpt sub vpt Square fill 2 copy exch vpt sub exch vpt2 vpt Rec fill
	Bsquare} bind def
/S12 {BL [] 0 setdash 2 copy exch vpt sub exch vpt sub vpt2 vpt Rec fill Bsquare} bind def
/S13 {BL [] 0 setdash 2 copy exch vpt sub exch vpt sub vpt2 vpt Rec fill
	2 copy vpt Square fill Bsquare} bind def
/S14 {BL [] 0 setdash 2 copy exch vpt sub exch vpt sub vpt2 vpt Rec fill
	2 copy exch vpt sub exch vpt Square fill Bsquare} bind def
/S15 {BL [] 0 setdash 2 copy Bsquare fill Bsquare} bind def
/D0 {gsave translate 45 rotate 0 0 S0 stroke grestore} bind def
/D1 {gsave translate 45 rotate 0 0 S1 stroke grestore} bind def
/D2 {gsave translate 45 rotate 0 0 S2 stroke grestore} bind def
/D3 {gsave translate 45 rotate 0 0 S3 stroke grestore} bind def
/D4 {gsave translate 45 rotate 0 0 S4 stroke grestore} bind def
/D5 {gsave translate 45 rotate 0 0 S5 stroke grestore} bind def
/D6 {gsave translate 45 rotate 0 0 S6 stroke grestore} bind def
/D7 {gsave translate 45 rotate 0 0 S7 stroke grestore} bind def
/D8 {gsave translate 45 rotate 0 0 S8 stroke grestore} bind def
/D9 {gsave translate 45 rotate 0 0 S9 stroke grestore} bind def
/D10 {gsave translate 45 rotate 0 0 S10 stroke grestore} bind def
/D11 {gsave translate 45 rotate 0 0 S11 stroke grestore} bind def
/D12 {gsave translate 45 rotate 0 0 S12 stroke grestore} bind def
/D13 {gsave translate 45 rotate 0 0 S13 stroke grestore} bind def
/D14 {gsave translate 45 rotate 0 0 S14 stroke grestore} bind def
/D15 {gsave translate 45 rotate 0 0 S15 stroke grestore} bind def
/DiaE {stroke [] 0 setdash vpt add M
  hpt neg vpt neg V hpt vpt neg V
  hpt vpt V hpt neg vpt V closepath stroke} def
/BoxE {stroke [] 0 setdash exch hpt sub exch vpt add M
  0 vpt2 neg V hpt2 0 V 0 vpt2 V
  hpt2 neg 0 V closepath stroke} def
/TriUE {stroke [] 0 setdash vpt 1.12 mul add M
  hpt neg vpt -1.62 mul V
  hpt 2 mul 0 V
  hpt neg vpt 1.62 mul V closepath stroke} def
/TriDE {stroke [] 0 setdash vpt 1.12 mul sub M
  hpt neg vpt 1.62 mul V
  hpt 2 mul 0 V
  hpt neg vpt -1.62 mul V closepath stroke} def
/PentE {stroke [] 0 setdash gsave
  translate 0 hpt M 4 {72 rotate 0 hpt L} repeat
  closepath stroke grestore} def
/CircE {stroke [] 0 setdash 
  hpt 0 360 arc stroke} def
/Opaque {gsave closepath 1 setgray fill grestore 0 setgray closepath} def
/DiaW {stroke [] 0 setdash vpt add M
  hpt neg vpt neg V hpt vpt neg V
  hpt vpt V hpt neg vpt V Opaque stroke} def
/BoxW {stroke [] 0 setdash exch hpt sub exch vpt add M
  0 vpt2 neg V hpt2 0 V 0 vpt2 V
  hpt2 neg 0 V Opaque stroke} def
/TriUW {stroke [] 0 setdash vpt 1.12 mul add M
  hpt neg vpt -1.62 mul V
  hpt 2 mul 0 V
  hpt neg vpt 1.62 mul V Opaque stroke} def
/TriDW {stroke [] 0 setdash vpt 1.12 mul sub M
  hpt neg vpt 1.62 mul V
  hpt 2 mul 0 V
  hpt neg vpt -1.62 mul V Opaque stroke} def
/PentW {stroke [] 0 setdash gsave
  translate 0 hpt M 4 {72 rotate 0 hpt L} repeat
  Opaque stroke grestore} def
/CircW {stroke [] 0 setdash 
  hpt 0 360 arc Opaque stroke} def
/BoxFill {gsave Rec 1 setgray fill grestore} def
/Density {
  /Fillden exch def
  currentrgbcolor
  /ColB exch def /ColG exch def /ColR exch def
  /ColR ColR Fillden mul Fillden sub 1 add def
  /ColG ColG Fillden mul Fillden sub 1 add def
  /ColB ColB Fillden mul Fillden sub 1 add def
  ColR ColG ColB setrgbcolor} def
/BoxColFill {gsave Rec PolyFill} def
/PolyFill {gsave Density fill grestore grestore} def
/h {rlineto rlineto rlineto gsave closepath fill grestore} bind def
%
% PostScript Level 1 Pattern Fill routine for rectangles
% Usage: x y w h s a XX PatternFill
%	x,y = lower left corner of box to be filled
%	w,h = width and height of box
%	  a = angle in degrees between lines and x-axis
%	 XX = 0/1 for no/yes cross-hatch
%
/PatternFill {gsave /PFa [ 9 2 roll ] def
  PFa 0 get PFa 2 get 2 div add PFa 1 get PFa 3 get 2 div add translate
  PFa 2 get -2 div PFa 3 get -2 div PFa 2 get PFa 3 get Rec
  gsave 1 setgray fill grestore clip
  currentlinewidth 0.5 mul setlinewidth
  /PFs PFa 2 get dup mul PFa 3 get dup mul add sqrt def
  0 0 M PFa 5 get rotate PFs -2 div dup translate
  0 1 PFs PFa 4 get div 1 add floor cvi
	{PFa 4 get mul 0 M 0 PFs V} for
  0 PFa 6 get ne {
	0 1 PFs PFa 4 get div 1 add floor cvi
	{PFa 4 get mul 0 2 1 roll M PFs 0 V} for
 } if
  stroke grestore} def
%
/languagelevel where
 {pop languagelevel} {1} ifelse
 2 lt
	{/InterpretLevel1 true def}
	{/InterpretLevel1 Level1 def}
 ifelse
%
% PostScript level 2 pattern fill definitions
%
/Level2PatternFill {
/Tile8x8 {/PaintType 2 /PatternType 1 /TilingType 1 /BBox [0 0 8 8] /XStep 8 /YStep 8}
	bind def
/KeepColor {currentrgbcolor [/Pattern /DeviceRGB] setcolorspace} bind def
<< Tile8x8
 /PaintProc {0.5 setlinewidth pop 0 0 M 8 8 L 0 8 M 8 0 L stroke} 
>> matrix makepattern
/Pat1 exch def
<< Tile8x8
 /PaintProc {0.5 setlinewidth pop 0 0 M 8 8 L 0 8 M 8 0 L stroke
	0 4 M 4 8 L 8 4 L 4 0 L 0 4 L stroke}
>> matrix makepattern
/Pat2 exch def
<< Tile8x8
 /PaintProc {0.5 setlinewidth pop 0 0 M 0 8 L
	8 8 L 8 0 L 0 0 L fill}
>> matrix makepattern
/Pat3 exch def
<< Tile8x8
 /PaintProc {0.5 setlinewidth pop -4 8 M 8 -4 L
	0 12 M 12 0 L stroke}
>> matrix makepattern
/Pat4 exch def
<< Tile8x8
 /PaintProc {0.5 setlinewidth pop -4 0 M 8 12 L
	0 -4 M 12 8 L stroke}
>> matrix makepattern
/Pat5 exch def
<< Tile8x8
 /PaintProc {0.5 setlinewidth pop -2 8 M 4 -4 L
	0 12 M 8 -4 L 4 12 M 10 0 L stroke}
>> matrix makepattern
/Pat6 exch def
<< Tile8x8
 /PaintProc {0.5 setlinewidth pop -2 0 M 4 12 L
	0 -4 M 8 12 L 4 -4 M 10 8 L stroke}
>> matrix makepattern
/Pat7 exch def
<< Tile8x8
 /PaintProc {0.5 setlinewidth pop 8 -2 M -4 4 L
	12 0 M -4 8 L 12 4 M 0 10 L stroke}
>> matrix makepattern
/Pat8 exch def
<< Tile8x8
 /PaintProc {0.5 setlinewidth pop 0 -2 M 12 4 L
	-4 0 M 12 8 L -4 4 M 8 10 L stroke}
>> matrix makepattern
/Pat9 exch def
/Pattern1 {PatternBgnd KeepColor Pat1 setpattern} bind def
/Pattern2 {PatternBgnd KeepColor Pat2 setpattern} bind def
/Pattern3 {PatternBgnd KeepColor Pat3 setpattern} bind def
/Pattern4 {PatternBgnd KeepColor Landscape {Pat5} {Pat4} ifelse setpattern} bind def
/Pattern5 {PatternBgnd KeepColor Landscape {Pat4} {Pat5} ifelse setpattern} bind def
/Pattern6 {PatternBgnd KeepColor Landscape {Pat9} {Pat6} ifelse setpattern} bind def
/Pattern7 {PatternBgnd KeepColor Landscape {Pat8} {Pat7} ifelse setpattern} bind def
} def
%
%
%End of PostScript Level 2 code
%
/PatternBgnd {
  TransparentPatterns {} {gsave 1 setgray fill grestore} ifelse
} def
%
% Substitute for Level 2 pattern fill codes with
% grayscale if Level 2 support is not selected.
%
/Level1PatternFill {
/Pattern1 {0.250 Density} bind def
/Pattern2 {0.500 Density} bind def
/Pattern3 {0.750 Density} bind def
/Pattern4 {0.125 Density} bind def
/Pattern5 {0.375 Density} bind def
/Pattern6 {0.625 Density} bind def
/Pattern7 {0.875 Density} bind def
} def
%
% Now test for support of Level 2 code
%
Level1 {Level1PatternFill} {Level2PatternFill} ifelse
%
/Symbol-Oblique /Symbol findfont [1 0 .167 1 0 0] makefont
dup length dict begin {1 index /FID eq {pop pop} {def} ifelse} forall
currentdict end definefont pop
end
%%EndProlog
gnudict begin
gsave
doclip
50 50 translate
0.050 0.050 scale
0 setgray
newpath
(Helvetica) findfont 140 scalefont setfont
1.000 UL
LTb
602 448 M
63 0 V
6282 0 R
-63 0 V
518 448 M
( 0) Rshow
1.000 UL
LTb
602 890 M
63 0 V
6282 0 R
-63 0 V
518 890 M
( 5) Rshow
1.000 UL
LTb
602 1333 M
63 0 V
6282 0 R
-63 0 V
-6366 0 R
( 10) Rshow
1.000 UL
LTb
602 1775 M
63 0 V
6282 0 R
-63 0 V
-6366 0 R
( 15) Rshow
1.000 UL
LTb
602 2217 M
63 0 V
6282 0 R
-63 0 V
-6366 0 R
( 20) Rshow
1.000 UL
LTb
602 2659 M
63 0 V
6282 0 R
-63 0 V
-6366 0 R
( 25) Rshow
1.000 UL
LTb
602 3102 M
63 0 V
6282 0 R
-63 0 V
-6366 0 R
( 30) Rshow
1.000 UL
LTb
602 3544 M
63 0 V
6282 0 R
-63 0 V
-6366 0 R
( 35) Rshow
1.000 UL
LTb
602 3986 M
63 0 V
6282 0 R
-63 0 V
-6366 0 R
( 40) Rshow
1.000 UL
LTb
602 4429 M
63 0 V
6282 0 R
-63 0 V
-6366 0 R
( 45) Rshow
1.000 UL
LTb
602 4871 M
63 0 V
6282 0 R
-63 0 V
-6366 0 R
( 50) Rshow
1.000 UL
LTb
602 448 M
0 63 V
0 4360 R
0 -63 V
602 308 M
( 0) Cshow
1.000 UL
LTb
1236 448 M
0 63 V
0 4360 R
0 -63 V
0 -4500 R
( 100) Cshow
1.000 UL
LTb
1871 448 M
0 63 V
0 4360 R
0 -63 V
0 -4500 R
( 200) Cshow
1.000 UL
LTb
2505 448 M
0 63 V
0 4360 R
0 -63 V
0 -4500 R
( 300) Cshow
1.000 UL
LTb
3140 448 M
0 63 V
0 4360 R
0 -63 V
0 -4500 R
( 400) Cshow
1.000 UL
LTb
3774 448 M
0 63 V
0 4360 R
0 -63 V
0 -4500 R
( 500) Cshow
1.000 UL
LTb
4409 448 M
0 63 V
0 4360 R
0 -63 V
0 -4500 R
( 600) Cshow
1.000 UL
LTb
5043 448 M
0 63 V
0 4360 R
0 -63 V
0 -4500 R
( 700) Cshow
1.000 UL
LTb
5678 448 M
0 63 V
0 4360 R
0 -63 V
0 -4500 R
( 800) Cshow
1.000 UL
LTb
6312 448 M
0 63 V
0 4360 R
0 -63 V
0 -4500 R
( 900) Cshow
1.000 UL
LTb
6947 448 M
0 63 V
0 4360 R
0 -63 V
0 -4500 R
( 1000) Cshow
1.000 UL
LTb
1.000 UL
LTb
602 4871 N
602 448 L
6345 0 V
0 4423 V
-6345 0 V
Z stroke
LCb setrgbcolor
112 2659 M
currentpoint gsave translate -270 rotate 0 0 M
(Visit Count per 1000 Plies) Cshow
grestore
LTb
LCb setrgbcolor
3774 98 M
(States \(Sorted by Earliest Visit Time\)) Cshow
LTb
1.000 UP
1.000 UL
LTb
% Begin plot #1
1.000 UP
1.000 UL
LT0
LCb setrgbcolor
6296 4738 M
(Offset = 4) Rshow
LT0
602 4768 Pls
608 1480 Pls
615 1575 Pls
621 1437 Pls
627 1619 Pls
634 1640 Pls
640 1994 Pls
646 1472 Pls
653 1683 Pls
659 582 Pls
665 655 Pls
672 746 Pls
678 910 Pls
684 573 Pls
691 621 Pls
697 539 Pls
704 694 Pls
710 707 Pls
716 906 Pls
723 647 Pls
729 919 Pls
735 694 Pls
742 858 Pls
748 707 Pls
754 534 Pls
761 742 Pls
767 569 Pls
773 681 Pls
780 604 Pls
786 556 Pls
792 711 Pls
799 608 Pls
805 647 Pls
811 616 Pls
818 582 Pls
824 841 Pls
830 673 Pls
837 789 Pls
843 720 Pls
849 504 Pls
856 599 Pls
862 539 Pls
868 578 Pls
875 534 Pls
881 591 Pls
888 517 Pls
894 699 Pls
900 612 Pls
907 750 Pls
913 508 Pls
919 604 Pls
926 815 Pls
932 668 Pls
938 694 Pls
945 521 Pls
951 578 Pls
957 500 Pls
964 470 Pls
970 470 Pls
976 530 Pls
983 556 Pls
989 638 Pls
995 591 Pls
1002 500 Pls
1008 504 Pls
1014 660 Pls
1021 677 Pls
1027 547 Pls
1033 621 Pls
1040 647 Pls
1046 582 Pls
1052 578 Pls
1059 461 Pls
1065 517 Pls
1072 461 Pls
1078 478 Pls
1084 582 Pls
1091 569 Pls
1097 573 Pls
1103 508 Pls
1110 496 Pls
1116 521 Pls
1122 634 Pls
1129 638 Pls
1135 560 Pls
1141 668 Pls
1148 686 Pls
1154 526 Pls
1160 565 Pls
1167 500 Pls
1173 513 Pls
1179 470 Pls
1186 474 Pls
1192 483 Pls
1198 470 Pls
1205 461 Pls
1211 487 Pls
1217 474 Pls
1224 573 Pls
1230 483 Pls
1236 504 Pls
1243 474 Pls
1249 552 Pls
1256 612 Pls
1262 621 Pls
1268 547 Pls
1275 582 Pls
1281 582 Pls
1287 517 Pls
1294 508 Pls
1300 504 Pls
1306 478 Pls
1313 474 Pls
1319 487 Pls
1325 457 Pls
1332 457 Pls
1338 526 Pls
1344 517 Pls
1351 556 Pls
1357 491 Pls
1363 517 Pls
1370 465 Pls
1376 608 Pls
1382 655 Pls
1389 694 Pls
1395 936 Pls
1401 543 Pls
1408 530 Pls
1414 677 Pls
1421 781 Pls
1427 534 Pls
1433 504 Pls
1440 595 Pls
1446 608 Pls
1452 737 Pls
1459 474 Pls
1465 478 Pls
1471 591 Pls
1478 642 Pls
1484 582 Pls
1490 595 Pls
1497 543 Pls
1503 483 Pls
1509 457 Pls
1516 470 Pls
1522 565 Pls
1528 534 Pls
1535 526 Pls
1541 539 Pls
1547 496 Pls
1554 513 Pls
1560 526 Pls
1566 621 Pls
1573 452 Pls
1579 452 Pls
1585 504 Pls
1592 483 Pls
1598 547 Pls
1605 539 Pls
1611 487 Pls
1617 513 Pls
1624 560 Pls
1630 465 Pls
1636 483 Pls
1643 513 Pls
1649 560 Pls
1655 595 Pls
1662 677 Pls
1668 452 Pls
1674 496 Pls
1681 547 Pls
1687 539 Pls
1693 530 Pls
1700 591 Pls
1706 474 Pls
1712 452 Pls
1719 465 Pls
1725 582 Pls
1731 457 Pls
1738 508 Pls
1744 655 Pls
1750 465 Pls
1757 560 Pls
1763 474 Pls
1769 621 Pls
1776 491 Pls
1782 569 Pls
1789 504 Pls
1795 500 Pls
1801 534 Pls
1808 517 Pls
1814 465 Pls
1820 461 Pls
1827 470 Pls
1833 452 Pls
1839 474 Pls
1846 500 Pls
1852 452 Pls
1858 465 Pls
1865 543 Pls
1871 461 Pls
1877 474 Pls
1884 539 Pls
1890 556 Pls
1896 638 Pls
1903 513 Pls
1909 664 Pls
1915 599 Pls
1922 625 Pls
1928 521 Pls
1934 513 Pls
1941 496 Pls
1947 478 Pls
1953 491 Pls
1960 483 Pls
1966 586 Pls
1973 452 Pls
1979 452 Pls
1985 461 Pls
1992 483 Pls
1998 452 Pls
2004 530 Pls
2011 457 Pls
2017 496 Pls
2023 500 Pls
2030 457 Pls
2036 552 Pls
2042 539 Pls
2049 595 Pls
2055 474 Pls
2061 504 Pls
2068 591 Pls
2074 565 Pls
2080 668 Pls
2087 487 Pls
2093 496 Pls
2099 478 Pls
2106 461 Pls
2112 457 Pls
2118 491 Pls
2125 474 Pls
2131 457 Pls
2137 452 Pls
2144 457 Pls
2150 461 Pls
2157 452 Pls
2163 461 Pls
2169 461 Pls
2176 560 Pls
2182 496 Pls
2188 496 Pls
2195 465 Pls
2201 483 Pls
2207 474 Pls
2214 504 Pls
2220 504 Pls
2226 517 Pls
2233 496 Pls
2239 452 Pls
2245 465 Pls
2252 478 Pls
2258 478 Pls
2264 478 Pls
2271 457 Pls
2277 452 Pls
2283 573 Pls
2290 660 Pls
2296 521 Pls
2302 573 Pls
2309 638 Pls
2315 474 Pls
2321 534 Pls
2328 457 Pls
2334 452 Pls
2341 543 Pls
2347 465 Pls
2353 513 Pls
2360 465 Pls
2366 457 Pls
2372 474 Pls
2379 470 Pls
2385 474 Pls
2391 513 Pls
2398 526 Pls
2404 625 Pls
2410 768 Pls
2417 638 Pls
2423 543 Pls
2429 660 Pls
2436 638 Pls
2442 560 Pls
2448 560 Pls
2455 699 Pls
2461 474 Pls
2467 504 Pls
2474 452 Pls
2480 487 Pls
2486 465 Pls
2493 699 Pls
2499 569 Pls
2505 625 Pls
2512 660 Pls
2518 513 Pls
2525 616 Pls
2531 543 Pls
2537 647 Pls
2544 465 Pls
2550 526 Pls
2556 483 Pls
2563 461 Pls
2569 517 Pls
2575 508 Pls
2582 452 Pls
2588 452 Pls
2594 474 Pls
2601 496 Pls
2607 621 Pls
2613 483 Pls
2620 543 Pls
2626 556 Pls
2632 496 Pls
2639 526 Pls
2645 556 Pls
2651 539 Pls
2658 647 Pls
2664 625 Pls
2670 491 Pls
2677 500 Pls
2683 474 Pls
2690 461 Pls
2696 457 Pls
2702 470 Pls
2709 496 Pls
2715 478 Pls
2721 457 Pls
2728 487 Pls
2734 470 Pls
2740 478 Pls
2747 474 Pls
2753 517 Pls
2759 521 Pls
2766 474 Pls
2772 465 Pls
2778 465 Pls
2785 478 Pls
2791 487 Pls
2797 578 Pls
2804 517 Pls
2810 478 Pls
2816 508 Pls
2823 625 Pls
2829 616 Pls
2835 742 Pls
2842 470 Pls
2848 508 Pls
2854 478 Pls
2861 474 Pls
2867 452 Pls
2874 457 Pls
2880 457 Pls
2886 491 Pls
2893 608 Pls
2899 483 Pls
2905 539 Pls
2912 582 Pls
2918 457 Pls
2924 457 Pls
2931 461 Pls
2937 470 Pls
2943 556 Pls
2950 452 Pls
2956 500 Pls
2962 504 Pls
2969 556 Pls
2975 457 Pls
2981 711 Pls
2988 711 Pls
2994 949 Pls
3000 526 Pls
3007 508 Pls
3013 634 Pls
3019 517 Pls
3026 686 Pls
3032 629 Pls
3038 457 Pls
3045 470 Pls
3051 457 Pls
3058 452 Pls
3064 491 Pls
3070 552 Pls
3077 500 Pls
3083 616 Pls
3089 543 Pls
3096 573 Pls
3102 595 Pls
3108 496 Pls
3115 483 Pls
3121 560 Pls
3127 500 Pls
3134 483 Pls
3140 487 Pls
3146 452 Pls
3153 457 Pls
3159 496 Pls
3165 556 Pls
3172 465 Pls
3178 452 Pls
3184 457 Pls
3191 452 Pls
3197 457 Pls
3203 452 Pls
3210 461 Pls
3216 487 Pls
3222 513 Pls
3229 487 Pls
3235 470 Pls
3242 461 Pls
3248 508 Pls
3254 487 Pls
3261 642 Pls
3267 491 Pls
3273 457 Pls
3280 530 Pls
3286 474 Pls
3292 474 Pls
3299 560 Pls
3305 604 Pls
3311 500 Pls
3318 487 Pls
3324 461 Pls
3330 483 Pls
3337 504 Pls
3343 457 Pls
3349 461 Pls
3356 457 Pls
3362 470 Pls
3368 465 Pls
3375 461 Pls
3381 457 Pls
3387 465 Pls
3394 461 Pls
3400 452 Pls
3406 457 Pls
3413 452 Pls
3419 496 Pls
3426 470 Pls
3432 461 Pls
3438 483 Pls
3445 457 Pls
3451 457 Pls
3457 483 Pls
3464 470 Pls
3470 457 Pls
3476 457 Pls
3483 465 Pls
3489 556 Pls
3495 565 Pls
3502 487 Pls
3508 517 Pls
3514 487 Pls
3521 483 Pls
3527 483 Pls
3533 465 Pls
3540 452 Pls
3546 461 Pls
3552 452 Pls
3559 478 Pls
3565 491 Pls
3571 487 Pls
3578 452 Pls
3584 457 Pls
3590 474 Pls
3597 452 Pls
3603 457 Pls
3610 474 Pls
3616 461 Pls
3622 491 Pls
3629 513 Pls
3635 746 Pls
3641 530 Pls
3648 534 Pls
3654 612 Pls
3660 621 Pls
3667 539 Pls
3673 530 Pls
3679 465 Pls
3686 513 Pls
3692 478 Pls
3698 582 Pls
3705 534 Pls
3711 474 Pls
3717 543 Pls
3724 819 Pls
3730 690 Pls
3736 457 Pls
3743 483 Pls
3749 483 Pls
3755 470 Pls
3762 478 Pls
3768 880 Pls
3774 642 Pls
3781 690 Pls
3787 457 Pls
3794 470 Pls
3800 457 Pls
3806 474 Pls
3813 504 Pls
3819 470 Pls
3825 569 Pls
3832 457 Pls
3838 470 Pls
3844 478 Pls
3851 478 Pls
3857 470 Pls
3863 526 Pls
3870 517 Pls
3876 565 Pls
3882 539 Pls
3889 526 Pls
3895 496 Pls
3901 478 Pls
3908 547 Pls
3914 500 Pls
3920 461 Pls
3927 500 Pls
3933 586 Pls
3939 470 Pls
3946 508 Pls
3952 526 Pls
3959 457 Pls
3965 457 Pls
3971 478 Pls
3978 452 Pls
3984 452 Pls
3990 452 Pls
3997 487 Pls
4003 491 Pls
4009 465 Pls
4016 457 Pls
4022 452 Pls
4028 457 Pls
4035 461 Pls
4041 547 Pls
4047 465 Pls
4054 474 Pls
4060 586 Pls
4066 461 Pls
4073 478 Pls
4079 526 Pls
4085 526 Pls
4092 508 Pls
4098 465 Pls
4104 461 Pls
4111 470 Pls
4117 491 Pls
4123 452 Pls
4130 457 Pls
4136 452 Pls
4143 457 Pls
4149 457 Pls
4155 491 Pls
4162 478 Pls
4168 452 Pls
4174 452 Pls
4181 465 Pls
4187 513 Pls
4193 457 Pls
4200 483 Pls
4206 461 Pls
4212 504 Pls
4219 461 Pls
4225 470 Pls
4231 573 Pls
4238 642 Pls
4244 500 Pls
4250 461 Pls
4257 491 Pls
4263 478 Pls
4269 582 Pls
4276 573 Pls
4282 539 Pls
4288 530 Pls
4295 508 Pls
4301 452 Pls
4307 457 Pls
4314 543 Pls
4320 530 Pls
4327 452 Pls
4333 496 Pls
4339 478 Pls
4346 595 Pls
4352 686 Pls
4358 681 Pls
4365 491 Pls
4371 573 Pls
4377 720 Pls
4384 530 Pls
4390 491 Pls
4396 465 Pls
4403 534 Pls
4409 496 Pls
4415 457 Pls
4422 457 Pls
4428 465 Pls
4434 478 Pls
4441 508 Pls
4447 504 Pls
4453 470 Pls
4460 681 Pls
4466 763 Pls
4472 629 Pls
4479 690 Pls
4485 629 Pls
4491 521 Pls
4498 487 Pls
4504 457 Pls
4511 474 Pls
4517 461 Pls
4523 474 Pls
4530 487 Pls
4536 828 Pls
4542 815 Pls
4549 578 Pls
4555 699 Pls
4561 569 Pls
4568 487 Pls
4574 470 Pls
4580 461 Pls
4587 465 Pls
4593 452 Pls
4599 491 Pls
4606 474 Pls
4612 474 Pls
4618 461 Pls
4625 478 Pls
4631 491 Pls
4637 461 Pls
4644 508 Pls
4650 556 Pls
4656 478 Pls
4663 465 Pls
4669 470 Pls
4675 470 Pls
4682 457 Pls
4688 461 Pls
4695 521 Pls
4701 452 Pls
4707 452 Pls
4714 457 Pls
4720 478 Pls
4726 478 Pls
4733 452 Pls
4739 452 Pls
4745 452 Pls
4752 500 Pls
4758 474 Pls
4764 465 Pls
4771 470 Pls
4777 487 Pls
4783 478 Pls
4790 470 Pls
4796 470 Pls
4802 474 Pls
4809 457 Pls
4815 474 Pls
4821 534 Pls
4828 616 Pls
4834 470 Pls
4840 470 Pls
4847 647 Pls
4853 651 Pls
4859 759 Pls
4866 668 Pls
4872 716 Pls
4879 465 Pls
4885 560 Pls
4891 578 Pls
4898 470 Pls
4904 457 Pls
4910 483 Pls
4917 526 Pls
4923 452 Pls
4929 478 Pls
4936 573 Pls
4942 591 Pls
4948 508 Pls
4955 470 Pls
4961 716 Pls
4967 565 Pls
4974 582 Pls
4980 530 Pls
4986 461 Pls
4993 452 Pls
4999 465 Pls
5005 452 Pls
5012 452 Pls
5018 647 Pls
5024 457 Pls
5031 556 Pls
5037 629 Pls
5043 595 Pls
5050 569 Pls
5056 470 Pls
5063 560 Pls
5069 543 Pls
5075 478 Pls
5082 465 Pls
5088 496 Pls
5094 478 Pls
5101 470 Pls
5107 452 Pls
5113 452 Pls
5120 452 Pls
5126 465 Pls
5132 452 Pls
5139 452 Pls
5145 452 Pls
5151 461 Pls
5158 457 Pls
5164 474 Pls
5170 517 Pls
5177 504 Pls
5183 496 Pls
5189 491 Pls
5196 457 Pls
5202 457 Pls
5208 452 Pls
5215 543 Pls
5221 534 Pls
5228 530 Pls
5234 526 Pls
5240 452 Pls
5247 586 Pls
5253 526 Pls
5259 634 Pls
5266 595 Pls
5272 483 Pls
5278 547 Pls
5285 452 Pls
5291 452 Pls
5297 452 Pls
5304 465 Pls
5310 461 Pls
5316 491 Pls
5323 578 Pls
5329 716 Pls
5335 608 Pls
5342 474 Pls
5348 452 Pls
5354 452 Pls
5361 452 Pls
5367 707 Pls
5373 565 Pls
5380 681 Pls
5386 508 Pls
5392 638 Pls
5399 591 Pls
5405 513 Pls
5412 487 Pls
5418 461 Pls
5424 625 Pls
5431 478 Pls
5437 457 Pls
5443 457 Pls
5450 569 Pls
5456 599 Pls
5462 496 Pls
5469 457 Pls
5475 863 Pls
5481 750 Pls
5488 755 Pls
5494 668 Pls
5500 496 Pls
5507 629 Pls
5513 500 Pls
5519 470 Pls
5526 474 Pls
5532 452 Pls
5538 452 Pls
5545 465 Pls
5551 457 Pls
5557 452 Pls
5564 461 Pls
5570 452 Pls
5576 452 Pls
5583 461 Pls
5589 496 Pls
5596 461 Pls
5602 457 Pls
5608 457 Pls
5615 465 Pls
5621 625 Pls
5627 569 Pls
5634 457 Pls
5640 452 Pls
5646 465 Pls
5653 496 Pls
5659 478 Pls
5665 595 Pls
5672 604 Pls
5678 573 Pls
5684 850 Pls
5691 789 Pls
5697 474 Pls
5703 452 Pls
5710 513 Pls
5716 552 Pls
5722 521 Pls
5729 526 Pls
5735 491 Pls
5741 452 Pls
5748 517 Pls
5754 660 Pls
5760 604 Pls
5767 565 Pls
5773 457 Pls
5780 837 Pls
5786 1217 Pls
5792 802 Pls
5799 927 Pls
5805 500 Pls
5811 543 Pls
5818 461 Pls
5824 452 Pls
5830 919 Pls
5837 616 Pls
5843 452 Pls
5849 452 Pls
5856 452 Pls
5862 461 Pls
5868 452 Pls
5875 452 Pls
5881 457 Pls
5887 452 Pls
5894 452 Pls
5900 452 Pls
5906 478 Pls
5913 461 Pls
5919 457 Pls
5925 452 Pls
5932 465 Pls
5938 465 Pls
5944 478 Pls
5951 517 Pls
5957 599 Pls
5964 569 Pls
5970 500 Pls
5976 457 Pls
5983 461 Pls
5989 625 Pls
5995 651 Pls
6002 828 Pls
6008 552 Pls
6014 457 Pls
6021 452 Pls
6027 655 Pls
6033 504 Pls
6040 504 Pls
6046 452 Pls
6052 560 Pls
6059 841 Pls
6065 634 Pls
6071 483 Pls
6078 452 Pls
6084 1295 Pls
6090 565 Pls
6097 673 Pls
6103 552 Pls
6109 595 Pls
6116 496 Pls
6122 452 Pls
6128 703 Pls
6135 1295 Pls
6141 746 Pls
6148 547 Pls
6154 547 Pls
6160 465 Pls
6167 465 Pls
6173 452 Pls
6179 457 Pls
6186 452 Pls
6192 465 Pls
6198 452 Pls
6205 517 Pls
6211 452 Pls
6217 629 Pls
6224 452 Pls
6230 655 Pls
6236 452 Pls
6243 1718 Pls
6249 565 Pls
6255 521 Pls
6262 452 Pls
6268 452 Pls
6274 461 Pls
6281 452 Pls
6287 461 Pls
6293 457 Pls
6300 452 Pls
6306 452 Pls
6312 452 Pls
6319 465 Pls
6325 452 Pls
6332 452 Pls
6338 452 Pls
6344 452 Pls
6351 452 Pls
6357 452 Pls
6363 452 Pls
6370 452 Pls
6376 452 Pls
6579 4738 Pls
% End plot #1
1.000 UL
LTb
602 4871 N
602 448 L
6345 0 V
0 4423 V
-6345 0 V
Z stroke
1.000 UP
1.000 UL
LTb
stroke
grestore
end
showpage
%%Trailer
%%DocumentFonts: Helvetica
