%!PS-Adobe-2.0 EPSF-2.0
%%Title: ../plots/domainstats/states-sorted-by-ply-visit-count-minigammon-offset-0.eps
%%Creator: gnuplot 4.4 patchlevel 3
%%CreationDate: Wed Dec 14 04:42:15 2011
%%DocumentFonts: (atend)
%%BoundingBox: 50 50 410 302
%%EndComments
%%BeginProlog
/gnudict 256 dict def
gnudict begin
%
% The following true/false flags may be edited by hand if desired.
% The unit line width and grayscale image gamma correction may also be changed.
%
/Color true def
/Blacktext false def
/Solid false def
/Dashlength 1 def
/Landscape false def
/Level1 false def
/Rounded false def
/ClipToBoundingBox false def
/TransparentPatterns false def
/gnulinewidth 5.000 def
/userlinewidth gnulinewidth def
/Gamma 1.0 def
%
/vshift -46 def
/dl1 {
  10.0 Dashlength mul mul
  Rounded { currentlinewidth 0.75 mul sub dup 0 le { pop 0.01 } if } if
} def
/dl2 {
  10.0 Dashlength mul mul
  Rounded { currentlinewidth 0.75 mul add } if
} def
/hpt_ 31.5 def
/vpt_ 31.5 def
/hpt hpt_ def
/vpt vpt_ def
Level1 {} {
/SDict 10 dict def
systemdict /pdfmark known not {
  userdict /pdfmark systemdict /cleartomark get put
} if
SDict begin [
  /Title (../plots/domainstats/states-sorted-by-ply-visit-count-minigammon-offset-0.eps)
  /Subject (gnuplot plot)
  /Creator (gnuplot 4.4 patchlevel 3)
  /Author (reza)
%  /Producer (gnuplot)
%  /Keywords ()
  /CreationDate (Wed Dec 14 04:42:15 2011)
  /DOCINFO pdfmark
end
} ifelse
/doclip {
  ClipToBoundingBox {
    newpath 50 50 moveto 410 50 lineto 410 302 lineto 50 302 lineto closepath
    clip
  } if
} def
%
% Gnuplot Prolog Version 4.4 (August 2010)
%
%/SuppressPDFMark true def
%
/M {moveto} bind def
/L {lineto} bind def
/R {rmoveto} bind def
/V {rlineto} bind def
/N {newpath moveto} bind def
/Z {closepath} bind def
/C {setrgbcolor} bind def
/f {rlineto fill} bind def
/g {setgray} bind def
/Gshow {show} def   % May be redefined later in the file to support UTF-8
/vpt2 vpt 2 mul def
/hpt2 hpt 2 mul def
/Lshow {currentpoint stroke M 0 vshift R 
	Blacktext {gsave 0 setgray show grestore} {show} ifelse} def
/Rshow {currentpoint stroke M dup stringwidth pop neg vshift R
	Blacktext {gsave 0 setgray show grestore} {show} ifelse} def
/Cshow {currentpoint stroke M dup stringwidth pop -2 div vshift R 
	Blacktext {gsave 0 setgray show grestore} {show} ifelse} def
/UP {dup vpt_ mul /vpt exch def hpt_ mul /hpt exch def
  /hpt2 hpt 2 mul def /vpt2 vpt 2 mul def} def
/DL {Color {setrgbcolor Solid {pop []} if 0 setdash}
 {pop pop pop 0 setgray Solid {pop []} if 0 setdash} ifelse} def
/BL {stroke userlinewidth 2 mul setlinewidth
	Rounded {1 setlinejoin 1 setlinecap} if} def
/AL {stroke userlinewidth 2 div setlinewidth
	Rounded {1 setlinejoin 1 setlinecap} if} def
/UL {dup gnulinewidth mul /userlinewidth exch def
	dup 1 lt {pop 1} if 10 mul /udl exch def} def
/PL {stroke userlinewidth setlinewidth
	Rounded {1 setlinejoin 1 setlinecap} if} def
3.8 setmiterlimit
% Default Line colors
/LCw {1 1 1} def
/LCb {0 0 0} def
/LCa {0 0 0} def
/LC0 {1 0 0} def
/LC1 {0 1 0} def
/LC2 {0 0 1} def
/LC3 {1 0 1} def
/LC4 {0 1 1} def
/LC5 {1 1 0} def
/LC6 {0 0 0} def
/LC7 {1 0.3 0} def
/LC8 {0.5 0.5 0.5} def
% Default Line Types
/LTw {PL [] 1 setgray} def
/LTb {BL [] LCb DL} def
/LTa {AL [1 udl mul 2 udl mul] 0 setdash LCa setrgbcolor} def
/LT0 {PL [] LC0 DL} def
/LT1 {PL [4 dl1 2 dl2] LC1 DL} def
/LT2 {PL [2 dl1 3 dl2] LC2 DL} def
/LT3 {PL [1 dl1 1.5 dl2] LC3 DL} def
/LT4 {PL [6 dl1 2 dl2 1 dl1 2 dl2] LC4 DL} def
/LT5 {PL [3 dl1 3 dl2 1 dl1 3 dl2] LC5 DL} def
/LT6 {PL [2 dl1 2 dl2 2 dl1 6 dl2] LC6 DL} def
/LT7 {PL [1 dl1 2 dl2 6 dl1 2 dl2 1 dl1 2 dl2] LC7 DL} def
/LT8 {PL [2 dl1 2 dl2 2 dl1 2 dl2 2 dl1 2 dl2 2 dl1 4 dl2] LC8 DL} def
/Pnt {stroke [] 0 setdash gsave 1 setlinecap M 0 0 V stroke grestore} def
/Dia {stroke [] 0 setdash 2 copy vpt add M
  hpt neg vpt neg V hpt vpt neg V
  hpt vpt V hpt neg vpt V closepath stroke
  Pnt} def
/Pls {stroke [] 0 setdash vpt sub M 0 vpt2 V
  currentpoint stroke M
  hpt neg vpt neg R hpt2 0 V stroke
 } def
/Box {stroke [] 0 setdash 2 copy exch hpt sub exch vpt add M
  0 vpt2 neg V hpt2 0 V 0 vpt2 V
  hpt2 neg 0 V closepath stroke
  Pnt} def
/Crs {stroke [] 0 setdash exch hpt sub exch vpt add M
  hpt2 vpt2 neg V currentpoint stroke M
  hpt2 neg 0 R hpt2 vpt2 V stroke} def
/TriU {stroke [] 0 setdash 2 copy vpt 1.12 mul add M
  hpt neg vpt -1.62 mul V
  hpt 2 mul 0 V
  hpt neg vpt 1.62 mul V closepath stroke
  Pnt} def
/Star {2 copy Pls Crs} def
/BoxF {stroke [] 0 setdash exch hpt sub exch vpt add M
  0 vpt2 neg V hpt2 0 V 0 vpt2 V
  hpt2 neg 0 V closepath fill} def
/TriUF {stroke [] 0 setdash vpt 1.12 mul add M
  hpt neg vpt -1.62 mul V
  hpt 2 mul 0 V
  hpt neg vpt 1.62 mul V closepath fill} def
/TriD {stroke [] 0 setdash 2 copy vpt 1.12 mul sub M
  hpt neg vpt 1.62 mul V
  hpt 2 mul 0 V
  hpt neg vpt -1.62 mul V closepath stroke
  Pnt} def
/TriDF {stroke [] 0 setdash vpt 1.12 mul sub M
  hpt neg vpt 1.62 mul V
  hpt 2 mul 0 V
  hpt neg vpt -1.62 mul V closepath fill} def
/DiaF {stroke [] 0 setdash vpt add M
  hpt neg vpt neg V hpt vpt neg V
  hpt vpt V hpt neg vpt V closepath fill} def
/Pent {stroke [] 0 setdash 2 copy gsave
  translate 0 hpt M 4 {72 rotate 0 hpt L} repeat
  closepath stroke grestore Pnt} def
/PentF {stroke [] 0 setdash gsave
  translate 0 hpt M 4 {72 rotate 0 hpt L} repeat
  closepath fill grestore} def
/Circle {stroke [] 0 setdash 2 copy
  hpt 0 360 arc stroke Pnt} def
/CircleF {stroke [] 0 setdash hpt 0 360 arc fill} def
/C0 {BL [] 0 setdash 2 copy moveto vpt 90 450 arc} bind def
/C1 {BL [] 0 setdash 2 copy moveto
	2 copy vpt 0 90 arc closepath fill
	vpt 0 360 arc closepath} bind def
/C2 {BL [] 0 setdash 2 copy moveto
	2 copy vpt 90 180 arc closepath fill
	vpt 0 360 arc closepath} bind def
/C3 {BL [] 0 setdash 2 copy moveto
	2 copy vpt 0 180 arc closepath fill
	vpt 0 360 arc closepath} bind def
/C4 {BL [] 0 setdash 2 copy moveto
	2 copy vpt 180 270 arc closepath fill
	vpt 0 360 arc closepath} bind def
/C5 {BL [] 0 setdash 2 copy moveto
	2 copy vpt 0 90 arc
	2 copy moveto
	2 copy vpt 180 270 arc closepath fill
	vpt 0 360 arc} bind def
/C6 {BL [] 0 setdash 2 copy moveto
	2 copy vpt 90 270 arc closepath fill
	vpt 0 360 arc closepath} bind def
/C7 {BL [] 0 setdash 2 copy moveto
	2 copy vpt 0 270 arc closepath fill
	vpt 0 360 arc closepath} bind def
/C8 {BL [] 0 setdash 2 copy moveto
	2 copy vpt 270 360 arc closepath fill
	vpt 0 360 arc closepath} bind def
/C9 {BL [] 0 setdash 2 copy moveto
	2 copy vpt 270 450 arc closepath fill
	vpt 0 360 arc closepath} bind def
/C10 {BL [] 0 setdash 2 copy 2 copy moveto vpt 270 360 arc closepath fill
	2 copy moveto
	2 copy vpt 90 180 arc closepath fill
	vpt 0 360 arc closepath} bind def
/C11 {BL [] 0 setdash 2 copy moveto
	2 copy vpt 0 180 arc closepath fill
	2 copy moveto
	2 copy vpt 270 360 arc closepath fill
	vpt 0 360 arc closepath} bind def
/C12 {BL [] 0 setdash 2 copy moveto
	2 copy vpt 180 360 arc closepath fill
	vpt 0 360 arc closepath} bind def
/C13 {BL [] 0 setdash 2 copy moveto
	2 copy vpt 0 90 arc closepath fill
	2 copy moveto
	2 copy vpt 180 360 arc closepath fill
	vpt 0 360 arc closepath} bind def
/C14 {BL [] 0 setdash 2 copy moveto
	2 copy vpt 90 360 arc closepath fill
	vpt 0 360 arc} bind def
/C15 {BL [] 0 setdash 2 copy vpt 0 360 arc closepath fill
	vpt 0 360 arc closepath} bind def
/Rec {newpath 4 2 roll moveto 1 index 0 rlineto 0 exch rlineto
	neg 0 rlineto closepath} bind def
/Square {dup Rec} bind def
/Bsquare {vpt sub exch vpt sub exch vpt2 Square} bind def
/S0 {BL [] 0 setdash 2 copy moveto 0 vpt rlineto BL Bsquare} bind def
/S1 {BL [] 0 setdash 2 copy vpt Square fill Bsquare} bind def
/S2 {BL [] 0 setdash 2 copy exch vpt sub exch vpt Square fill Bsquare} bind def
/S3 {BL [] 0 setdash 2 copy exch vpt sub exch vpt2 vpt Rec fill Bsquare} bind def
/S4 {BL [] 0 setdash 2 copy exch vpt sub exch vpt sub vpt Square fill Bsquare} bind def
/S5 {BL [] 0 setdash 2 copy 2 copy vpt Square fill
	exch vpt sub exch vpt sub vpt Square fill Bsquare} bind def
/S6 {BL [] 0 setdash 2 copy exch vpt sub exch vpt sub vpt vpt2 Rec fill Bsquare} bind def
/S7 {BL [] 0 setdash 2 copy exch vpt sub exch vpt sub vpt vpt2 Rec fill
	2 copy vpt Square fill Bsquare} bind def
/S8 {BL [] 0 setdash 2 copy vpt sub vpt Square fill Bsquare} bind def
/S9 {BL [] 0 setdash 2 copy vpt sub vpt vpt2 Rec fill Bsquare} bind def
/S10 {BL [] 0 setdash 2 copy vpt sub vpt Square fill 2 copy exch vpt sub exch vpt Square fill
	Bsquare} bind def
/S11 {BL [] 0 setdash 2 copy vpt sub vpt Square fill 2 copy exch vpt sub exch vpt2 vpt Rec fill
	Bsquare} bind def
/S12 {BL [] 0 setdash 2 copy exch vpt sub exch vpt sub vpt2 vpt Rec fill Bsquare} bind def
/S13 {BL [] 0 setdash 2 copy exch vpt sub exch vpt sub vpt2 vpt Rec fill
	2 copy vpt Square fill Bsquare} bind def
/S14 {BL [] 0 setdash 2 copy exch vpt sub exch vpt sub vpt2 vpt Rec fill
	2 copy exch vpt sub exch vpt Square fill Bsquare} bind def
/S15 {BL [] 0 setdash 2 copy Bsquare fill Bsquare} bind def
/D0 {gsave translate 45 rotate 0 0 S0 stroke grestore} bind def
/D1 {gsave translate 45 rotate 0 0 S1 stroke grestore} bind def
/D2 {gsave translate 45 rotate 0 0 S2 stroke grestore} bind def
/D3 {gsave translate 45 rotate 0 0 S3 stroke grestore} bind def
/D4 {gsave translate 45 rotate 0 0 S4 stroke grestore} bind def
/D5 {gsave translate 45 rotate 0 0 S5 stroke grestore} bind def
/D6 {gsave translate 45 rotate 0 0 S6 stroke grestore} bind def
/D7 {gsave translate 45 rotate 0 0 S7 stroke grestore} bind def
/D8 {gsave translate 45 rotate 0 0 S8 stroke grestore} bind def
/D9 {gsave translate 45 rotate 0 0 S9 stroke grestore} bind def
/D10 {gsave translate 45 rotate 0 0 S10 stroke grestore} bind def
/D11 {gsave translate 45 rotate 0 0 S11 stroke grestore} bind def
/D12 {gsave translate 45 rotate 0 0 S12 stroke grestore} bind def
/D13 {gsave translate 45 rotate 0 0 S13 stroke grestore} bind def
/D14 {gsave translate 45 rotate 0 0 S14 stroke grestore} bind def
/D15 {gsave translate 45 rotate 0 0 S15 stroke grestore} bind def
/DiaE {stroke [] 0 setdash vpt add M
  hpt neg vpt neg V hpt vpt neg V
  hpt vpt V hpt neg vpt V closepath stroke} def
/BoxE {stroke [] 0 setdash exch hpt sub exch vpt add M
  0 vpt2 neg V hpt2 0 V 0 vpt2 V
  hpt2 neg 0 V closepath stroke} def
/TriUE {stroke [] 0 setdash vpt 1.12 mul add M
  hpt neg vpt -1.62 mul V
  hpt 2 mul 0 V
  hpt neg vpt 1.62 mul V closepath stroke} def
/TriDE {stroke [] 0 setdash vpt 1.12 mul sub M
  hpt neg vpt 1.62 mul V
  hpt 2 mul 0 V
  hpt neg vpt -1.62 mul V closepath stroke} def
/PentE {stroke [] 0 setdash gsave
  translate 0 hpt M 4 {72 rotate 0 hpt L} repeat
  closepath stroke grestore} def
/CircE {stroke [] 0 setdash 
  hpt 0 360 arc stroke} def
/Opaque {gsave closepath 1 setgray fill grestore 0 setgray closepath} def
/DiaW {stroke [] 0 setdash vpt add M
  hpt neg vpt neg V hpt vpt neg V
  hpt vpt V hpt neg vpt V Opaque stroke} def
/BoxW {stroke [] 0 setdash exch hpt sub exch vpt add M
  0 vpt2 neg V hpt2 0 V 0 vpt2 V
  hpt2 neg 0 V Opaque stroke} def
/TriUW {stroke [] 0 setdash vpt 1.12 mul add M
  hpt neg vpt -1.62 mul V
  hpt 2 mul 0 V
  hpt neg vpt 1.62 mul V Opaque stroke} def
/TriDW {stroke [] 0 setdash vpt 1.12 mul sub M
  hpt neg vpt 1.62 mul V
  hpt 2 mul 0 V
  hpt neg vpt -1.62 mul V Opaque stroke} def
/PentW {stroke [] 0 setdash gsave
  translate 0 hpt M 4 {72 rotate 0 hpt L} repeat
  Opaque stroke grestore} def
/CircW {stroke [] 0 setdash 
  hpt 0 360 arc Opaque stroke} def
/BoxFill {gsave Rec 1 setgray fill grestore} def
/Density {
  /Fillden exch def
  currentrgbcolor
  /ColB exch def /ColG exch def /ColR exch def
  /ColR ColR Fillden mul Fillden sub 1 add def
  /ColG ColG Fillden mul Fillden sub 1 add def
  /ColB ColB Fillden mul Fillden sub 1 add def
  ColR ColG ColB setrgbcolor} def
/BoxColFill {gsave Rec PolyFill} def
/PolyFill {gsave Density fill grestore grestore} def
/h {rlineto rlineto rlineto gsave closepath fill grestore} bind def
%
% PostScript Level 1 Pattern Fill routine for rectangles
% Usage: x y w h s a XX PatternFill
%	x,y = lower left corner of box to be filled
%	w,h = width and height of box
%	  a = angle in degrees between lines and x-axis
%	 XX = 0/1 for no/yes cross-hatch
%
/PatternFill {gsave /PFa [ 9 2 roll ] def
  PFa 0 get PFa 2 get 2 div add PFa 1 get PFa 3 get 2 div add translate
  PFa 2 get -2 div PFa 3 get -2 div PFa 2 get PFa 3 get Rec
  gsave 1 setgray fill grestore clip
  currentlinewidth 0.5 mul setlinewidth
  /PFs PFa 2 get dup mul PFa 3 get dup mul add sqrt def
  0 0 M PFa 5 get rotate PFs -2 div dup translate
  0 1 PFs PFa 4 get div 1 add floor cvi
	{PFa 4 get mul 0 M 0 PFs V} for
  0 PFa 6 get ne {
	0 1 PFs PFa 4 get div 1 add floor cvi
	{PFa 4 get mul 0 2 1 roll M PFs 0 V} for
 } if
  stroke grestore} def
%
/languagelevel where
 {pop languagelevel} {1} ifelse
 2 lt
	{/InterpretLevel1 true def}
	{/InterpretLevel1 Level1 def}
 ifelse
%
% PostScript level 2 pattern fill definitions
%
/Level2PatternFill {
/Tile8x8 {/PaintType 2 /PatternType 1 /TilingType 1 /BBox [0 0 8 8] /XStep 8 /YStep 8}
	bind def
/KeepColor {currentrgbcolor [/Pattern /DeviceRGB] setcolorspace} bind def
<< Tile8x8
 /PaintProc {0.5 setlinewidth pop 0 0 M 8 8 L 0 8 M 8 0 L stroke} 
>> matrix makepattern
/Pat1 exch def
<< Tile8x8
 /PaintProc {0.5 setlinewidth pop 0 0 M 8 8 L 0 8 M 8 0 L stroke
	0 4 M 4 8 L 8 4 L 4 0 L 0 4 L stroke}
>> matrix makepattern
/Pat2 exch def
<< Tile8x8
 /PaintProc {0.5 setlinewidth pop 0 0 M 0 8 L
	8 8 L 8 0 L 0 0 L fill}
>> matrix makepattern
/Pat3 exch def
<< Tile8x8
 /PaintProc {0.5 setlinewidth pop -4 8 M 8 -4 L
	0 12 M 12 0 L stroke}
>> matrix makepattern
/Pat4 exch def
<< Tile8x8
 /PaintProc {0.5 setlinewidth pop -4 0 M 8 12 L
	0 -4 M 12 8 L stroke}
>> matrix makepattern
/Pat5 exch def
<< Tile8x8
 /PaintProc {0.5 setlinewidth pop -2 8 M 4 -4 L
	0 12 M 8 -4 L 4 12 M 10 0 L stroke}
>> matrix makepattern
/Pat6 exch def
<< Tile8x8
 /PaintProc {0.5 setlinewidth pop -2 0 M 4 12 L
	0 -4 M 8 12 L 4 -4 M 10 8 L stroke}
>> matrix makepattern
/Pat7 exch def
<< Tile8x8
 /PaintProc {0.5 setlinewidth pop 8 -2 M -4 4 L
	12 0 M -4 8 L 12 4 M 0 10 L stroke}
>> matrix makepattern
/Pat8 exch def
<< Tile8x8
 /PaintProc {0.5 setlinewidth pop 0 -2 M 12 4 L
	-4 0 M 12 8 L -4 4 M 8 10 L stroke}
>> matrix makepattern
/Pat9 exch def
/Pattern1 {PatternBgnd KeepColor Pat1 setpattern} bind def
/Pattern2 {PatternBgnd KeepColor Pat2 setpattern} bind def
/Pattern3 {PatternBgnd KeepColor Pat3 setpattern} bind def
/Pattern4 {PatternBgnd KeepColor Landscape {Pat5} {Pat4} ifelse setpattern} bind def
/Pattern5 {PatternBgnd KeepColor Landscape {Pat4} {Pat5} ifelse setpattern} bind def
/Pattern6 {PatternBgnd KeepColor Landscape {Pat9} {Pat6} ifelse setpattern} bind def
/Pattern7 {PatternBgnd KeepColor Landscape {Pat8} {Pat7} ifelse setpattern} bind def
} def
%
%
%End of PostScript Level 2 code
%
/PatternBgnd {
  TransparentPatterns {} {gsave 1 setgray fill grestore} ifelse
} def
%
% Substitute for Level 2 pattern fill codes with
% grayscale if Level 2 support is not selected.
%
/Level1PatternFill {
/Pattern1 {0.250 Density} bind def
/Pattern2 {0.500 Density} bind def
/Pattern3 {0.750 Density} bind def
/Pattern4 {0.125 Density} bind def
/Pattern5 {0.375 Density} bind def
/Pattern6 {0.625 Density} bind def
/Pattern7 {0.875 Density} bind def
} def
%
% Now test for support of Level 2 code
%
Level1 {Level1PatternFill} {Level2PatternFill} ifelse
%
/Symbol-Oblique /Symbol findfont [1 0 .167 1 0 0] makefont
dup length dict begin {1 index /FID eq {pop pop} {def} ifelse} forall
currentdict end definefont pop
end
%%EndProlog
gnudict begin
gsave
doclip
50 50 translate
0.050 0.050 scale
0 setgray
newpath
(Helvetica) findfont 140 scalefont setfont
1.000 UL
LTb
770 448 M
63 0 V
6114 0 R
-63 0 V
686 448 M
( 0) Rshow
1.000 UL
LTb
770 890 M
63 0 V
6114 0 R
-63 0 V
686 890 M
( 100) Rshow
1.000 UL
LTb
770 1333 M
63 0 V
6114 0 R
-63 0 V
-6198 0 R
( 200) Rshow
1.000 UL
LTb
770 1775 M
63 0 V
6114 0 R
-63 0 V
-6198 0 R
( 300) Rshow
1.000 UL
LTb
770 2217 M
63 0 V
6114 0 R
-63 0 V
-6198 0 R
( 400) Rshow
1.000 UL
LTb
770 2660 M
63 0 V
6114 0 R
-63 0 V
-6198 0 R
( 500) Rshow
1.000 UL
LTb
770 3102 M
63 0 V
6114 0 R
-63 0 V
-6198 0 R
( 600) Rshow
1.000 UL
LTb
770 3544 M
63 0 V
6114 0 R
-63 0 V
-6198 0 R
( 700) Rshow
1.000 UL
LTb
770 3986 M
63 0 V
6114 0 R
-63 0 V
-6198 0 R
( 800) Rshow
1.000 UL
LTb
770 4429 M
63 0 V
6114 0 R
-63 0 V
-6198 0 R
( 900) Rshow
1.000 UL
LTb
770 4871 M
63 0 V
6114 0 R
-63 0 V
-6198 0 R
( 1000) Rshow
1.000 UL
LTb
770 448 M
0 63 V
0 4360 R
0 -63 V
770 308 M
( 0) Cshow
1.000 UL
LTb
1388 448 M
0 63 V
0 4360 R
0 -63 V
0 -4500 R
( 200) Cshow
1.000 UL
LTb
2005 448 M
0 63 V
0 4360 R
0 -63 V
0 -4500 R
( 400) Cshow
1.000 UL
LTb
2623 448 M
0 63 V
0 4360 R
0 -63 V
0 -4500 R
( 600) Cshow
1.000 UL
LTb
3241 448 M
0 63 V
0 4360 R
0 -63 V
0 -4500 R
( 800) Cshow
1.000 UL
LTb
3858 448 M
0 63 V
0 4360 R
0 -63 V
0 -4500 R
( 1000) Cshow
1.000 UL
LTb
4476 448 M
0 63 V
0 4360 R
0 -63 V
0 -4500 R
( 1200) Cshow
1.000 UL
LTb
5094 448 M
0 63 V
0 4360 R
0 -63 V
0 -4500 R
( 1400) Cshow
1.000 UL
LTb
5712 448 M
0 63 V
0 4360 R
0 -63 V
0 -4500 R
( 1600) Cshow
1.000 UL
LTb
6329 448 M
0 63 V
0 4360 R
0 -63 V
0 -4500 R
( 1800) Cshow
1.000 UL
LTb
6947 448 M
0 63 V
0 4360 R
0 -63 V
0 -4500 R
( 2000) Cshow
1.000 UL
LTb
1.000 UL
LTb
770 4871 N
770 448 L
6177 0 V
0 4423 V
-6177 0 V
Z stroke
LCb setrgbcolor
112 2659 M
currentpoint gsave translate -270 rotate 0 0 M
(Visit Count) Cshow
grestore
LTb
LCb setrgbcolor
3858 98 M
(States \(Sorted by Earliest Visit Time\)) Cshow
LTb
1.000 UP
1.000 UL
LTb
% Begin plot #1
1.000 UP
1.000 UL
LT0
LCb setrgbcolor
6296 4738 M
(Offset = 0) Rshow
LT0
770 4871 Pls
773 1510 Pls
776 1713 Pls
779 1647 Pls
782 1655 Pls
785 1952 Pls
789 2191 Pls
792 1970 Pls
795 2102 Pls
798 727 Pls
801 824 Pls
804 1333 Pls
807 1302 Pls
810 762 Pls
813 811 Pls
816 1058 Pls
819 921 Pls
823 1120 Pls
826 1257 Pls
829 820 Pls
832 1403 Pls
835 815 Pls
838 1218 Pls
841 943 Pls
844 784 Pls
847 1218 Pls
850 718 Pls
853 1280 Pls
856 1058 Pls
860 665 Pls
863 1041 Pls
866 696 Pls
869 850 Pls
872 722 Pls
875 877 Pls
878 1598 Pls
881 926 Pls
884 1496 Pls
887 1218 Pls
890 598 Pls
894 904 Pls
897 647 Pls
900 886 Pls
903 833 Pls
906 705 Pls
909 815 Pls
912 1209 Pls
915 771 Pls
918 727 Pls
921 647 Pls
924 873 Pls
928 1257 Pls
931 864 Pls
934 1222 Pls
937 643 Pls
940 705 Pls
943 629 Pls
946 943 Pls
949 912 Pls
952 1271 Pls
955 881 Pls
958 656 Pls
961 705 Pls
965 935 Pls
968 908 Pls
971 1350 Pls
974 926 Pls
977 1076 Pls
980 806 Pls
983 895 Pls
986 948 Pls
989 877 Pls
992 519 Pls
995 806 Pls
999 828 Pls
1002 939 Pls
1005 1222 Pls
1008 846 Pls
1011 815 Pls
1014 682 Pls
1017 820 Pls
1020 886 Pls
1023 1297 Pls
1026 957 Pls
1029 1204 Pls
1033 1280 Pls
1036 1297 Pls
1039 1456 Pls
1042 1240 Pls
1045 833 Pls
1048 930 Pls
1051 820 Pls
1054 873 Pls
1057 868 Pls
1060 576 Pls
1063 634 Pls
1066 519 Pls
1070 634 Pls
1073 651 Pls
1076 784 Pls
1079 771 Pls
1082 625 Pls
1085 660 Pls
1088 581 Pls
1091 762 Pls
1094 749 Pls
1097 550 Pls
1100 1134 Pls
1104 1134 Pls
1107 572 Pls
1110 749 Pls
1113 979 Pls
1116 886 Pls
1119 1116 Pls
1122 930 Pls
1125 598 Pls
1128 598 Pls
1131 616 Pls
1134 590 Pls
1138 780 Pls
1141 674 Pls
1144 691 Pls
1147 696 Pls
1150 616 Pls
1153 581 Pls
1156 656 Pls
1159 735 Pls
1162 1023 Pls
1165 722 Pls
1168 912 Pls
1172 939 Pls
1175 651 Pls
1178 780 Pls
1181 1027 Pls
1184 828 Pls
1187 1390 Pls
1190 1465 Pls
1193 607 Pls
1196 523 Pls
1199 713 Pls
1202 811 Pls
1205 1142 Pls
1209 771 Pls
1212 899 Pls
1215 904 Pls
1218 634 Pls
1221 740 Pls
1224 974 Pls
1227 669 Pls
1230 1275 Pls
1233 1341 Pls
1236 620 Pls
1239 846 Pls
1243 687 Pls
1246 651 Pls
1249 598 Pls
1252 1014 Pls
1255 545 Pls
1258 585 Pls
1261 780 Pls
1264 700 Pls
1267 625 Pls
1270 563 Pls
1273 567 Pls
1277 514 Pls
1280 740 Pls
1283 620 Pls
1286 585 Pls
1289 656 Pls
1292 665 Pls
1295 691 Pls
1298 1067 Pls
1301 988 Pls
1304 1160 Pls
1307 930 Pls
1310 939 Pls
1314 585 Pls
1317 665 Pls
1320 616 Pls
1323 620 Pls
1326 563 Pls
1329 559 Pls
1332 603 Pls
1335 762 Pls
1338 709 Pls
1341 634 Pls
1344 775 Pls
1348 722 Pls
1351 709 Pls
1354 766 Pls
1357 850 Pls
1360 691 Pls
1363 727 Pls
1366 731 Pls
1369 674 Pls
1372 581 Pls
1375 497 Pls
1378 660 Pls
1382 625 Pls
1385 643 Pls
1388 753 Pls
1391 948 Pls
1394 899 Pls
1397 1226 Pls
1400 943 Pls
1403 528 Pls
1406 660 Pls
1409 753 Pls
1412 1187 Pls
1415 594 Pls
1419 797 Pls
1422 1080 Pls
1425 519 Pls
1428 660 Pls
1431 744 Pls
1434 581 Pls
1437 581 Pls
1440 647 Pls
1443 669 Pls
1446 775 Pls
1449 1089 Pls
1453 908 Pls
1456 612 Pls
1459 873 Pls
1462 731 Pls
1465 647 Pls
1468 545 Pls
1471 656 Pls
1474 674 Pls
1477 970 Pls
1480 899 Pls
1483 921 Pls
1487 961 Pls
1490 567 Pls
1493 656 Pls
1496 612 Pls
1499 519 Pls
1502 651 Pls
1505 651 Pls
1508 740 Pls
1511 1098 Pls
1514 665 Pls
1517 833 Pls
1521 974 Pls
1524 590 Pls
1527 775 Pls
1530 629 Pls
1533 514 Pls
1536 603 Pls
1539 727 Pls
1542 612 Pls
1545 793 Pls
1548 705 Pls
1551 740 Pls
1554 709 Pls
1558 722 Pls
1561 952 Pls
1564 899 Pls
1567 598 Pls
1570 744 Pls
1573 1306 Pls
1576 983 Pls
1579 935 Pls
1582 576 Pls
1585 550 Pls
1588 550 Pls
1592 612 Pls
1595 674 Pls
1598 519 Pls
1601 559 Pls
1604 643 Pls
1607 722 Pls
1610 523 Pls
1613 532 Pls
1616 585 Pls
1619 735 Pls
1622 519 Pls
1626 514 Pls
1629 616 Pls
1632 629 Pls
1635 647 Pls
1638 713 Pls
1641 727 Pls
1644 585 Pls
1647 660 Pls
1650 983 Pls
1653 1067 Pls
1656 983 Pls
1659 598 Pls
1663 523 Pls
1666 607 Pls
1669 483 Pls
1672 660 Pls
1675 709 Pls
1678 656 Pls
1681 669 Pls
1684 545 Pls
1687 536 Pls
1690 514 Pls
1693 620 Pls
1697 603 Pls
1700 873 Pls
1703 567 Pls
1706 576 Pls
1709 519 Pls
1712 581 Pls
1715 581 Pls
1718 766 Pls
1721 749 Pls
1724 735 Pls
1727 550 Pls
1731 492 Pls
1734 572 Pls
1737 634 Pls
1740 709 Pls
1743 559 Pls
1746 943 Pls
1749 638 Pls
1752 935 Pls
1755 479 Pls
1758 926 Pls
1761 1045 Pls
1764 559 Pls
1768 616 Pls
1771 1036 Pls
1774 492 Pls
1777 612 Pls
1780 651 Pls
1783 789 Pls
1786 581 Pls
1789 766 Pls
1792 616 Pls
1795 598 Pls
1798 510 Pls
1802 616 Pls
1805 519 Pls
1808 771 Pls
1811 475 Pls
1814 541 Pls
1817 554 Pls
1820 523 Pls
1823 598 Pls
1826 559 Pls
1829 554 Pls
1832 612 Pls
1836 762 Pls
1839 572 Pls
1842 625 Pls
1845 921 Pls
1848 594 Pls
1851 616 Pls
1854 554 Pls
1857 771 Pls
1860 634 Pls
1863 612 Pls
1866 802 Pls
1870 753 Pls
1873 784 Pls
1876 598 Pls
1879 921 Pls
1882 1019 Pls
1885 974 Pls
1888 559 Pls
1891 567 Pls
1894 603 Pls
1897 612 Pls
1900 563 Pls
1903 616 Pls
1907 528 Pls
1910 603 Pls
1913 523 Pls
1916 475 Pls
1919 528 Pls
1922 620 Pls
1925 510 Pls
1928 647 Pls
1931 735 Pls
1934 656 Pls
1937 643 Pls
1941 970 Pls
1944 643 Pls
1947 590 Pls
1950 643 Pls
1953 669 Pls
1956 567 Pls
1959 700 Pls
1962 696 Pls
1965 585 Pls
1968 501 Pls
1971 576 Pls
1975 678 Pls
1978 696 Pls
1981 744 Pls
1984 797 Pls
1987 488 Pls
1990 559 Pls
1993 775 Pls
1996 625 Pls
1999 797 Pls
2002 634 Pls
2005 572 Pls
2008 514 Pls
2012 656 Pls
2015 620 Pls
2018 744 Pls
2021 541 Pls
2024 550 Pls
2027 545 Pls
2030 665 Pls
2033 643 Pls
2036 643 Pls
2039 616 Pls
2042 722 Pls
2046 647 Pls
2049 669 Pls
2052 811 Pls
2055 1041 Pls
2058 957 Pls
2061 912 Pls
2064 581 Pls
2067 488 Pls
2070 674 Pls
2073 643 Pls
2076 647 Pls
2080 594 Pls
2083 643 Pls
2086 634 Pls
2089 881 Pls
2092 877 Pls
2095 607 Pls
2098 705 Pls
2101 797 Pls
2104 886 Pls
2107 709 Pls
2110 488 Pls
2113 466 Pls
2117 536 Pls
2120 638 Pls
2123 576 Pls
2126 612 Pls
2129 647 Pls
2132 536 Pls
2135 647 Pls
2138 620 Pls
2141 629 Pls
2144 603 Pls
2147 497 Pls
2151 545 Pls
2154 519 Pls
2157 581 Pls
2160 488 Pls
2163 563 Pls
2166 536 Pls
2169 581 Pls
2172 665 Pls
2175 572 Pls
2178 638 Pls
2181 651 Pls
2185 634 Pls
2188 554 Pls
2191 665 Pls
2194 793 Pls
2197 669 Pls
2200 594 Pls
2203 559 Pls
2206 483 Pls
2209 598 Pls
2212 775 Pls
2215 581 Pls
2219 634 Pls
2222 744 Pls
2225 545 Pls
2228 634 Pls
2231 824 Pls
2234 904 Pls
2237 974 Pls
2240 594 Pls
2243 612 Pls
2246 727 Pls
2249 532 Pls
2252 550 Pls
2256 576 Pls
2259 536 Pls
2262 749 Pls
2265 722 Pls
2268 811 Pls
2271 837 Pls
2274 576 Pls
2277 598 Pls
2280 634 Pls
2283 651 Pls
2286 585 Pls
2290 528 Pls
2293 651 Pls
2296 691 Pls
2299 497 Pls
2302 620 Pls
2305 590 Pls
2308 576 Pls
2311 572 Pls
2314 771 Pls
2317 771 Pls
2320 864 Pls
2324 957 Pls
2327 727 Pls
2330 554 Pls
2333 528 Pls
2336 505 Pls
2339 554 Pls
2342 603 Pls
2345 523 Pls
2348 550 Pls
2351 541 Pls
2354 528 Pls
2357 541 Pls
2361 510 Pls
2364 612 Pls
2367 682 Pls
2370 828 Pls
2373 620 Pls
2376 598 Pls
2379 492 Pls
2382 620 Pls
2385 603 Pls
2388 590 Pls
2391 696 Pls
2395 660 Pls
2398 638 Pls
2401 501 Pls
2404 705 Pls
2407 811 Pls
2410 572 Pls
2413 590 Pls
2416 488 Pls
2419 528 Pls
2422 594 Pls
2425 479 Pls
2429 541 Pls
2432 576 Pls
2435 674 Pls
2438 674 Pls
2441 660 Pls
2444 581 Pls
2447 523 Pls
2450 713 Pls
2453 634 Pls
2456 550 Pls
2459 576 Pls
2462 541 Pls
2466 505 Pls
2469 536 Pls
2472 528 Pls
2475 541 Pls
2478 559 Pls
2481 581 Pls
2484 559 Pls
2487 554 Pls
2490 581 Pls
2493 554 Pls
2496 643 Pls
2500 620 Pls
2503 696 Pls
2506 576 Pls
2509 643 Pls
2512 651 Pls
2515 536 Pls
2518 514 Pls
2521 620 Pls
2524 616 Pls
2527 793 Pls
2530 771 Pls
2534 603 Pls
2537 567 Pls
2540 581 Pls
2543 647 Pls
2546 559 Pls
2549 479 Pls
2552 594 Pls
2555 581 Pls
2558 479 Pls
2561 541 Pls
2564 550 Pls
2568 709 Pls
2571 691 Pls
2574 510 Pls
2577 559 Pls
2580 532 Pls
2583 576 Pls
2586 576 Pls
2589 563 Pls
2592 545 Pls
2595 545 Pls
2598 696 Pls
2601 620 Pls
2605 550 Pls
2608 567 Pls
2611 598 Pls
2614 505 Pls
2617 607 Pls
2620 762 Pls
2623 651 Pls
2626 660 Pls
2629 554 Pls
2632 647 Pls
2635 775 Pls
2639 501 Pls
2642 523 Pls
2645 585 Pls
2648 682 Pls
2651 656 Pls
2654 766 Pls
2657 541 Pls
2660 483 Pls
2663 528 Pls
2666 497 Pls
2669 572 Pls
2673 674 Pls
2676 519 Pls
2679 638 Pls
2682 625 Pls
2685 709 Pls
2688 780 Pls
2691 603 Pls
2694 563 Pls
2697 638 Pls
2700 780 Pls
2703 594 Pls
2706 634 Pls
2710 519 Pls
2713 594 Pls
2716 532 Pls
2719 466 Pls
2722 638 Pls
2725 581 Pls
2728 700 Pls
2731 651 Pls
2734 833 Pls
2737 682 Pls
2740 678 Pls
2744 479 Pls
2747 505 Pls
2750 492 Pls
2753 497 Pls
2756 497 Pls
2759 709 Pls
2762 625 Pls
2765 572 Pls
2768 669 Pls
2771 510 Pls
2774 550 Pls
2778 497 Pls
2781 744 Pls
2784 700 Pls
2787 519 Pls
2790 519 Pls
2793 550 Pls
2796 479 Pls
2799 488 Pls
2802 532 Pls
2805 514 Pls
2808 523 Pls
2811 550 Pls
2815 475 Pls
2818 554 Pls
2821 616 Pls
2824 665 Pls
2827 581 Pls
2830 519 Pls
2833 536 Pls
2836 616 Pls
2839 890 Pls
2842 497 Pls
2845 620 Pls
2849 638 Pls
2852 545 Pls
2855 488 Pls
2858 700 Pls
2861 674 Pls
2864 563 Pls
2867 598 Pls
2870 532 Pls
2873 620 Pls
2876 528 Pls
2879 519 Pls
2883 669 Pls
2886 620 Pls
2889 660 Pls
2892 598 Pls
2895 576 Pls
2898 488 Pls
2901 510 Pls
2904 488 Pls
2907 550 Pls
2910 567 Pls
2913 501 Pls
2917 735 Pls
2920 612 Pls
2923 634 Pls
2926 576 Pls
2929 665 Pls
2932 598 Pls
2935 505 Pls
2938 682 Pls
2941 563 Pls
2944 505 Pls
2947 541 Pls
2950 576 Pls
2954 528 Pls
2957 510 Pls
2960 536 Pls
2963 536 Pls
2966 563 Pls
2969 545 Pls
2972 550 Pls
2975 567 Pls
2978 705 Pls
2981 567 Pls
2984 616 Pls
2988 567 Pls
2991 974 Pls
2994 590 Pls
2997 727 Pls
3000 475 Pls
3003 594 Pls
3006 541 Pls
3009 722 Pls
3012 536 Pls
3015 590 Pls
3018 514 Pls
3022 479 Pls
3025 523 Pls
3028 483 Pls
3031 554 Pls
3034 510 Pls
3037 510 Pls
3040 466 Pls
3043 492 Pls
3046 514 Pls
3049 479 Pls
3052 598 Pls
3055 536 Pls
3059 616 Pls
3062 523 Pls
3065 475 Pls
3068 514 Pls
3071 501 Pls
3074 501 Pls
3077 488 Pls
3080 523 Pls
3083 461 Pls
3086 634 Pls
3089 497 Pls
3093 674 Pls
3096 629 Pls
3099 528 Pls
3102 550 Pls
3105 638 Pls
3108 581 Pls
3111 532 Pls
3114 488 Pls
3117 501 Pls
3120 563 Pls
3123 492 Pls
3127 563 Pls
3130 567 Pls
3133 567 Pls
3136 572 Pls
3139 616 Pls
3142 532 Pls
3145 514 Pls
3148 528 Pls
3151 559 Pls
3154 581 Pls
3157 563 Pls
3160 647 Pls
3164 815 Pls
3167 775 Pls
3170 536 Pls
3173 519 Pls
3176 532 Pls
3179 616 Pls
3182 510 Pls
3185 612 Pls
3188 497 Pls
3191 479 Pls
3194 718 Pls
3198 554 Pls
3201 581 Pls
3204 475 Pls
3207 581 Pls
3210 603 Pls
3213 758 Pls
3216 665 Pls
3219 674 Pls
3222 541 Pls
3225 559 Pls
3228 510 Pls
3232 590 Pls
3235 572 Pls
3238 492 Pls
3241 541 Pls
3244 563 Pls
3247 651 Pls
3250 528 Pls
3253 696 Pls
3256 514 Pls
3259 545 Pls
3262 554 Pls
3266 634 Pls
3269 483 Pls
3272 492 Pls
3275 541 Pls
3278 470 Pls
3281 492 Pls
3284 532 Pls
3287 638 Pls
3290 563 Pls
3293 505 Pls
3296 523 Pls
3299 466 Pls
3303 461 Pls
3306 457 Pls
3309 541 Pls
3312 501 Pls
3315 510 Pls
3318 603 Pls
3321 466 Pls
3324 536 Pls
3327 559 Pls
3330 519 Pls
3333 470 Pls
3337 461 Pls
3340 492 Pls
3343 479 Pls
3346 466 Pls
3349 492 Pls
3352 470 Pls
3355 510 Pls
3358 541 Pls
3361 567 Pls
3364 501 Pls
3367 519 Pls
3371 532 Pls
3374 545 Pls
3377 554 Pls
3380 634 Pls
3383 696 Pls
3386 545 Pls
3389 567 Pls
3392 528 Pls
3395 563 Pls
3398 523 Pls
3401 594 Pls
3404 594 Pls
3408 532 Pls
3411 532 Pls
3414 625 Pls
3417 620 Pls
3420 590 Pls
3423 567 Pls
3426 735 Pls
3429 709 Pls
3432 660 Pls
3435 576 Pls
3438 475 Pls
3442 576 Pls
3445 532 Pls
3448 563 Pls
3451 612 Pls
3454 594 Pls
3457 519 Pls
3460 567 Pls
3463 479 Pls
3466 594 Pls
3469 567 Pls
3472 532 Pls
3476 678 Pls
3479 660 Pls
3482 536 Pls
3485 541 Pls
3488 550 Pls
3491 536 Pls
3494 528 Pls
3497 483 Pls
3500 536 Pls
3503 541 Pls
3506 536 Pls
3509 603 Pls
3513 505 Pls
3516 581 Pls
3519 483 Pls
3522 775 Pls
3525 607 Pls
3528 505 Pls
3531 532 Pls
3534 466 Pls
3537 466 Pls
3540 629 Pls
3543 603 Pls
3547 572 Pls
3550 505 Pls
3553 497 Pls
3556 567 Pls
3559 479 Pls
3562 510 Pls
3565 488 Pls
3568 475 Pls
3571 550 Pls
3574 479 Pls
3577 505 Pls
3581 514 Pls
3584 457 Pls
3587 470 Pls
3590 488 Pls
3593 505 Pls
3596 497 Pls
3599 616 Pls
3602 519 Pls
3605 559 Pls
3608 532 Pls
3611 634 Pls
3615 620 Pls
3618 590 Pls
3621 523 Pls
3624 461 Pls
3627 634 Pls
3630 492 Pls
3633 559 Pls
3636 541 Pls
3639 523 Pls
3642 554 Pls
3645 475 Pls
3648 625 Pls
3652 612 Pls
3655 634 Pls
3658 492 Pls
3661 488 Pls
3664 492 Pls
3667 536 Pls
3670 470 Pls
3673 514 Pls
3676 528 Pls
3679 492 Pls
3682 532 Pls
3686 501 Pls
3689 585 Pls
3692 532 Pls
3695 510 Pls
3698 497 Pls
3701 581 Pls
3704 554 Pls
3707 523 Pls
3710 541 Pls
3713 497 Pls
3716 497 Pls
3720 603 Pls
3723 567 Pls
3726 497 Pls
3729 488 Pls
3732 532 Pls
3735 536 Pls
3738 545 Pls
3741 581 Pls
3744 550 Pls
3747 554 Pls
3750 461 Pls
3753 559 Pls
3757 470 Pls
3760 523 Pls
3763 505 Pls
3766 563 Pls
3769 519 Pls
3772 475 Pls
3775 488 Pls
3778 581 Pls
3781 576 Pls
3784 492 Pls
3787 501 Pls
3791 483 Pls
3794 510 Pls
3797 563 Pls
3800 594 Pls
3803 532 Pls
3806 497 Pls
3809 475 Pls
3812 532 Pls
3815 514 Pls
3818 457 Pls
3821 475 Pls
3825 483 Pls
3828 532 Pls
3831 497 Pls
3834 612 Pls
3837 550 Pls
3840 523 Pls
3843 594 Pls
3846 519 Pls
3849 545 Pls
3852 559 Pls
3855 514 Pls
3858 567 Pls
3862 475 Pls
3865 475 Pls
3868 510 Pls
3871 528 Pls
3874 501 Pls
3877 532 Pls
3880 590 Pls
3883 545 Pls
3886 510 Pls
3889 505 Pls
3892 620 Pls
3896 563 Pls
3899 581 Pls
3902 483 Pls
3905 532 Pls
3908 598 Pls
3911 572 Pls
3914 585 Pls
3917 563 Pls
3920 647 Pls
3923 585 Pls
3926 470 Pls
3930 528 Pls
3933 510 Pls
3936 559 Pls
3939 501 Pls
3942 536 Pls
3945 505 Pls
3948 563 Pls
3951 470 Pls
3954 545 Pls
3957 612 Pls
3960 682 Pls
3964 488 Pls
3967 461 Pls
3970 475 Pls
3973 510 Pls
3976 536 Pls
3979 452 Pls
3982 536 Pls
3985 563 Pls
3988 479 Pls
3991 528 Pls
3994 523 Pls
3997 466 Pls
4001 466 Pls
4004 497 Pls
4007 625 Pls
4010 492 Pls
4013 528 Pls
4016 563 Pls
4019 625 Pls
4022 497 Pls
4025 505 Pls
4028 532 Pls
4031 470 Pls
4035 483 Pls
4038 581 Pls
4041 479 Pls
4044 554 Pls
4047 514 Pls
4050 488 Pls
4053 466 Pls
4056 457 Pls
4059 501 Pls
4062 479 Pls
4065 532 Pls
4069 541 Pls
4072 483 Pls
4075 514 Pls
4078 581 Pls
4081 603 Pls
4084 603 Pls
4087 505 Pls
4090 492 Pls
4093 461 Pls
4096 585 Pls
4099 523 Pls
4102 585 Pls
4106 594 Pls
4109 638 Pls
4112 514 Pls
4115 696 Pls
4118 616 Pls
4121 492 Pls
4124 528 Pls
4127 550 Pls
4130 554 Pls
4133 594 Pls
4136 541 Pls
4140 514 Pls
4143 523 Pls
4146 550 Pls
4149 541 Pls
4152 536 Pls
4155 519 Pls
4158 514 Pls
4161 514 Pls
4164 519 Pls
4167 483 Pls
4170 514 Pls
4174 519 Pls
4177 470 Pls
4180 519 Pls
4183 612 Pls
4186 505 Pls
4189 514 Pls
4192 598 Pls
4195 475 Pls
4198 475 Pls
4201 505 Pls
4204 532 Pls
4208 452 Pls
4211 497 Pls
4214 528 Pls
4217 536 Pls
4220 483 Pls
4223 466 Pls
4226 550 Pls
4229 598 Pls
4232 603 Pls
4235 505 Pls
4238 559 Pls
4241 576 Pls
4245 492 Pls
4248 541 Pls
4251 528 Pls
4254 554 Pls
4257 554 Pls
4260 523 Pls
4263 488 Pls
4266 483 Pls
4269 483 Pls
4272 541 Pls
4275 501 Pls
4279 514 Pls
4282 554 Pls
4285 523 Pls
4288 479 Pls
4291 488 Pls
4294 554 Pls
4297 536 Pls
4300 497 Pls
4303 541 Pls
4306 505 Pls
4309 514 Pls
4313 554 Pls
4316 519 Pls
4319 523 Pls
4322 501 Pls
4325 563 Pls
4328 545 Pls
4331 660 Pls
4334 541 Pls
4337 629 Pls
4340 479 Pls
4343 563 Pls
4346 545 Pls
4350 479 Pls
4353 585 Pls
4356 514 Pls
4359 550 Pls
4362 541 Pls
4365 536 Pls
4368 461 Pls
4371 590 Pls
4374 470 Pls
4377 497 Pls
4380 457 Pls
4384 470 Pls
4387 505 Pls
4390 492 Pls
4393 466 Pls
4396 501 Pls
4399 475 Pls
4402 532 Pls
4405 466 Pls
4408 483 Pls
4411 483 Pls
4414 532 Pls
4418 483 Pls
4421 523 Pls
4424 523 Pls
4427 536 Pls
4430 620 Pls
4433 607 Pls
4436 536 Pls
4439 501 Pls
4442 497 Pls
4445 581 Pls
4448 510 Pls
4451 497 Pls
4455 488 Pls
4458 483 Pls
4461 461 Pls
4464 466 Pls
4467 567 Pls
4470 483 Pls
4473 497 Pls
4476 466 Pls
4479 475 Pls
4482 563 Pls
4485 541 Pls
4489 505 Pls
4492 563 Pls
4495 528 Pls
4498 505 Pls
4501 691 Pls
4504 514 Pls
4507 523 Pls
4510 519 Pls
4513 505 Pls
4516 528 Pls
4519 532 Pls
4523 567 Pls
4526 797 Pls
4529 775 Pls
4532 501 Pls
4535 563 Pls
4538 629 Pls
4541 488 Pls
4544 541 Pls
4547 519 Pls
4550 567 Pls
4553 550 Pls
4557 550 Pls
4560 541 Pls
4563 483 Pls
4566 528 Pls
4569 483 Pls
4572 510 Pls
4575 488 Pls
4578 483 Pls
4581 497 Pls
4584 492 Pls
4587 492 Pls
4590 475 Pls
4594 523 Pls
4597 488 Pls
4600 483 Pls
4603 475 Pls
4606 505 Pls
4609 536 Pls
4612 470 Pls
4615 488 Pls
4618 488 Pls
4621 505 Pls
4624 541 Pls
4628 505 Pls
4631 616 Pls
4634 461 Pls
4637 598 Pls
4640 576 Pls
4643 559 Pls
4646 510 Pls
4649 581 Pls
4652 541 Pls
4655 598 Pls
4658 461 Pls
4662 629 Pls
4665 510 Pls
4668 470 Pls
4671 475 Pls
4674 475 Pls
4677 483 Pls
4680 497 Pls
4683 497 Pls
4686 510 Pls
4689 510 Pls
4692 483 Pls
4695 625 Pls
4699 545 Pls
4702 470 Pls
4705 514 Pls
4708 510 Pls
4711 497 Pls
4714 519 Pls
4717 612 Pls
4720 470 Pls
4723 758 Pls
4726 470 Pls
4729 483 Pls
4733 532 Pls
4736 536 Pls
4739 567 Pls
4742 483 Pls
4745 510 Pls
4748 514 Pls
4751 536 Pls
4754 523 Pls
4757 501 Pls
4760 492 Pls
4763 505 Pls
4767 505 Pls
4770 528 Pls
4773 475 Pls
4776 501 Pls
4779 492 Pls
4782 475 Pls
4785 567 Pls
4788 528 Pls
4791 483 Pls
4794 510 Pls
4797 492 Pls
4800 488 Pls
4804 483 Pls
4807 523 Pls
4810 505 Pls
4813 470 Pls
4816 505 Pls
4819 550 Pls
4822 536 Pls
4825 545 Pls
4828 479 Pls
4831 519 Pls
4834 528 Pls
4838 475 Pls
4841 479 Pls
4844 479 Pls
4847 479 Pls
4850 536 Pls
4853 457 Pls
4856 470 Pls
4859 510 Pls
4862 501 Pls
4865 483 Pls
4868 501 Pls
4872 501 Pls
4875 461 Pls
4878 550 Pls
4881 532 Pls
4884 536 Pls
4887 488 Pls
4890 514 Pls
4893 598 Pls
4896 488 Pls
4899 475 Pls
4902 514 Pls
4906 523 Pls
4909 528 Pls
4912 603 Pls
4915 643 Pls
4918 505 Pls
4921 523 Pls
4924 505 Pls
4927 519 Pls
4930 483 Pls
4933 470 Pls
4936 488 Pls
4939 488 Pls
4943 501 Pls
4946 479 Pls
4949 497 Pls
4952 457 Pls
4955 483 Pls
4958 541 Pls
4961 567 Pls
4964 483 Pls
4967 492 Pls
4970 545 Pls
4973 492 Pls
4977 576 Pls
4980 528 Pls
4983 488 Pls
4986 492 Pls
4989 483 Pls
4992 567 Pls
4995 510 Pls
4998 528 Pls
5001 475 Pls
5004 475 Pls
5007 452 Pls
5011 470 Pls
5014 497 Pls
5017 470 Pls
5020 479 Pls
5023 497 Pls
5026 505 Pls
5029 532 Pls
5032 559 Pls
5035 492 Pls
5038 607 Pls
5041 550 Pls
5044 643 Pls
5048 505 Pls
5051 492 Pls
5054 505 Pls
5057 497 Pls
5060 466 Pls
5063 505 Pls
5066 554 Pls
5069 505 Pls
5072 510 Pls
5075 461 Pls
5078 519 Pls
5082 488 Pls
5085 545 Pls
5088 461 Pls
5091 475 Pls
5094 475 Pls
5097 532 Pls
5100 483 Pls
5103 559 Pls
5106 501 Pls
5109 501 Pls
5112 461 Pls
5116 466 Pls
5119 466 Pls
5122 475 Pls
5125 466 Pls
5128 470 Pls
5131 501 Pls
5134 479 Pls
5137 466 Pls
5140 483 Pls
5143 452 Pls
5146 541 Pls
5149 470 Pls
5153 479 Pls
5156 514 Pls
5159 457 Pls
5162 479 Pls
5165 550 Pls
5168 572 Pls
5171 492 Pls
5174 483 Pls
5177 514 Pls
5180 514 Pls
5183 514 Pls
5187 505 Pls
5190 475 Pls
5193 497 Pls
5196 488 Pls
5199 483 Pls
5202 523 Pls
5205 497 Pls
5208 470 Pls
5211 488 Pls
5214 479 Pls
5217 475 Pls
5221 492 Pls
5224 470 Pls
5227 492 Pls
5230 545 Pls
5233 510 Pls
5236 514 Pls
5239 532 Pls
5242 461 Pls
5245 461 Pls
5248 461 Pls
5251 483 Pls
5255 461 Pls
5258 536 Pls
5261 492 Pls
5264 488 Pls
5267 461 Pls
5270 483 Pls
5273 510 Pls
5276 505 Pls
5279 550 Pls
5282 532 Pls
5285 475 Pls
5288 541 Pls
5292 466 Pls
5295 475 Pls
5298 475 Pls
5301 483 Pls
5304 505 Pls
5307 536 Pls
5310 488 Pls
5313 488 Pls
5316 505 Pls
5319 528 Pls
5322 475 Pls
5326 510 Pls
5329 532 Pls
5332 475 Pls
5335 488 Pls
5338 554 Pls
5341 470 Pls
5344 492 Pls
5347 488 Pls
5350 488 Pls
5353 475 Pls
5356 497 Pls
5360 541 Pls
5363 492 Pls
5366 475 Pls
5369 554 Pls
5372 483 Pls
5375 475 Pls
5378 488 Pls
5381 497 Pls
5384 541 Pls
5387 492 Pls
5390 501 Pls
5393 475 Pls
5397 497 Pls
5400 497 Pls
5403 541 Pls
5406 492 Pls
5409 479 Pls
5412 519 Pls
5415 510 Pls
5418 523 Pls
5421 497 Pls
5424 470 Pls
5427 479 Pls
5431 492 Pls
5434 514 Pls
5437 466 Pls
5440 492 Pls
5443 492 Pls
5446 505 Pls
5449 492 Pls
5452 483 Pls
5455 554 Pls
5458 532 Pls
5461 488 Pls
5465 528 Pls
5468 510 Pls
5471 519 Pls
5474 501 Pls
5477 523 Pls
5480 479 Pls
5483 497 Pls
5486 501 Pls
5489 497 Pls
5492 488 Pls
5495 488 Pls
5498 466 Pls
5502 501 Pls
5505 523 Pls
5508 519 Pls
5511 497 Pls
5514 483 Pls
5517 461 Pls
5520 470 Pls
5523 528 Pls
5526 519 Pls
5529 501 Pls
5532 466 Pls
5536 497 Pls
5539 483 Pls
5542 523 Pls
5545 536 Pls
5548 470 Pls
5551 492 Pls
5554 492 Pls
5557 492 Pls
5560 497 Pls
5563 505 Pls
5566 501 Pls
5570 523 Pls
5573 461 Pls
5576 466 Pls
5579 492 Pls
5582 505 Pls
5585 461 Pls
5588 461 Pls
5591 519 Pls
5594 479 Pls
5597 470 Pls
5600 452 Pls
5604 452 Pls
5607 457 Pls
5610 457 Pls
5613 466 Pls
5616 475 Pls
5619 470 Pls
5622 519 Pls
5625 470 Pls
5628 488 Pls
5631 492 Pls
5634 523 Pls
5637 501 Pls
5641 492 Pls
5644 497 Pls
5647 528 Pls
5650 470 Pls
5653 461 Pls
5656 483 Pls
5659 475 Pls
5662 461 Pls
5665 505 Pls
5668 475 Pls
5671 492 Pls
5675 519 Pls
5678 461 Pls
5681 492 Pls
5684 479 Pls
5687 466 Pls
5690 492 Pls
5693 510 Pls
5696 483 Pls
5699 461 Pls
5702 488 Pls
5705 483 Pls
5709 505 Pls
5712 470 Pls
5715 488 Pls
5718 483 Pls
5721 479 Pls
5724 466 Pls
5727 466 Pls
5730 466 Pls
5733 479 Pls
5736 466 Pls
5739 483 Pls
5742 497 Pls
5746 466 Pls
5749 497 Pls
5752 523 Pls
5755 483 Pls
5758 466 Pls
5761 479 Pls
5764 514 Pls
5767 488 Pls
5770 466 Pls
5773 466 Pls
5776 470 Pls
5780 523 Pls
5783 461 Pls
5786 466 Pls
5789 488 Pls
5792 479 Pls
5795 479 Pls
5798 461 Pls
5801 470 Pls
5804 457 Pls
5807 466 Pls
5810 483 Pls
5814 505 Pls
5817 461 Pls
5820 483 Pls
5823 475 Pls
5826 466 Pls
5829 457 Pls
5832 483 Pls
5835 483 Pls
5838 505 Pls
5841 501 Pls
5844 488 Pls
5847 475 Pls
5851 510 Pls
5854 479 Pls
5857 470 Pls
5860 461 Pls
5863 492 Pls
5866 479 Pls
5869 457 Pls
5872 479 Pls
5875 492 Pls
5878 492 Pls
5881 466 Pls
5885 492 Pls
5888 457 Pls
5891 470 Pls
5894 492 Pls
5897 479 Pls
5900 475 Pls
5903 461 Pls
5906 523 Pls
5909 475 Pls
5912 457 Pls
5915 470 Pls
5919 475 Pls
5922 519 Pls
5925 479 Pls
5928 501 Pls
5931 466 Pls
5934 470 Pls
5937 479 Pls
5940 470 Pls
5943 483 Pls
5946 461 Pls
5949 452 Pls
5953 492 Pls
5956 470 Pls
5959 452 Pls
5962 475 Pls
5965 461 Pls
5968 466 Pls
5971 501 Pls
5974 488 Pls
5977 483 Pls
5980 457 Pls
5983 479 Pls
5986 479 Pls
5990 479 Pls
5993 466 Pls
5996 497 Pls
5999 461 Pls
6002 452 Pls
6005 457 Pls
6008 461 Pls
6011 466 Pls
6014 479 Pls
6017 470 Pls
6020 475 Pls
6024 466 Pls
6027 510 Pls
6030 475 Pls
6033 466 Pls
6036 470 Pls
6039 457 Pls
6042 479 Pls
6045 452 Pls
6048 452 Pls
6051 461 Pls
6054 452 Pls
6058 461 Pls
6061 470 Pls
6064 466 Pls
6067 461 Pls
6070 452 Pls
6073 497 Pls
6076 461 Pls
6079 461 Pls
6082 457 Pls
6085 452 Pls
6088 457 Pls
6091 479 Pls
6095 457 Pls
6098 457 Pls
6101 470 Pls
6104 466 Pls
6107 452 Pls
6110 457 Pls
6113 461 Pls
6116 466 Pls
6119 461 Pls
6122 457 Pls
6125 466 Pls
6129 457 Pls
6132 452 Pls
6135 452 Pls
6138 457 Pls
6141 479 Pls
6144 470 Pls
6147 457 Pls
6150 466 Pls
6153 461 Pls
6156 457 Pls
6159 461 Pls
6163 466 Pls
6166 470 Pls
6169 470 Pls
6172 457 Pls
6175 452 Pls
6178 461 Pls
6181 457 Pls
6184 461 Pls
6187 470 Pls
6190 466 Pls
6193 475 Pls
6196 452 Pls
6200 452 Pls
6203 452 Pls
6206 470 Pls
6209 466 Pls
6212 470 Pls
6215 457 Pls
6218 466 Pls
6221 466 Pls
6224 457 Pls
6227 461 Pls
6230 457 Pls
6234 457 Pls
6237 452 Pls
6240 466 Pls
6243 452 Pls
6246 452 Pls
6249 457 Pls
6252 457 Pls
6255 457 Pls
6258 457 Pls
6261 457 Pls
6264 457 Pls
6268 461 Pls
6271 470 Pls
6274 452 Pls
6277 452 Pls
6280 452 Pls
6283 466 Pls
6286 452 Pls
6289 466 Pls
6292 483 Pls
6295 466 Pls
6298 452 Pls
6302 452 Pls
6305 452 Pls
6308 452 Pls
6311 457 Pls
6314 457 Pls
6317 452 Pls
6320 452 Pls
6323 470 Pls
6326 457 Pls
6329 452 Pls
6332 452 Pls
6335 452 Pls
6339 452 Pls
6342 457 Pls
6345 457 Pls
6348 452 Pls
6351 452 Pls
6354 452 Pls
6579 4738 Pls
% End plot #1
1.000 UL
LTb
770 4871 N
770 448 L
6177 0 V
0 4423 V
-6177 0 V
Z stroke
1.000 UP
1.000 UL
LTb
stroke
grestore
end
showpage
%%Trailer
%%DocumentFonts: Helvetica
