%!PS-Adobe-2.0 EPSF-2.0
%%Title: ../plots/domainstats/states-sorted-by-ply-visit-count-over-avg-num-plies-minigammon-offset-2.eps
%%Creator: gnuplot 4.4 patchlevel 3
%%CreationDate: Wed Dec 14 04:42:15 2011
%%DocumentFonts: (atend)
%%BoundingBox: 50 50 410 302
%%EndComments
%%BeginProlog
/gnudict 256 dict def
gnudict begin
%
% The following true/false flags may be edited by hand if desired.
% The unit line width and grayscale image gamma correction may also be changed.
%
/Color true def
/Blacktext false def
/Solid false def
/Dashlength 1 def
/Landscape false def
/Level1 false def
/Rounded false def
/ClipToBoundingBox false def
/TransparentPatterns false def
/gnulinewidth 5.000 def
/userlinewidth gnulinewidth def
/Gamma 1.0 def
%
/vshift -46 def
/dl1 {
  10.0 Dashlength mul mul
  Rounded { currentlinewidth 0.75 mul sub dup 0 le { pop 0.01 } if } if
} def
/dl2 {
  10.0 Dashlength mul mul
  Rounded { currentlinewidth 0.75 mul add } if
} def
/hpt_ 31.5 def
/vpt_ 31.5 def
/hpt hpt_ def
/vpt vpt_ def
Level1 {} {
/SDict 10 dict def
systemdict /pdfmark known not {
  userdict /pdfmark systemdict /cleartomark get put
} if
SDict begin [
  /Title (../plots/domainstats/states-sorted-by-ply-visit-count-over-avg-num-plies-minigammon-offset-2.eps)
  /Subject (gnuplot plot)
  /Creator (gnuplot 4.4 patchlevel 3)
  /Author (reza)
%  /Producer (gnuplot)
%  /Keywords ()
  /CreationDate (Wed Dec 14 04:42:15 2011)
  /DOCINFO pdfmark
end
} ifelse
/doclip {
  ClipToBoundingBox {
    newpath 50 50 moveto 410 50 lineto 410 302 lineto 50 302 lineto closepath
    clip
  } if
} def
%
% Gnuplot Prolog Version 4.4 (August 2010)
%
%/SuppressPDFMark true def
%
/M {moveto} bind def
/L {lineto} bind def
/R {rmoveto} bind def
/V {rlineto} bind def
/N {newpath moveto} bind def
/Z {closepath} bind def
/C {setrgbcolor} bind def
/f {rlineto fill} bind def
/g {setgray} bind def
/Gshow {show} def   % May be redefined later in the file to support UTF-8
/vpt2 vpt 2 mul def
/hpt2 hpt 2 mul def
/Lshow {currentpoint stroke M 0 vshift R 
	Blacktext {gsave 0 setgray show grestore} {show} ifelse} def
/Rshow {currentpoint stroke M dup stringwidth pop neg vshift R
	Blacktext {gsave 0 setgray show grestore} {show} ifelse} def
/Cshow {currentpoint stroke M dup stringwidth pop -2 div vshift R 
	Blacktext {gsave 0 setgray show grestore} {show} ifelse} def
/UP {dup vpt_ mul /vpt exch def hpt_ mul /hpt exch def
  /hpt2 hpt 2 mul def /vpt2 vpt 2 mul def} def
/DL {Color {setrgbcolor Solid {pop []} if 0 setdash}
 {pop pop pop 0 setgray Solid {pop []} if 0 setdash} ifelse} def
/BL {stroke userlinewidth 2 mul setlinewidth
	Rounded {1 setlinejoin 1 setlinecap} if} def
/AL {stroke userlinewidth 2 div setlinewidth
	Rounded {1 setlinejoin 1 setlinecap} if} def
/UL {dup gnulinewidth mul /userlinewidth exch def
	dup 1 lt {pop 1} if 10 mul /udl exch def} def
/PL {stroke userlinewidth setlinewidth
	Rounded {1 setlinejoin 1 setlinecap} if} def
3.8 setmiterlimit
% Default Line colors
/LCw {1 1 1} def
/LCb {0 0 0} def
/LCa {0 0 0} def
/LC0 {1 0 0} def
/LC1 {0 1 0} def
/LC2 {0 0 1} def
/LC3 {1 0 1} def
/LC4 {0 1 1} def
/LC5 {1 1 0} def
/LC6 {0 0 0} def
/LC7 {1 0.3 0} def
/LC8 {0.5 0.5 0.5} def
% Default Line Types
/LTw {PL [] 1 setgray} def
/LTb {BL [] LCb DL} def
/LTa {AL [1 udl mul 2 udl mul] 0 setdash LCa setrgbcolor} def
/LT0 {PL [] LC0 DL} def
/LT1 {PL [4 dl1 2 dl2] LC1 DL} def
/LT2 {PL [2 dl1 3 dl2] LC2 DL} def
/LT3 {PL [1 dl1 1.5 dl2] LC3 DL} def
/LT4 {PL [6 dl1 2 dl2 1 dl1 2 dl2] LC4 DL} def
/LT5 {PL [3 dl1 3 dl2 1 dl1 3 dl2] LC5 DL} def
/LT6 {PL [2 dl1 2 dl2 2 dl1 6 dl2] LC6 DL} def
/LT7 {PL [1 dl1 2 dl2 6 dl1 2 dl2 1 dl1 2 dl2] LC7 DL} def
/LT8 {PL [2 dl1 2 dl2 2 dl1 2 dl2 2 dl1 2 dl2 2 dl1 4 dl2] LC8 DL} def
/Pnt {stroke [] 0 setdash gsave 1 setlinecap M 0 0 V stroke grestore} def
/Dia {stroke [] 0 setdash 2 copy vpt add M
  hpt neg vpt neg V hpt vpt neg V
  hpt vpt V hpt neg vpt V closepath stroke
  Pnt} def
/Pls {stroke [] 0 setdash vpt sub M 0 vpt2 V
  currentpoint stroke M
  hpt neg vpt neg R hpt2 0 V stroke
 } def
/Box {stroke [] 0 setdash 2 copy exch hpt sub exch vpt add M
  0 vpt2 neg V hpt2 0 V 0 vpt2 V
  hpt2 neg 0 V closepath stroke
  Pnt} def
/Crs {stroke [] 0 setdash exch hpt sub exch vpt add M
  hpt2 vpt2 neg V currentpoint stroke M
  hpt2 neg 0 R hpt2 vpt2 V stroke} def
/TriU {stroke [] 0 setdash 2 copy vpt 1.12 mul add M
  hpt neg vpt -1.62 mul V
  hpt 2 mul 0 V
  hpt neg vpt 1.62 mul V closepath stroke
  Pnt} def
/Star {2 copy Pls Crs} def
/BoxF {stroke [] 0 setdash exch hpt sub exch vpt add M
  0 vpt2 neg V hpt2 0 V 0 vpt2 V
  hpt2 neg 0 V closepath fill} def
/TriUF {stroke [] 0 setdash vpt 1.12 mul add M
  hpt neg vpt -1.62 mul V
  hpt 2 mul 0 V
  hpt neg vpt 1.62 mul V closepath fill} def
/TriD {stroke [] 0 setdash 2 copy vpt 1.12 mul sub M
  hpt neg vpt 1.62 mul V
  hpt 2 mul 0 V
  hpt neg vpt -1.62 mul V closepath stroke
  Pnt} def
/TriDF {stroke [] 0 setdash vpt 1.12 mul sub M
  hpt neg vpt 1.62 mul V
  hpt 2 mul 0 V
  hpt neg vpt -1.62 mul V closepath fill} def
/DiaF {stroke [] 0 setdash vpt add M
  hpt neg vpt neg V hpt vpt neg V
  hpt vpt V hpt neg vpt V closepath fill} def
/Pent {stroke [] 0 setdash 2 copy gsave
  translate 0 hpt M 4 {72 rotate 0 hpt L} repeat
  closepath stroke grestore Pnt} def
/PentF {stroke [] 0 setdash gsave
  translate 0 hpt M 4 {72 rotate 0 hpt L} repeat
  closepath fill grestore} def
/Circle {stroke [] 0 setdash 2 copy
  hpt 0 360 arc stroke Pnt} def
/CircleF {stroke [] 0 setdash hpt 0 360 arc fill} def
/C0 {BL [] 0 setdash 2 copy moveto vpt 90 450 arc} bind def
/C1 {BL [] 0 setdash 2 copy moveto
	2 copy vpt 0 90 arc closepath fill
	vpt 0 360 arc closepath} bind def
/C2 {BL [] 0 setdash 2 copy moveto
	2 copy vpt 90 180 arc closepath fill
	vpt 0 360 arc closepath} bind def
/C3 {BL [] 0 setdash 2 copy moveto
	2 copy vpt 0 180 arc closepath fill
	vpt 0 360 arc closepath} bind def
/C4 {BL [] 0 setdash 2 copy moveto
	2 copy vpt 180 270 arc closepath fill
	vpt 0 360 arc closepath} bind def
/C5 {BL [] 0 setdash 2 copy moveto
	2 copy vpt 0 90 arc
	2 copy moveto
	2 copy vpt 180 270 arc closepath fill
	vpt 0 360 arc} bind def
/C6 {BL [] 0 setdash 2 copy moveto
	2 copy vpt 90 270 arc closepath fill
	vpt 0 360 arc closepath} bind def
/C7 {BL [] 0 setdash 2 copy moveto
	2 copy vpt 0 270 arc closepath fill
	vpt 0 360 arc closepath} bind def
/C8 {BL [] 0 setdash 2 copy moveto
	2 copy vpt 270 360 arc closepath fill
	vpt 0 360 arc closepath} bind def
/C9 {BL [] 0 setdash 2 copy moveto
	2 copy vpt 270 450 arc closepath fill
	vpt 0 360 arc closepath} bind def
/C10 {BL [] 0 setdash 2 copy 2 copy moveto vpt 270 360 arc closepath fill
	2 copy moveto
	2 copy vpt 90 180 arc closepath fill
	vpt 0 360 arc closepath} bind def
/C11 {BL [] 0 setdash 2 copy moveto
	2 copy vpt 0 180 arc closepath fill
	2 copy moveto
	2 copy vpt 270 360 arc closepath fill
	vpt 0 360 arc closepath} bind def
/C12 {BL [] 0 setdash 2 copy moveto
	2 copy vpt 180 360 arc closepath fill
	vpt 0 360 arc closepath} bind def
/C13 {BL [] 0 setdash 2 copy moveto
	2 copy vpt 0 90 arc closepath fill
	2 copy moveto
	2 copy vpt 180 360 arc closepath fill
	vpt 0 360 arc closepath} bind def
/C14 {BL [] 0 setdash 2 copy moveto
	2 copy vpt 90 360 arc closepath fill
	vpt 0 360 arc} bind def
/C15 {BL [] 0 setdash 2 copy vpt 0 360 arc closepath fill
	vpt 0 360 arc closepath} bind def
/Rec {newpath 4 2 roll moveto 1 index 0 rlineto 0 exch rlineto
	neg 0 rlineto closepath} bind def
/Square {dup Rec} bind def
/Bsquare {vpt sub exch vpt sub exch vpt2 Square} bind def
/S0 {BL [] 0 setdash 2 copy moveto 0 vpt rlineto BL Bsquare} bind def
/S1 {BL [] 0 setdash 2 copy vpt Square fill Bsquare} bind def
/S2 {BL [] 0 setdash 2 copy exch vpt sub exch vpt Square fill Bsquare} bind def
/S3 {BL [] 0 setdash 2 copy exch vpt sub exch vpt2 vpt Rec fill Bsquare} bind def
/S4 {BL [] 0 setdash 2 copy exch vpt sub exch vpt sub vpt Square fill Bsquare} bind def
/S5 {BL [] 0 setdash 2 copy 2 copy vpt Square fill
	exch vpt sub exch vpt sub vpt Square fill Bsquare} bind def
/S6 {BL [] 0 setdash 2 copy exch vpt sub exch vpt sub vpt vpt2 Rec fill Bsquare} bind def
/S7 {BL [] 0 setdash 2 copy exch vpt sub exch vpt sub vpt vpt2 Rec fill
	2 copy vpt Square fill Bsquare} bind def
/S8 {BL [] 0 setdash 2 copy vpt sub vpt Square fill Bsquare} bind def
/S9 {BL [] 0 setdash 2 copy vpt sub vpt vpt2 Rec fill Bsquare} bind def
/S10 {BL [] 0 setdash 2 copy vpt sub vpt Square fill 2 copy exch vpt sub exch vpt Square fill
	Bsquare} bind def
/S11 {BL [] 0 setdash 2 copy vpt sub vpt Square fill 2 copy exch vpt sub exch vpt2 vpt Rec fill
	Bsquare} bind def
/S12 {BL [] 0 setdash 2 copy exch vpt sub exch vpt sub vpt2 vpt Rec fill Bsquare} bind def
/S13 {BL [] 0 setdash 2 copy exch vpt sub exch vpt sub vpt2 vpt Rec fill
	2 copy vpt Square fill Bsquare} bind def
/S14 {BL [] 0 setdash 2 copy exch vpt sub exch vpt sub vpt2 vpt Rec fill
	2 copy exch vpt sub exch vpt Square fill Bsquare} bind def
/S15 {BL [] 0 setdash 2 copy Bsquare fill Bsquare} bind def
/D0 {gsave translate 45 rotate 0 0 S0 stroke grestore} bind def
/D1 {gsave translate 45 rotate 0 0 S1 stroke grestore} bind def
/D2 {gsave translate 45 rotate 0 0 S2 stroke grestore} bind def
/D3 {gsave translate 45 rotate 0 0 S3 stroke grestore} bind def
/D4 {gsave translate 45 rotate 0 0 S4 stroke grestore} bind def
/D5 {gsave translate 45 rotate 0 0 S5 stroke grestore} bind def
/D6 {gsave translate 45 rotate 0 0 S6 stroke grestore} bind def
/D7 {gsave translate 45 rotate 0 0 S7 stroke grestore} bind def
/D8 {gsave translate 45 rotate 0 0 S8 stroke grestore} bind def
/D9 {gsave translate 45 rotate 0 0 S9 stroke grestore} bind def
/D10 {gsave translate 45 rotate 0 0 S10 stroke grestore} bind def
/D11 {gsave translate 45 rotate 0 0 S11 stroke grestore} bind def
/D12 {gsave translate 45 rotate 0 0 S12 stroke grestore} bind def
/D13 {gsave translate 45 rotate 0 0 S13 stroke grestore} bind def
/D14 {gsave translate 45 rotate 0 0 S14 stroke grestore} bind def
/D15 {gsave translate 45 rotate 0 0 S15 stroke grestore} bind def
/DiaE {stroke [] 0 setdash vpt add M
  hpt neg vpt neg V hpt vpt neg V
  hpt vpt V hpt neg vpt V closepath stroke} def
/BoxE {stroke [] 0 setdash exch hpt sub exch vpt add M
  0 vpt2 neg V hpt2 0 V 0 vpt2 V
  hpt2 neg 0 V closepath stroke} def
/TriUE {stroke [] 0 setdash vpt 1.12 mul add M
  hpt neg vpt -1.62 mul V
  hpt 2 mul 0 V
  hpt neg vpt 1.62 mul V closepath stroke} def
/TriDE {stroke [] 0 setdash vpt 1.12 mul sub M
  hpt neg vpt 1.62 mul V
  hpt 2 mul 0 V
  hpt neg vpt -1.62 mul V closepath stroke} def
/PentE {stroke [] 0 setdash gsave
  translate 0 hpt M 4 {72 rotate 0 hpt L} repeat
  closepath stroke grestore} def
/CircE {stroke [] 0 setdash 
  hpt 0 360 arc stroke} def
/Opaque {gsave closepath 1 setgray fill grestore 0 setgray closepath} def
/DiaW {stroke [] 0 setdash vpt add M
  hpt neg vpt neg V hpt vpt neg V
  hpt vpt V hpt neg vpt V Opaque stroke} def
/BoxW {stroke [] 0 setdash exch hpt sub exch vpt add M
  0 vpt2 neg V hpt2 0 V 0 vpt2 V
  hpt2 neg 0 V Opaque stroke} def
/TriUW {stroke [] 0 setdash vpt 1.12 mul add M
  hpt neg vpt -1.62 mul V
  hpt 2 mul 0 V
  hpt neg vpt 1.62 mul V Opaque stroke} def
/TriDW {stroke [] 0 setdash vpt 1.12 mul sub M
  hpt neg vpt 1.62 mul V
  hpt 2 mul 0 V
  hpt neg vpt -1.62 mul V Opaque stroke} def
/PentW {stroke [] 0 setdash gsave
  translate 0 hpt M 4 {72 rotate 0 hpt L} repeat
  Opaque stroke grestore} def
/CircW {stroke [] 0 setdash 
  hpt 0 360 arc Opaque stroke} def
/BoxFill {gsave Rec 1 setgray fill grestore} def
/Density {
  /Fillden exch def
  currentrgbcolor
  /ColB exch def /ColG exch def /ColR exch def
  /ColR ColR Fillden mul Fillden sub 1 add def
  /ColG ColG Fillden mul Fillden sub 1 add def
  /ColB ColB Fillden mul Fillden sub 1 add def
  ColR ColG ColB setrgbcolor} def
/BoxColFill {gsave Rec PolyFill} def
/PolyFill {gsave Density fill grestore grestore} def
/h {rlineto rlineto rlineto gsave closepath fill grestore} bind def
%
% PostScript Level 1 Pattern Fill routine for rectangles
% Usage: x y w h s a XX PatternFill
%	x,y = lower left corner of box to be filled
%	w,h = width and height of box
%	  a = angle in degrees between lines and x-axis
%	 XX = 0/1 for no/yes cross-hatch
%
/PatternFill {gsave /PFa [ 9 2 roll ] def
  PFa 0 get PFa 2 get 2 div add PFa 1 get PFa 3 get 2 div add translate
  PFa 2 get -2 div PFa 3 get -2 div PFa 2 get PFa 3 get Rec
  gsave 1 setgray fill grestore clip
  currentlinewidth 0.5 mul setlinewidth
  /PFs PFa 2 get dup mul PFa 3 get dup mul add sqrt def
  0 0 M PFa 5 get rotate PFs -2 div dup translate
  0 1 PFs PFa 4 get div 1 add floor cvi
	{PFa 4 get mul 0 M 0 PFs V} for
  0 PFa 6 get ne {
	0 1 PFs PFa 4 get div 1 add floor cvi
	{PFa 4 get mul 0 2 1 roll M PFs 0 V} for
 } if
  stroke grestore} def
%
/languagelevel where
 {pop languagelevel} {1} ifelse
 2 lt
	{/InterpretLevel1 true def}
	{/InterpretLevel1 Level1 def}
 ifelse
%
% PostScript level 2 pattern fill definitions
%
/Level2PatternFill {
/Tile8x8 {/PaintType 2 /PatternType 1 /TilingType 1 /BBox [0 0 8 8] /XStep 8 /YStep 8}
	bind def
/KeepColor {currentrgbcolor [/Pattern /DeviceRGB] setcolorspace} bind def
<< Tile8x8
 /PaintProc {0.5 setlinewidth pop 0 0 M 8 8 L 0 8 M 8 0 L stroke} 
>> matrix makepattern
/Pat1 exch def
<< Tile8x8
 /PaintProc {0.5 setlinewidth pop 0 0 M 8 8 L 0 8 M 8 0 L stroke
	0 4 M 4 8 L 8 4 L 4 0 L 0 4 L stroke}
>> matrix makepattern
/Pat2 exch def
<< Tile8x8
 /PaintProc {0.5 setlinewidth pop 0 0 M 0 8 L
	8 8 L 8 0 L 0 0 L fill}
>> matrix makepattern
/Pat3 exch def
<< Tile8x8
 /PaintProc {0.5 setlinewidth pop -4 8 M 8 -4 L
	0 12 M 12 0 L stroke}
>> matrix makepattern
/Pat4 exch def
<< Tile8x8
 /PaintProc {0.5 setlinewidth pop -4 0 M 8 12 L
	0 -4 M 12 8 L stroke}
>> matrix makepattern
/Pat5 exch def
<< Tile8x8
 /PaintProc {0.5 setlinewidth pop -2 8 M 4 -4 L
	0 12 M 8 -4 L 4 12 M 10 0 L stroke}
>> matrix makepattern
/Pat6 exch def
<< Tile8x8
 /PaintProc {0.5 setlinewidth pop -2 0 M 4 12 L
	0 -4 M 8 12 L 4 -4 M 10 8 L stroke}
>> matrix makepattern
/Pat7 exch def
<< Tile8x8
 /PaintProc {0.5 setlinewidth pop 8 -2 M -4 4 L
	12 0 M -4 8 L 12 4 M 0 10 L stroke}
>> matrix makepattern
/Pat8 exch def
<< Tile8x8
 /PaintProc {0.5 setlinewidth pop 0 -2 M 12 4 L
	-4 0 M 12 8 L -4 4 M 8 10 L stroke}
>> matrix makepattern
/Pat9 exch def
/Pattern1 {PatternBgnd KeepColor Pat1 setpattern} bind def
/Pattern2 {PatternBgnd KeepColor Pat2 setpattern} bind def
/Pattern3 {PatternBgnd KeepColor Pat3 setpattern} bind def
/Pattern4 {PatternBgnd KeepColor Landscape {Pat5} {Pat4} ifelse setpattern} bind def
/Pattern5 {PatternBgnd KeepColor Landscape {Pat4} {Pat5} ifelse setpattern} bind def
/Pattern6 {PatternBgnd KeepColor Landscape {Pat9} {Pat6} ifelse setpattern} bind def
/Pattern7 {PatternBgnd KeepColor Landscape {Pat8} {Pat7} ifelse setpattern} bind def
} def
%
%
%End of PostScript Level 2 code
%
/PatternBgnd {
  TransparentPatterns {} {gsave 1 setgray fill grestore} ifelse
} def
%
% Substitute for Level 2 pattern fill codes with
% grayscale if Level 2 support is not selected.
%
/Level1PatternFill {
/Pattern1 {0.250 Density} bind def
/Pattern2 {0.500 Density} bind def
/Pattern3 {0.750 Density} bind def
/Pattern4 {0.125 Density} bind def
/Pattern5 {0.375 Density} bind def
/Pattern6 {0.625 Density} bind def
/Pattern7 {0.875 Density} bind def
} def
%
% Now test for support of Level 2 code
%
Level1 {Level1PatternFill} {Level2PatternFill} ifelse
%
/Symbol-Oblique /Symbol findfont [1 0 .167 1 0 0] makefont
dup length dict begin {1 index /FID eq {pop pop} {def} ifelse} forall
currentdict end definefont pop
end
%%EndProlog
gnudict begin
gsave
doclip
50 50 translate
0.050 0.050 scale
0 setgray
newpath
(Helvetica) findfont 140 scalefont setfont
1.000 UL
LTb
602 448 M
63 0 V
6282 0 R
-63 0 V
518 448 M
( 0) Rshow
1.000 UL
LTb
602 1080 M
63 0 V
6282 0 R
-63 0 V
-6366 0 R
( 5) Rshow
1.000 UL
LTb
602 1712 M
63 0 V
6282 0 R
-63 0 V
-6366 0 R
( 10) Rshow
1.000 UL
LTb
602 2344 M
63 0 V
6282 0 R
-63 0 V
-6366 0 R
( 15) Rshow
1.000 UL
LTb
602 2975 M
63 0 V
6282 0 R
-63 0 V
-6366 0 R
( 20) Rshow
1.000 UL
LTb
602 3607 M
63 0 V
6282 0 R
-63 0 V
-6366 0 R
( 25) Rshow
1.000 UL
LTb
602 4239 M
63 0 V
6282 0 R
-63 0 V
-6366 0 R
( 30) Rshow
1.000 UL
LTb
602 4871 M
63 0 V
6282 0 R
-63 0 V
-6366 0 R
( 35) Rshow
1.000 UL
LTb
602 448 M
0 63 V
0 4360 R
0 -63 V
602 308 M
( 0) Cshow
1.000 UL
LTb
1508 448 M
0 63 V
0 4360 R
0 -63 V
0 -4500 R
( 200) Cshow
1.000 UL
LTb
2415 448 M
0 63 V
0 4360 R
0 -63 V
0 -4500 R
( 400) Cshow
1.000 UL
LTb
3321 448 M
0 63 V
0 4360 R
0 -63 V
0 -4500 R
( 600) Cshow
1.000 UL
LTb
4228 448 M
0 63 V
0 4360 R
0 -63 V
0 -4500 R
( 800) Cshow
1.000 UL
LTb
5134 448 M
0 63 V
0 4360 R
0 -63 V
0 -4500 R
( 1000) Cshow
1.000 UL
LTb
6041 448 M
0 63 V
0 4360 R
0 -63 V
0 -4500 R
( 1200) Cshow
1.000 UL
LTb
6947 448 M
0 63 V
0 4360 R
0 -63 V
0 -4500 R
( 1400) Cshow
1.000 UL
LTb
1.000 UL
LTb
602 4871 N
602 448 L
6345 0 V
0 4423 V
-6345 0 V
Z stroke
LCb setrgbcolor
112 2659 M
currentpoint gsave translate -270 rotate 0 0 M
(Visit Count per 1000 Plies) Cshow
grestore
LTb
LCb setrgbcolor
3774 98 M
(States \(Sorted by Earliest Visit Time\)) Cshow
LTb
1.000 UP
1.000 UL
LTb
% Begin plot #1
1.000 UP
1.000 UL
LT0
LCb setrgbcolor
6296 4738 M
(Offset = 2) Rshow
LT0
602 4584 Pls
607 1453 Pls
611 1511 Pls
616 1528 Pls
620 1437 Pls
625 1614 Pls
629 1925 Pls
634 1490 Pls
638 1548 Pls
643 580 Pls
647 680 Pls
652 676 Pls
656 878 Pls
661 556 Pls
665 651 Pls
670 556 Pls
675 804 Pls
679 738 Pls
684 969 Pls
688 634 Pls
693 882 Pls
697 688 Pls
702 940 Pls
706 754 Pls
711 622 Pls
715 651 Pls
720 551 Pls
724 676 Pls
729 572 Pls
733 531 Pls
738 680 Pls
742 638 Pls
747 721 Pls
752 700 Pls
756 585 Pls
761 853 Pls
765 729 Pls
770 820 Pls
774 717 Pls
779 556 Pls
783 580 Pls
788 564 Pls
792 543 Pls
797 543 Pls
801 601 Pls
806 551 Pls
810 771 Pls
815 713 Pls
820 535 Pls
824 568 Pls
829 593 Pls
833 841 Pls
838 762 Pls
842 878 Pls
847 597 Pls
851 576 Pls
856 531 Pls
860 473 Pls
865 547 Pls
869 659 Pls
874 940 Pls
878 539 Pls
883 618 Pls
888 510 Pls
892 593 Pls
897 866 Pls
901 1040 Pls
906 758 Pls
910 634 Pls
915 1056 Pls
919 663 Pls
924 1023 Pls
928 477 Pls
933 506 Pls
937 460 Pls
942 539 Pls
946 642 Pls
951 713 Pls
956 494 Pls
960 522 Pls
965 494 Pls
969 560 Pls
974 729 Pls
978 742 Pls
983 651 Pls
987 713 Pls
992 824 Pls
996 634 Pls
1001 746 Pls
1005 510 Pls
1010 489 Pls
1014 465 Pls
1019 489 Pls
1023 456 Pls
1028 485 Pls
1033 473 Pls
1037 502 Pls
1042 518 Pls
1046 543 Pls
1051 477 Pls
1055 547 Pls
1060 473 Pls
1064 477 Pls
1069 527 Pls
1073 560 Pls
1078 692 Pls
1082 696 Pls
1087 465 Pls
1091 539 Pls
1096 576 Pls
1101 585 Pls
1105 522 Pls
1110 564 Pls
1114 465 Pls
1119 465 Pls
1123 547 Pls
1128 556 Pls
1132 580 Pls
1137 477 Pls
1141 556 Pls
1146 514 Pls
1150 585 Pls
1155 940 Pls
1159 589 Pls
1164 1114 Pls
1169 642 Pls
1173 1106 Pls
1178 973 Pls
1182 2392 Pls
1187 494 Pls
1191 477 Pls
1196 539 Pls
1200 605 Pls
1205 531 Pls
1209 622 Pls
1214 527 Pls
1218 585 Pls
1223 725 Pls
1227 1048 Pls
1232 469 Pls
1237 576 Pls
1241 489 Pls
1246 502 Pls
1250 485 Pls
1255 564 Pls
1259 514 Pls
1264 498 Pls
1268 460 Pls
1273 481 Pls
1277 469 Pls
1282 473 Pls
1286 469 Pls
1291 522 Pls
1295 469 Pls
1300 481 Pls
1304 452 Pls
1309 460 Pls
1314 460 Pls
1318 469 Pls
1323 494 Pls
1327 510 Pls
1332 585 Pls
1336 1118 Pls
1341 494 Pls
1345 593 Pls
1350 920 Pls
1354 460 Pls
1359 498 Pls
1363 535 Pls
1368 704 Pls
1372 485 Pls
1377 543 Pls
1382 626 Pls
1386 469 Pls
1391 506 Pls
1395 465 Pls
1400 494 Pls
1404 494 Pls
1409 663 Pls
1413 502 Pls
1418 556 Pls
1422 1040 Pls
1427 510 Pls
1431 1164 Pls
1436 481 Pls
1440 518 Pls
1445 808 Pls
1450 527 Pls
1454 597 Pls
1459 1308 Pls
1463 494 Pls
1468 506 Pls
1472 568 Pls
1477 481 Pls
1481 522 Pls
1486 671 Pls
1490 849 Pls
1495 522 Pls
1499 589 Pls
1504 551 Pls
1508 750 Pls
1513 713 Pls
1517 1321 Pls
1522 762 Pls
1527 1279 Pls
1531 477 Pls
1536 539 Pls
1540 717 Pls
1545 502 Pls
1549 750 Pls
1554 506 Pls
1558 576 Pls
1563 506 Pls
1567 460 Pls
1572 489 Pls
1576 498 Pls
1581 543 Pls
1585 473 Pls
1590 506 Pls
1595 465 Pls
1599 535 Pls
1604 460 Pls
1608 502 Pls
1613 622 Pls
1617 469 Pls
1622 485 Pls
1626 498 Pls
1631 535 Pls
1635 605 Pls
1640 543 Pls
1644 663 Pls
1649 477 Pls
1653 452 Pls
1658 460 Pls
1663 473 Pls
1667 485 Pls
1672 456 Pls
1676 489 Pls
1681 456 Pls
1685 460 Pls
1690 465 Pls
1694 485 Pls
1699 460 Pls
1703 477 Pls
1708 465 Pls
1712 510 Pls
1717 502 Pls
1721 481 Pls
1726 469 Pls
1731 456 Pls
1735 465 Pls
1740 469 Pls
1744 456 Pls
1749 460 Pls
1753 465 Pls
1758 564 Pls
1762 514 Pls
1767 895 Pls
1771 1081 Pls
1776 460 Pls
1780 477 Pls
1785 572 Pls
1789 601 Pls
1794 494 Pls
1798 551 Pls
1803 456 Pls
1808 481 Pls
1812 494 Pls
1817 891 Pls
1821 460 Pls
1826 630 Pls
1830 1825 Pls
1835 539 Pls
1839 469 Pls
1844 489 Pls
1848 568 Pls
1853 1035 Pls
1857 1019 Pls
1862 634 Pls
1866 469 Pls
1871 481 Pls
1876 767 Pls
1880 829 Pls
1885 795 Pls
1889 527 Pls
1894 1135 Pls
1898 1011 Pls
1903 489 Pls
1907 564 Pls
1912 787 Pls
1916 473 Pls
1921 647 Pls
1925 580 Pls
1930 564 Pls
1934 481 Pls
1939 473 Pls
1944 460 Pls
1948 460 Pls
1953 560 Pls
1957 460 Pls
1962 481 Pls
1966 489 Pls
1971 477 Pls
1975 452 Pls
1980 510 Pls
1984 473 Pls
1989 481 Pls
1993 489 Pls
1998 477 Pls
2002 498 Pls
2007 522 Pls
2011 465 Pls
2016 473 Pls
2021 465 Pls
2025 456 Pls
2030 469 Pls
2034 456 Pls
2039 477 Pls
2043 473 Pls
2048 465 Pls
2052 456 Pls
2057 465 Pls
2061 465 Pls
2066 469 Pls
2070 452 Pls
2075 469 Pls
2079 469 Pls
2084 460 Pls
2089 460 Pls
2093 469 Pls
2098 469 Pls
2102 494 Pls
2107 456 Pls
2111 469 Pls
2116 456 Pls
2120 469 Pls
2125 452 Pls
2129 460 Pls
2134 746 Pls
2138 489 Pls
2143 518 Pls
2147 1176 Pls
2152 460 Pls
2157 469 Pls
2161 477 Pls
2166 452 Pls
2170 543 Pls
2175 456 Pls
2179 469 Pls
2184 460 Pls
2188 477 Pls
2193 564 Pls
2197 630 Pls
2202 452 Pls
2206 502 Pls
2211 572 Pls
2215 465 Pls
2220 473 Pls
2225 489 Pls
2229 572 Pls
2234 729 Pls
2238 465 Pls
2243 522 Pls
2247 564 Pls
2252 833 Pls
2256 787 Pls
2261 535 Pls
2265 977 Pls
2270 535 Pls
2274 452 Pls
2279 808 Pls
2283 485 Pls
2288 510 Pls
2292 804 Pls
2297 1097 Pls
2302 589 Pls
2306 518 Pls
2311 465 Pls
2315 651 Pls
2320 713 Pls
2324 630 Pls
2329 556 Pls
2333 481 Pls
2338 452 Pls
2342 551 Pls
2347 473 Pls
2351 469 Pls
2356 465 Pls
2360 460 Pls
2365 638 Pls
2370 543 Pls
2374 613 Pls
2379 531 Pls
2383 961 Pls
2388 729 Pls
2392 696 Pls
2397 456 Pls
2401 452 Pls
2406 469 Pls
2410 469 Pls
2415 489 Pls
2419 473 Pls
2424 469 Pls
2428 452 Pls
2433 465 Pls
2438 452 Pls
2442 456 Pls
2447 539 Pls
2451 531 Pls
2456 456 Pls
2460 613 Pls
2465 460 Pls
2469 477 Pls
2474 721 Pls
2478 489 Pls
2483 469 Pls
2487 642 Pls
2492 638 Pls
2496 452 Pls
2501 452 Pls
2506 456 Pls
2510 460 Pls
2515 473 Pls
2519 452 Pls
2524 460 Pls
2528 452 Pls
2533 456 Pls
2537 456 Pls
2542 460 Pls
2546 465 Pls
2551 456 Pls
2555 452 Pls
2560 460 Pls
2564 456 Pls
2569 452 Pls
2573 452 Pls
2578 477 Pls
2583 713 Pls
2587 626 Pls
2592 758 Pls
2596 456 Pls
2601 465 Pls
2605 473 Pls
2610 460 Pls
2614 535 Pls
2619 647 Pls
2623 634 Pls
2628 510 Pls
2632 498 Pls
2637 473 Pls
2641 460 Pls
2646 713 Pls
2651 522 Pls
2655 469 Pls
2660 485 Pls
2664 465 Pls
2669 647 Pls
2673 452 Pls
2678 560 Pls
2682 456 Pls
2687 1213 Pls
2691 456 Pls
2696 473 Pls
2700 456 Pls
2705 460 Pls
2709 638 Pls
2714 878 Pls
2719 597 Pls
2723 568 Pls
2728 460 Pls
2732 481 Pls
2737 572 Pls
2741 460 Pls
2746 502 Pls
2750 676 Pls
2755 460 Pls
2759 465 Pls
2764 622 Pls
2768 605 Pls
2773 713 Pls
2777 700 Pls
2782 452 Pls
2786 465 Pls
2791 460 Pls
2796 469 Pls
2800 452 Pls
2805 498 Pls
2809 489 Pls
2814 456 Pls
2818 473 Pls
2823 456 Pls
2827 473 Pls
2832 481 Pls
2836 473 Pls
2841 618 Pls
2845 477 Pls
2850 465 Pls
2854 663 Pls
2859 485 Pls
2864 870 Pls
2868 473 Pls
2873 456 Pls
2877 452 Pls
2882 452 Pls
2886 452 Pls
2891 460 Pls
2895 456 Pls
2900 469 Pls
2904 469 Pls
2909 456 Pls
2913 452 Pls
2918 456 Pls
2922 618 Pls
2927 469 Pls
2932 452 Pls
2936 589 Pls
2941 477 Pls
2945 576 Pls
2950 721 Pls
2954 477 Pls
2959 551 Pls
2963 514 Pls
2968 676 Pls
2972 564 Pls
2977 456 Pls
2981 481 Pls
2986 514 Pls
2990 535 Pls
2995 622 Pls
3000 510 Pls
3004 460 Pls
3009 452 Pls
3013 485 Pls
3018 460 Pls
3022 551 Pls
3027 460 Pls
3031 456 Pls
3036 589 Pls
3040 460 Pls
3045 481 Pls
3049 626 Pls
3054 601 Pls
3058 651 Pls
3063 775 Pls
3067 800 Pls
3072 456 Pls
3077 452 Pls
3081 576 Pls
3086 518 Pls
3090 489 Pls
3095 568 Pls
3099 845 Pls
3104 684 Pls
3108 754 Pls
3113 460 Pls
3117 502 Pls
3122 469 Pls
3126 609 Pls
3131 460 Pls
3135 481 Pls
3140 556 Pls
3145 518 Pls
3149 531 Pls
3154 721 Pls
3158 609 Pls
3163 671 Pls
3167 630 Pls
3172 506 Pls
3176 469 Pls
3181 469 Pls
3185 465 Pls
3190 473 Pls
3194 452 Pls
3199 585 Pls
3203 601 Pls
3208 452 Pls
3213 489 Pls
3217 460 Pls
3222 522 Pls
3226 576 Pls
3231 494 Pls
3235 920 Pls
3240 903 Pls
3244 452 Pls
3249 580 Pls
3253 473 Pls
3258 460 Pls
3262 460 Pls
3267 465 Pls
3271 460 Pls
3276 469 Pls
3280 452 Pls
3285 456 Pls
3290 456 Pls
3294 456 Pls
3299 452 Pls
3303 452 Pls
3308 473 Pls
3312 456 Pls
3317 531 Pls
3321 601 Pls
3326 502 Pls
3330 489 Pls
3335 547 Pls
3339 485 Pls
3344 634 Pls
3348 556 Pls
3353 551 Pls
3358 527 Pls
3362 696 Pls
3367 585 Pls
3371 489 Pls
3376 452 Pls
3380 589 Pls
3385 456 Pls
3389 481 Pls
3394 535 Pls
3398 518 Pls
3403 465 Pls
3407 460 Pls
3412 498 Pls
3416 572 Pls
3421 498 Pls
3426 564 Pls
3430 489 Pls
3435 556 Pls
3439 452 Pls
3444 535 Pls
3448 585 Pls
3453 510 Pls
3457 564 Pls
3462 456 Pls
3466 692 Pls
3471 506 Pls
3475 613 Pls
3480 489 Pls
3484 576 Pls
3489 489 Pls
3494 465 Pls
3498 456 Pls
3503 452 Pls
3507 460 Pls
3512 473 Pls
3516 452 Pls
3521 543 Pls
3525 560 Pls
3530 568 Pls
3534 576 Pls
3539 605 Pls
3543 820 Pls
3548 725 Pls
3552 489 Pls
3557 547 Pls
3561 547 Pls
3566 593 Pls
3571 655 Pls
3575 841 Pls
3580 465 Pls
3584 452 Pls
3589 465 Pls
3593 452 Pls
3598 452 Pls
3602 605 Pls
3607 489 Pls
3611 551 Pls
3616 452 Pls
3620 638 Pls
3625 506 Pls
3629 547 Pls
3634 601 Pls
3639 452 Pls
3643 469 Pls
3648 473 Pls
3652 477 Pls
3657 630 Pls
3661 465 Pls
3666 456 Pls
3670 460 Pls
3675 597 Pls
3679 489 Pls
3684 506 Pls
3688 477 Pls
3693 568 Pls
3697 452 Pls
3702 522 Pls
3707 560 Pls
3711 502 Pls
3716 485 Pls
3720 456 Pls
3725 655 Pls
3729 522 Pls
3734 518 Pls
3738 506 Pls
3743 531 Pls
3747 485 Pls
3752 485 Pls
3756 518 Pls
3761 473 Pls
3765 576 Pls
3770 576 Pls
3775 564 Pls
3779 485 Pls
3784 568 Pls
3788 510 Pls
3793 506 Pls
3797 564 Pls
3802 469 Pls
3806 489 Pls
3811 469 Pls
3815 456 Pls
3820 456 Pls
3824 473 Pls
3829 522 Pls
3833 456 Pls
3838 671 Pls
3842 560 Pls
3847 568 Pls
3852 543 Pls
3856 634 Pls
3861 647 Pls
3865 618 Pls
3870 688 Pls
3874 634 Pls
3879 489 Pls
3883 527 Pls
3888 539 Pls
3892 647 Pls
3897 605 Pls
3901 613 Pls
3906 605 Pls
3910 477 Pls
3915 489 Pls
3920 489 Pls
3924 460 Pls
3929 456 Pls
3933 452 Pls
3938 456 Pls
3942 452 Pls
3947 547 Pls
3951 597 Pls
3956 539 Pls
3960 597 Pls
3965 452 Pls
3969 452 Pls
3974 469 Pls
3978 547 Pls
3983 543 Pls
3988 556 Pls
3992 498 Pls
3997 498 Pls
4001 510 Pls
4006 547 Pls
4010 514 Pls
4015 572 Pls
4019 460 Pls
4024 469 Pls
4028 452 Pls
4033 452 Pls
4037 460 Pls
4042 494 Pls
4046 560 Pls
4051 514 Pls
4055 477 Pls
4060 465 Pls
4065 456 Pls
4069 522 Pls
4074 556 Pls
4078 551 Pls
4083 535 Pls
4087 477 Pls
4092 469 Pls
4096 585 Pls
4101 498 Pls
4105 456 Pls
4110 539 Pls
4114 539 Pls
4119 456 Pls
4123 539 Pls
4128 489 Pls
4133 618 Pls
4137 498 Pls
4142 510 Pls
4146 564 Pls
4151 518 Pls
4155 510 Pls
4160 469 Pls
4164 473 Pls
4169 456 Pls
4173 498 Pls
4178 630 Pls
4182 547 Pls
4187 502 Pls
4191 576 Pls
4196 498 Pls
4201 522 Pls
4205 539 Pls
4210 725 Pls
4214 589 Pls
4219 700 Pls
4223 527 Pls
4228 506 Pls
4232 535 Pls
4237 481 Pls
4241 576 Pls
4246 518 Pls
4250 518 Pls
4255 556 Pls
4259 518 Pls
4264 498 Pls
4269 452 Pls
4273 522 Pls
4278 543 Pls
4282 576 Pls
4287 531 Pls
4291 618 Pls
4296 456 Pls
4300 568 Pls
4305 456 Pls
4309 568 Pls
4314 452 Pls
4318 465 Pls
4323 527 Pls
4327 452 Pls
4332 543 Pls
4336 485 Pls
4341 494 Pls
4346 543 Pls
4350 469 Pls
4355 477 Pls
4359 465 Pls
4364 477 Pls
4368 572 Pls
4373 452 Pls
4377 485 Pls
4382 539 Pls
4386 502 Pls
4391 465 Pls
4395 456 Pls
4400 506 Pls
4404 485 Pls
4409 498 Pls
4414 506 Pls
4418 465 Pls
4423 485 Pls
4427 556 Pls
4432 593 Pls
4436 531 Pls
4441 498 Pls
4445 560 Pls
4450 589 Pls
4454 481 Pls
4459 506 Pls
4463 510 Pls
4468 514 Pls
4472 576 Pls
4477 568 Pls
4482 613 Pls
4486 514 Pls
4491 626 Pls
4495 601 Pls
4500 510 Pls
4504 498 Pls
4509 601 Pls
4513 585 Pls
4518 547 Pls
4522 576 Pls
4527 531 Pls
4531 514 Pls
4536 456 Pls
4540 452 Pls
4545 477 Pls
4549 502 Pls
4554 477 Pls
4559 452 Pls
4563 576 Pls
4568 489 Pls
4572 527 Pls
4577 605 Pls
4581 622 Pls
4586 522 Pls
4590 527 Pls
4595 522 Pls
4599 522 Pls
4604 477 Pls
4608 477 Pls
4613 514 Pls
4617 651 Pls
4622 452 Pls
4627 452 Pls
4631 514 Pls
4636 477 Pls
4640 494 Pls
4645 452 Pls
4649 456 Pls
4654 502 Pls
4658 456 Pls
4663 452 Pls
4667 456 Pls
4672 485 Pls
4676 481 Pls
4681 469 Pls
4685 518 Pls
4690 535 Pls
4695 465 Pls
4699 535 Pls
4704 452 Pls
4708 494 Pls
4713 510 Pls
4717 460 Pls
4722 469 Pls
4726 485 Pls
4731 564 Pls
4735 547 Pls
4740 522 Pls
4744 572 Pls
4749 518 Pls
4753 522 Pls
4758 485 Pls
4763 465 Pls
4767 452 Pls
4772 485 Pls
4776 452 Pls
4781 568 Pls
4785 498 Pls
4790 502 Pls
4794 494 Pls
4799 502 Pls
4803 514 Pls
4808 634 Pls
4812 485 Pls
4817 547 Pls
4821 485 Pls
4826 502 Pls
4830 465 Pls
4835 485 Pls
4840 456 Pls
4844 456 Pls
4849 518 Pls
4853 481 Pls
4858 494 Pls
4862 506 Pls
4867 452 Pls
4871 593 Pls
4876 494 Pls
4880 564 Pls
4885 494 Pls
4889 543 Pls
4894 704 Pls
4898 622 Pls
4903 568 Pls
4908 489 Pls
4912 539 Pls
4917 531 Pls
4921 514 Pls
4926 642 Pls
4930 647 Pls
4935 560 Pls
4939 547 Pls
4944 502 Pls
4948 696 Pls
4953 556 Pls
4957 518 Pls
4962 465 Pls
4966 535 Pls
4971 452 Pls
4976 469 Pls
4980 489 Pls
4985 452 Pls
4989 535 Pls
4994 506 Pls
4998 556 Pls
5003 477 Pls
5007 452 Pls
5012 543 Pls
5016 502 Pls
5021 659 Pls
5025 477 Pls
5030 456 Pls
5034 481 Pls
5039 473 Pls
5044 518 Pls
5048 477 Pls
5053 618 Pls
5057 543 Pls
5062 700 Pls
5066 618 Pls
5071 460 Pls
5075 700 Pls
5080 485 Pls
5084 452 Pls
5089 576 Pls
5093 494 Pls
5098 502 Pls
5102 634 Pls
5107 489 Pls
5111 510 Pls
5116 477 Pls
5121 738 Pls
5125 535 Pls
5130 556 Pls
5134 560 Pls
5139 589 Pls
5143 593 Pls
5148 547 Pls
5152 812 Pls
5157 576 Pls
5161 589 Pls
5166 485 Pls
5170 1064 Pls
5175 572 Pls
5179 911 Pls
5184 498 Pls
5189 543 Pls
5193 481 Pls
5198 597 Pls
5202 502 Pls
5207 473 Pls
5211 452 Pls
5216 465 Pls
5220 465 Pls
5225 502 Pls
5229 469 Pls
5234 473 Pls
5238 452 Pls
5243 518 Pls
5247 489 Pls
5252 465 Pls
5257 481 Pls
5261 465 Pls
5266 485 Pls
5270 469 Pls
5275 481 Pls
5279 531 Pls
5284 473 Pls
5288 518 Pls
5293 469 Pls
5297 518 Pls
5302 452 Pls
5306 585 Pls
5311 932 Pls
5315 630 Pls
5320 568 Pls
5324 506 Pls
5329 597 Pls
5334 655 Pls
5338 688 Pls
5343 601 Pls
5347 568 Pls
5352 531 Pls
5356 514 Pls
5361 481 Pls
5365 456 Pls
5370 481 Pls
5374 510 Pls
5379 456 Pls
5383 485 Pls
5388 456 Pls
5392 473 Pls
5397 485 Pls
5402 469 Pls
5406 465 Pls
5411 469 Pls
5415 460 Pls
5420 452 Pls
5424 473 Pls
5429 452 Pls
5433 535 Pls
5438 498 Pls
5442 452 Pls
5447 469 Pls
5451 473 Pls
5456 460 Pls
5460 560 Pls
5465 456 Pls
5470 564 Pls
5474 465 Pls
5479 456 Pls
5483 465 Pls
5488 460 Pls
5492 473 Pls
5497 469 Pls
5501 456 Pls
5506 452 Pls
5510 460 Pls
5515 460 Pls
5519 473 Pls
5524 572 Pls
5528 481 Pls
5533 489 Pls
5538 481 Pls
5542 469 Pls
5547 498 Pls
5551 469 Pls
5556 494 Pls
5560 485 Pls
5565 477 Pls
5569 494 Pls
5574 465 Pls
5578 489 Pls
5583 485 Pls
5587 460 Pls
5592 469 Pls
5596 465 Pls
5601 465 Pls
5605 481 Pls
5610 473 Pls
5615 485 Pls
5619 489 Pls
5624 539 Pls
5628 452 Pls
5633 469 Pls
5637 481 Pls
5642 494 Pls
5646 469 Pls
5651 465 Pls
5655 469 Pls
5660 473 Pls
5664 456 Pls
5669 456 Pls
5673 456 Pls
5678 485 Pls
5683 481 Pls
5687 460 Pls
5692 460 Pls
5696 452 Pls
5701 456 Pls
5705 473 Pls
5710 452 Pls
5714 465 Pls
5719 481 Pls
5723 456 Pls
5728 481 Pls
5732 469 Pls
5737 452 Pls
5741 460 Pls
5746 506 Pls
5751 460 Pls
5755 469 Pls
5760 456 Pls
5764 489 Pls
5769 485 Pls
5773 481 Pls
5778 452 Pls
5782 456 Pls
5787 452 Pls
5791 460 Pls
5796 473 Pls
5800 452 Pls
5805 494 Pls
5809 477 Pls
5814 465 Pls
5818 452 Pls
5823 473 Pls
5828 465 Pls
5832 452 Pls
5837 465 Pls
5841 469 Pls
5846 465 Pls
5850 452 Pls
5855 460 Pls
5859 456 Pls
5864 477 Pls
5868 452 Pls
5873 485 Pls
5877 456 Pls
5882 456 Pls
5886 469 Pls
5891 477 Pls
5896 452 Pls
5900 452 Pls
5905 460 Pls
5909 485 Pls
5914 465 Pls
5918 452 Pls
5923 452 Pls
5927 456 Pls
5932 460 Pls
5936 452 Pls
5941 452 Pls
5945 460 Pls
5950 456 Pls
5954 452 Pls
5959 456 Pls
5964 465 Pls
5968 456 Pls
5973 456 Pls
5977 460 Pls
5982 452 Pls
5986 452 Pls
5991 452 Pls
5995 452 Pls
6000 460 Pls
6004 460 Pls
6009 452 Pls
6013 452 Pls
6018 452 Pls
6022 452 Pls
6027 452 Pls
6032 452 Pls
6036 452 Pls
6041 452 Pls
6045 452 Pls
6050 452 Pls
6054 452 Pls
6059 452 Pls
6063 452 Pls
6068 452 Pls
6072 456 Pls
6579 4738 Pls
% End plot #1
1.000 UL
LTb
602 4871 N
602 448 L
6345 0 V
0 4423 V
-6345 0 V
Z stroke
1.000 UP
1.000 UL
LTb
stroke
grestore
end
showpage
%%Trailer
%%DocumentFonts: Helvetica
