%!PS-Adobe-2.0 EPSF-2.0
%%Title: ../plots/domainstats/states-sorted-by-ply-visit-count-over-avg-num-plies-minigammon-p-1.00.eps
%%Creator: gnuplot 4.4 patchlevel 3
%%CreationDate: Wed Dec 14 04:42:16 2011
%%DocumentFonts: (atend)
%%BoundingBox: 50 50 410 302
%%EndComments
%%BeginProlog
/gnudict 256 dict def
gnudict begin
%
% The following true/false flags may be edited by hand if desired.
% The unit line width and grayscale image gamma correction may also be changed.
%
/Color true def
/Blacktext false def
/Solid false def
/Dashlength 1 def
/Landscape false def
/Level1 false def
/Rounded false def
/ClipToBoundingBox false def
/TransparentPatterns false def
/gnulinewidth 5.000 def
/userlinewidth gnulinewidth def
/Gamma 1.0 def
%
/vshift -46 def
/dl1 {
  10.0 Dashlength mul mul
  Rounded { currentlinewidth 0.75 mul sub dup 0 le { pop 0.01 } if } if
} def
/dl2 {
  10.0 Dashlength mul mul
  Rounded { currentlinewidth 0.75 mul add } if
} def
/hpt_ 31.5 def
/vpt_ 31.5 def
/hpt hpt_ def
/vpt vpt_ def
Level1 {} {
/SDict 10 dict def
systemdict /pdfmark known not {
  userdict /pdfmark systemdict /cleartomark get put
} if
SDict begin [
  /Title (../plots/domainstats/states-sorted-by-ply-visit-count-over-avg-num-plies-minigammon-p-1.00.eps)
  /Subject (gnuplot plot)
  /Creator (gnuplot 4.4 patchlevel 3)
  /Author (reza)
%  /Producer (gnuplot)
%  /Keywords ()
  /CreationDate (Wed Dec 14 04:42:16 2011)
  /DOCINFO pdfmark
end
} ifelse
/doclip {
  ClipToBoundingBox {
    newpath 50 50 moveto 410 50 lineto 410 302 lineto 50 302 lineto closepath
    clip
  } if
} def
%
% Gnuplot Prolog Version 4.4 (August 2010)
%
%/SuppressPDFMark true def
%
/M {moveto} bind def
/L {lineto} bind def
/R {rmoveto} bind def
/V {rlineto} bind def
/N {newpath moveto} bind def
/Z {closepath} bind def
/C {setrgbcolor} bind def
/f {rlineto fill} bind def
/g {setgray} bind def
/Gshow {show} def   % May be redefined later in the file to support UTF-8
/vpt2 vpt 2 mul def
/hpt2 hpt 2 mul def
/Lshow {currentpoint stroke M 0 vshift R 
	Blacktext {gsave 0 setgray show grestore} {show} ifelse} def
/Rshow {currentpoint stroke M dup stringwidth pop neg vshift R
	Blacktext {gsave 0 setgray show grestore} {show} ifelse} def
/Cshow {currentpoint stroke M dup stringwidth pop -2 div vshift R 
	Blacktext {gsave 0 setgray show grestore} {show} ifelse} def
/UP {dup vpt_ mul /vpt exch def hpt_ mul /hpt exch def
  /hpt2 hpt 2 mul def /vpt2 vpt 2 mul def} def
/DL {Color {setrgbcolor Solid {pop []} if 0 setdash}
 {pop pop pop 0 setgray Solid {pop []} if 0 setdash} ifelse} def
/BL {stroke userlinewidth 2 mul setlinewidth
	Rounded {1 setlinejoin 1 setlinecap} if} def
/AL {stroke userlinewidth 2 div setlinewidth
	Rounded {1 setlinejoin 1 setlinecap} if} def
/UL {dup gnulinewidth mul /userlinewidth exch def
	dup 1 lt {pop 1} if 10 mul /udl exch def} def
/PL {stroke userlinewidth setlinewidth
	Rounded {1 setlinejoin 1 setlinecap} if} def
3.8 setmiterlimit
% Default Line colors
/LCw {1 1 1} def
/LCb {0 0 0} def
/LCa {0 0 0} def
/LC0 {1 0 0} def
/LC1 {0 1 0} def
/LC2 {0 0 1} def
/LC3 {1 0 1} def
/LC4 {0 1 1} def
/LC5 {1 1 0} def
/LC6 {0 0 0} def
/LC7 {1 0.3 0} def
/LC8 {0.5 0.5 0.5} def
% Default Line Types
/LTw {PL [] 1 setgray} def
/LTb {BL [] LCb DL} def
/LTa {AL [1 udl mul 2 udl mul] 0 setdash LCa setrgbcolor} def
/LT0 {PL [] LC0 DL} def
/LT1 {PL [4 dl1 2 dl2] LC1 DL} def
/LT2 {PL [2 dl1 3 dl2] LC2 DL} def
/LT3 {PL [1 dl1 1.5 dl2] LC3 DL} def
/LT4 {PL [6 dl1 2 dl2 1 dl1 2 dl2] LC4 DL} def
/LT5 {PL [3 dl1 3 dl2 1 dl1 3 dl2] LC5 DL} def
/LT6 {PL [2 dl1 2 dl2 2 dl1 6 dl2] LC6 DL} def
/LT7 {PL [1 dl1 2 dl2 6 dl1 2 dl2 1 dl1 2 dl2] LC7 DL} def
/LT8 {PL [2 dl1 2 dl2 2 dl1 2 dl2 2 dl1 2 dl2 2 dl1 4 dl2] LC8 DL} def
/Pnt {stroke [] 0 setdash gsave 1 setlinecap M 0 0 V stroke grestore} def
/Dia {stroke [] 0 setdash 2 copy vpt add M
  hpt neg vpt neg V hpt vpt neg V
  hpt vpt V hpt neg vpt V closepath stroke
  Pnt} def
/Pls {stroke [] 0 setdash vpt sub M 0 vpt2 V
  currentpoint stroke M
  hpt neg vpt neg R hpt2 0 V stroke
 } def
/Box {stroke [] 0 setdash 2 copy exch hpt sub exch vpt add M
  0 vpt2 neg V hpt2 0 V 0 vpt2 V
  hpt2 neg 0 V closepath stroke
  Pnt} def
/Crs {stroke [] 0 setdash exch hpt sub exch vpt add M
  hpt2 vpt2 neg V currentpoint stroke M
  hpt2 neg 0 R hpt2 vpt2 V stroke} def
/TriU {stroke [] 0 setdash 2 copy vpt 1.12 mul add M
  hpt neg vpt -1.62 mul V
  hpt 2 mul 0 V
  hpt neg vpt 1.62 mul V closepath stroke
  Pnt} def
/Star {2 copy Pls Crs} def
/BoxF {stroke [] 0 setdash exch hpt sub exch vpt add M
  0 vpt2 neg V hpt2 0 V 0 vpt2 V
  hpt2 neg 0 V closepath fill} def
/TriUF {stroke [] 0 setdash vpt 1.12 mul add M
  hpt neg vpt -1.62 mul V
  hpt 2 mul 0 V
  hpt neg vpt 1.62 mul V closepath fill} def
/TriD {stroke [] 0 setdash 2 copy vpt 1.12 mul sub M
  hpt neg vpt 1.62 mul V
  hpt 2 mul 0 V
  hpt neg vpt -1.62 mul V closepath stroke
  Pnt} def
/TriDF {stroke [] 0 setdash vpt 1.12 mul sub M
  hpt neg vpt 1.62 mul V
  hpt 2 mul 0 V
  hpt neg vpt -1.62 mul V closepath fill} def
/DiaF {stroke [] 0 setdash vpt add M
  hpt neg vpt neg V hpt vpt neg V
  hpt vpt V hpt neg vpt V closepath fill} def
/Pent {stroke [] 0 setdash 2 copy gsave
  translate 0 hpt M 4 {72 rotate 0 hpt L} repeat
  closepath stroke grestore Pnt} def
/PentF {stroke [] 0 setdash gsave
  translate 0 hpt M 4 {72 rotate 0 hpt L} repeat
  closepath fill grestore} def
/Circle {stroke [] 0 setdash 2 copy
  hpt 0 360 arc stroke Pnt} def
/CircleF {stroke [] 0 setdash hpt 0 360 arc fill} def
/C0 {BL [] 0 setdash 2 copy moveto vpt 90 450 arc} bind def
/C1 {BL [] 0 setdash 2 copy moveto
	2 copy vpt 0 90 arc closepath fill
	vpt 0 360 arc closepath} bind def
/C2 {BL [] 0 setdash 2 copy moveto
	2 copy vpt 90 180 arc closepath fill
	vpt 0 360 arc closepath} bind def
/C3 {BL [] 0 setdash 2 copy moveto
	2 copy vpt 0 180 arc closepath fill
	vpt 0 360 arc closepath} bind def
/C4 {BL [] 0 setdash 2 copy moveto
	2 copy vpt 180 270 arc closepath fill
	vpt 0 360 arc closepath} bind def
/C5 {BL [] 0 setdash 2 copy moveto
	2 copy vpt 0 90 arc
	2 copy moveto
	2 copy vpt 180 270 arc closepath fill
	vpt 0 360 arc} bind def
/C6 {BL [] 0 setdash 2 copy moveto
	2 copy vpt 90 270 arc closepath fill
	vpt 0 360 arc closepath} bind def
/C7 {BL [] 0 setdash 2 copy moveto
	2 copy vpt 0 270 arc closepath fill
	vpt 0 360 arc closepath} bind def
/C8 {BL [] 0 setdash 2 copy moveto
	2 copy vpt 270 360 arc closepath fill
	vpt 0 360 arc closepath} bind def
/C9 {BL [] 0 setdash 2 copy moveto
	2 copy vpt 270 450 arc closepath fill
	vpt 0 360 arc closepath} bind def
/C10 {BL [] 0 setdash 2 copy 2 copy moveto vpt 270 360 arc closepath fill
	2 copy moveto
	2 copy vpt 90 180 arc closepath fill
	vpt 0 360 arc closepath} bind def
/C11 {BL [] 0 setdash 2 copy moveto
	2 copy vpt 0 180 arc closepath fill
	2 copy moveto
	2 copy vpt 270 360 arc closepath fill
	vpt 0 360 arc closepath} bind def
/C12 {BL [] 0 setdash 2 copy moveto
	2 copy vpt 180 360 arc closepath fill
	vpt 0 360 arc closepath} bind def
/C13 {BL [] 0 setdash 2 copy moveto
	2 copy vpt 0 90 arc closepath fill
	2 copy moveto
	2 copy vpt 180 360 arc closepath fill
	vpt 0 360 arc closepath} bind def
/C14 {BL [] 0 setdash 2 copy moveto
	2 copy vpt 90 360 arc closepath fill
	vpt 0 360 arc} bind def
/C15 {BL [] 0 setdash 2 copy vpt 0 360 arc closepath fill
	vpt 0 360 arc closepath} bind def
/Rec {newpath 4 2 roll moveto 1 index 0 rlineto 0 exch rlineto
	neg 0 rlineto closepath} bind def
/Square {dup Rec} bind def
/Bsquare {vpt sub exch vpt sub exch vpt2 Square} bind def
/S0 {BL [] 0 setdash 2 copy moveto 0 vpt rlineto BL Bsquare} bind def
/S1 {BL [] 0 setdash 2 copy vpt Square fill Bsquare} bind def
/S2 {BL [] 0 setdash 2 copy exch vpt sub exch vpt Square fill Bsquare} bind def
/S3 {BL [] 0 setdash 2 copy exch vpt sub exch vpt2 vpt Rec fill Bsquare} bind def
/S4 {BL [] 0 setdash 2 copy exch vpt sub exch vpt sub vpt Square fill Bsquare} bind def
/S5 {BL [] 0 setdash 2 copy 2 copy vpt Square fill
	exch vpt sub exch vpt sub vpt Square fill Bsquare} bind def
/S6 {BL [] 0 setdash 2 copy exch vpt sub exch vpt sub vpt vpt2 Rec fill Bsquare} bind def
/S7 {BL [] 0 setdash 2 copy exch vpt sub exch vpt sub vpt vpt2 Rec fill
	2 copy vpt Square fill Bsquare} bind def
/S8 {BL [] 0 setdash 2 copy vpt sub vpt Square fill Bsquare} bind def
/S9 {BL [] 0 setdash 2 copy vpt sub vpt vpt2 Rec fill Bsquare} bind def
/S10 {BL [] 0 setdash 2 copy vpt sub vpt Square fill 2 copy exch vpt sub exch vpt Square fill
	Bsquare} bind def
/S11 {BL [] 0 setdash 2 copy vpt sub vpt Square fill 2 copy exch vpt sub exch vpt2 vpt Rec fill
	Bsquare} bind def
/S12 {BL [] 0 setdash 2 copy exch vpt sub exch vpt sub vpt2 vpt Rec fill Bsquare} bind def
/S13 {BL [] 0 setdash 2 copy exch vpt sub exch vpt sub vpt2 vpt Rec fill
	2 copy vpt Square fill Bsquare} bind def
/S14 {BL [] 0 setdash 2 copy exch vpt sub exch vpt sub vpt2 vpt Rec fill
	2 copy exch vpt sub exch vpt Square fill Bsquare} bind def
/S15 {BL [] 0 setdash 2 copy Bsquare fill Bsquare} bind def
/D0 {gsave translate 45 rotate 0 0 S0 stroke grestore} bind def
/D1 {gsave translate 45 rotate 0 0 S1 stroke grestore} bind def
/D2 {gsave translate 45 rotate 0 0 S2 stroke grestore} bind def
/D3 {gsave translate 45 rotate 0 0 S3 stroke grestore} bind def
/D4 {gsave translate 45 rotate 0 0 S4 stroke grestore} bind def
/D5 {gsave translate 45 rotate 0 0 S5 stroke grestore} bind def
/D6 {gsave translate 45 rotate 0 0 S6 stroke grestore} bind def
/D7 {gsave translate 45 rotate 0 0 S7 stroke grestore} bind def
/D8 {gsave translate 45 rotate 0 0 S8 stroke grestore} bind def
/D9 {gsave translate 45 rotate 0 0 S9 stroke grestore} bind def
/D10 {gsave translate 45 rotate 0 0 S10 stroke grestore} bind def
/D11 {gsave translate 45 rotate 0 0 S11 stroke grestore} bind def
/D12 {gsave translate 45 rotate 0 0 S12 stroke grestore} bind def
/D13 {gsave translate 45 rotate 0 0 S13 stroke grestore} bind def
/D14 {gsave translate 45 rotate 0 0 S14 stroke grestore} bind def
/D15 {gsave translate 45 rotate 0 0 S15 stroke grestore} bind def
/DiaE {stroke [] 0 setdash vpt add M
  hpt neg vpt neg V hpt vpt neg V
  hpt vpt V hpt neg vpt V closepath stroke} def
/BoxE {stroke [] 0 setdash exch hpt sub exch vpt add M
  0 vpt2 neg V hpt2 0 V 0 vpt2 V
  hpt2 neg 0 V closepath stroke} def
/TriUE {stroke [] 0 setdash vpt 1.12 mul add M
  hpt neg vpt -1.62 mul V
  hpt 2 mul 0 V
  hpt neg vpt 1.62 mul V closepath stroke} def
/TriDE {stroke [] 0 setdash vpt 1.12 mul sub M
  hpt neg vpt 1.62 mul V
  hpt 2 mul 0 V
  hpt neg vpt -1.62 mul V closepath stroke} def
/PentE {stroke [] 0 setdash gsave
  translate 0 hpt M 4 {72 rotate 0 hpt L} repeat
  closepath stroke grestore} def
/CircE {stroke [] 0 setdash 
  hpt 0 360 arc stroke} def
/Opaque {gsave closepath 1 setgray fill grestore 0 setgray closepath} def
/DiaW {stroke [] 0 setdash vpt add M
  hpt neg vpt neg V hpt vpt neg V
  hpt vpt V hpt neg vpt V Opaque stroke} def
/BoxW {stroke [] 0 setdash exch hpt sub exch vpt add M
  0 vpt2 neg V hpt2 0 V 0 vpt2 V
  hpt2 neg 0 V Opaque stroke} def
/TriUW {stroke [] 0 setdash vpt 1.12 mul add M
  hpt neg vpt -1.62 mul V
  hpt 2 mul 0 V
  hpt neg vpt 1.62 mul V Opaque stroke} def
/TriDW {stroke [] 0 setdash vpt 1.12 mul sub M
  hpt neg vpt 1.62 mul V
  hpt 2 mul 0 V
  hpt neg vpt -1.62 mul V Opaque stroke} def
/PentW {stroke [] 0 setdash gsave
  translate 0 hpt M 4 {72 rotate 0 hpt L} repeat
  Opaque stroke grestore} def
/CircW {stroke [] 0 setdash 
  hpt 0 360 arc Opaque stroke} def
/BoxFill {gsave Rec 1 setgray fill grestore} def
/Density {
  /Fillden exch def
  currentrgbcolor
  /ColB exch def /ColG exch def /ColR exch def
  /ColR ColR Fillden mul Fillden sub 1 add def
  /ColG ColG Fillden mul Fillden sub 1 add def
  /ColB ColB Fillden mul Fillden sub 1 add def
  ColR ColG ColB setrgbcolor} def
/BoxColFill {gsave Rec PolyFill} def
/PolyFill {gsave Density fill grestore grestore} def
/h {rlineto rlineto rlineto gsave closepath fill grestore} bind def
%
% PostScript Level 1 Pattern Fill routine for rectangles
% Usage: x y w h s a XX PatternFill
%	x,y = lower left corner of box to be filled
%	w,h = width and height of box
%	  a = angle in degrees between lines and x-axis
%	 XX = 0/1 for no/yes cross-hatch
%
/PatternFill {gsave /PFa [ 9 2 roll ] def
  PFa 0 get PFa 2 get 2 div add PFa 1 get PFa 3 get 2 div add translate
  PFa 2 get -2 div PFa 3 get -2 div PFa 2 get PFa 3 get Rec
  gsave 1 setgray fill grestore clip
  currentlinewidth 0.5 mul setlinewidth
  /PFs PFa 2 get dup mul PFa 3 get dup mul add sqrt def
  0 0 M PFa 5 get rotate PFs -2 div dup translate
  0 1 PFs PFa 4 get div 1 add floor cvi
	{PFa 4 get mul 0 M 0 PFs V} for
  0 PFa 6 get ne {
	0 1 PFs PFa 4 get div 1 add floor cvi
	{PFa 4 get mul 0 2 1 roll M PFs 0 V} for
 } if
  stroke grestore} def
%
/languagelevel where
 {pop languagelevel} {1} ifelse
 2 lt
	{/InterpretLevel1 true def}
	{/InterpretLevel1 Level1 def}
 ifelse
%
% PostScript level 2 pattern fill definitions
%
/Level2PatternFill {
/Tile8x8 {/PaintType 2 /PatternType 1 /TilingType 1 /BBox [0 0 8 8] /XStep 8 /YStep 8}
	bind def
/KeepColor {currentrgbcolor [/Pattern /DeviceRGB] setcolorspace} bind def
<< Tile8x8
 /PaintProc {0.5 setlinewidth pop 0 0 M 8 8 L 0 8 M 8 0 L stroke} 
>> matrix makepattern
/Pat1 exch def
<< Tile8x8
 /PaintProc {0.5 setlinewidth pop 0 0 M 8 8 L 0 8 M 8 0 L stroke
	0 4 M 4 8 L 8 4 L 4 0 L 0 4 L stroke}
>> matrix makepattern
/Pat2 exch def
<< Tile8x8
 /PaintProc {0.5 setlinewidth pop 0 0 M 0 8 L
	8 8 L 8 0 L 0 0 L fill}
>> matrix makepattern
/Pat3 exch def
<< Tile8x8
 /PaintProc {0.5 setlinewidth pop -4 8 M 8 -4 L
	0 12 M 12 0 L stroke}
>> matrix makepattern
/Pat4 exch def
<< Tile8x8
 /PaintProc {0.5 setlinewidth pop -4 0 M 8 12 L
	0 -4 M 12 8 L stroke}
>> matrix makepattern
/Pat5 exch def
<< Tile8x8
 /PaintProc {0.5 setlinewidth pop -2 8 M 4 -4 L
	0 12 M 8 -4 L 4 12 M 10 0 L stroke}
>> matrix makepattern
/Pat6 exch def
<< Tile8x8
 /PaintProc {0.5 setlinewidth pop -2 0 M 4 12 L
	0 -4 M 8 12 L 4 -4 M 10 8 L stroke}
>> matrix makepattern
/Pat7 exch def
<< Tile8x8
 /PaintProc {0.5 setlinewidth pop 8 -2 M -4 4 L
	12 0 M -4 8 L 12 4 M 0 10 L stroke}
>> matrix makepattern
/Pat8 exch def
<< Tile8x8
 /PaintProc {0.5 setlinewidth pop 0 -2 M 12 4 L
	-4 0 M 12 8 L -4 4 M 8 10 L stroke}
>> matrix makepattern
/Pat9 exch def
/Pattern1 {PatternBgnd KeepColor Pat1 setpattern} bind def
/Pattern2 {PatternBgnd KeepColor Pat2 setpattern} bind def
/Pattern3 {PatternBgnd KeepColor Pat3 setpattern} bind def
/Pattern4 {PatternBgnd KeepColor Landscape {Pat5} {Pat4} ifelse setpattern} bind def
/Pattern5 {PatternBgnd KeepColor Landscape {Pat4} {Pat5} ifelse setpattern} bind def
/Pattern6 {PatternBgnd KeepColor Landscape {Pat9} {Pat6} ifelse setpattern} bind def
/Pattern7 {PatternBgnd KeepColor Landscape {Pat8} {Pat7} ifelse setpattern} bind def
} def
%
%
%End of PostScript Level 2 code
%
/PatternBgnd {
  TransparentPatterns {} {gsave 1 setgray fill grestore} ifelse
} def
%
% Substitute for Level 2 pattern fill codes with
% grayscale if Level 2 support is not selected.
%
/Level1PatternFill {
/Pattern1 {0.250 Density} bind def
/Pattern2 {0.500 Density} bind def
/Pattern3 {0.750 Density} bind def
/Pattern4 {0.125 Density} bind def
/Pattern5 {0.375 Density} bind def
/Pattern6 {0.625 Density} bind def
/Pattern7 {0.875 Density} bind def
} def
%
% Now test for support of Level 2 code
%
Level1 {Level1PatternFill} {Level2PatternFill} ifelse
%
/Symbol-Oblique /Symbol findfont [1 0 .167 1 0 0] makefont
dup length dict begin {1 index /FID eq {pop pop} {def} ifelse} forall
currentdict end definefont pop
end
%%EndProlog
gnudict begin
gsave
doclip
50 50 translate
0.050 0.050 scale
0 setgray
newpath
(Helvetica) findfont 140 scalefont setfont
1.000 UL
LTb
602 448 M
63 0 V
6282 0 R
-63 0 V
518 448 M
( 0) Rshow
1.000 UL
LTb
602 939 M
63 0 V
6282 0 R
-63 0 V
518 939 M
( 2) Rshow
1.000 UL
LTb
602 1431 M
63 0 V
6282 0 R
-63 0 V
-6366 0 R
( 4) Rshow
1.000 UL
LTb
602 1922 M
63 0 V
6282 0 R
-63 0 V
-6366 0 R
( 6) Rshow
1.000 UL
LTb
602 2414 M
63 0 V
6282 0 R
-63 0 V
-6366 0 R
( 8) Rshow
1.000 UL
LTb
602 2905 M
63 0 V
6282 0 R
-63 0 V
-6366 0 R
( 10) Rshow
1.000 UL
LTb
602 3397 M
63 0 V
6282 0 R
-63 0 V
-6366 0 R
( 12) Rshow
1.000 UL
LTb
602 3888 M
63 0 V
6282 0 R
-63 0 V
-6366 0 R
( 14) Rshow
1.000 UL
LTb
602 4380 M
63 0 V
6282 0 R
-63 0 V
-6366 0 R
( 16) Rshow
1.000 UL
LTb
602 4871 M
63 0 V
6282 0 R
-63 0 V
-6366 0 R
( 18) Rshow
1.000 UL
LTb
602 448 M
0 63 V
0 4360 R
0 -63 V
602 308 M
( 0) Cshow
1.000 UL
LTb
1236 448 M
0 63 V
0 4360 R
0 -63 V
0 -4500 R
( 200) Cshow
1.000 UL
LTb
1871 448 M
0 63 V
0 4360 R
0 -63 V
0 -4500 R
( 400) Cshow
1.000 UL
LTb
2505 448 M
0 63 V
0 4360 R
0 -63 V
0 -4500 R
( 600) Cshow
1.000 UL
LTb
3140 448 M
0 63 V
0 4360 R
0 -63 V
0 -4500 R
( 800) Cshow
1.000 UL
LTb
3774 448 M
0 63 V
0 4360 R
0 -63 V
0 -4500 R
( 1000) Cshow
1.000 UL
LTb
4409 448 M
0 63 V
0 4360 R
0 -63 V
0 -4500 R
( 1200) Cshow
1.000 UL
LTb
5043 448 M
0 63 V
0 4360 R
0 -63 V
0 -4500 R
( 1400) Cshow
1.000 UL
LTb
5678 448 M
0 63 V
0 4360 R
0 -63 V
0 -4500 R
( 1600) Cshow
1.000 UL
LTb
6312 448 M
0 63 V
0 4360 R
0 -63 V
0 -4500 R
( 1800) Cshow
1.000 UL
LTb
6947 448 M
0 63 V
0 4360 R
0 -63 V
0 -4500 R
( 2000) Cshow
1.000 UL
LTb
1.000 UL
LTb
602 4871 N
602 448 L
6345 0 V
0 4423 V
-6345 0 V
Z stroke
LCb setrgbcolor
112 2659 M
currentpoint gsave translate -270 rotate 0 0 M
(Visit Count per 1000 Plies) Cshow
grestore
LTb
LCb setrgbcolor
3774 98 M
(States \(Sorted by Earliest Visit Time\)) Cshow
LTb
1.000 UP
1.000 UL
LTb
% Begin plot #1
1.000 UP
1.000 UL
LT0
LCb setrgbcolor
6296 4738 M
(p = 1.00) Rshow
LT0
602 4711 Pls
605 1535 Pls
608 1659 Pls
612 1629 Pls
615 1509 Pls
618 1965 Pls
621 2136 Pls
624 1876 Pls
627 1923 Pls
631 661 Pls
634 802 Pls
637 1232 Pls
640 1356 Pls
643 721 Pls
646 832 Pls
650 1036 Pls
653 934 Pls
656 1151 Pls
659 1032 Pls
662 857 Pls
665 1313 Pls
669 768 Pls
672 1121 Pls
675 1041 Pls
678 751 Pls
681 1100 Pls
684 699 Pls
688 1121 Pls
691 1070 Pls
694 636 Pls
697 951 Pls
700 691 Pls
704 810 Pls
707 751 Pls
710 883 Pls
713 1590 Pls
716 900 Pls
719 1318 Pls
723 1168 Pls
726 572 Pls
729 849 Pls
732 691 Pls
735 823 Pls
738 768 Pls
742 708 Pls
745 768 Pls
748 1173 Pls
751 691 Pls
754 755 Pls
757 678 Pls
761 883 Pls
764 1283 Pls
767 751 Pls
770 1053 Pls
773 687 Pls
776 687 Pls
780 653 Pls
783 951 Pls
786 823 Pls
789 1237 Pls
792 789 Pls
796 699 Pls
799 699 Pls
802 832 Pls
805 934 Pls
808 1283 Pls
811 955 Pls
815 1164 Pls
818 789 Pls
821 904 Pls
824 789 Pls
827 810 Pls
830 508 Pls
834 729 Pls
837 874 Pls
840 960 Pls
843 1271 Pls
846 853 Pls
849 755 Pls
853 636 Pls
856 780 Pls
859 938 Pls
862 1301 Pls
865 827 Pls
868 1041 Pls
872 1279 Pls
875 1198 Pls
878 1292 Pls
881 1194 Pls
884 793 Pls
888 891 Pls
891 798 Pls
894 904 Pls
897 708 Pls
900 601 Pls
903 516 Pls
907 610 Pls
910 687 Pls
913 699 Pls
916 682 Pls
919 631 Pls
922 623 Pls
926 576 Pls
929 742 Pls
932 746 Pls
935 593 Pls
938 1045 Pls
941 955 Pls
945 584 Pls
948 785 Pls
951 938 Pls
954 1006 Pls
957 989 Pls
960 964 Pls
964 695 Pls
967 627 Pls
970 623 Pls
973 567 Pls
976 567 Pls
980 665 Pls
983 704 Pls
986 678 Pls
989 704 Pls
992 610 Pls
995 619 Pls
999 648 Pls
1002 721 Pls
1005 1006 Pls
1008 708 Pls
1011 802 Pls
1014 772 Pls
1018 627 Pls
1021 772 Pls
1024 1045 Pls
1027 785 Pls
1030 1352 Pls
1033 1232 Pls
1037 576 Pls
1040 508 Pls
1043 682 Pls
1046 772 Pls
1049 1092 Pls
1052 682 Pls
1056 874 Pls
1059 849 Pls
1062 606 Pls
1065 712 Pls
1068 955 Pls
1072 751 Pls
1075 1335 Pls
1078 1245 Pls
1081 619 Pls
1084 785 Pls
1087 661 Pls
1091 572 Pls
1094 653 Pls
1097 572 Pls
1100 849 Pls
1103 533 Pls
1106 546 Pls
1110 763 Pls
1113 636 Pls
1116 627 Pls
1119 559 Pls
1122 601 Pls
1125 529 Pls
1129 627 Pls
1132 687 Pls
1135 610 Pls
1138 721 Pls
1141 661 Pls
1144 648 Pls
1148 584 Pls
1151 1028 Pls
1154 938 Pls
1157 1139 Pls
1160 960 Pls
1164 887 Pls
1167 644 Pls
1170 657 Pls
1173 653 Pls
1176 601 Pls
1179 601 Pls
1183 512 Pls
1186 601 Pls
1189 623 Pls
1192 742 Pls
1195 725 Pls
1198 674 Pls
1202 780 Pls
1205 725 Pls
1208 584 Pls
1211 682 Pls
1214 657 Pls
1217 810 Pls
1221 631 Pls
1224 798 Pls
1227 729 Pls
1230 670 Pls
1233 623 Pls
1236 559 Pls
1240 938 Pls
1243 861 Pls
1246 550 Pls
1249 606 Pls
1252 606 Pls
1256 601 Pls
1259 648 Pls
1262 734 Pls
1265 947 Pls
1268 861 Pls
1271 1194 Pls
1275 934 Pls
1278 606 Pls
1281 725 Pls
1284 853 Pls
1287 708 Pls
1290 840 Pls
1294 955 Pls
1297 533 Pls
1300 670 Pls
1303 576 Pls
1306 704 Pls
1309 704 Pls
1313 704 Pls
1316 964 Pls
1319 874 Pls
1322 529 Pls
1325 572 Pls
1329 682 Pls
1332 913 Pls
1335 529 Pls
1338 947 Pls
1341 1023 Pls
1344 870 Pls
1348 934 Pls
1351 640 Pls
1354 589 Pls
1357 529 Pls
1360 533 Pls
1363 529 Pls
1367 657 Pls
1370 606 Pls
1373 533 Pls
1376 665 Pls
1379 648 Pls
1382 721 Pls
1386 972 Pls
1389 861 Pls
1392 619 Pls
1395 751 Pls
1398 879 Pls
1401 601 Pls
1405 525 Pls
1408 576 Pls
1411 601 Pls
1414 866 Pls
1417 695 Pls
1421 699 Pls
1424 657 Pls
1427 623 Pls
1430 921 Pls
1433 866 Pls
1436 572 Pls
1440 746 Pls
1443 1224 Pls
1446 832 Pls
1449 853 Pls
1452 857 Pls
1455 525 Pls
1459 559 Pls
1462 525 Pls
1465 555 Pls
1468 597 Pls
1471 584 Pls
1474 478 Pls
1478 533 Pls
1481 508 Pls
1484 525 Pls
1487 542 Pls
1490 619 Pls
1493 593 Pls
1497 619 Pls
1500 810 Pls
1503 746 Pls
1506 546 Pls
1509 657 Pls
1513 584 Pls
1516 567 Pls
1519 576 Pls
1522 989 Pls
1525 601 Pls
1528 1028 Pls
1532 857 Pls
1535 580 Pls
1538 499 Pls
1541 640 Pls
1544 695 Pls
1547 589 Pls
1551 704 Pls
1554 482 Pls
1557 636 Pls
1560 589 Pls
1563 806 Pls
1566 550 Pls
1570 499 Pls
1573 580 Pls
1576 610 Pls
1579 772 Pls
1582 682 Pls
1585 653 Pls
1589 542 Pls
1592 525 Pls
1595 546 Pls
1598 580 Pls
1601 542 Pls
1605 516 Pls
1608 644 Pls
1611 665 Pls
1614 606 Pls
1617 815 Pls
1620 699 Pls
1624 968 Pls
1627 1023 Pls
1630 593 Pls
1633 648 Pls
1636 1041 Pls
1639 474 Pls
1643 559 Pls
1646 597 Pls
1649 644 Pls
1652 559 Pls
1655 567 Pls
1658 482 Pls
1662 653 Pls
1665 572 Pls
1668 597 Pls
1671 653 Pls
1674 614 Pls
1677 648 Pls
1681 810 Pls
1684 516 Pls
1687 542 Pls
1690 533 Pls
1693 525 Pls
1697 555 Pls
1700 529 Pls
1703 729 Pls
1706 627 Pls
1709 746 Pls
1712 648 Pls
1716 687 Pls
1719 593 Pls
1722 627 Pls
1725 538 Pls
1728 746 Pls
1731 538 Pls
1735 550 Pls
1738 580 Pls
1741 827 Pls
1744 729 Pls
1747 763 Pls
1750 572 Pls
1754 989 Pls
1757 853 Pls
1760 503 Pls
1763 601 Pls
1766 657 Pls
1769 550 Pls
1773 623 Pls
1776 559 Pls
1779 508 Pls
1782 495 Pls
1785 495 Pls
1789 469 Pls
1792 682 Pls
1795 648 Pls
1798 508 Pls
1801 589 Pls
1804 627 Pls
1808 981 Pls
1811 636 Pls
1814 559 Pls
1817 525 Pls
1820 657 Pls
1823 721 Pls
1827 755 Pls
1830 661 Pls
1833 648 Pls
1836 636 Pls
1839 644 Pls
1842 742 Pls
1846 785 Pls
1849 538 Pls
1852 508 Pls
1855 776 Pls
1858 670 Pls
1861 742 Pls
1865 491 Pls
1868 525 Pls
1871 670 Pls
1874 601 Pls
1877 695 Pls
1881 567 Pls
1884 636 Pls
1887 657 Pls
1890 665 Pls
1893 631 Pls
1896 857 Pls
1900 981 Pls
1903 1028 Pls
1906 486 Pls
1909 627 Pls
1912 559 Pls
1915 529 Pls
1919 597 Pls
1922 589 Pls
1925 627 Pls
1928 593 Pls
1931 734 Pls
1934 601 Pls
1938 631 Pls
1941 857 Pls
1944 798 Pls
1947 640 Pls
1950 699 Pls
1953 879 Pls
1957 478 Pls
1960 674 Pls
1963 486 Pls
1966 491 Pls
1969 674 Pls
1973 546 Pls
1976 538 Pls
1979 699 Pls
1982 619 Pls
1985 606 Pls
1988 601 Pls
1992 559 Pls
1995 789 Pls
1998 606 Pls
2001 687 Pls
2004 580 Pls
2007 734 Pls
2011 520 Pls
2014 580 Pls
2017 538 Pls
2020 486 Pls
2023 597 Pls
2026 478 Pls
2030 610 Pls
2033 593 Pls
2036 653 Pls
2039 563 Pls
2042 644 Pls
2045 580 Pls
2049 576 Pls
2052 623 Pls
2055 640 Pls
2058 712 Pls
2061 584 Pls
2065 563 Pls
2068 691 Pls
2071 593 Pls
2074 725 Pls
2077 640 Pls
2080 606 Pls
2084 580 Pls
2087 896 Pls
2090 908 Pls
2093 674 Pls
2096 648 Pls
2099 512 Pls
2103 533 Pls
2106 559 Pls
2109 584 Pls
2112 546 Pls
2115 614 Pls
2118 695 Pls
2122 670 Pls
2125 772 Pls
2128 768 Pls
2131 584 Pls
2134 653 Pls
2137 678 Pls
2141 529 Pls
2144 567 Pls
2147 567 Pls
2150 516 Pls
2153 670 Pls
2157 627 Pls
2160 623 Pls
2163 627 Pls
2166 687 Pls
2169 529 Pls
2172 584 Pls
2176 793 Pls
2179 627 Pls
2182 508 Pls
2185 589 Pls
2188 631 Pls
2191 657 Pls
2195 610 Pls
2198 478 Pls
2201 542 Pls
2204 563 Pls
2207 636 Pls
2210 538 Pls
2214 559 Pls
2217 627 Pls
2220 619 Pls
2223 627 Pls
2226 776 Pls
2229 610 Pls
2233 644 Pls
2236 529 Pls
2239 486 Pls
2242 533 Pls
2245 606 Pls
2249 601 Pls
2252 636 Pls
2255 627 Pls
2258 606 Pls
2261 682 Pls
2264 665 Pls
2268 469 Pls
2271 653 Pls
2274 614 Pls
2277 546 Pls
2280 572 Pls
2283 503 Pls
2287 572 Pls
2290 520 Pls
2293 533 Pls
2296 478 Pls
2299 695 Pls
2302 525 Pls
2306 640 Pls
2309 542 Pls
2312 589 Pls
2315 653 Pls
2318 542 Pls
2321 563 Pls
2325 520 Pls
2328 482 Pls
2331 478 Pls
2334 589 Pls
2337 503 Pls
2341 520 Pls
2344 584 Pls
2347 495 Pls
2350 589 Pls
2353 525 Pls
2356 572 Pls
2360 572 Pls
2363 567 Pls
2366 572 Pls
2369 619 Pls
2372 520 Pls
2375 576 Pls
2379 674 Pls
2382 708 Pls
2385 759 Pls
2388 823 Pls
2391 567 Pls
2394 546 Pls
2398 567 Pls
2401 640 Pls
2404 546 Pls
2407 546 Pls
2410 550 Pls
2413 584 Pls
2417 576 Pls
2420 461 Pls
2423 533 Pls
2426 589 Pls
2429 619 Pls
2433 533 Pls
2436 567 Pls
2439 482 Pls
2442 525 Pls
2445 550 Pls
2448 606 Pls
2452 657 Pls
2455 755 Pls
2458 823 Pls
2461 913 Pls
2464 640 Pls
2467 567 Pls
2471 717 Pls
2474 606 Pls
2477 810 Pls
2480 469 Pls
2483 499 Pls
2486 546 Pls
2490 559 Pls
2493 661 Pls
2496 606 Pls
2499 704 Pls
2502 580 Pls
2505 555 Pls
2509 550 Pls
2512 525 Pls
2515 508 Pls
2518 538 Pls
2521 563 Pls
2525 525 Pls
2528 529 Pls
2531 546 Pls
2534 546 Pls
2537 610 Pls
2540 644 Pls
2544 653 Pls
2547 601 Pls
2550 678 Pls
2553 955 Pls
2556 559 Pls
2559 674 Pls
2563 644 Pls
2566 751 Pls
2569 606 Pls
2572 572 Pls
2575 559 Pls
2578 636 Pls
2582 559 Pls
2585 495 Pls
2588 640 Pls
2591 589 Pls
2594 614 Pls
2598 619 Pls
2601 623 Pls
2604 486 Pls
2607 533 Pls
2610 495 Pls
2613 529 Pls
2617 457 Pls
2620 593 Pls
2623 563 Pls
2626 597 Pls
2629 525 Pls
2632 606 Pls
2636 559 Pls
2639 474 Pls
2642 550 Pls
2645 520 Pls
2648 512 Pls
2651 499 Pls
2655 478 Pls
2658 495 Pls
2661 580 Pls
2664 529 Pls
2667 623 Pls
2670 495 Pls
2674 529 Pls
2677 712 Pls
2680 495 Pls
2683 542 Pls
2686 653 Pls
2690 930 Pls
2693 469 Pls
2696 589 Pls
2699 627 Pls
2702 503 Pls
2705 495 Pls
2709 542 Pls
2712 499 Pls
2715 555 Pls
2718 601 Pls
2721 491 Pls
2724 606 Pls
2728 704 Pls
2731 567 Pls
2734 636 Pls
2737 674 Pls
2740 751 Pls
2743 657 Pls
2747 525 Pls
2750 597 Pls
2753 614 Pls
2756 478 Pls
2759 520 Pls
2762 474 Pls
2766 584 Pls
2769 516 Pls
2772 538 Pls
2775 546 Pls
2778 640 Pls
2782 657 Pls
2785 465 Pls
2788 593 Pls
2791 682 Pls
2794 687 Pls
2797 538 Pls
2801 550 Pls
2804 546 Pls
2807 499 Pls
2810 533 Pls
2813 550 Pls
2816 486 Pls
2820 512 Pls
2823 559 Pls
2826 601 Pls
2829 678 Pls
2832 665 Pls
2835 648 Pls
2839 717 Pls
2842 520 Pls
2845 520 Pls
2848 529 Pls
2851 606 Pls
2854 653 Pls
2858 516 Pls
2861 499 Pls
2864 768 Pls
2867 584 Pls
2870 457 Pls
2874 482 Pls
2877 457 Pls
2880 461 Pls
2883 550 Pls
2886 593 Pls
2889 520 Pls
2893 469 Pls
2896 465 Pls
2899 512 Pls
2902 461 Pls
2905 495 Pls
2908 478 Pls
2912 550 Pls
2915 499 Pls
2918 486 Pls
2921 474 Pls
2924 520 Pls
2927 567 Pls
2931 525 Pls
2934 512 Pls
2937 576 Pls
2940 525 Pls
2943 474 Pls
2946 486 Pls
2950 555 Pls
2953 589 Pls
2956 529 Pls
2959 516 Pls
2962 576 Pls
2966 525 Pls
2969 457 Pls
2972 601 Pls
2975 687 Pls
2978 567 Pls
2981 623 Pls
2985 525 Pls
2988 555 Pls
2991 691 Pls
2994 491 Pls
2997 482 Pls
3000 512 Pls
3004 465 Pls
3007 542 Pls
3010 614 Pls
3013 584 Pls
3016 678 Pls
3019 742 Pls
3023 542 Pls
3026 538 Pls
3029 520 Pls
3032 516 Pls
3035 589 Pls
3038 555 Pls
3042 584 Pls
3045 627 Pls
3048 555 Pls
3051 516 Pls
3054 503 Pls
3058 512 Pls
3061 738 Pls
3064 674 Pls
3067 704 Pls
3070 619 Pls
3073 589 Pls
3077 665 Pls
3080 525 Pls
3083 508 Pls
3086 503 Pls
3089 542 Pls
3092 469 Pls
3096 555 Pls
3099 533 Pls
3102 533 Pls
3105 734 Pls
3108 738 Pls
3111 785 Pls
3115 495 Pls
3118 601 Pls
3121 516 Pls
3124 525 Pls
3127 542 Pls
3130 559 Pls
3134 529 Pls
3137 542 Pls
3140 619 Pls
3143 533 Pls
3146 555 Pls
3150 567 Pls
3153 563 Pls
3156 495 Pls
3159 469 Pls
3162 491 Pls
3165 482 Pls
3169 593 Pls
3172 486 Pls
3175 465 Pls
3178 538 Pls
3181 495 Pls
3184 491 Pls
3188 469 Pls
3191 465 Pls
3194 461 Pls
3197 465 Pls
3200 478 Pls
3203 478 Pls
3207 478 Pls
3210 559 Pls
3213 593 Pls
3216 529 Pls
3219 606 Pls
3222 525 Pls
3226 542 Pls
3229 619 Pls
3232 542 Pls
3235 661 Pls
3238 533 Pls
3242 555 Pls
3245 525 Pls
3248 525 Pls
3251 491 Pls
3254 457 Pls
3257 695 Pls
3261 563 Pls
3264 670 Pls
3267 533 Pls
3270 474 Pls
3273 593 Pls
3276 516 Pls
3280 563 Pls
3283 512 Pls
3286 576 Pls
3289 606 Pls
3292 559 Pls
3295 529 Pls
3299 503 Pls
3302 469 Pls
3305 516 Pls
3308 631 Pls
3311 576 Pls
3314 648 Pls
3318 491 Pls
3321 529 Pls
3324 508 Pls
3327 546 Pls
3330 555 Pls
3334 529 Pls
3337 542 Pls
3340 512 Pls
3343 503 Pls
3346 580 Pls
3349 593 Pls
3353 584 Pls
3356 606 Pls
3359 555 Pls
3362 559 Pls
3365 576 Pls
3368 555 Pls
3372 461 Pls
3375 478 Pls
3378 465 Pls
3381 491 Pls
3384 550 Pls
3387 499 Pls
3391 550 Pls
3394 555 Pls
3397 538 Pls
3400 503 Pls
3403 503 Pls
3406 474 Pls
3410 508 Pls
3413 533 Pls
3416 508 Pls
3419 508 Pls
3422 520 Pls
3426 486 Pls
3429 474 Pls
3432 474 Pls
3435 499 Pls
3438 457 Pls
3441 508 Pls
3445 486 Pls
3448 465 Pls
3451 452 Pls
3454 550 Pls
3457 623 Pls
3460 465 Pls
3464 512 Pls
3467 576 Pls
3470 640 Pls
3473 525 Pls
3476 495 Pls
3479 542 Pls
3483 619 Pls
3486 529 Pls
3489 601 Pls
3492 550 Pls
3495 520 Pls
3498 474 Pls
3502 478 Pls
3505 559 Pls
3508 520 Pls
3511 538 Pls
3514 550 Pls
3518 469 Pls
3521 542 Pls
3524 550 Pls
3527 469 Pls
3530 542 Pls
3533 631 Pls
3537 576 Pls
3540 563 Pls
3543 520 Pls
3546 580 Pls
3549 584 Pls
3552 725 Pls
3556 542 Pls
3559 512 Pls
3562 533 Pls
3565 538 Pls
3568 512 Pls
3571 572 Pls
3575 550 Pls
3578 593 Pls
3581 593 Pls
3584 542 Pls
3587 508 Pls
3590 474 Pls
3594 491 Pls
3597 520 Pls
3600 533 Pls
3603 529 Pls
3606 546 Pls
3610 529 Pls
3613 520 Pls
3616 631 Pls
3619 538 Pls
3622 482 Pls
3625 678 Pls
3629 512 Pls
3632 461 Pls
3635 550 Pls
3638 461 Pls
3641 559 Pls
3644 495 Pls
3648 516 Pls
3651 499 Pls
3654 474 Pls
3657 482 Pls
3660 499 Pls
3663 465 Pls
3667 482 Pls
3670 503 Pls
3673 486 Pls
3676 474 Pls
3679 593 Pls
3682 503 Pls
3686 486 Pls
3689 546 Pls
3692 452 Pls
3695 538 Pls
3698 516 Pls
3702 482 Pls
3705 457 Pls
3708 508 Pls
3711 469 Pls
3714 452 Pls
3717 508 Pls
3721 508 Pls
3724 516 Pls
3727 512 Pls
3730 529 Pls
3733 619 Pls
3736 525 Pls
3740 482 Pls
3743 512 Pls
3746 576 Pls
3749 474 Pls
3752 465 Pls
3755 572 Pls
3759 495 Pls
3762 499 Pls
3765 525 Pls
3768 461 Pls
3771 708 Pls
3774 661 Pls
3778 687 Pls
3781 461 Pls
3784 474 Pls
3787 465 Pls
3790 495 Pls
3794 576 Pls
3797 563 Pls
3800 593 Pls
3803 567 Pls
3806 567 Pls
3809 520 Pls
3813 542 Pls
3816 508 Pls
3819 542 Pls
3822 546 Pls
3825 542 Pls
3828 546 Pls
3832 503 Pls
3835 508 Pls
3838 508 Pls
3841 503 Pls
3844 593 Pls
3847 567 Pls
3851 512 Pls
3854 533 Pls
3857 648 Pls
3860 533 Pls
3863 491 Pls
3867 495 Pls
3870 478 Pls
3873 495 Pls
3876 503 Pls
3879 508 Pls
3882 512 Pls
3886 533 Pls
3889 516 Pls
3892 516 Pls
3895 567 Pls
3898 580 Pls
3901 525 Pls
3905 533 Pls
3908 486 Pls
3911 512 Pls
3914 461 Pls
3917 491 Pls
3920 478 Pls
3924 482 Pls
3927 469 Pls
3930 529 Pls
3933 499 Pls
3936 538 Pls
3939 503 Pls
3943 478 Pls
3946 503 Pls
3949 503 Pls
3952 491 Pls
3955 474 Pls
3959 461 Pls
3962 461 Pls
3965 538 Pls
3968 559 Pls
3971 474 Pls
3974 550 Pls
3978 508 Pls
3981 589 Pls
3984 555 Pls
3987 546 Pls
3990 674 Pls
3993 550 Pls
3997 503 Pls
4000 465 Pls
4003 559 Pls
4006 499 Pls
4009 474 Pls
4012 482 Pls
4016 550 Pls
4019 525 Pls
4022 478 Pls
4025 482 Pls
4028 457 Pls
4031 508 Pls
4035 682 Pls
4038 572 Pls
4041 559 Pls
4044 474 Pls
4047 486 Pls
4051 469 Pls
4054 465 Pls
4057 508 Pls
4060 550 Pls
4063 503 Pls
4066 503 Pls
4070 542 Pls
4073 495 Pls
4076 529 Pls
4079 461 Pls
4082 576 Pls
4085 542 Pls
4089 584 Pls
4092 478 Pls
4095 478 Pls
4098 516 Pls
4101 555 Pls
4104 576 Pls
4108 653 Pls
4111 661 Pls
4114 644 Pls
4117 520 Pls
4120 512 Pls
4123 550 Pls
4127 525 Pls
4130 601 Pls
4133 589 Pls
4136 495 Pls
4139 520 Pls
4143 495 Pls
4146 538 Pls
4149 482 Pls
4152 508 Pls
4155 508 Pls
4158 495 Pls
4162 512 Pls
4165 533 Pls
4168 495 Pls
4171 512 Pls
4174 469 Pls
4177 533 Pls
4181 482 Pls
4184 486 Pls
4187 499 Pls
4190 512 Pls
4193 533 Pls
4196 503 Pls
4200 499 Pls
4203 520 Pls
4206 597 Pls
4209 499 Pls
4212 512 Pls
4215 503 Pls
4219 529 Pls
4222 457 Pls
4225 452 Pls
4228 491 Pls
4231 516 Pls
4235 576 Pls
4238 520 Pls
4241 512 Pls
4244 452 Pls
4247 461 Pls
4250 495 Pls
4254 542 Pls
4257 503 Pls
4260 550 Pls
4263 478 Pls
4266 512 Pls
4269 465 Pls
4273 465 Pls
4276 461 Pls
4279 457 Pls
4282 512 Pls
4285 584 Pls
4288 474 Pls
4292 538 Pls
4295 520 Pls
4298 512 Pls
4301 580 Pls
4304 589 Pls
4307 559 Pls
4311 555 Pls
4314 474 Pls
4317 469 Pls
4320 610 Pls
4323 499 Pls
4327 478 Pls
4330 546 Pls
4333 491 Pls
4336 538 Pls
4339 491 Pls
4342 461 Pls
4346 486 Pls
4349 499 Pls
4352 516 Pls
4355 469 Pls
4358 474 Pls
4361 478 Pls
4365 550 Pls
4368 503 Pls
4371 542 Pls
4374 576 Pls
4377 478 Pls
4380 610 Pls
4384 503 Pls
4387 469 Pls
4390 499 Pls
4393 550 Pls
4396 576 Pls
4399 538 Pls
4403 491 Pls
4406 576 Pls
4409 644 Pls
4412 516 Pls
4415 533 Pls
4419 486 Pls
4422 593 Pls
4425 516 Pls
4428 503 Pls
4431 533 Pls
4434 550 Pls
4438 520 Pls
4441 546 Pls
4444 516 Pls
4447 520 Pls
4450 508 Pls
4453 499 Pls
4457 465 Pls
4460 512 Pls
4463 491 Pls
4466 525 Pls
4469 486 Pls
4472 525 Pls
4476 550 Pls
4479 491 Pls
4482 580 Pls
4485 491 Pls
4488 512 Pls
4491 491 Pls
4495 508 Pls
4498 457 Pls
4501 474 Pls
4504 486 Pls
4507 559 Pls
4511 457 Pls
4514 491 Pls
4517 559 Pls
4520 474 Pls
4523 469 Pls
4526 499 Pls
4530 508 Pls
4533 550 Pls
4536 469 Pls
4539 567 Pls
4542 606 Pls
4545 533 Pls
4549 482 Pls
4552 606 Pls
4555 580 Pls
4558 572 Pls
4561 482 Pls
4564 452 Pls
4568 503 Pls
4571 516 Pls
4574 482 Pls
4577 474 Pls
4580 499 Pls
4583 614 Pls
4587 533 Pls
4590 461 Pls
4593 533 Pls
4596 478 Pls
4599 525 Pls
4603 567 Pls
4606 529 Pls
4609 538 Pls
4612 691 Pls
4615 589 Pls
4618 516 Pls
4622 465 Pls
4625 529 Pls
4628 516 Pls
4631 597 Pls
4634 508 Pls
4637 559 Pls
4641 508 Pls
4644 695 Pls
4647 619 Pls
4650 520 Pls
4653 614 Pls
4656 452 Pls
4660 546 Pls
4663 555 Pls
4666 465 Pls
4669 503 Pls
4672 538 Pls
4675 533 Pls
4679 486 Pls
4682 533 Pls
4685 512 Pls
4688 503 Pls
4691 482 Pls
4695 478 Pls
4698 550 Pls
4701 512 Pls
4704 538 Pls
4707 486 Pls
4710 503 Pls
4714 533 Pls
4717 508 Pls
4720 555 Pls
4723 465 Pls
4726 461 Pls
4729 465 Pls
4733 495 Pls
4736 567 Pls
4739 491 Pls
4742 486 Pls
4745 516 Pls
4748 512 Pls
4752 478 Pls
4755 457 Pls
4758 478 Pls
4761 478 Pls
4764 525 Pls
4767 478 Pls
4771 520 Pls
4774 495 Pls
4777 559 Pls
4780 525 Pls
4783 665 Pls
4787 559 Pls
4790 520 Pls
4793 512 Pls
4796 687 Pls
4799 503 Pls
4802 516 Pls
4806 520 Pls
4809 593 Pls
4812 525 Pls
4815 559 Pls
4818 572 Pls
4821 512 Pls
4825 533 Pls
4828 482 Pls
4831 482 Pls
4834 520 Pls
4837 512 Pls
4840 469 Pls
4844 499 Pls
4847 520 Pls
4850 529 Pls
4853 499 Pls
4856 478 Pls
4859 614 Pls
4863 474 Pls
4866 478 Pls
4869 499 Pls
4872 478 Pls
4875 512 Pls
4879 457 Pls
4882 516 Pls
4885 555 Pls
4888 520 Pls
4891 461 Pls
4894 580 Pls
4898 508 Pls
4901 550 Pls
4904 508 Pls
4907 520 Pls
4910 474 Pls
4913 555 Pls
4917 474 Pls
4920 486 Pls
4923 457 Pls
4926 495 Pls
4929 516 Pls
4932 533 Pls
4936 508 Pls
4939 457 Pls
4942 546 Pls
4945 452 Pls
4948 465 Pls
4951 461 Pls
4955 499 Pls
4958 482 Pls
4961 499 Pls
4964 525 Pls
4967 516 Pls
4971 499 Pls
4974 567 Pls
4977 478 Pls
4980 478 Pls
4983 503 Pls
4986 508 Pls
4990 584 Pls
4993 503 Pls
4996 542 Pls
4999 533 Pls
5002 486 Pls
5005 755 Pls
5009 512 Pls
5012 491 Pls
5015 533 Pls
5018 482 Pls
5021 486 Pls
5024 533 Pls
5028 512 Pls
5031 486 Pls
5034 538 Pls
5037 486 Pls
5040 503 Pls
5043 508 Pls
5047 469 Pls
5050 461 Pls
5053 508 Pls
5056 482 Pls
5059 584 Pls
5063 465 Pls
5066 491 Pls
5069 538 Pls
5072 508 Pls
5075 461 Pls
5078 457 Pls
5082 550 Pls
5085 512 Pls
5088 495 Pls
5091 461 Pls
5094 452 Pls
5097 478 Pls
5101 563 Pls
5104 469 Pls
5107 469 Pls
5110 516 Pls
5113 457 Pls
5116 452 Pls
5120 563 Pls
5123 495 Pls
5126 529 Pls
5129 469 Pls
5132 486 Pls
5136 516 Pls
5139 508 Pls
5142 542 Pls
5145 508 Pls
5148 529 Pls
5151 478 Pls
5155 499 Pls
5158 512 Pls
5161 491 Pls
5164 495 Pls
5167 533 Pls
5170 538 Pls
5174 457 Pls
5177 503 Pls
5180 525 Pls
5183 580 Pls
5186 520 Pls
5189 525 Pls
5193 533 Pls
5196 538 Pls
5199 525 Pls
5202 499 Pls
5205 495 Pls
5208 495 Pls
5212 478 Pls
5215 461 Pls
5218 478 Pls
5221 491 Pls
5224 461 Pls
5228 469 Pls
5231 503 Pls
5234 533 Pls
5237 465 Pls
5240 491 Pls
5243 516 Pls
5247 503 Pls
5250 546 Pls
5253 486 Pls
5256 469 Pls
5259 482 Pls
5262 555 Pls
5266 491 Pls
5269 478 Pls
5272 542 Pls
5275 529 Pls
5278 512 Pls
5281 482 Pls
5285 503 Pls
5288 478 Pls
5291 503 Pls
5294 580 Pls
5297 474 Pls
5300 533 Pls
5304 508 Pls
5307 495 Pls
5310 512 Pls
5313 499 Pls
5316 478 Pls
5320 469 Pls
5323 457 Pls
5326 491 Pls
5329 533 Pls
5332 503 Pls
5335 499 Pls
5339 469 Pls
5342 461 Pls
5345 512 Pls
5348 512 Pls
5351 469 Pls
5354 533 Pls
5358 482 Pls
5361 491 Pls
5364 491 Pls
5367 508 Pls
5370 469 Pls
5373 516 Pls
5377 516 Pls
5380 482 Pls
5383 486 Pls
5386 474 Pls
5389 478 Pls
5392 550 Pls
5396 550 Pls
5399 520 Pls
5402 499 Pls
5405 478 Pls
5408 503 Pls
5412 482 Pls
5415 474 Pls
5418 512 Pls
5421 457 Pls
5424 469 Pls
5427 452 Pls
5431 542 Pls
5434 563 Pls
5437 491 Pls
5440 499 Pls
5443 465 Pls
5446 469 Pls
5450 546 Pls
5453 503 Pls
5456 452 Pls
5459 465 Pls
5462 491 Pls
5465 461 Pls
5469 469 Pls
5472 482 Pls
5475 452 Pls
5478 474 Pls
5481 478 Pls
5484 495 Pls
5488 478 Pls
5491 520 Pls
5494 474 Pls
5497 508 Pls
5500 486 Pls
5504 465 Pls
5507 503 Pls
5510 533 Pls
5513 461 Pls
5516 491 Pls
5519 478 Pls
5523 482 Pls
5526 499 Pls
5529 563 Pls
5532 461 Pls
5535 474 Pls
5538 499 Pls
5542 495 Pls
5545 478 Pls
5548 452 Pls
5551 465 Pls
5554 491 Pls
5557 486 Pls
5561 457 Pls
5564 461 Pls
5567 508 Pls
5570 469 Pls
5573 482 Pls
5576 465 Pls
5580 457 Pls
5583 465 Pls
5586 465 Pls
5589 499 Pls
5592 499 Pls
5596 478 Pls
5599 482 Pls
5602 469 Pls
5605 512 Pls
5608 452 Pls
5611 474 Pls
5615 478 Pls
5618 512 Pls
5621 546 Pls
5624 461 Pls
5627 478 Pls
5630 457 Pls
5634 503 Pls
5637 469 Pls
5640 525 Pls
5643 461 Pls
5646 499 Pls
5649 469 Pls
5653 469 Pls
5656 465 Pls
5659 525 Pls
5662 555 Pls
5665 482 Pls
5668 499 Pls
5672 550 Pls
5675 474 Pls
5678 474 Pls
5681 491 Pls
5684 457 Pls
5688 542 Pls
5691 486 Pls
5694 508 Pls
5697 465 Pls
5700 474 Pls
5703 478 Pls
5707 457 Pls
5710 474 Pls
5713 457 Pls
5716 486 Pls
5719 482 Pls
5722 478 Pls
5726 478 Pls
5729 495 Pls
5732 503 Pls
5735 512 Pls
5738 469 Pls
5741 474 Pls
5745 469 Pls
5748 478 Pls
5751 469 Pls
5754 503 Pls
5757 474 Pls
5760 474 Pls
5764 461 Pls
5767 478 Pls
5770 474 Pls
5773 486 Pls
5776 508 Pls
5780 512 Pls
5783 465 Pls
5786 491 Pls
5789 491 Pls
5792 461 Pls
5795 469 Pls
5799 478 Pls
5802 499 Pls
5805 486 Pls
5808 491 Pls
5811 503 Pls
5814 508 Pls
5818 469 Pls
5821 486 Pls
5824 478 Pls
5827 512 Pls
5830 478 Pls
5833 508 Pls
5837 469 Pls
5840 465 Pls
5843 457 Pls
5846 499 Pls
5849 482 Pls
5852 478 Pls
5856 469 Pls
5859 457 Pls
5862 474 Pls
5865 469 Pls
5868 452 Pls
5872 520 Pls
5875 512 Pls
5878 461 Pls
5881 478 Pls
5884 469 Pls
5887 457 Pls
5891 482 Pls
5894 491 Pls
5897 457 Pls
5900 474 Pls
5903 474 Pls
5906 482 Pls
5910 457 Pls
5913 457 Pls
5916 482 Pls
5919 478 Pls
5922 482 Pls
5925 486 Pls
5929 457 Pls
5932 465 Pls
5935 457 Pls
5938 520 Pls
5941 495 Pls
5944 474 Pls
5948 461 Pls
5951 469 Pls
5954 486 Pls
5957 495 Pls
5960 503 Pls
5964 469 Pls
5967 499 Pls
5970 465 Pls
5973 461 Pls
5976 452 Pls
5979 478 Pls
5983 474 Pls
5986 503 Pls
5989 516 Pls
5992 461 Pls
5995 452 Pls
5998 478 Pls
6002 469 Pls
6005 457 Pls
6008 461 Pls
6011 478 Pls
6014 469 Pls
6017 469 Pls
6021 478 Pls
6024 461 Pls
6027 452 Pls
6030 474 Pls
6033 478 Pls
6036 486 Pls
6040 482 Pls
6043 457 Pls
6046 474 Pls
6049 465 Pls
6052 457 Pls
6056 478 Pls
6059 482 Pls
6062 457 Pls
6065 474 Pls
6068 465 Pls
6071 474 Pls
6075 452 Pls
6078 452 Pls
6081 482 Pls
6084 465 Pls
6087 457 Pls
6090 516 Pls
6094 465 Pls
6097 465 Pls
6100 486 Pls
6103 474 Pls
6106 452 Pls
6109 482 Pls
6113 465 Pls
6116 461 Pls
6119 469 Pls
6122 461 Pls
6125 452 Pls
6128 465 Pls
6132 469 Pls
6135 457 Pls
6138 478 Pls
6141 452 Pls
6144 461 Pls
6148 461 Pls
6151 452 Pls
6154 469 Pls
6157 457 Pls
6160 465 Pls
6163 461 Pls
6167 491 Pls
6170 457 Pls
6173 461 Pls
6176 452 Pls
6179 465 Pls
6182 499 Pls
6186 474 Pls
6189 469 Pls
6192 452 Pls
6195 457 Pls
6198 457 Pls
6201 461 Pls
6205 474 Pls
6208 478 Pls
6211 465 Pls
6214 478 Pls
6217 457 Pls
6220 465 Pls
6224 465 Pls
6227 461 Pls
6230 457 Pls
6233 465 Pls
6236 457 Pls
6240 457 Pls
6243 452 Pls
6246 469 Pls
6249 452 Pls
6252 474 Pls
6255 452 Pls
6259 452 Pls
6262 452 Pls
6265 457 Pls
6268 457 Pls
6271 452 Pls
6274 452 Pls
6278 452 Pls
6281 452 Pls
6284 457 Pls
6287 452 Pls
6290 452 Pls
6293 452 Pls
6297 457 Pls
6300 452 Pls
6303 452 Pls
6306 461 Pls
6309 457 Pls
6312 461 Pls
6316 452 Pls
6319 452 Pls
6322 452 Pls
6325 452 Pls
6579 4738 Pls
% End plot #1
1.000 UL
LTb
602 4871 N
602 448 L
6345 0 V
0 4423 V
-6345 0 V
Z stroke
1.000 UP
1.000 UL
LTb
stroke
grestore
end
showpage
%%Trailer
%%DocumentFonts: Helvetica
