%!PS-Adobe-2.0 EPSF-2.0
%%Title: ../plots/domainstats/states-sorted-by-ply-visit-count-over-avg-num-plies-nannon-offset-4.eps
%%Creator: gnuplot 4.4 patchlevel 3
%%CreationDate: Wed Dec 14 04:42:16 2011
%%DocumentFonts: (atend)
%%BoundingBox: 50 50 410 302
%%EndComments
%%BeginProlog
/gnudict 256 dict def
gnudict begin
%
% The following true/false flags may be edited by hand if desired.
% The unit line width and grayscale image gamma correction may also be changed.
%
/Color true def
/Blacktext false def
/Solid false def
/Dashlength 1 def
/Landscape false def
/Level1 false def
/Rounded false def
/ClipToBoundingBox false def
/TransparentPatterns false def
/gnulinewidth 5.000 def
/userlinewidth gnulinewidth def
/Gamma 1.0 def
%
/vshift -46 def
/dl1 {
  10.0 Dashlength mul mul
  Rounded { currentlinewidth 0.75 mul sub dup 0 le { pop 0.01 } if } if
} def
/dl2 {
  10.0 Dashlength mul mul
  Rounded { currentlinewidth 0.75 mul add } if
} def
/hpt_ 31.5 def
/vpt_ 31.5 def
/hpt hpt_ def
/vpt vpt_ def
Level1 {} {
/SDict 10 dict def
systemdict /pdfmark known not {
  userdict /pdfmark systemdict /cleartomark get put
} if
SDict begin [
  /Title (../plots/domainstats/states-sorted-by-ply-visit-count-over-avg-num-plies-nannon-offset-4.eps)
  /Subject (gnuplot plot)
  /Creator (gnuplot 4.4 patchlevel 3)
  /Author (reza)
%  /Producer (gnuplot)
%  /Keywords ()
  /CreationDate (Wed Dec 14 04:42:16 2011)
  /DOCINFO pdfmark
end
} ifelse
/doclip {
  ClipToBoundingBox {
    newpath 50 50 moveto 410 50 lineto 410 302 lineto 50 302 lineto closepath
    clip
  } if
} def
%
% Gnuplot Prolog Version 4.4 (August 2010)
%
%/SuppressPDFMark true def
%
/M {moveto} bind def
/L {lineto} bind def
/R {rmoveto} bind def
/V {rlineto} bind def
/N {newpath moveto} bind def
/Z {closepath} bind def
/C {setrgbcolor} bind def
/f {rlineto fill} bind def
/g {setgray} bind def
/Gshow {show} def   % May be redefined later in the file to support UTF-8
/vpt2 vpt 2 mul def
/hpt2 hpt 2 mul def
/Lshow {currentpoint stroke M 0 vshift R 
	Blacktext {gsave 0 setgray show grestore} {show} ifelse} def
/Rshow {currentpoint stroke M dup stringwidth pop neg vshift R
	Blacktext {gsave 0 setgray show grestore} {show} ifelse} def
/Cshow {currentpoint stroke M dup stringwidth pop -2 div vshift R 
	Blacktext {gsave 0 setgray show grestore} {show} ifelse} def
/UP {dup vpt_ mul /vpt exch def hpt_ mul /hpt exch def
  /hpt2 hpt 2 mul def /vpt2 vpt 2 mul def} def
/DL {Color {setrgbcolor Solid {pop []} if 0 setdash}
 {pop pop pop 0 setgray Solid {pop []} if 0 setdash} ifelse} def
/BL {stroke userlinewidth 2 mul setlinewidth
	Rounded {1 setlinejoin 1 setlinecap} if} def
/AL {stroke userlinewidth 2 div setlinewidth
	Rounded {1 setlinejoin 1 setlinecap} if} def
/UL {dup gnulinewidth mul /userlinewidth exch def
	dup 1 lt {pop 1} if 10 mul /udl exch def} def
/PL {stroke userlinewidth setlinewidth
	Rounded {1 setlinejoin 1 setlinecap} if} def
3.8 setmiterlimit
% Default Line colors
/LCw {1 1 1} def
/LCb {0 0 0} def
/LCa {0 0 0} def
/LC0 {1 0 0} def
/LC1 {0 1 0} def
/LC2 {0 0 1} def
/LC3 {1 0 1} def
/LC4 {0 1 1} def
/LC5 {1 1 0} def
/LC6 {0 0 0} def
/LC7 {1 0.3 0} def
/LC8 {0.5 0.5 0.5} def
% Default Line Types
/LTw {PL [] 1 setgray} def
/LTb {BL [] LCb DL} def
/LTa {AL [1 udl mul 2 udl mul] 0 setdash LCa setrgbcolor} def
/LT0 {PL [] LC0 DL} def
/LT1 {PL [4 dl1 2 dl2] LC1 DL} def
/LT2 {PL [2 dl1 3 dl2] LC2 DL} def
/LT3 {PL [1 dl1 1.5 dl2] LC3 DL} def
/LT4 {PL [6 dl1 2 dl2 1 dl1 2 dl2] LC4 DL} def
/LT5 {PL [3 dl1 3 dl2 1 dl1 3 dl2] LC5 DL} def
/LT6 {PL [2 dl1 2 dl2 2 dl1 6 dl2] LC6 DL} def
/LT7 {PL [1 dl1 2 dl2 6 dl1 2 dl2 1 dl1 2 dl2] LC7 DL} def
/LT8 {PL [2 dl1 2 dl2 2 dl1 2 dl2 2 dl1 2 dl2 2 dl1 4 dl2] LC8 DL} def
/Pnt {stroke [] 0 setdash gsave 1 setlinecap M 0 0 V stroke grestore} def
/Dia {stroke [] 0 setdash 2 copy vpt add M
  hpt neg vpt neg V hpt vpt neg V
  hpt vpt V hpt neg vpt V closepath stroke
  Pnt} def
/Pls {stroke [] 0 setdash vpt sub M 0 vpt2 V
  currentpoint stroke M
  hpt neg vpt neg R hpt2 0 V stroke
 } def
/Box {stroke [] 0 setdash 2 copy exch hpt sub exch vpt add M
  0 vpt2 neg V hpt2 0 V 0 vpt2 V
  hpt2 neg 0 V closepath stroke
  Pnt} def
/Crs {stroke [] 0 setdash exch hpt sub exch vpt add M
  hpt2 vpt2 neg V currentpoint stroke M
  hpt2 neg 0 R hpt2 vpt2 V stroke} def
/TriU {stroke [] 0 setdash 2 copy vpt 1.12 mul add M
  hpt neg vpt -1.62 mul V
  hpt 2 mul 0 V
  hpt neg vpt 1.62 mul V closepath stroke
  Pnt} def
/Star {2 copy Pls Crs} def
/BoxF {stroke [] 0 setdash exch hpt sub exch vpt add M
  0 vpt2 neg V hpt2 0 V 0 vpt2 V
  hpt2 neg 0 V closepath fill} def
/TriUF {stroke [] 0 setdash vpt 1.12 mul add M
  hpt neg vpt -1.62 mul V
  hpt 2 mul 0 V
  hpt neg vpt 1.62 mul V closepath fill} def
/TriD {stroke [] 0 setdash 2 copy vpt 1.12 mul sub M
  hpt neg vpt 1.62 mul V
  hpt 2 mul 0 V
  hpt neg vpt -1.62 mul V closepath stroke
  Pnt} def
/TriDF {stroke [] 0 setdash vpt 1.12 mul sub M
  hpt neg vpt 1.62 mul V
  hpt 2 mul 0 V
  hpt neg vpt -1.62 mul V closepath fill} def
/DiaF {stroke [] 0 setdash vpt add M
  hpt neg vpt neg V hpt vpt neg V
  hpt vpt V hpt neg vpt V closepath fill} def
/Pent {stroke [] 0 setdash 2 copy gsave
  translate 0 hpt M 4 {72 rotate 0 hpt L} repeat
  closepath stroke grestore Pnt} def
/PentF {stroke [] 0 setdash gsave
  translate 0 hpt M 4 {72 rotate 0 hpt L} repeat
  closepath fill grestore} def
/Circle {stroke [] 0 setdash 2 copy
  hpt 0 360 arc stroke Pnt} def
/CircleF {stroke [] 0 setdash hpt 0 360 arc fill} def
/C0 {BL [] 0 setdash 2 copy moveto vpt 90 450 arc} bind def
/C1 {BL [] 0 setdash 2 copy moveto
	2 copy vpt 0 90 arc closepath fill
	vpt 0 360 arc closepath} bind def
/C2 {BL [] 0 setdash 2 copy moveto
	2 copy vpt 90 180 arc closepath fill
	vpt 0 360 arc closepath} bind def
/C3 {BL [] 0 setdash 2 copy moveto
	2 copy vpt 0 180 arc closepath fill
	vpt 0 360 arc closepath} bind def
/C4 {BL [] 0 setdash 2 copy moveto
	2 copy vpt 180 270 arc closepath fill
	vpt 0 360 arc closepath} bind def
/C5 {BL [] 0 setdash 2 copy moveto
	2 copy vpt 0 90 arc
	2 copy moveto
	2 copy vpt 180 270 arc closepath fill
	vpt 0 360 arc} bind def
/C6 {BL [] 0 setdash 2 copy moveto
	2 copy vpt 90 270 arc closepath fill
	vpt 0 360 arc closepath} bind def
/C7 {BL [] 0 setdash 2 copy moveto
	2 copy vpt 0 270 arc closepath fill
	vpt 0 360 arc closepath} bind def
/C8 {BL [] 0 setdash 2 copy moveto
	2 copy vpt 270 360 arc closepath fill
	vpt 0 360 arc closepath} bind def
/C9 {BL [] 0 setdash 2 copy moveto
	2 copy vpt 270 450 arc closepath fill
	vpt 0 360 arc closepath} bind def
/C10 {BL [] 0 setdash 2 copy 2 copy moveto vpt 270 360 arc closepath fill
	2 copy moveto
	2 copy vpt 90 180 arc closepath fill
	vpt 0 360 arc closepath} bind def
/C11 {BL [] 0 setdash 2 copy moveto
	2 copy vpt 0 180 arc closepath fill
	2 copy moveto
	2 copy vpt 270 360 arc closepath fill
	vpt 0 360 arc closepath} bind def
/C12 {BL [] 0 setdash 2 copy moveto
	2 copy vpt 180 360 arc closepath fill
	vpt 0 360 arc closepath} bind def
/C13 {BL [] 0 setdash 2 copy moveto
	2 copy vpt 0 90 arc closepath fill
	2 copy moveto
	2 copy vpt 180 360 arc closepath fill
	vpt 0 360 arc closepath} bind def
/C14 {BL [] 0 setdash 2 copy moveto
	2 copy vpt 90 360 arc closepath fill
	vpt 0 360 arc} bind def
/C15 {BL [] 0 setdash 2 copy vpt 0 360 arc closepath fill
	vpt 0 360 arc closepath} bind def
/Rec {newpath 4 2 roll moveto 1 index 0 rlineto 0 exch rlineto
	neg 0 rlineto closepath} bind def
/Square {dup Rec} bind def
/Bsquare {vpt sub exch vpt sub exch vpt2 Square} bind def
/S0 {BL [] 0 setdash 2 copy moveto 0 vpt rlineto BL Bsquare} bind def
/S1 {BL [] 0 setdash 2 copy vpt Square fill Bsquare} bind def
/S2 {BL [] 0 setdash 2 copy exch vpt sub exch vpt Square fill Bsquare} bind def
/S3 {BL [] 0 setdash 2 copy exch vpt sub exch vpt2 vpt Rec fill Bsquare} bind def
/S4 {BL [] 0 setdash 2 copy exch vpt sub exch vpt sub vpt Square fill Bsquare} bind def
/S5 {BL [] 0 setdash 2 copy 2 copy vpt Square fill
	exch vpt sub exch vpt sub vpt Square fill Bsquare} bind def
/S6 {BL [] 0 setdash 2 copy exch vpt sub exch vpt sub vpt vpt2 Rec fill Bsquare} bind def
/S7 {BL [] 0 setdash 2 copy exch vpt sub exch vpt sub vpt vpt2 Rec fill
	2 copy vpt Square fill Bsquare} bind def
/S8 {BL [] 0 setdash 2 copy vpt sub vpt Square fill Bsquare} bind def
/S9 {BL [] 0 setdash 2 copy vpt sub vpt vpt2 Rec fill Bsquare} bind def
/S10 {BL [] 0 setdash 2 copy vpt sub vpt Square fill 2 copy exch vpt sub exch vpt Square fill
	Bsquare} bind def
/S11 {BL [] 0 setdash 2 copy vpt sub vpt Square fill 2 copy exch vpt sub exch vpt2 vpt Rec fill
	Bsquare} bind def
/S12 {BL [] 0 setdash 2 copy exch vpt sub exch vpt sub vpt2 vpt Rec fill Bsquare} bind def
/S13 {BL [] 0 setdash 2 copy exch vpt sub exch vpt sub vpt2 vpt Rec fill
	2 copy vpt Square fill Bsquare} bind def
/S14 {BL [] 0 setdash 2 copy exch vpt sub exch vpt sub vpt2 vpt Rec fill
	2 copy exch vpt sub exch vpt Square fill Bsquare} bind def
/S15 {BL [] 0 setdash 2 copy Bsquare fill Bsquare} bind def
/D0 {gsave translate 45 rotate 0 0 S0 stroke grestore} bind def
/D1 {gsave translate 45 rotate 0 0 S1 stroke grestore} bind def
/D2 {gsave translate 45 rotate 0 0 S2 stroke grestore} bind def
/D3 {gsave translate 45 rotate 0 0 S3 stroke grestore} bind def
/D4 {gsave translate 45 rotate 0 0 S4 stroke grestore} bind def
/D5 {gsave translate 45 rotate 0 0 S5 stroke grestore} bind def
/D6 {gsave translate 45 rotate 0 0 S6 stroke grestore} bind def
/D7 {gsave translate 45 rotate 0 0 S7 stroke grestore} bind def
/D8 {gsave translate 45 rotate 0 0 S8 stroke grestore} bind def
/D9 {gsave translate 45 rotate 0 0 S9 stroke grestore} bind def
/D10 {gsave translate 45 rotate 0 0 S10 stroke grestore} bind def
/D11 {gsave translate 45 rotate 0 0 S11 stroke grestore} bind def
/D12 {gsave translate 45 rotate 0 0 S12 stroke grestore} bind def
/D13 {gsave translate 45 rotate 0 0 S13 stroke grestore} bind def
/D14 {gsave translate 45 rotate 0 0 S14 stroke grestore} bind def
/D15 {gsave translate 45 rotate 0 0 S15 stroke grestore} bind def
/DiaE {stroke [] 0 setdash vpt add M
  hpt neg vpt neg V hpt vpt neg V
  hpt vpt V hpt neg vpt V closepath stroke} def
/BoxE {stroke [] 0 setdash exch hpt sub exch vpt add M
  0 vpt2 neg V hpt2 0 V 0 vpt2 V
  hpt2 neg 0 V closepath stroke} def
/TriUE {stroke [] 0 setdash vpt 1.12 mul add M
  hpt neg vpt -1.62 mul V
  hpt 2 mul 0 V
  hpt neg vpt 1.62 mul V closepath stroke} def
/TriDE {stroke [] 0 setdash vpt 1.12 mul sub M
  hpt neg vpt 1.62 mul V
  hpt 2 mul 0 V
  hpt neg vpt -1.62 mul V closepath stroke} def
/PentE {stroke [] 0 setdash gsave
  translate 0 hpt M 4 {72 rotate 0 hpt L} repeat
  closepath stroke grestore} def
/CircE {stroke [] 0 setdash 
  hpt 0 360 arc stroke} def
/Opaque {gsave closepath 1 setgray fill grestore 0 setgray closepath} def
/DiaW {stroke [] 0 setdash vpt add M
  hpt neg vpt neg V hpt vpt neg V
  hpt vpt V hpt neg vpt V Opaque stroke} def
/BoxW {stroke [] 0 setdash exch hpt sub exch vpt add M
  0 vpt2 neg V hpt2 0 V 0 vpt2 V
  hpt2 neg 0 V Opaque stroke} def
/TriUW {stroke [] 0 setdash vpt 1.12 mul add M
  hpt neg vpt -1.62 mul V
  hpt 2 mul 0 V
  hpt neg vpt 1.62 mul V Opaque stroke} def
/TriDW {stroke [] 0 setdash vpt 1.12 mul sub M
  hpt neg vpt 1.62 mul V
  hpt 2 mul 0 V
  hpt neg vpt -1.62 mul V Opaque stroke} def
/PentW {stroke [] 0 setdash gsave
  translate 0 hpt M 4 {72 rotate 0 hpt L} repeat
  Opaque stroke grestore} def
/CircW {stroke [] 0 setdash 
  hpt 0 360 arc Opaque stroke} def
/BoxFill {gsave Rec 1 setgray fill grestore} def
/Density {
  /Fillden exch def
  currentrgbcolor
  /ColB exch def /ColG exch def /ColR exch def
  /ColR ColR Fillden mul Fillden sub 1 add def
  /ColG ColG Fillden mul Fillden sub 1 add def
  /ColB ColB Fillden mul Fillden sub 1 add def
  ColR ColG ColB setrgbcolor} def
/BoxColFill {gsave Rec PolyFill} def
/PolyFill {gsave Density fill grestore grestore} def
/h {rlineto rlineto rlineto gsave closepath fill grestore} bind def
%
% PostScript Level 1 Pattern Fill routine for rectangles
% Usage: x y w h s a XX PatternFill
%	x,y = lower left corner of box to be filled
%	w,h = width and height of box
%	  a = angle in degrees between lines and x-axis
%	 XX = 0/1 for no/yes cross-hatch
%
/PatternFill {gsave /PFa [ 9 2 roll ] def
  PFa 0 get PFa 2 get 2 div add PFa 1 get PFa 3 get 2 div add translate
  PFa 2 get -2 div PFa 3 get -2 div PFa 2 get PFa 3 get Rec
  gsave 1 setgray fill grestore clip
  currentlinewidth 0.5 mul setlinewidth
  /PFs PFa 2 get dup mul PFa 3 get dup mul add sqrt def
  0 0 M PFa 5 get rotate PFs -2 div dup translate
  0 1 PFs PFa 4 get div 1 add floor cvi
	{PFa 4 get mul 0 M 0 PFs V} for
  0 PFa 6 get ne {
	0 1 PFs PFa 4 get div 1 add floor cvi
	{PFa 4 get mul 0 2 1 roll M PFs 0 V} for
 } if
  stroke grestore} def
%
/languagelevel where
 {pop languagelevel} {1} ifelse
 2 lt
	{/InterpretLevel1 true def}
	{/InterpretLevel1 Level1 def}
 ifelse
%
% PostScript level 2 pattern fill definitions
%
/Level2PatternFill {
/Tile8x8 {/PaintType 2 /PatternType 1 /TilingType 1 /BBox [0 0 8 8] /XStep 8 /YStep 8}
	bind def
/KeepColor {currentrgbcolor [/Pattern /DeviceRGB] setcolorspace} bind def
<< Tile8x8
 /PaintProc {0.5 setlinewidth pop 0 0 M 8 8 L 0 8 M 8 0 L stroke} 
>> matrix makepattern
/Pat1 exch def
<< Tile8x8
 /PaintProc {0.5 setlinewidth pop 0 0 M 8 8 L 0 8 M 8 0 L stroke
	0 4 M 4 8 L 8 4 L 4 0 L 0 4 L stroke}
>> matrix makepattern
/Pat2 exch def
<< Tile8x8
 /PaintProc {0.5 setlinewidth pop 0 0 M 0 8 L
	8 8 L 8 0 L 0 0 L fill}
>> matrix makepattern
/Pat3 exch def
<< Tile8x8
 /PaintProc {0.5 setlinewidth pop -4 8 M 8 -4 L
	0 12 M 12 0 L stroke}
>> matrix makepattern
/Pat4 exch def
<< Tile8x8
 /PaintProc {0.5 setlinewidth pop -4 0 M 8 12 L
	0 -4 M 12 8 L stroke}
>> matrix makepattern
/Pat5 exch def
<< Tile8x8
 /PaintProc {0.5 setlinewidth pop -2 8 M 4 -4 L
	0 12 M 8 -4 L 4 12 M 10 0 L stroke}
>> matrix makepattern
/Pat6 exch def
<< Tile8x8
 /PaintProc {0.5 setlinewidth pop -2 0 M 4 12 L
	0 -4 M 8 12 L 4 -4 M 10 8 L stroke}
>> matrix makepattern
/Pat7 exch def
<< Tile8x8
 /PaintProc {0.5 setlinewidth pop 8 -2 M -4 4 L
	12 0 M -4 8 L 12 4 M 0 10 L stroke}
>> matrix makepattern
/Pat8 exch def
<< Tile8x8
 /PaintProc {0.5 setlinewidth pop 0 -2 M 12 4 L
	-4 0 M 12 8 L -4 4 M 8 10 L stroke}
>> matrix makepattern
/Pat9 exch def
/Pattern1 {PatternBgnd KeepColor Pat1 setpattern} bind def
/Pattern2 {PatternBgnd KeepColor Pat2 setpattern} bind def
/Pattern3 {PatternBgnd KeepColor Pat3 setpattern} bind def
/Pattern4 {PatternBgnd KeepColor Landscape {Pat5} {Pat4} ifelse setpattern} bind def
/Pattern5 {PatternBgnd KeepColor Landscape {Pat4} {Pat5} ifelse setpattern} bind def
/Pattern6 {PatternBgnd KeepColor Landscape {Pat9} {Pat6} ifelse setpattern} bind def
/Pattern7 {PatternBgnd KeepColor Landscape {Pat8} {Pat7} ifelse setpattern} bind def
} def
%
%
%End of PostScript Level 2 code
%
/PatternBgnd {
  TransparentPatterns {} {gsave 1 setgray fill grestore} ifelse
} def
%
% Substitute for Level 2 pattern fill codes with
% grayscale if Level 2 support is not selected.
%
/Level1PatternFill {
/Pattern1 {0.250 Density} bind def
/Pattern2 {0.500 Density} bind def
/Pattern3 {0.750 Density} bind def
/Pattern4 {0.125 Density} bind def
/Pattern5 {0.375 Density} bind def
/Pattern6 {0.625 Density} bind def
/Pattern7 {0.875 Density} bind def
} def
%
% Now test for support of Level 2 code
%
Level1 {Level1PatternFill} {Level2PatternFill} ifelse
%
/Symbol-Oblique /Symbol findfont [1 0 .167 1 0 0] makefont
dup length dict begin {1 index /FID eq {pop pop} {def} ifelse} forall
currentdict end definefont pop
end
%%EndProlog
gnudict begin
gsave
doclip
50 50 translate
0.050 0.050 scale
0 setgray
newpath
(Helvetica) findfont 140 scalefont setfont
1.000 UL
LTb
686 448 M
63 0 V
6198 0 R
-63 0 V
602 448 M
( 0) Rshow
1.000 UL
LTb
686 1185 M
63 0 V
6198 0 R
-63 0 V
-6282 0 R
( 20) Rshow
1.000 UL
LTb
686 1922 M
63 0 V
6198 0 R
-63 0 V
-6282 0 R
( 40) Rshow
1.000 UL
LTb
686 2660 M
63 0 V
6198 0 R
-63 0 V
-6282 0 R
( 60) Rshow
1.000 UL
LTb
686 3397 M
63 0 V
6198 0 R
-63 0 V
-6282 0 R
( 80) Rshow
1.000 UL
LTb
686 4134 M
63 0 V
6198 0 R
-63 0 V
-6282 0 R
( 100) Rshow
1.000 UL
LTb
686 4871 M
63 0 V
6198 0 R
-63 0 V
-6282 0 R
( 120) Rshow
1.000 UL
LTb
686 448 M
0 63 V
0 4360 R
0 -63 V
686 308 M
( 0) Cshow
1.000 UL
LTb
1580 448 M
0 63 V
0 4360 R
0 -63 V
0 -4500 R
( 200) Cshow
1.000 UL
LTb
2475 448 M
0 63 V
0 4360 R
0 -63 V
0 -4500 R
( 400) Cshow
1.000 UL
LTb
3369 448 M
0 63 V
0 4360 R
0 -63 V
0 -4500 R
( 600) Cshow
1.000 UL
LTb
4264 448 M
0 63 V
0 4360 R
0 -63 V
0 -4500 R
( 800) Cshow
1.000 UL
LTb
5158 448 M
0 63 V
0 4360 R
0 -63 V
0 -4500 R
( 1000) Cshow
1.000 UL
LTb
6053 448 M
0 63 V
0 4360 R
0 -63 V
0 -4500 R
( 1200) Cshow
1.000 UL
LTb
6947 448 M
0 63 V
0 4360 R
0 -63 V
0 -4500 R
( 1400) Cshow
1.000 UL
LTb
1.000 UL
LTb
686 4871 N
686 448 L
6261 0 V
0 4423 V
-6261 0 V
Z stroke
LCb setrgbcolor
112 2659 M
currentpoint gsave translate -270 rotate 0 0 M
(Visit Count per 1000 Plies) Cshow
grestore
LTb
LCb setrgbcolor
3816 98 M
(States \(Sorted by Earliest Visit Time\)) Cshow
LTb
1.000 UP
1.000 UL
LTb
% Begin plot #1
1.000 UP
1.000 UL
LT0
LCb setrgbcolor
6296 4738 M
(Offset = 4) Rshow
LT0
686 4759 Pls
690 1164 Pls
695 595 Pls
699 849 Pls
704 556 Pls
708 642 Pls
713 1052 Pls
717 1198 Pls
722 879 Pls
726 633 Pls
731 577 Pls
735 500 Pls
740 1069 Pls
744 776 Pls
749 482 Pls
753 711 Pls
758 508 Pls
762 482 Pls
766 534 Pls
771 457 Pls
775 539 Pls
780 482 Pls
784 470 Pls
789 465 Pls
793 651 Pls
798 582 Pls
802 1121 Pls
807 491 Pls
811 508 Pls
816 478 Pls
820 482 Pls
825 508 Pls
829 508 Pls
834 457 Pls
838 461 Pls
843 487 Pls
847 474 Pls
851 461 Pls
856 474 Pls
860 465 Pls
865 452 Pls
869 582 Pls
874 517 Pls
878 491 Pls
883 465 Pls
887 504 Pls
892 452 Pls
896 495 Pls
901 569 Pls
905 474 Pls
910 543 Pls
914 491 Pls
919 526 Pls
923 478 Pls
927 482 Pls
932 474 Pls
936 513 Pls
941 461 Pls
945 487 Pls
950 461 Pls
954 465 Pls
959 465 Pls
963 457 Pls
968 603 Pls
972 577 Pls
977 482 Pls
981 478 Pls
986 461 Pls
990 465 Pls
995 504 Pls
999 491 Pls
1004 526 Pls
1008 539 Pls
1012 482 Pls
1017 521 Pls
1021 474 Pls
1026 564 Pls
1030 521 Pls
1035 487 Pls
1039 638 Pls
1044 547 Pls
1048 491 Pls
1053 590 Pls
1057 513 Pls
1062 521 Pls
1066 534 Pls
1071 495 Pls
1075 681 Pls
1080 461 Pls
1084 452 Pls
1088 452 Pls
1093 461 Pls
1097 461 Pls
1102 500 Pls
1106 470 Pls
1111 465 Pls
1115 474 Pls
1120 457 Pls
1124 465 Pls
1129 482 Pls
1133 487 Pls
1138 487 Pls
1142 457 Pls
1147 465 Pls
1151 491 Pls
1156 474 Pls
1160 478 Pls
1165 465 Pls
1169 470 Pls
1173 465 Pls
1178 470 Pls
1182 452 Pls
1187 482 Pls
1191 457 Pls
1196 457 Pls
1200 457 Pls
1205 461 Pls
1209 457 Pls
1214 452 Pls
1218 491 Pls
1223 461 Pls
1227 465 Pls
1232 478 Pls
1236 461 Pls
1241 470 Pls
1245 474 Pls
1249 457 Pls
1254 470 Pls
1258 478 Pls
1263 465 Pls
1267 452 Pls
1272 474 Pls
1276 452 Pls
1281 470 Pls
1285 474 Pls
1290 457 Pls
1294 452 Pls
1299 452 Pls
1303 457 Pls
1308 452 Pls
1312 452 Pls
1317 452 Pls
1321 478 Pls
1326 457 Pls
1330 465 Pls
1334 482 Pls
1339 452 Pls
1343 457 Pls
1348 526 Pls
1352 457 Pls
1357 517 Pls
1361 513 Pls
1366 482 Pls
1370 487 Pls
1375 465 Pls
1379 482 Pls
1384 508 Pls
1388 470 Pls
1393 530 Pls
1397 452 Pls
1402 526 Pls
1406 495 Pls
1410 577 Pls
1415 457 Pls
1419 457 Pls
1424 482 Pls
1428 465 Pls
1433 482 Pls
1437 564 Pls
1442 478 Pls
1446 495 Pls
1451 495 Pls
1455 452 Pls
1460 474 Pls
1464 508 Pls
1469 461 Pls
1473 504 Pls
1478 556 Pls
1482 465 Pls
1487 452 Pls
1491 461 Pls
1495 457 Pls
1500 521 Pls
1504 539 Pls
1509 470 Pls
1513 530 Pls
1518 457 Pls
1522 452 Pls
1527 478 Pls
1531 482 Pls
1536 452 Pls
1540 513 Pls
1545 452 Pls
1549 452 Pls
1554 457 Pls
1558 526 Pls
1563 504 Pls
1567 452 Pls
1571 457 Pls
1576 457 Pls
1580 452 Pls
1585 452 Pls
1589 465 Pls
1594 457 Pls
1598 452 Pls
1603 457 Pls
1607 452 Pls
1612 452 Pls
1616 452 Pls
1621 452 Pls
1625 461 Pls
1630 452 Pls
1634 470 Pls
1639 457 Pls
1643 461 Pls
1648 452 Pls
1652 465 Pls
1656 457 Pls
1661 457 Pls
1665 474 Pls
1670 465 Pls
1674 478 Pls
1679 452 Pls
1683 461 Pls
1688 452 Pls
1692 452 Pls
1697 482 Pls
1701 461 Pls
1706 452 Pls
1710 461 Pls
1715 457 Pls
1719 465 Pls
1724 461 Pls
1728 452 Pls
1732 457 Pls
1737 452 Pls
1741 452 Pls
1746 452 Pls
1750 461 Pls
1755 470 Pls
1759 461 Pls
1764 452 Pls
1768 457 Pls
1773 461 Pls
1777 457 Pls
1782 470 Pls
1786 461 Pls
1791 457 Pls
1795 461 Pls
1800 457 Pls
1804 470 Pls
1809 461 Pls
1813 452 Pls
1817 461 Pls
1822 452 Pls
1826 452 Pls
1831 452 Pls
1835 452 Pls
1840 461 Pls
1844 461 Pls
1849 474 Pls
1853 478 Pls
1858 474 Pls
1862 470 Pls
1867 474 Pls
1871 457 Pls
1876 482 Pls
1880 452 Pls
1885 461 Pls
1889 474 Pls
1893 452 Pls
1898 508 Pls
1902 521 Pls
1907 487 Pls
1911 500 Pls
1916 487 Pls
1920 491 Pls
1925 482 Pls
1929 521 Pls
1934 452 Pls
1938 478 Pls
1943 461 Pls
1947 470 Pls
1952 457 Pls
1956 457 Pls
1961 470 Pls
1965 470 Pls
1970 465 Pls
1974 461 Pls
1978 474 Pls
1983 474 Pls
1987 482 Pls
1992 457 Pls
1996 461 Pls
2001 470 Pls
2005 461 Pls
2010 457 Pls
2014 457 Pls
2019 474 Pls
2023 478 Pls
2028 517 Pls
2032 487 Pls
2037 487 Pls
2041 452 Pls
2046 474 Pls
2050 457 Pls
2054 470 Pls
2059 457 Pls
2063 513 Pls
2068 452 Pls
2072 457 Pls
2077 452 Pls
2081 461 Pls
2086 478 Pls
2090 482 Pls
2095 495 Pls
2099 474 Pls
2104 465 Pls
2108 470 Pls
2113 487 Pls
2117 470 Pls
2122 465 Pls
2126 461 Pls
2131 491 Pls
2135 482 Pls
2139 461 Pls
2144 470 Pls
2148 474 Pls
2153 452 Pls
2157 452 Pls
2162 452 Pls
2166 452 Pls
2171 452 Pls
2175 452 Pls
2180 452 Pls
2184 461 Pls
2189 461 Pls
2193 452 Pls
2198 461 Pls
2202 452 Pls
2207 461 Pls
2211 452 Pls
2215 482 Pls
2220 461 Pls
2224 465 Pls
2229 452 Pls
2233 452 Pls
2238 461 Pls
2242 465 Pls
2247 465 Pls
2251 452 Pls
2256 452 Pls
2260 465 Pls
2265 452 Pls
2269 465 Pls
2274 452 Pls
2278 452 Pls
2283 452 Pls
2287 470 Pls
2291 461 Pls
2296 457 Pls
2300 452 Pls
2305 457 Pls
2309 457 Pls
2314 457 Pls
2318 452 Pls
2323 452 Pls
2327 452 Pls
2332 452 Pls
2336 452 Pls
2341 457 Pls
2345 457 Pls
2350 452 Pls
2354 452 Pls
2359 452 Pls
2363 465 Pls
2368 465 Pls
2372 457 Pls
2376 452 Pls
2381 452 Pls
2385 457 Pls
2390 457 Pls
2394 457 Pls
2399 452 Pls
2403 457 Pls
2408 457 Pls
2412 461 Pls
2417 452 Pls
2421 470 Pls
2426 452 Pls
2430 457 Pls
2435 457 Pls
2439 452 Pls
2444 452 Pls
2448 465 Pls
2452 457 Pls
2457 452 Pls
2461 452 Pls
2466 461 Pls
2470 452 Pls
2475 452 Pls
2479 452 Pls
2484 457 Pls
2488 452 Pls
2493 452 Pls
2497 482 Pls
2502 457 Pls
2506 491 Pls
2511 495 Pls
2515 500 Pls
2520 530 Pls
2524 470 Pls
2529 465 Pls
2533 461 Pls
2537 452 Pls
2542 478 Pls
2546 474 Pls
2551 487 Pls
2555 461 Pls
2560 470 Pls
2564 452 Pls
2569 457 Pls
2573 452 Pls
2578 452 Pls
2582 470 Pls
2587 452 Pls
2591 482 Pls
2596 474 Pls
2600 457 Pls
2605 487 Pls
2609 461 Pls
2613 487 Pls
2618 504 Pls
2622 465 Pls
2627 465 Pls
2631 470 Pls
2636 452 Pls
2640 487 Pls
2645 457 Pls
2649 504 Pls
2654 504 Pls
2658 491 Pls
2663 504 Pls
2667 487 Pls
2672 487 Pls
2676 452 Pls
2681 465 Pls
2685 457 Pls
2690 474 Pls
2694 504 Pls
2698 470 Pls
2703 482 Pls
2707 461 Pls
2712 452 Pls
2716 452 Pls
2721 457 Pls
2725 470 Pls
2730 500 Pls
2734 517 Pls
2739 461 Pls
2743 487 Pls
2748 487 Pls
2752 465 Pls
2757 470 Pls
2761 452 Pls
2766 452 Pls
2770 461 Pls
2774 461 Pls
2779 465 Pls
2783 461 Pls
2788 452 Pls
2792 452 Pls
2797 452 Pls
2801 569 Pls
2806 543 Pls
2810 534 Pls
2815 495 Pls
2819 487 Pls
2824 508 Pls
2828 526 Pls
2833 495 Pls
2837 474 Pls
2842 534 Pls
2846 508 Pls
2851 452 Pls
2855 461 Pls
2859 573 Pls
2864 474 Pls
2868 487 Pls
2873 474 Pls
2877 508 Pls
2882 491 Pls
2886 452 Pls
2891 482 Pls
2895 491 Pls
2900 457 Pls
2904 482 Pls
2909 452 Pls
2913 452 Pls
2918 452 Pls
2922 452 Pls
2927 457 Pls
2931 452 Pls
2935 461 Pls
2940 452 Pls
2944 452 Pls
2949 470 Pls
2953 457 Pls
2958 457 Pls
2962 452 Pls
2967 452 Pls
2971 452 Pls
2976 452 Pls
2980 457 Pls
2985 452 Pls
2989 461 Pls
2994 452 Pls
2998 482 Pls
3003 457 Pls
3007 482 Pls
3012 452 Pls
3016 457 Pls
3020 470 Pls
3025 457 Pls
3029 465 Pls
3034 461 Pls
3038 465 Pls
3043 461 Pls
3047 457 Pls
3052 457 Pls
3056 457 Pls
3061 457 Pls
3065 470 Pls
3070 452 Pls
3074 452 Pls
3079 478 Pls
3083 452 Pls
3088 452 Pls
3092 452 Pls
3096 452 Pls
3101 457 Pls
3105 452 Pls
3110 452 Pls
3114 470 Pls
3119 452 Pls
3123 457 Pls
3128 452 Pls
3132 461 Pls
3137 452 Pls
3141 482 Pls
3146 452 Pls
3150 478 Pls
3155 482 Pls
3159 465 Pls
3164 452 Pls
3168 461 Pls
3173 457 Pls
3177 452 Pls
3181 457 Pls
3186 491 Pls
3190 482 Pls
3195 470 Pls
3199 461 Pls
3204 452 Pls
3208 470 Pls
3213 452 Pls
3217 461 Pls
3222 470 Pls
3226 457 Pls
3231 457 Pls
3235 513 Pls
3240 487 Pls
3244 465 Pls
3249 482 Pls
3253 457 Pls
3257 470 Pls
3262 470 Pls
3266 461 Pls
3271 452 Pls
3275 461 Pls
3280 470 Pls
3284 474 Pls
3289 461 Pls
3293 526 Pls
3298 487 Pls
3302 517 Pls
3307 478 Pls
3311 491 Pls
3316 461 Pls
3320 478 Pls
3325 478 Pls
3329 461 Pls
3334 487 Pls
3338 452 Pls
3342 461 Pls
3347 457 Pls
3351 474 Pls
3356 452 Pls
3360 452 Pls
3365 457 Pls
3369 465 Pls
3374 465 Pls
3378 457 Pls
3383 474 Pls
3387 457 Pls
3392 461 Pls
3396 452 Pls
3401 461 Pls
3405 452 Pls
3410 500 Pls
3414 482 Pls
3418 487 Pls
3423 487 Pls
3427 465 Pls
3432 461 Pls
3436 457 Pls
3441 482 Pls
3445 461 Pls
3450 457 Pls
3454 470 Pls
3459 470 Pls
3463 495 Pls
3468 465 Pls
3472 457 Pls
3477 452 Pls
3481 465 Pls
3486 478 Pls
3490 457 Pls
3495 452 Pls
3499 461 Pls
3503 452 Pls
3508 457 Pls
3512 457 Pls
3517 452 Pls
3521 452 Pls
3526 452 Pls
3530 452 Pls
3535 457 Pls
3539 457 Pls
3544 452 Pls
3548 452 Pls
3553 461 Pls
3557 452 Pls
3562 465 Pls
3566 457 Pls
3571 457 Pls
3575 452 Pls
3579 452 Pls
3584 452 Pls
3588 457 Pls
3593 457 Pls
3597 457 Pls
3602 452 Pls
3606 452 Pls
3611 457 Pls
3615 474 Pls
3620 457 Pls
3624 452 Pls
3629 452 Pls
3633 452 Pls
3638 461 Pls
3642 457 Pls
3647 452 Pls
3651 470 Pls
3656 457 Pls
3660 461 Pls
3664 457 Pls
3669 452 Pls
3673 461 Pls
3678 461 Pls
3682 452 Pls
3687 452 Pls
3691 452 Pls
3696 452 Pls
3700 452 Pls
3705 452 Pls
3709 452 Pls
3714 452 Pls
3718 452 Pls
3723 452 Pls
3727 452 Pls
3732 452 Pls
3736 452 Pls
3740 452 Pls
3745 457 Pls
3749 461 Pls
3754 452 Pls
3758 452 Pls
3763 452 Pls
3767 457 Pls
3772 457 Pls
3776 452 Pls
3781 457 Pls
3785 452 Pls
3790 470 Pls
3794 474 Pls
3799 452 Pls
3803 457 Pls
3808 452 Pls
3812 461 Pls
3816 457 Pls
3821 457 Pls
3825 452 Pls
3830 452 Pls
3834 457 Pls
3839 457 Pls
3843 452 Pls
3848 457 Pls
3852 452 Pls
3857 457 Pls
3861 457 Pls
3866 470 Pls
3870 452 Pls
3875 461 Pls
3879 457 Pls
3884 452 Pls
3888 452 Pls
3893 465 Pls
3897 457 Pls
3901 491 Pls
3906 461 Pls
3910 465 Pls
3915 457 Pls
3919 452 Pls
3924 461 Pls
3928 461 Pls
3933 452 Pls
3937 452 Pls
3942 465 Pls
3946 457 Pls
3951 470 Pls
3955 452 Pls
3960 487 Pls
3964 465 Pls
3969 457 Pls
3973 461 Pls
3977 452 Pls
3982 491 Pls
3986 461 Pls
3991 478 Pls
3995 452 Pls
4000 461 Pls
4004 465 Pls
4009 461 Pls
4013 470 Pls
4018 465 Pls
4022 461 Pls
4027 461 Pls
4031 457 Pls
4036 491 Pls
4040 452 Pls
4045 461 Pls
4049 457 Pls
4054 461 Pls
4058 470 Pls
4062 452 Pls
4067 457 Pls
4071 470 Pls
4076 465 Pls
4080 461 Pls
4085 452 Pls
4089 457 Pls
4094 478 Pls
4098 495 Pls
4103 461 Pls
4107 461 Pls
4112 487 Pls
4116 465 Pls
4121 482 Pls
4125 470 Pls
4130 457 Pls
4134 474 Pls
4138 452 Pls
4143 470 Pls
4147 457 Pls
4152 461 Pls
4156 487 Pls
4161 465 Pls
4165 457 Pls
4170 452 Pls
4174 465 Pls
4179 457 Pls
4183 461 Pls
4188 461 Pls
4192 482 Pls
4197 461 Pls
4201 487 Pls
4206 457 Pls
4210 461 Pls
4215 457 Pls
4219 452 Pls
4223 482 Pls
4228 465 Pls
4232 470 Pls
4237 461 Pls
4241 452 Pls
4246 461 Pls
4250 482 Pls
4255 461 Pls
4259 465 Pls
4264 465 Pls
4268 452 Pls
4273 646 Pls
4277 569 Pls
4282 526 Pls
4286 539 Pls
4291 482 Pls
4295 508 Pls
4299 474 Pls
4304 521 Pls
4308 500 Pls
4313 521 Pls
4317 487 Pls
4322 470 Pls
4326 500 Pls
4331 478 Pls
4335 491 Pls
4340 452 Pls
4344 526 Pls
4349 461 Pls
4353 474 Pls
4358 478 Pls
4362 465 Pls
4367 526 Pls
4371 470 Pls
4376 478 Pls
4380 452 Pls
4384 573 Pls
4389 495 Pls
4393 470 Pls
4398 457 Pls
4402 504 Pls
4407 478 Pls
4411 543 Pls
4416 491 Pls
4420 482 Pls
4425 452 Pls
4429 457 Pls
4434 457 Pls
4438 547 Pls
4443 461 Pls
4447 470 Pls
4452 457 Pls
4456 452 Pls
4460 478 Pls
4465 504 Pls
4469 470 Pls
4474 452 Pls
4478 465 Pls
4483 457 Pls
4487 457 Pls
4492 452 Pls
4496 457 Pls
4501 457 Pls
4505 452 Pls
4510 457 Pls
4514 452 Pls
4519 457 Pls
4523 452 Pls
4528 452 Pls
4532 452 Pls
4537 452 Pls
4541 452 Pls
4545 457 Pls
4550 452 Pls
4554 452 Pls
4559 457 Pls
4563 457 Pls
4568 452 Pls
4572 470 Pls
4577 457 Pls
4581 452 Pls
4586 457 Pls
4590 452 Pls
4595 452 Pls
4599 452 Pls
4604 465 Pls
4608 452 Pls
4613 452 Pls
4617 452 Pls
4621 452 Pls
4626 457 Pls
4630 452 Pls
4635 491 Pls
4639 457 Pls
4644 457 Pls
4648 457 Pls
4653 470 Pls
4657 457 Pls
4662 457 Pls
4666 457 Pls
4671 470 Pls
4675 452 Pls
4680 474 Pls
4684 500 Pls
4689 461 Pls
4693 465 Pls
4698 452 Pls
4702 465 Pls
4706 461 Pls
4711 452 Pls
4715 457 Pls
4720 457 Pls
4724 504 Pls
4729 461 Pls
4733 465 Pls
4738 482 Pls
4742 474 Pls
4747 452 Pls
4751 461 Pls
4756 470 Pls
4760 470 Pls
4765 465 Pls
4769 495 Pls
4774 461 Pls
4778 452 Pls
4782 461 Pls
4787 452 Pls
4791 452 Pls
4796 457 Pls
4800 452 Pls
4805 452 Pls
4809 482 Pls
4814 452 Pls
4818 452 Pls
4823 457 Pls
4827 452 Pls
4832 452 Pls
4836 487 Pls
4841 547 Pls
4845 495 Pls
4850 482 Pls
4854 465 Pls
4859 461 Pls
4863 487 Pls
4867 474 Pls
4872 500 Pls
4876 465 Pls
4881 470 Pls
4885 461 Pls
4890 452 Pls
4894 569 Pls
4899 482 Pls
4903 452 Pls
4908 461 Pls
4912 452 Pls
4917 495 Pls
4921 461 Pls
4926 452 Pls
4930 452 Pls
4935 612 Pls
4939 521 Pls
4943 482 Pls
4948 478 Pls
4952 461 Pls
4957 452 Pls
4961 452 Pls
4966 465 Pls
4970 465 Pls
4975 452 Pls
4979 452 Pls
4984 452 Pls
4988 457 Pls
4993 452 Pls
4997 452 Pls
5002 470 Pls
5006 461 Pls
5011 452 Pls
5015 457 Pls
5020 452 Pls
5024 452 Pls
5028 461 Pls
5033 452 Pls
5037 452 Pls
5042 452 Pls
5046 452 Pls
5051 452 Pls
5055 474 Pls
5060 452 Pls
5064 452 Pls
5069 452 Pls
5073 461 Pls
5078 457 Pls
5082 470 Pls
5087 452 Pls
5091 452 Pls
5096 452 Pls
5100 452 Pls
5104 457 Pls
5109 452 Pls
5113 452 Pls
5118 452 Pls
5122 452 Pls
5127 452 Pls
5131 457 Pls
5136 452 Pls
5140 452 Pls
5145 461 Pls
5149 457 Pls
5154 452 Pls
5158 452 Pls
5163 452 Pls
5167 452 Pls
5172 452 Pls
5176 457 Pls
5181 461 Pls
5185 457 Pls
5189 487 Pls
5194 482 Pls
5198 457 Pls
5203 461 Pls
5207 457 Pls
5212 452 Pls
5216 457 Pls
5221 452 Pls
5225 482 Pls
5230 465 Pls
5234 478 Pls
5239 474 Pls
5243 487 Pls
5248 470 Pls
5252 461 Pls
5257 482 Pls
5261 482 Pls
5265 457 Pls
5270 452 Pls
5274 465 Pls
5279 482 Pls
5283 452 Pls
5288 457 Pls
5292 457 Pls
5297 461 Pls
5301 513 Pls
5306 470 Pls
5310 478 Pls
5315 487 Pls
5319 457 Pls
5324 470 Pls
5328 457 Pls
5333 457 Pls
5337 461 Pls
5342 452 Pls
5346 487 Pls
5350 457 Pls
5355 457 Pls
5359 478 Pls
5364 482 Pls
5368 465 Pls
5373 452 Pls
5377 452 Pls
5382 452 Pls
5386 526 Pls
5391 465 Pls
5395 457 Pls
5400 487 Pls
5404 461 Pls
5409 457 Pls
5413 452 Pls
5418 452 Pls
5422 452 Pls
5426 457 Pls
5431 457 Pls
5435 470 Pls
5440 517 Pls
5444 491 Pls
5449 569 Pls
5453 474 Pls
5458 526 Pls
5462 495 Pls
5467 478 Pls
5471 551 Pls
5476 539 Pls
5480 513 Pls
5485 482 Pls
5489 452 Pls
5494 543 Pls
5498 461 Pls
5502 487 Pls
5507 465 Pls
5511 642 Pls
5516 534 Pls
5520 508 Pls
5525 474 Pls
5529 487 Pls
5534 452 Pls
5538 539 Pls
5543 457 Pls
5547 452 Pls
5552 461 Pls
5556 452 Pls
5561 642 Pls
5565 508 Pls
5570 569 Pls
5574 482 Pls
5579 487 Pls
5583 517 Pls
5587 474 Pls
5592 465 Pls
5596 452 Pls
5601 452 Pls
5605 474 Pls
5610 452 Pls
5614 457 Pls
5619 465 Pls
5623 452 Pls
5628 452 Pls
5632 452 Pls
5637 452 Pls
5641 452 Pls
5646 470 Pls
5650 452 Pls
5655 452 Pls
5659 457 Pls
5663 465 Pls
5668 465 Pls
5672 452 Pls
5677 452 Pls
5681 465 Pls
5686 452 Pls
5690 452 Pls
5695 478 Pls
5699 457 Pls
5704 452 Pls
5708 457 Pls
5713 452 Pls
5717 474 Pls
5722 461 Pls
5726 508 Pls
5731 457 Pls
5735 452 Pls
5740 474 Pls
5744 452 Pls
5748 457 Pls
5753 452 Pls
5757 452 Pls
5762 461 Pls
5766 461 Pls
5771 517 Pls
5775 474 Pls
5780 474 Pls
5784 461 Pls
5789 452 Pls
5793 461 Pls
5798 491 Pls
5802 526 Pls
5807 461 Pls
5811 547 Pls
5816 487 Pls
5820 452 Pls
5824 508 Pls
5829 487 Pls
5833 452 Pls
5838 491 Pls
5842 452 Pls
5847 452 Pls
5851 461 Pls
5856 452 Pls
5860 461 Pls
5865 457 Pls
5869 452 Pls
5874 461 Pls
5878 457 Pls
5883 452 Pls
5887 452 Pls
5892 452 Pls
5896 452 Pls
5901 461 Pls
5905 452 Pls
5909 457 Pls
5914 452 Pls
5918 457 Pls
5923 452 Pls
5927 452 Pls
5932 452 Pls
5936 457 Pls
5941 457 Pls
5945 457 Pls
5950 452 Pls
5954 457 Pls
5959 461 Pls
5963 452 Pls
5968 452 Pls
5972 461 Pls
5977 457 Pls
5981 452 Pls
5985 452 Pls
5990 452 Pls
5994 465 Pls
5999 478 Pls
6003 461 Pls
6008 465 Pls
6012 457 Pls
6017 452 Pls
6021 539 Pls
6026 474 Pls
6030 470 Pls
6035 452 Pls
6039 452 Pls
6044 452 Pls
6048 577 Pls
6053 500 Pls
6057 474 Pls
6062 465 Pls
6066 457 Pls
6070 452 Pls
6075 457 Pls
6079 741 Pls
6084 452 Pls
6088 457 Pls
6093 457 Pls
6097 452 Pls
6102 452 Pls
6106 457 Pls
6111 452 Pls
6115 465 Pls
6120 452 Pls
6124 452 Pls
6129 452 Pls
6133 457 Pls
6138 457 Pls
6142 452 Pls
6146 452 Pls
6151 452 Pls
6155 457 Pls
6160 452 Pls
6164 452 Pls
6169 452 Pls
6173 452 Pls
6178 452 Pls
6182 461 Pls
6187 452 Pls
6191 452 Pls
6196 452 Pls
6200 452 Pls
6205 465 Pls
6209 452 Pls
6214 452 Pls
6218 452 Pls
6223 452 Pls
6227 452 Pls
6231 452 Pls
6236 452 Pls
6240 452 Pls
6245 452 Pls
6249 452 Pls
6254 457 Pls
6579 4738 Pls
% End plot #1
1.000 UL
LTb
686 4871 N
686 448 L
6261 0 V
0 4423 V
-6261 0 V
Z stroke
1.000 UP
1.000 UL
LTb
stroke
grestore
end
showpage
%%Trailer
%%DocumentFonts: Helvetica
