%!PS-Adobe-2.0 EPSF-2.0
%%Title: ../plots/domainstats/states-sorted-by-ply-visit-count-minigammon-p-1.00.eps
%%Creator: gnuplot 4.4 patchlevel 3
%%CreationDate: Wed Dec 14 04:42:16 2011
%%DocumentFonts: (atend)
%%BoundingBox: 50 50 410 302
%%EndComments
%%BeginProlog
/gnudict 256 dict def
gnudict begin
%
% The following true/false flags may be edited by hand if desired.
% The unit line width and grayscale image gamma correction may also be changed.
%
/Color true def
/Blacktext false def
/Solid false def
/Dashlength 1 def
/Landscape false def
/Level1 false def
/Rounded false def
/ClipToBoundingBox false def
/TransparentPatterns false def
/gnulinewidth 5.000 def
/userlinewidth gnulinewidth def
/Gamma 1.0 def
%
/vshift -46 def
/dl1 {
  10.0 Dashlength mul mul
  Rounded { currentlinewidth 0.75 mul sub dup 0 le { pop 0.01 } if } if
} def
/dl2 {
  10.0 Dashlength mul mul
  Rounded { currentlinewidth 0.75 mul add } if
} def
/hpt_ 31.5 def
/vpt_ 31.5 def
/hpt hpt_ def
/vpt vpt_ def
Level1 {} {
/SDict 10 dict def
systemdict /pdfmark known not {
  userdict /pdfmark systemdict /cleartomark get put
} if
SDict begin [
  /Title (../plots/domainstats/states-sorted-by-ply-visit-count-minigammon-p-1.00.eps)
  /Subject (gnuplot plot)
  /Creator (gnuplot 4.4 patchlevel 3)
  /Author (reza)
%  /Producer (gnuplot)
%  /Keywords ()
  /CreationDate (Wed Dec 14 04:42:16 2011)
  /DOCINFO pdfmark
end
} ifelse
/doclip {
  ClipToBoundingBox {
    newpath 50 50 moveto 410 50 lineto 410 302 lineto 50 302 lineto closepath
    clip
  } if
} def
%
% Gnuplot Prolog Version 4.4 (August 2010)
%
%/SuppressPDFMark true def
%
/M {moveto} bind def
/L {lineto} bind def
/R {rmoveto} bind def
/V {rlineto} bind def
/N {newpath moveto} bind def
/Z {closepath} bind def
/C {setrgbcolor} bind def
/f {rlineto fill} bind def
/g {setgray} bind def
/Gshow {show} def   % May be redefined later in the file to support UTF-8
/vpt2 vpt 2 mul def
/hpt2 hpt 2 mul def
/Lshow {currentpoint stroke M 0 vshift R 
	Blacktext {gsave 0 setgray show grestore} {show} ifelse} def
/Rshow {currentpoint stroke M dup stringwidth pop neg vshift R
	Blacktext {gsave 0 setgray show grestore} {show} ifelse} def
/Cshow {currentpoint stroke M dup stringwidth pop -2 div vshift R 
	Blacktext {gsave 0 setgray show grestore} {show} ifelse} def
/UP {dup vpt_ mul /vpt exch def hpt_ mul /hpt exch def
  /hpt2 hpt 2 mul def /vpt2 vpt 2 mul def} def
/DL {Color {setrgbcolor Solid {pop []} if 0 setdash}
 {pop pop pop 0 setgray Solid {pop []} if 0 setdash} ifelse} def
/BL {stroke userlinewidth 2 mul setlinewidth
	Rounded {1 setlinejoin 1 setlinecap} if} def
/AL {stroke userlinewidth 2 div setlinewidth
	Rounded {1 setlinejoin 1 setlinecap} if} def
/UL {dup gnulinewidth mul /userlinewidth exch def
	dup 1 lt {pop 1} if 10 mul /udl exch def} def
/PL {stroke userlinewidth setlinewidth
	Rounded {1 setlinejoin 1 setlinecap} if} def
3.8 setmiterlimit
% Default Line colors
/LCw {1 1 1} def
/LCb {0 0 0} def
/LCa {0 0 0} def
/LC0 {1 0 0} def
/LC1 {0 1 0} def
/LC2 {0 0 1} def
/LC3 {1 0 1} def
/LC4 {0 1 1} def
/LC5 {1 1 0} def
/LC6 {0 0 0} def
/LC7 {1 0.3 0} def
/LC8 {0.5 0.5 0.5} def
% Default Line Types
/LTw {PL [] 1 setgray} def
/LTb {BL [] LCb DL} def
/LTa {AL [1 udl mul 2 udl mul] 0 setdash LCa setrgbcolor} def
/LT0 {PL [] LC0 DL} def
/LT1 {PL [4 dl1 2 dl2] LC1 DL} def
/LT2 {PL [2 dl1 3 dl2] LC2 DL} def
/LT3 {PL [1 dl1 1.5 dl2] LC3 DL} def
/LT4 {PL [6 dl1 2 dl2 1 dl1 2 dl2] LC4 DL} def
/LT5 {PL [3 dl1 3 dl2 1 dl1 3 dl2] LC5 DL} def
/LT6 {PL [2 dl1 2 dl2 2 dl1 6 dl2] LC6 DL} def
/LT7 {PL [1 dl1 2 dl2 6 dl1 2 dl2 1 dl1 2 dl2] LC7 DL} def
/LT8 {PL [2 dl1 2 dl2 2 dl1 2 dl2 2 dl1 2 dl2 2 dl1 4 dl2] LC8 DL} def
/Pnt {stroke [] 0 setdash gsave 1 setlinecap M 0 0 V stroke grestore} def
/Dia {stroke [] 0 setdash 2 copy vpt add M
  hpt neg vpt neg V hpt vpt neg V
  hpt vpt V hpt neg vpt V closepath stroke
  Pnt} def
/Pls {stroke [] 0 setdash vpt sub M 0 vpt2 V
  currentpoint stroke M
  hpt neg vpt neg R hpt2 0 V stroke
 } def
/Box {stroke [] 0 setdash 2 copy exch hpt sub exch vpt add M
  0 vpt2 neg V hpt2 0 V 0 vpt2 V
  hpt2 neg 0 V closepath stroke
  Pnt} def
/Crs {stroke [] 0 setdash exch hpt sub exch vpt add M
  hpt2 vpt2 neg V currentpoint stroke M
  hpt2 neg 0 R hpt2 vpt2 V stroke} def
/TriU {stroke [] 0 setdash 2 copy vpt 1.12 mul add M
  hpt neg vpt -1.62 mul V
  hpt 2 mul 0 V
  hpt neg vpt 1.62 mul V closepath stroke
  Pnt} def
/Star {2 copy Pls Crs} def
/BoxF {stroke [] 0 setdash exch hpt sub exch vpt add M
  0 vpt2 neg V hpt2 0 V 0 vpt2 V
  hpt2 neg 0 V closepath fill} def
/TriUF {stroke [] 0 setdash vpt 1.12 mul add M
  hpt neg vpt -1.62 mul V
  hpt 2 mul 0 V
  hpt neg vpt 1.62 mul V closepath fill} def
/TriD {stroke [] 0 setdash 2 copy vpt 1.12 mul sub M
  hpt neg vpt 1.62 mul V
  hpt 2 mul 0 V
  hpt neg vpt -1.62 mul V closepath stroke
  Pnt} def
/TriDF {stroke [] 0 setdash vpt 1.12 mul sub M
  hpt neg vpt 1.62 mul V
  hpt 2 mul 0 V
  hpt neg vpt -1.62 mul V closepath fill} def
/DiaF {stroke [] 0 setdash vpt add M
  hpt neg vpt neg V hpt vpt neg V
  hpt vpt V hpt neg vpt V closepath fill} def
/Pent {stroke [] 0 setdash 2 copy gsave
  translate 0 hpt M 4 {72 rotate 0 hpt L} repeat
  closepath stroke grestore Pnt} def
/PentF {stroke [] 0 setdash gsave
  translate 0 hpt M 4 {72 rotate 0 hpt L} repeat
  closepath fill grestore} def
/Circle {stroke [] 0 setdash 2 copy
  hpt 0 360 arc stroke Pnt} def
/CircleF {stroke [] 0 setdash hpt 0 360 arc fill} def
/C0 {BL [] 0 setdash 2 copy moveto vpt 90 450 arc} bind def
/C1 {BL [] 0 setdash 2 copy moveto
	2 copy vpt 0 90 arc closepath fill
	vpt 0 360 arc closepath} bind def
/C2 {BL [] 0 setdash 2 copy moveto
	2 copy vpt 90 180 arc closepath fill
	vpt 0 360 arc closepath} bind def
/C3 {BL [] 0 setdash 2 copy moveto
	2 copy vpt 0 180 arc closepath fill
	vpt 0 360 arc closepath} bind def
/C4 {BL [] 0 setdash 2 copy moveto
	2 copy vpt 180 270 arc closepath fill
	vpt 0 360 arc closepath} bind def
/C5 {BL [] 0 setdash 2 copy moveto
	2 copy vpt 0 90 arc
	2 copy moveto
	2 copy vpt 180 270 arc closepath fill
	vpt 0 360 arc} bind def
/C6 {BL [] 0 setdash 2 copy moveto
	2 copy vpt 90 270 arc closepath fill
	vpt 0 360 arc closepath} bind def
/C7 {BL [] 0 setdash 2 copy moveto
	2 copy vpt 0 270 arc closepath fill
	vpt 0 360 arc closepath} bind def
/C8 {BL [] 0 setdash 2 copy moveto
	2 copy vpt 270 360 arc closepath fill
	vpt 0 360 arc closepath} bind def
/C9 {BL [] 0 setdash 2 copy moveto
	2 copy vpt 270 450 arc closepath fill
	vpt 0 360 arc closepath} bind def
/C10 {BL [] 0 setdash 2 copy 2 copy moveto vpt 270 360 arc closepath fill
	2 copy moveto
	2 copy vpt 90 180 arc closepath fill
	vpt 0 360 arc closepath} bind def
/C11 {BL [] 0 setdash 2 copy moveto
	2 copy vpt 0 180 arc closepath fill
	2 copy moveto
	2 copy vpt 270 360 arc closepath fill
	vpt 0 360 arc closepath} bind def
/C12 {BL [] 0 setdash 2 copy moveto
	2 copy vpt 180 360 arc closepath fill
	vpt 0 360 arc closepath} bind def
/C13 {BL [] 0 setdash 2 copy moveto
	2 copy vpt 0 90 arc closepath fill
	2 copy moveto
	2 copy vpt 180 360 arc closepath fill
	vpt 0 360 arc closepath} bind def
/C14 {BL [] 0 setdash 2 copy moveto
	2 copy vpt 90 360 arc closepath fill
	vpt 0 360 arc} bind def
/C15 {BL [] 0 setdash 2 copy vpt 0 360 arc closepath fill
	vpt 0 360 arc closepath} bind def
/Rec {newpath 4 2 roll moveto 1 index 0 rlineto 0 exch rlineto
	neg 0 rlineto closepath} bind def
/Square {dup Rec} bind def
/Bsquare {vpt sub exch vpt sub exch vpt2 Square} bind def
/S0 {BL [] 0 setdash 2 copy moveto 0 vpt rlineto BL Bsquare} bind def
/S1 {BL [] 0 setdash 2 copy vpt Square fill Bsquare} bind def
/S2 {BL [] 0 setdash 2 copy exch vpt sub exch vpt Square fill Bsquare} bind def
/S3 {BL [] 0 setdash 2 copy exch vpt sub exch vpt2 vpt Rec fill Bsquare} bind def
/S4 {BL [] 0 setdash 2 copy exch vpt sub exch vpt sub vpt Square fill Bsquare} bind def
/S5 {BL [] 0 setdash 2 copy 2 copy vpt Square fill
	exch vpt sub exch vpt sub vpt Square fill Bsquare} bind def
/S6 {BL [] 0 setdash 2 copy exch vpt sub exch vpt sub vpt vpt2 Rec fill Bsquare} bind def
/S7 {BL [] 0 setdash 2 copy exch vpt sub exch vpt sub vpt vpt2 Rec fill
	2 copy vpt Square fill Bsquare} bind def
/S8 {BL [] 0 setdash 2 copy vpt sub vpt Square fill Bsquare} bind def
/S9 {BL [] 0 setdash 2 copy vpt sub vpt vpt2 Rec fill Bsquare} bind def
/S10 {BL [] 0 setdash 2 copy vpt sub vpt Square fill 2 copy exch vpt sub exch vpt Square fill
	Bsquare} bind def
/S11 {BL [] 0 setdash 2 copy vpt sub vpt Square fill 2 copy exch vpt sub exch vpt2 vpt Rec fill
	Bsquare} bind def
/S12 {BL [] 0 setdash 2 copy exch vpt sub exch vpt sub vpt2 vpt Rec fill Bsquare} bind def
/S13 {BL [] 0 setdash 2 copy exch vpt sub exch vpt sub vpt2 vpt Rec fill
	2 copy vpt Square fill Bsquare} bind def
/S14 {BL [] 0 setdash 2 copy exch vpt sub exch vpt sub vpt2 vpt Rec fill
	2 copy exch vpt sub exch vpt Square fill Bsquare} bind def
/S15 {BL [] 0 setdash 2 copy Bsquare fill Bsquare} bind def
/D0 {gsave translate 45 rotate 0 0 S0 stroke grestore} bind def
/D1 {gsave translate 45 rotate 0 0 S1 stroke grestore} bind def
/D2 {gsave translate 45 rotate 0 0 S2 stroke grestore} bind def
/D3 {gsave translate 45 rotate 0 0 S3 stroke grestore} bind def
/D4 {gsave translate 45 rotate 0 0 S4 stroke grestore} bind def
/D5 {gsave translate 45 rotate 0 0 S5 stroke grestore} bind def
/D6 {gsave translate 45 rotate 0 0 S6 stroke grestore} bind def
/D7 {gsave translate 45 rotate 0 0 S7 stroke grestore} bind def
/D8 {gsave translate 45 rotate 0 0 S8 stroke grestore} bind def
/D9 {gsave translate 45 rotate 0 0 S9 stroke grestore} bind def
/D10 {gsave translate 45 rotate 0 0 S10 stroke grestore} bind def
/D11 {gsave translate 45 rotate 0 0 S11 stroke grestore} bind def
/D12 {gsave translate 45 rotate 0 0 S12 stroke grestore} bind def
/D13 {gsave translate 45 rotate 0 0 S13 stroke grestore} bind def
/D14 {gsave translate 45 rotate 0 0 S14 stroke grestore} bind def
/D15 {gsave translate 45 rotate 0 0 S15 stroke grestore} bind def
/DiaE {stroke [] 0 setdash vpt add M
  hpt neg vpt neg V hpt vpt neg V
  hpt vpt V hpt neg vpt V closepath stroke} def
/BoxE {stroke [] 0 setdash exch hpt sub exch vpt add M
  0 vpt2 neg V hpt2 0 V 0 vpt2 V
  hpt2 neg 0 V closepath stroke} def
/TriUE {stroke [] 0 setdash vpt 1.12 mul add M
  hpt neg vpt -1.62 mul V
  hpt 2 mul 0 V
  hpt neg vpt 1.62 mul V closepath stroke} def
/TriDE {stroke [] 0 setdash vpt 1.12 mul sub M
  hpt neg vpt 1.62 mul V
  hpt 2 mul 0 V
  hpt neg vpt -1.62 mul V closepath stroke} def
/PentE {stroke [] 0 setdash gsave
  translate 0 hpt M 4 {72 rotate 0 hpt L} repeat
  closepath stroke grestore} def
/CircE {stroke [] 0 setdash 
  hpt 0 360 arc stroke} def
/Opaque {gsave closepath 1 setgray fill grestore 0 setgray closepath} def
/DiaW {stroke [] 0 setdash vpt add M
  hpt neg vpt neg V hpt vpt neg V
  hpt vpt V hpt neg vpt V Opaque stroke} def
/BoxW {stroke [] 0 setdash exch hpt sub exch vpt add M
  0 vpt2 neg V hpt2 0 V 0 vpt2 V
  hpt2 neg 0 V Opaque stroke} def
/TriUW {stroke [] 0 setdash vpt 1.12 mul add M
  hpt neg vpt -1.62 mul V
  hpt 2 mul 0 V
  hpt neg vpt 1.62 mul V Opaque stroke} def
/TriDW {stroke [] 0 setdash vpt 1.12 mul sub M
  hpt neg vpt 1.62 mul V
  hpt 2 mul 0 V
  hpt neg vpt -1.62 mul V Opaque stroke} def
/PentW {stroke [] 0 setdash gsave
  translate 0 hpt M 4 {72 rotate 0 hpt L} repeat
  Opaque stroke grestore} def
/CircW {stroke [] 0 setdash 
  hpt 0 360 arc Opaque stroke} def
/BoxFill {gsave Rec 1 setgray fill grestore} def
/Density {
  /Fillden exch def
  currentrgbcolor
  /ColB exch def /ColG exch def /ColR exch def
  /ColR ColR Fillden mul Fillden sub 1 add def
  /ColG ColG Fillden mul Fillden sub 1 add def
  /ColB ColB Fillden mul Fillden sub 1 add def
  ColR ColG ColB setrgbcolor} def
/BoxColFill {gsave Rec PolyFill} def
/PolyFill {gsave Density fill grestore grestore} def
/h {rlineto rlineto rlineto gsave closepath fill grestore} bind def
%
% PostScript Level 1 Pattern Fill routine for rectangles
% Usage: x y w h s a XX PatternFill
%	x,y = lower left corner of box to be filled
%	w,h = width and height of box
%	  a = angle in degrees between lines and x-axis
%	 XX = 0/1 for no/yes cross-hatch
%
/PatternFill {gsave /PFa [ 9 2 roll ] def
  PFa 0 get PFa 2 get 2 div add PFa 1 get PFa 3 get 2 div add translate
  PFa 2 get -2 div PFa 3 get -2 div PFa 2 get PFa 3 get Rec
  gsave 1 setgray fill grestore clip
  currentlinewidth 0.5 mul setlinewidth
  /PFs PFa 2 get dup mul PFa 3 get dup mul add sqrt def
  0 0 M PFa 5 get rotate PFs -2 div dup translate
  0 1 PFs PFa 4 get div 1 add floor cvi
	{PFa 4 get mul 0 M 0 PFs V} for
  0 PFa 6 get ne {
	0 1 PFs PFa 4 get div 1 add floor cvi
	{PFa 4 get mul 0 2 1 roll M PFs 0 V} for
 } if
  stroke grestore} def
%
/languagelevel where
 {pop languagelevel} {1} ifelse
 2 lt
	{/InterpretLevel1 true def}
	{/InterpretLevel1 Level1 def}
 ifelse
%
% PostScript level 2 pattern fill definitions
%
/Level2PatternFill {
/Tile8x8 {/PaintType 2 /PatternType 1 /TilingType 1 /BBox [0 0 8 8] /XStep 8 /YStep 8}
	bind def
/KeepColor {currentrgbcolor [/Pattern /DeviceRGB] setcolorspace} bind def
<< Tile8x8
 /PaintProc {0.5 setlinewidth pop 0 0 M 8 8 L 0 8 M 8 0 L stroke} 
>> matrix makepattern
/Pat1 exch def
<< Tile8x8
 /PaintProc {0.5 setlinewidth pop 0 0 M 8 8 L 0 8 M 8 0 L stroke
	0 4 M 4 8 L 8 4 L 4 0 L 0 4 L stroke}
>> matrix makepattern
/Pat2 exch def
<< Tile8x8
 /PaintProc {0.5 setlinewidth pop 0 0 M 0 8 L
	8 8 L 8 0 L 0 0 L fill}
>> matrix makepattern
/Pat3 exch def
<< Tile8x8
 /PaintProc {0.5 setlinewidth pop -4 8 M 8 -4 L
	0 12 M 12 0 L stroke}
>> matrix makepattern
/Pat4 exch def
<< Tile8x8
 /PaintProc {0.5 setlinewidth pop -4 0 M 8 12 L
	0 -4 M 12 8 L stroke}
>> matrix makepattern
/Pat5 exch def
<< Tile8x8
 /PaintProc {0.5 setlinewidth pop -2 8 M 4 -4 L
	0 12 M 8 -4 L 4 12 M 10 0 L stroke}
>> matrix makepattern
/Pat6 exch def
<< Tile8x8
 /PaintProc {0.5 setlinewidth pop -2 0 M 4 12 L
	0 -4 M 8 12 L 4 -4 M 10 8 L stroke}
>> matrix makepattern
/Pat7 exch def
<< Tile8x8
 /PaintProc {0.5 setlinewidth pop 8 -2 M -4 4 L
	12 0 M -4 8 L 12 4 M 0 10 L stroke}
>> matrix makepattern
/Pat8 exch def
<< Tile8x8
 /PaintProc {0.5 setlinewidth pop 0 -2 M 12 4 L
	-4 0 M 12 8 L -4 4 M 8 10 L stroke}
>> matrix makepattern
/Pat9 exch def
/Pattern1 {PatternBgnd KeepColor Pat1 setpattern} bind def
/Pattern2 {PatternBgnd KeepColor Pat2 setpattern} bind def
/Pattern3 {PatternBgnd KeepColor Pat3 setpattern} bind def
/Pattern4 {PatternBgnd KeepColor Landscape {Pat5} {Pat4} ifelse setpattern} bind def
/Pattern5 {PatternBgnd KeepColor Landscape {Pat4} {Pat5} ifelse setpattern} bind def
/Pattern6 {PatternBgnd KeepColor Landscape {Pat9} {Pat6} ifelse setpattern} bind def
/Pattern7 {PatternBgnd KeepColor Landscape {Pat8} {Pat7} ifelse setpattern} bind def
} def
%
%
%End of PostScript Level 2 code
%
/PatternBgnd {
  TransparentPatterns {} {gsave 1 setgray fill grestore} ifelse
} def
%
% Substitute for Level 2 pattern fill codes with
% grayscale if Level 2 support is not selected.
%
/Level1PatternFill {
/Pattern1 {0.250 Density} bind def
/Pattern2 {0.500 Density} bind def
/Pattern3 {0.750 Density} bind def
/Pattern4 {0.125 Density} bind def
/Pattern5 {0.375 Density} bind def
/Pattern6 {0.625 Density} bind def
/Pattern7 {0.875 Density} bind def
} def
%
% Now test for support of Level 2 code
%
Level1 {Level1PatternFill} {Level2PatternFill} ifelse
%
/Symbol-Oblique /Symbol findfont [1 0 .167 1 0 0] makefont
dup length dict begin {1 index /FID eq {pop pop} {def} ifelse} forall
currentdict end definefont pop
end
%%EndProlog
gnudict begin
gsave
doclip
50 50 translate
0.050 0.050 scale
0 setgray
newpath
(Helvetica) findfont 140 scalefont setfont
1.000 UL
LTb
770 448 M
63 0 V
6114 0 R
-63 0 V
686 448 M
( 0) Rshow
1.000 UL
LTb
770 890 M
63 0 V
6114 0 R
-63 0 V
686 890 M
( 100) Rshow
1.000 UL
LTb
770 1333 M
63 0 V
6114 0 R
-63 0 V
-6198 0 R
( 200) Rshow
1.000 UL
LTb
770 1775 M
63 0 V
6114 0 R
-63 0 V
-6198 0 R
( 300) Rshow
1.000 UL
LTb
770 2217 M
63 0 V
6114 0 R
-63 0 V
-6198 0 R
( 400) Rshow
1.000 UL
LTb
770 2660 M
63 0 V
6114 0 R
-63 0 V
-6198 0 R
( 500) Rshow
1.000 UL
LTb
770 3102 M
63 0 V
6114 0 R
-63 0 V
-6198 0 R
( 600) Rshow
1.000 UL
LTb
770 3544 M
63 0 V
6114 0 R
-63 0 V
-6198 0 R
( 700) Rshow
1.000 UL
LTb
770 3986 M
63 0 V
6114 0 R
-63 0 V
-6198 0 R
( 800) Rshow
1.000 UL
LTb
770 4429 M
63 0 V
6114 0 R
-63 0 V
-6198 0 R
( 900) Rshow
1.000 UL
LTb
770 4871 M
63 0 V
6114 0 R
-63 0 V
-6198 0 R
( 1000) Rshow
1.000 UL
LTb
770 448 M
0 63 V
0 4360 R
0 -63 V
770 308 M
( 0) Cshow
1.000 UL
LTb
1388 448 M
0 63 V
0 4360 R
0 -63 V
0 -4500 R
( 200) Cshow
1.000 UL
LTb
2005 448 M
0 63 V
0 4360 R
0 -63 V
0 -4500 R
( 400) Cshow
1.000 UL
LTb
2623 448 M
0 63 V
0 4360 R
0 -63 V
0 -4500 R
( 600) Cshow
1.000 UL
LTb
3241 448 M
0 63 V
0 4360 R
0 -63 V
0 -4500 R
( 800) Cshow
1.000 UL
LTb
3858 448 M
0 63 V
0 4360 R
0 -63 V
0 -4500 R
( 1000) Cshow
1.000 UL
LTb
4476 448 M
0 63 V
0 4360 R
0 -63 V
0 -4500 R
( 1200) Cshow
1.000 UL
LTb
5094 448 M
0 63 V
0 4360 R
0 -63 V
0 -4500 R
( 1400) Cshow
1.000 UL
LTb
5712 448 M
0 63 V
0 4360 R
0 -63 V
0 -4500 R
( 1600) Cshow
1.000 UL
LTb
6329 448 M
0 63 V
0 4360 R
0 -63 V
0 -4500 R
( 1800) Cshow
1.000 UL
LTb
6947 448 M
0 63 V
0 4360 R
0 -63 V
0 -4500 R
( 2000) Cshow
1.000 UL
LTb
1.000 UL
LTb
770 4871 N
770 448 L
6177 0 V
0 4423 V
-6177 0 V
Z stroke
LCb setrgbcolor
112 2659 M
currentpoint gsave translate -270 rotate 0 0 M
(Visit Count) Cshow
grestore
LTb
LCb setrgbcolor
3858 98 M
(States \(Sorted by Earliest Visit Time\)) Cshow
LTb
1.000 UP
1.000 UL
LTb
% Begin plot #1
1.000 UP
1.000 UL
LT0
LCb setrgbcolor
6296 4738 M
(p = 1.00) Rshow
LT0
770 4871 Pls
773 1576 Pls
776 1704 Pls
779 1673 Pls
782 1549 Pls
785 2023 Pls
789 2200 Pls
792 1930 Pls
795 1978 Pls
798 669 Pls
801 815 Pls
804 1262 Pls
807 1390 Pls
810 731 Pls
813 846 Pls
816 1058 Pls
819 952 Pls
823 1178 Pls
826 1054 Pls
829 873 Pls
832 1346 Pls
835 780 Pls
838 1147 Pls
841 1063 Pls
844 762 Pls
847 1125 Pls
850 709 Pls
853 1147 Pls
856 1094 Pls
860 643 Pls
863 970 Pls
866 700 Pls
869 824 Pls
872 762 Pls
875 899 Pls
878 1633 Pls
881 917 Pls
884 1350 Pls
887 1195 Pls
890 576 Pls
894 864 Pls
897 700 Pls
900 837 Pls
903 780 Pls
906 718 Pls
909 780 Pls
912 1200 Pls
915 700 Pls
918 766 Pls
921 687 Pls
924 899 Pls
928 1315 Pls
931 762 Pls
934 1076 Pls
937 696 Pls
940 696 Pls
943 660 Pls
946 970 Pls
949 837 Pls
952 1266 Pls
955 802 Pls
958 709 Pls
961 709 Pls
965 846 Pls
968 952 Pls
971 1315 Pls
974 974 Pls
977 1191 Pls
980 802 Pls
983 921 Pls
986 802 Pls
989 824 Pls
992 510 Pls
995 740 Pls
999 890 Pls
1002 979 Pls
1005 1302 Pls
1008 868 Pls
1011 766 Pls
1014 643 Pls
1017 793 Pls
1020 957 Pls
1023 1333 Pls
1026 842 Pls
1029 1063 Pls
1033 1310 Pls
1036 1226 Pls
1039 1324 Pls
1042 1222 Pls
1045 806 Pls
1048 908 Pls
1051 811 Pls
1054 921 Pls
1057 718 Pls
1060 607 Pls
1063 519 Pls
1066 616 Pls
1070 696 Pls
1073 709 Pls
1076 691 Pls
1079 638 Pls
1082 629 Pls
1085 581 Pls
1088 753 Pls
1091 758 Pls
1094 598 Pls
1097 1067 Pls
1100 974 Pls
1104 590 Pls
1107 797 Pls
1110 957 Pls
1113 1027 Pls
1116 1010 Pls
1119 983 Pls
1122 705 Pls
1125 634 Pls
1128 629 Pls
1131 572 Pls
1134 572 Pls
1138 674 Pls
1141 713 Pls
1144 687 Pls
1147 713 Pls
1150 616 Pls
1153 625 Pls
1156 656 Pls
1159 731 Pls
1162 1027 Pls
1165 718 Pls
1168 815 Pls
1172 784 Pls
1175 634 Pls
1178 784 Pls
1181 1067 Pls
1184 797 Pls
1187 1386 Pls
1190 1262 Pls
1193 581 Pls
1196 510 Pls
1199 691 Pls
1202 784 Pls
1205 1116 Pls
1209 691 Pls
1212 890 Pls
1215 864 Pls
1218 612 Pls
1221 722 Pls
1224 974 Pls
1227 762 Pls
1230 1368 Pls
1233 1275 Pls
1236 625 Pls
1239 797 Pls
1243 669 Pls
1246 576 Pls
1249 660 Pls
1252 576 Pls
1255 864 Pls
1258 536 Pls
1261 550 Pls
1264 775 Pls
1267 643 Pls
1270 634 Pls
1273 563 Pls
1277 607 Pls
1280 532 Pls
1283 634 Pls
1286 696 Pls
1289 616 Pls
1292 731 Pls
1295 669 Pls
1298 656 Pls
1301 590 Pls
1304 1050 Pls
1307 957 Pls
1310 1165 Pls
1314 979 Pls
1317 904 Pls
1320 651 Pls
1323 665 Pls
1326 660 Pls
1329 607 Pls
1332 607 Pls
1335 514 Pls
1338 607 Pls
1341 629 Pls
1344 753 Pls
1348 735 Pls
1351 682 Pls
1354 793 Pls
1357 735 Pls
1360 590 Pls
1363 691 Pls
1366 665 Pls
1369 824 Pls
1372 638 Pls
1375 811 Pls
1378 740 Pls
1382 678 Pls
1385 629 Pls
1388 563 Pls
1391 957 Pls
1394 877 Pls
1397 554 Pls
1400 612 Pls
1403 612 Pls
1406 607 Pls
1409 656 Pls
1412 744 Pls
1415 965 Pls
1419 877 Pls
1422 1222 Pls
1425 952 Pls
1428 612 Pls
1431 735 Pls
1434 868 Pls
1437 718 Pls
1440 855 Pls
1443 974 Pls
1446 536 Pls
1449 678 Pls
1453 581 Pls
1456 713 Pls
1459 713 Pls
1462 713 Pls
1465 983 Pls
1468 890 Pls
1471 532 Pls
1474 576 Pls
1477 691 Pls
1480 930 Pls
1483 532 Pls
1487 965 Pls
1490 1045 Pls
1493 886 Pls
1496 952 Pls
1499 647 Pls
1502 594 Pls
1505 532 Pls
1508 536 Pls
1511 532 Pls
1514 665 Pls
1517 612 Pls
1521 536 Pls
1524 674 Pls
1527 656 Pls
1530 731 Pls
1533 992 Pls
1536 877 Pls
1539 625 Pls
1542 762 Pls
1545 895 Pls
1548 607 Pls
1551 528 Pls
1554 581 Pls
1558 607 Pls
1561 881 Pls
1564 705 Pls
1567 709 Pls
1570 665 Pls
1573 629 Pls
1576 939 Pls
1579 881 Pls
1582 576 Pls
1585 758 Pls
1588 1253 Pls
1592 846 Pls
1595 868 Pls
1598 873 Pls
1601 528 Pls
1604 563 Pls
1607 528 Pls
1610 559 Pls
1613 603 Pls
1616 590 Pls
1619 479 Pls
1622 536 Pls
1626 510 Pls
1629 528 Pls
1632 545 Pls
1635 625 Pls
1638 598 Pls
1641 625 Pls
1644 824 Pls
1647 758 Pls
1650 550 Pls
1653 665 Pls
1656 590 Pls
1659 572 Pls
1663 581 Pls
1666 1010 Pls
1669 607 Pls
1672 1050 Pls
1675 873 Pls
1678 585 Pls
1681 501 Pls
1684 647 Pls
1687 705 Pls
1690 594 Pls
1693 713 Pls
1697 483 Pls
1700 643 Pls
1703 594 Pls
1706 820 Pls
1709 554 Pls
1712 501 Pls
1715 585 Pls
1718 616 Pls
1721 784 Pls
1724 691 Pls
1727 660 Pls
1731 545 Pls
1734 528 Pls
1737 550 Pls
1740 585 Pls
1743 545 Pls
1746 519 Pls
1749 651 Pls
1752 674 Pls
1755 612 Pls
1758 828 Pls
1761 709 Pls
1764 988 Pls
1768 1045 Pls
1771 598 Pls
1774 656 Pls
1777 1063 Pls
1780 475 Pls
1783 563 Pls
1786 603 Pls
1789 651 Pls
1792 563 Pls
1795 572 Pls
1798 483 Pls
1802 660 Pls
1805 576 Pls
1808 603 Pls
1811 660 Pls
1814 620 Pls
1817 656 Pls
1820 824 Pls
1823 519 Pls
1826 545 Pls
1829 536 Pls
1832 528 Pls
1836 559 Pls
1839 532 Pls
1842 740 Pls
1845 634 Pls
1848 758 Pls
1851 656 Pls
1854 696 Pls
1857 598 Pls
1860 634 Pls
1863 541 Pls
1866 758 Pls
1870 541 Pls
1873 554 Pls
1876 585 Pls
1879 842 Pls
1882 740 Pls
1885 775 Pls
1888 576 Pls
1891 1010 Pls
1894 868 Pls
1897 505 Pls
1900 607 Pls
1903 665 Pls
1907 554 Pls
1910 629 Pls
1913 563 Pls
1916 510 Pls
1919 497 Pls
1922 497 Pls
1925 470 Pls
1928 691 Pls
1931 656 Pls
1934 510 Pls
1937 594 Pls
1941 634 Pls
1944 1001 Pls
1947 643 Pls
1950 563 Pls
1953 528 Pls
1956 665 Pls
1959 731 Pls
1962 766 Pls
1965 669 Pls
1968 656 Pls
1971 643 Pls
1975 651 Pls
1978 753 Pls
1981 797 Pls
1984 541 Pls
1987 510 Pls
1990 789 Pls
1993 678 Pls
1996 753 Pls
1999 492 Pls
2002 528 Pls
2005 678 Pls
2008 607 Pls
2012 705 Pls
2015 572 Pls
2018 643 Pls
2021 665 Pls
2024 674 Pls
2027 638 Pls
2030 873 Pls
2033 1001 Pls
2036 1050 Pls
2039 488 Pls
2042 634 Pls
2046 563 Pls
2049 532 Pls
2052 603 Pls
2055 594 Pls
2058 634 Pls
2061 598 Pls
2064 744 Pls
2067 607 Pls
2070 638 Pls
2073 873 Pls
2076 811 Pls
2080 647 Pls
2083 709 Pls
2086 895 Pls
2089 479 Pls
2092 682 Pls
2095 488 Pls
2098 492 Pls
2101 682 Pls
2104 550 Pls
2107 541 Pls
2110 709 Pls
2113 625 Pls
2117 612 Pls
2120 607 Pls
2123 563 Pls
2126 802 Pls
2129 612 Pls
2132 696 Pls
2135 585 Pls
2138 744 Pls
2141 523 Pls
2144 585 Pls
2147 541 Pls
2151 488 Pls
2154 603 Pls
2157 479 Pls
2160 616 Pls
2163 598 Pls
2166 660 Pls
2169 567 Pls
2172 651 Pls
2175 585 Pls
2178 581 Pls
2181 629 Pls
2185 647 Pls
2188 722 Pls
2191 590 Pls
2194 567 Pls
2197 700 Pls
2200 598 Pls
2203 735 Pls
2206 647 Pls
2209 612 Pls
2212 585 Pls
2215 912 Pls
2219 926 Pls
2222 682 Pls
2225 656 Pls
2228 514 Pls
2231 536 Pls
2234 563 Pls
2237 590 Pls
2240 550 Pls
2243 620 Pls
2246 705 Pls
2249 678 Pls
2252 784 Pls
2256 780 Pls
2259 590 Pls
2262 660 Pls
2265 687 Pls
2268 532 Pls
2271 572 Pls
2274 572 Pls
2277 519 Pls
2280 678 Pls
2283 634 Pls
2286 629 Pls
2290 634 Pls
2293 696 Pls
2296 532 Pls
2299 590 Pls
2302 806 Pls
2305 634 Pls
2308 510 Pls
2311 594 Pls
2314 638 Pls
2317 665 Pls
2320 616 Pls
2324 479 Pls
2327 545 Pls
2330 567 Pls
2333 643 Pls
2336 541 Pls
2339 563 Pls
2342 634 Pls
2345 625 Pls
2348 634 Pls
2351 789 Pls
2354 616 Pls
2357 651 Pls
2361 532 Pls
2364 488 Pls
2367 536 Pls
2370 612 Pls
2373 607 Pls
2376 643 Pls
2379 634 Pls
2382 612 Pls
2385 691 Pls
2388 674 Pls
2391 470 Pls
2395 660 Pls
2398 620 Pls
2401 550 Pls
2404 576 Pls
2407 505 Pls
2410 576 Pls
2413 523 Pls
2416 536 Pls
2419 479 Pls
2422 705 Pls
2425 528 Pls
2429 647 Pls
2432 545 Pls
2435 594 Pls
2438 660 Pls
2441 545 Pls
2444 567 Pls
2447 523 Pls
2450 483 Pls
2453 479 Pls
2456 594 Pls
2459 505 Pls
2462 523 Pls
2466 590 Pls
2469 497 Pls
2472 594 Pls
2475 528 Pls
2478 576 Pls
2481 576 Pls
2484 572 Pls
2487 576 Pls
2490 625 Pls
2493 523 Pls
2496 581 Pls
2500 682 Pls
2503 718 Pls
2506 771 Pls
2509 837 Pls
2512 572 Pls
2515 550 Pls
2518 572 Pls
2521 647 Pls
2524 550 Pls
2527 550 Pls
2530 554 Pls
2534 590 Pls
2537 581 Pls
2540 461 Pls
2543 536 Pls
2546 594 Pls
2549 625 Pls
2552 536 Pls
2555 572 Pls
2558 483 Pls
2561 528 Pls
2564 554 Pls
2568 612 Pls
2571 665 Pls
2574 766 Pls
2577 837 Pls
2580 930 Pls
2583 647 Pls
2586 572 Pls
2589 727 Pls
2592 612 Pls
2595 824 Pls
2598 470 Pls
2601 501 Pls
2605 550 Pls
2608 563 Pls
2611 669 Pls
2614 612 Pls
2617 713 Pls
2620 585 Pls
2623 559 Pls
2626 554 Pls
2629 528 Pls
2632 510 Pls
2635 541 Pls
2639 567 Pls
2642 528 Pls
2645 532 Pls
2648 550 Pls
2651 550 Pls
2654 616 Pls
2657 651 Pls
2660 660 Pls
2663 607 Pls
2666 687 Pls
2669 974 Pls
2673 563 Pls
2676 682 Pls
2679 651 Pls
2682 762 Pls
2685 612 Pls
2688 576 Pls
2691 563 Pls
2694 643 Pls
2697 563 Pls
2700 497 Pls
2703 647 Pls
2706 594 Pls
2710 620 Pls
2713 625 Pls
2716 629 Pls
2719 488 Pls
2722 536 Pls
2725 497 Pls
2728 532 Pls
2731 457 Pls
2734 598 Pls
2737 567 Pls
2740 603 Pls
2744 528 Pls
2747 612 Pls
2750 563 Pls
2753 475 Pls
2756 554 Pls
2759 523 Pls
2762 514 Pls
2765 501 Pls
2768 479 Pls
2771 497 Pls
2774 585 Pls
2778 532 Pls
2781 629 Pls
2784 497 Pls
2787 532 Pls
2790 722 Pls
2793 497 Pls
2796 545 Pls
2799 660 Pls
2802 948 Pls
2805 470 Pls
2808 594 Pls
2811 634 Pls
2815 505 Pls
2818 497 Pls
2821 545 Pls
2824 501 Pls
2827 559 Pls
2830 607 Pls
2833 492 Pls
2836 612 Pls
2839 713 Pls
2842 572 Pls
2845 643 Pls
2849 682 Pls
2852 762 Pls
2855 665 Pls
2858 528 Pls
2861 603 Pls
2864 620 Pls
2867 479 Pls
2870 523 Pls
2873 475 Pls
2876 590 Pls
2879 519 Pls
2883 541 Pls
2886 550 Pls
2889 647 Pls
2892 665 Pls
2895 466 Pls
2898 598 Pls
2901 691 Pls
2904 696 Pls
2907 541 Pls
2910 554 Pls
2913 550 Pls
2917 501 Pls
2920 536 Pls
2923 554 Pls
2926 488 Pls
2929 514 Pls
2932 563 Pls
2935 607 Pls
2938 687 Pls
2941 674 Pls
2944 656 Pls
2947 727 Pls
2950 523 Pls
2954 523 Pls
2957 532 Pls
2960 612 Pls
2963 660 Pls
2966 519 Pls
2969 501 Pls
2972 780 Pls
2975 590 Pls
2978 457 Pls
2981 483 Pls
2984 457 Pls
2988 461 Pls
2991 554 Pls
2994 598 Pls
2997 523 Pls
3000 470 Pls
3003 466 Pls
3006 514 Pls
3009 461 Pls
3012 497 Pls
3015 479 Pls
3018 554 Pls
3022 501 Pls
3025 488 Pls
3028 475 Pls
3031 523 Pls
3034 572 Pls
3037 528 Pls
3040 514 Pls
3043 581 Pls
3046 528 Pls
3049 475 Pls
3052 488 Pls
3055 559 Pls
3059 594 Pls
3062 532 Pls
3065 519 Pls
3068 581 Pls
3071 528 Pls
3074 457 Pls
3077 607 Pls
3080 696 Pls
3083 572 Pls
3086 629 Pls
3089 528 Pls
3093 559 Pls
3096 700 Pls
3099 492 Pls
3102 483 Pls
3105 514 Pls
3108 466 Pls
3111 545 Pls
3114 620 Pls
3117 590 Pls
3120 687 Pls
3123 753 Pls
3127 545 Pls
3130 541 Pls
3133 523 Pls
3136 519 Pls
3139 594 Pls
3142 559 Pls
3145 590 Pls
3148 634 Pls
3151 559 Pls
3154 519 Pls
3157 505 Pls
3160 514 Pls
3164 749 Pls
3167 682 Pls
3170 713 Pls
3173 625 Pls
3176 594 Pls
3179 674 Pls
3182 528 Pls
3185 510 Pls
3188 505 Pls
3191 545 Pls
3194 470 Pls
3198 559 Pls
3201 536 Pls
3204 536 Pls
3207 744 Pls
3210 749 Pls
3213 797 Pls
3216 497 Pls
3219 607 Pls
3222 519 Pls
3225 528 Pls
3228 545 Pls
3232 563 Pls
3235 532 Pls
3238 545 Pls
3241 625 Pls
3244 536 Pls
3247 559 Pls
3250 572 Pls
3253 567 Pls
3256 497 Pls
3259 470 Pls
3262 492 Pls
3266 483 Pls
3269 598 Pls
3272 488 Pls
3275 466 Pls
3278 541 Pls
3281 497 Pls
3284 492 Pls
3287 470 Pls
3290 466 Pls
3293 461 Pls
3296 466 Pls
3299 479 Pls
3303 479 Pls
3306 479 Pls
3309 563 Pls
3312 598 Pls
3315 532 Pls
3318 612 Pls
3321 528 Pls
3324 545 Pls
3327 625 Pls
3330 545 Pls
3333 669 Pls
3337 536 Pls
3340 559 Pls
3343 528 Pls
3346 528 Pls
3349 492 Pls
3352 457 Pls
3355 705 Pls
3358 567 Pls
3361 678 Pls
3364 536 Pls
3367 475 Pls
3371 598 Pls
3374 519 Pls
3377 567 Pls
3380 514 Pls
3383 581 Pls
3386 612 Pls
3389 563 Pls
3392 532 Pls
3395 505 Pls
3398 470 Pls
3401 519 Pls
3404 638 Pls
3408 581 Pls
3411 656 Pls
3414 492 Pls
3417 532 Pls
3420 510 Pls
3423 550 Pls
3426 559 Pls
3429 532 Pls
3432 545 Pls
3435 514 Pls
3438 505 Pls
3442 585 Pls
3445 598 Pls
3448 590 Pls
3451 612 Pls
3454 559 Pls
3457 563 Pls
3460 581 Pls
3463 559 Pls
3466 461 Pls
3469 479 Pls
3472 466 Pls
3476 492 Pls
3479 554 Pls
3482 501 Pls
3485 554 Pls
3488 559 Pls
3491 541 Pls
3494 505 Pls
3497 505 Pls
3500 475 Pls
3503 510 Pls
3506 536 Pls
3509 510 Pls
3513 510 Pls
3516 523 Pls
3519 488 Pls
3522 475 Pls
3525 475 Pls
3528 501 Pls
3531 457 Pls
3534 510 Pls
3537 488 Pls
3540 466 Pls
3543 452 Pls
3547 554 Pls
3550 629 Pls
3553 466 Pls
3556 514 Pls
3559 581 Pls
3562 647 Pls
3565 528 Pls
3568 497 Pls
3571 545 Pls
3574 625 Pls
3577 532 Pls
3581 607 Pls
3584 554 Pls
3587 523 Pls
3590 475 Pls
3593 479 Pls
3596 563 Pls
3599 523 Pls
3602 541 Pls
3605 554 Pls
3608 470 Pls
3611 545 Pls
3615 554 Pls
3618 470 Pls
3621 545 Pls
3624 638 Pls
3627 581 Pls
3630 567 Pls
3633 523 Pls
3636 585 Pls
3639 590 Pls
3642 735 Pls
3645 545 Pls
3648 514 Pls
3652 536 Pls
3655 541 Pls
3658 514 Pls
3661 576 Pls
3664 554 Pls
3667 598 Pls
3670 598 Pls
3673 545 Pls
3676 510 Pls
3679 475 Pls
3682 492 Pls
3686 523 Pls
3689 536 Pls
3692 532 Pls
3695 550 Pls
3698 532 Pls
3701 523 Pls
3704 638 Pls
3707 541 Pls
3710 483 Pls
3713 687 Pls
3716 514 Pls
3720 461 Pls
3723 554 Pls
3726 461 Pls
3729 563 Pls
3732 497 Pls
3735 519 Pls
3738 501 Pls
3741 475 Pls
3744 483 Pls
3747 501 Pls
3750 466 Pls
3753 483 Pls
3757 505 Pls
3760 488 Pls
3763 475 Pls
3766 598 Pls
3769 505 Pls
3772 488 Pls
3775 550 Pls
3778 452 Pls
3781 541 Pls
3784 519 Pls
3787 483 Pls
3791 457 Pls
3794 510 Pls
3797 470 Pls
3800 452 Pls
3803 510 Pls
3806 510 Pls
3809 519 Pls
3812 514 Pls
3815 532 Pls
3818 625 Pls
3821 528 Pls
3825 483 Pls
3828 514 Pls
3831 581 Pls
3834 475 Pls
3837 466 Pls
3840 576 Pls
3843 497 Pls
3846 501 Pls
3849 528 Pls
3852 461 Pls
3855 718 Pls
3858 669 Pls
3862 696 Pls
3865 461 Pls
3868 475 Pls
3871 466 Pls
3874 497 Pls
3877 581 Pls
3880 567 Pls
3883 598 Pls
3886 572 Pls
3889 572 Pls
3892 523 Pls
3896 545 Pls
3899 510 Pls
3902 545 Pls
3905 550 Pls
3908 545 Pls
3911 550 Pls
3914 505 Pls
3917 510 Pls
3920 510 Pls
3923 505 Pls
3926 598 Pls
3930 572 Pls
3933 514 Pls
3936 536 Pls
3939 656 Pls
3942 536 Pls
3945 492 Pls
3948 497 Pls
3951 479 Pls
3954 497 Pls
3957 505 Pls
3960 510 Pls
3964 514 Pls
3967 536 Pls
3970 519 Pls
3973 519 Pls
3976 572 Pls
3979 585 Pls
3982 528 Pls
3985 536 Pls
3988 488 Pls
3991 514 Pls
3994 461 Pls
3997 492 Pls
4001 479 Pls
4004 483 Pls
4007 470 Pls
4010 532 Pls
4013 501 Pls
4016 541 Pls
4019 505 Pls
4022 479 Pls
4025 505 Pls
4028 505 Pls
4031 492 Pls
4035 475 Pls
4038 461 Pls
4041 461 Pls
4044 541 Pls
4047 563 Pls
4050 475 Pls
4053 554 Pls
4056 510 Pls
4059 594 Pls
4062 559 Pls
4065 550 Pls
4069 682 Pls
4072 554 Pls
4075 505 Pls
4078 466 Pls
4081 563 Pls
4084 501 Pls
4087 475 Pls
4090 483 Pls
4093 554 Pls
4096 528 Pls
4099 479 Pls
4102 483 Pls
4106 457 Pls
4109 510 Pls
4112 691 Pls
4115 576 Pls
4118 563 Pls
4121 475 Pls
4124 488 Pls
4127 470 Pls
4130 466 Pls
4133 510 Pls
4136 554 Pls
4140 505 Pls
4143 505 Pls
4146 545 Pls
4149 497 Pls
4152 532 Pls
4155 461 Pls
4158 581 Pls
4161 545 Pls
4164 590 Pls
4167 479 Pls
4170 479 Pls
4174 519 Pls
4177 559 Pls
4180 581 Pls
4183 660 Pls
4186 669 Pls
4189 651 Pls
4192 523 Pls
4195 514 Pls
4198 554 Pls
4201 528 Pls
4204 607 Pls
4208 594 Pls
4211 497 Pls
4214 523 Pls
4217 497 Pls
4220 541 Pls
4223 483 Pls
4226 510 Pls
4229 510 Pls
4232 497 Pls
4235 514 Pls
4238 536 Pls
4241 497 Pls
4245 514 Pls
4248 470 Pls
4251 536 Pls
4254 483 Pls
4257 488 Pls
4260 501 Pls
4263 514 Pls
4266 536 Pls
4269 505 Pls
4272 501 Pls
4275 523 Pls
4279 603 Pls
4282 501 Pls
4285 514 Pls
4288 505 Pls
4291 532 Pls
4294 457 Pls
4297 452 Pls
4300 492 Pls
4303 519 Pls
4306 581 Pls
4309 523 Pls
4313 514 Pls
4316 452 Pls
4319 461 Pls
4322 497 Pls
4325 545 Pls
4328 505 Pls
4331 554 Pls
4334 479 Pls
4337 514 Pls
4340 466 Pls
4343 466 Pls
4346 461 Pls
4350 457 Pls
4353 514 Pls
4356 590 Pls
4359 475 Pls
4362 541 Pls
4365 523 Pls
4368 514 Pls
4371 585 Pls
4374 594 Pls
4377 563 Pls
4380 559 Pls
4384 475 Pls
4387 470 Pls
4390 616 Pls
4393 501 Pls
4396 479 Pls
4399 550 Pls
4402 492 Pls
4405 541 Pls
4408 492 Pls
4411 461 Pls
4414 488 Pls
4418 501 Pls
4421 519 Pls
4424 470 Pls
4427 475 Pls
4430 479 Pls
4433 554 Pls
4436 505 Pls
4439 545 Pls
4442 581 Pls
4445 479 Pls
4448 616 Pls
4451 505 Pls
4455 470 Pls
4458 501 Pls
4461 554 Pls
4464 581 Pls
4467 541 Pls
4470 492 Pls
4473 581 Pls
4476 651 Pls
4479 519 Pls
4482 536 Pls
4485 488 Pls
4489 598 Pls
4492 519 Pls
4495 505 Pls
4498 536 Pls
4501 554 Pls
4504 523 Pls
4507 550 Pls
4510 519 Pls
4513 523 Pls
4516 510 Pls
4519 501 Pls
4523 466 Pls
4526 514 Pls
4529 492 Pls
4532 528 Pls
4535 488 Pls
4538 528 Pls
4541 554 Pls
4544 492 Pls
4547 585 Pls
4550 492 Pls
4553 514 Pls
4557 492 Pls
4560 510 Pls
4563 457 Pls
4566 475 Pls
4569 488 Pls
4572 563 Pls
4575 457 Pls
4578 492 Pls
4581 563 Pls
4584 475 Pls
4587 470 Pls
4590 501 Pls
4594 510 Pls
4597 554 Pls
4600 470 Pls
4603 572 Pls
4606 612 Pls
4609 536 Pls
4612 483 Pls
4615 612 Pls
4618 585 Pls
4621 576 Pls
4624 483 Pls
4628 452 Pls
4631 505 Pls
4634 519 Pls
4637 483 Pls
4640 475 Pls
4643 501 Pls
4646 620 Pls
4649 536 Pls
4652 461 Pls
4655 536 Pls
4658 479 Pls
4662 528 Pls
4665 572 Pls
4668 532 Pls
4671 541 Pls
4674 700 Pls
4677 594 Pls
4680 519 Pls
4683 466 Pls
4686 532 Pls
4689 519 Pls
4692 603 Pls
4695 510 Pls
4699 563 Pls
4702 510 Pls
4705 705 Pls
4708 625 Pls
4711 523 Pls
4714 620 Pls
4717 452 Pls
4720 550 Pls
4723 559 Pls
4726 466 Pls
4729 505 Pls
4733 541 Pls
4736 536 Pls
4739 488 Pls
4742 536 Pls
4745 514 Pls
4748 505 Pls
4751 483 Pls
4754 479 Pls
4757 554 Pls
4760 514 Pls
4763 541 Pls
4767 488 Pls
4770 505 Pls
4773 536 Pls
4776 510 Pls
4779 559 Pls
4782 466 Pls
4785 461 Pls
4788 466 Pls
4791 497 Pls
4794 572 Pls
4797 492 Pls
4800 488 Pls
4804 519 Pls
4807 514 Pls
4810 479 Pls
4813 457 Pls
4816 479 Pls
4819 479 Pls
4822 528 Pls
4825 479 Pls
4828 523 Pls
4831 497 Pls
4834 563 Pls
4838 528 Pls
4841 674 Pls
4844 563 Pls
4847 523 Pls
4850 514 Pls
4853 696 Pls
4856 505 Pls
4859 519 Pls
4862 523 Pls
4865 598 Pls
4868 528 Pls
4872 563 Pls
4875 576 Pls
4878 514 Pls
4881 536 Pls
4884 483 Pls
4887 483 Pls
4890 523 Pls
4893 514 Pls
4896 470 Pls
4899 501 Pls
4902 523 Pls
4906 532 Pls
4909 501 Pls
4912 479 Pls
4915 620 Pls
4918 475 Pls
4921 479 Pls
4924 501 Pls
4927 479 Pls
4930 514 Pls
4933 457 Pls
4936 519 Pls
4939 559 Pls
4943 523 Pls
4946 461 Pls
4949 585 Pls
4952 510 Pls
4955 554 Pls
4958 510 Pls
4961 523 Pls
4964 475 Pls
4967 559 Pls
4970 475 Pls
4973 488 Pls
4977 457 Pls
4980 497 Pls
4983 519 Pls
4986 536 Pls
4989 510 Pls
4992 457 Pls
4995 550 Pls
4998 452 Pls
5001 466 Pls
5004 461 Pls
5007 501 Pls
5011 483 Pls
5014 501 Pls
5017 528 Pls
5020 519 Pls
5023 501 Pls
5026 572 Pls
5029 479 Pls
5032 479 Pls
5035 505 Pls
5038 510 Pls
5041 590 Pls
5044 505 Pls
5048 545 Pls
5051 536 Pls
5054 488 Pls
5057 766 Pls
5060 514 Pls
5063 492 Pls
5066 536 Pls
5069 483 Pls
5072 488 Pls
5075 536 Pls
5078 514 Pls
5082 488 Pls
5085 541 Pls
5088 488 Pls
5091 505 Pls
5094 510 Pls
5097 470 Pls
5100 461 Pls
5103 510 Pls
5106 483 Pls
5109 590 Pls
5112 466 Pls
5116 492 Pls
5119 541 Pls
5122 510 Pls
5125 461 Pls
5128 457 Pls
5131 554 Pls
5134 514 Pls
5137 497 Pls
5140 461 Pls
5143 452 Pls
5146 479 Pls
5149 567 Pls
5153 470 Pls
5156 470 Pls
5159 519 Pls
5162 457 Pls
5165 452 Pls
5168 567 Pls
5171 497 Pls
5174 532 Pls
5177 470 Pls
5180 488 Pls
5183 519 Pls
5187 510 Pls
5190 545 Pls
5193 510 Pls
5196 532 Pls
5199 479 Pls
5202 501 Pls
5205 514 Pls
5208 492 Pls
5211 497 Pls
5214 536 Pls
5217 541 Pls
5221 457 Pls
5224 505 Pls
5227 528 Pls
5230 585 Pls
5233 523 Pls
5236 528 Pls
5239 536 Pls
5242 541 Pls
5245 528 Pls
5248 501 Pls
5251 497 Pls
5255 497 Pls
5258 479 Pls
5261 461 Pls
5264 479 Pls
5267 492 Pls
5270 461 Pls
5273 470 Pls
5276 505 Pls
5279 536 Pls
5282 466 Pls
5285 492 Pls
5288 519 Pls
5292 505 Pls
5295 550 Pls
5298 488 Pls
5301 470 Pls
5304 483 Pls
5307 559 Pls
5310 492 Pls
5313 479 Pls
5316 545 Pls
5319 532 Pls
5322 514 Pls
5326 483 Pls
5329 505 Pls
5332 479 Pls
5335 505 Pls
5338 585 Pls
5341 475 Pls
5344 536 Pls
5347 510 Pls
5350 497 Pls
5353 514 Pls
5356 501 Pls
5360 479 Pls
5363 470 Pls
5366 457 Pls
5369 492 Pls
5372 536 Pls
5375 505 Pls
5378 501 Pls
5381 470 Pls
5384 461 Pls
5387 514 Pls
5390 514 Pls
5393 470 Pls
5397 536 Pls
5400 483 Pls
5403 492 Pls
5406 492 Pls
5409 510 Pls
5412 470 Pls
5415 519 Pls
5418 519 Pls
5421 483 Pls
5424 488 Pls
5427 475 Pls
5431 479 Pls
5434 554 Pls
5437 554 Pls
5440 523 Pls
5443 501 Pls
5446 479 Pls
5449 505 Pls
5452 483 Pls
5455 475 Pls
5458 514 Pls
5461 457 Pls
5465 470 Pls
5468 452 Pls
5471 545 Pls
5474 567 Pls
5477 492 Pls
5480 501 Pls
5483 466 Pls
5486 470 Pls
5489 550 Pls
5492 505 Pls
5495 452 Pls
5498 466 Pls
5502 492 Pls
5505 461 Pls
5508 470 Pls
5511 483 Pls
5514 452 Pls
5517 475 Pls
5520 479 Pls
5523 497 Pls
5526 479 Pls
5529 523 Pls
5532 475 Pls
5536 510 Pls
5539 488 Pls
5542 466 Pls
5545 505 Pls
5548 536 Pls
5551 461 Pls
5554 492 Pls
5557 479 Pls
5560 483 Pls
5563 501 Pls
5566 567 Pls
5570 461 Pls
5573 475 Pls
5576 501 Pls
5579 497 Pls
5582 479 Pls
5585 452 Pls
5588 466 Pls
5591 492 Pls
5594 488 Pls
5597 457 Pls
5600 461 Pls
5604 510 Pls
5607 470 Pls
5610 483 Pls
5613 466 Pls
5616 457 Pls
5619 466 Pls
5622 466 Pls
5625 501 Pls
5628 501 Pls
5631 479 Pls
5634 483 Pls
5637 470 Pls
5641 514 Pls
5644 452 Pls
5647 475 Pls
5650 479 Pls
5653 514 Pls
5656 550 Pls
5659 461 Pls
5662 479 Pls
5665 457 Pls
5668 505 Pls
5671 470 Pls
5675 528 Pls
5678 461 Pls
5681 501 Pls
5684 470 Pls
5687 470 Pls
5690 466 Pls
5693 528 Pls
5696 559 Pls
5699 483 Pls
5702 501 Pls
5705 554 Pls
5709 475 Pls
5712 475 Pls
5715 492 Pls
5718 457 Pls
5721 545 Pls
5724 488 Pls
5727 510 Pls
5730 466 Pls
5733 475 Pls
5736 479 Pls
5739 457 Pls
5742 475 Pls
5746 457 Pls
5749 488 Pls
5752 483 Pls
5755 479 Pls
5758 479 Pls
5761 497 Pls
5764 505 Pls
5767 514 Pls
5770 470 Pls
5773 475 Pls
5776 470 Pls
5780 479 Pls
5783 470 Pls
5786 505 Pls
5789 475 Pls
5792 475 Pls
5795 461 Pls
5798 479 Pls
5801 475 Pls
5804 488 Pls
5807 510 Pls
5810 514 Pls
5814 466 Pls
5817 492 Pls
5820 492 Pls
5823 461 Pls
5826 470 Pls
5829 479 Pls
5832 501 Pls
5835 488 Pls
5838 492 Pls
5841 505 Pls
5844 510 Pls
5847 470 Pls
5851 488 Pls
5854 479 Pls
5857 514 Pls
5860 479 Pls
5863 510 Pls
5866 470 Pls
5869 466 Pls
5872 457 Pls
5875 501 Pls
5878 483 Pls
5881 479 Pls
5885 470 Pls
5888 457 Pls
5891 475 Pls
5894 470 Pls
5897 452 Pls
5900 523 Pls
5903 514 Pls
5906 461 Pls
5909 479 Pls
5912 470 Pls
5915 457 Pls
5919 483 Pls
5922 492 Pls
5925 457 Pls
5928 475 Pls
5931 475 Pls
5934 483 Pls
5937 457 Pls
5940 457 Pls
5943 483 Pls
5946 479 Pls
5949 483 Pls
5953 488 Pls
5956 457 Pls
5959 466 Pls
5962 457 Pls
5965 523 Pls
5968 497 Pls
5971 475 Pls
5974 461 Pls
5977 470 Pls
5980 488 Pls
5983 497 Pls
5986 505 Pls
5990 470 Pls
5993 501 Pls
5996 466 Pls
5999 461 Pls
6002 452 Pls
6005 479 Pls
6008 475 Pls
6011 505 Pls
6014 519 Pls
6017 461 Pls
6020 452 Pls
6024 479 Pls
6027 470 Pls
6030 457 Pls
6033 461 Pls
6036 479 Pls
6039 470 Pls
6042 470 Pls
6045 479 Pls
6048 461 Pls
6051 452 Pls
6054 475 Pls
6058 479 Pls
6061 488 Pls
6064 483 Pls
6067 457 Pls
6070 475 Pls
6073 466 Pls
6076 457 Pls
6079 479 Pls
6082 483 Pls
6085 457 Pls
6088 475 Pls
6091 466 Pls
6095 475 Pls
6098 452 Pls
6101 452 Pls
6104 483 Pls
6107 466 Pls
6110 457 Pls
6113 519 Pls
6116 466 Pls
6119 466 Pls
6122 488 Pls
6125 475 Pls
6129 452 Pls
6132 483 Pls
6135 466 Pls
6138 461 Pls
6141 470 Pls
6144 461 Pls
6147 452 Pls
6150 466 Pls
6153 470 Pls
6156 457 Pls
6159 479 Pls
6163 452 Pls
6166 461 Pls
6169 461 Pls
6172 452 Pls
6175 470 Pls
6178 457 Pls
6181 466 Pls
6184 461 Pls
6187 492 Pls
6190 457 Pls
6193 461 Pls
6196 452 Pls
6200 466 Pls
6203 501 Pls
6206 475 Pls
6209 470 Pls
6212 452 Pls
6215 457 Pls
6218 457 Pls
6221 461 Pls
6224 475 Pls
6227 479 Pls
6230 466 Pls
6234 479 Pls
6237 457 Pls
6240 466 Pls
6243 466 Pls
6246 461 Pls
6249 457 Pls
6252 466 Pls
6255 457 Pls
6258 457 Pls
6261 452 Pls
6264 470 Pls
6268 452 Pls
6271 475 Pls
6274 452 Pls
6277 452 Pls
6280 452 Pls
6283 457 Pls
6286 457 Pls
6289 452 Pls
6292 452 Pls
6295 452 Pls
6298 452 Pls
6302 457 Pls
6305 452 Pls
6308 452 Pls
6311 452 Pls
6314 457 Pls
6317 452 Pls
6320 452 Pls
6323 461 Pls
6326 457 Pls
6329 461 Pls
6332 452 Pls
6335 452 Pls
6339 452 Pls
6342 452 Pls
6579 4738 Pls
% End plot #1
1.000 UL
LTb
770 4871 N
770 448 L
6177 0 V
0 4423 V
-6177 0 V
Z stroke
1.000 UP
1.000 UL
LTb
stroke
grestore
end
showpage
%%Trailer
%%DocumentFonts: Helvetica
