%!PS-Adobe-2.0 EPSF-2.0
%%Title: ../plots/domainstats/states-sorted-by-ply-visit-count-minigammon-p-0.50.eps
%%Creator: gnuplot 4.4 patchlevel 3
%%CreationDate: Wed Dec 14 04:42:16 2011
%%DocumentFonts: (atend)
%%BoundingBox: 50 50 410 302
%%EndComments
%%BeginProlog
/gnudict 256 dict def
gnudict begin
%
% The following true/false flags may be edited by hand if desired.
% The unit line width and grayscale image gamma correction may also be changed.
%
/Color true def
/Blacktext false def
/Solid false def
/Dashlength 1 def
/Landscape false def
/Level1 false def
/Rounded false def
/ClipToBoundingBox false def
/TransparentPatterns false def
/gnulinewidth 5.000 def
/userlinewidth gnulinewidth def
/Gamma 1.0 def
%
/vshift -46 def
/dl1 {
  10.0 Dashlength mul mul
  Rounded { currentlinewidth 0.75 mul sub dup 0 le { pop 0.01 } if } if
} def
/dl2 {
  10.0 Dashlength mul mul
  Rounded { currentlinewidth 0.75 mul add } if
} def
/hpt_ 31.5 def
/vpt_ 31.5 def
/hpt hpt_ def
/vpt vpt_ def
Level1 {} {
/SDict 10 dict def
systemdict /pdfmark known not {
  userdict /pdfmark systemdict /cleartomark get put
} if
SDict begin [
  /Title (../plots/domainstats/states-sorted-by-ply-visit-count-minigammon-p-0.50.eps)
  /Subject (gnuplot plot)
  /Creator (gnuplot 4.4 patchlevel 3)
  /Author (reza)
%  /Producer (gnuplot)
%  /Keywords ()
  /CreationDate (Wed Dec 14 04:42:16 2011)
  /DOCINFO pdfmark
end
} ifelse
/doclip {
  ClipToBoundingBox {
    newpath 50 50 moveto 410 50 lineto 410 302 lineto 50 302 lineto closepath
    clip
  } if
} def
%
% Gnuplot Prolog Version 4.4 (August 2010)
%
%/SuppressPDFMark true def
%
/M {moveto} bind def
/L {lineto} bind def
/R {rmoveto} bind def
/V {rlineto} bind def
/N {newpath moveto} bind def
/Z {closepath} bind def
/C {setrgbcolor} bind def
/f {rlineto fill} bind def
/g {setgray} bind def
/Gshow {show} def   % May be redefined later in the file to support UTF-8
/vpt2 vpt 2 mul def
/hpt2 hpt 2 mul def
/Lshow {currentpoint stroke M 0 vshift R 
	Blacktext {gsave 0 setgray show grestore} {show} ifelse} def
/Rshow {currentpoint stroke M dup stringwidth pop neg vshift R
	Blacktext {gsave 0 setgray show grestore} {show} ifelse} def
/Cshow {currentpoint stroke M dup stringwidth pop -2 div vshift R 
	Blacktext {gsave 0 setgray show grestore} {show} ifelse} def
/UP {dup vpt_ mul /vpt exch def hpt_ mul /hpt exch def
  /hpt2 hpt 2 mul def /vpt2 vpt 2 mul def} def
/DL {Color {setrgbcolor Solid {pop []} if 0 setdash}
 {pop pop pop 0 setgray Solid {pop []} if 0 setdash} ifelse} def
/BL {stroke userlinewidth 2 mul setlinewidth
	Rounded {1 setlinejoin 1 setlinecap} if} def
/AL {stroke userlinewidth 2 div setlinewidth
	Rounded {1 setlinejoin 1 setlinecap} if} def
/UL {dup gnulinewidth mul /userlinewidth exch def
	dup 1 lt {pop 1} if 10 mul /udl exch def} def
/PL {stroke userlinewidth setlinewidth
	Rounded {1 setlinejoin 1 setlinecap} if} def
3.8 setmiterlimit
% Default Line colors
/LCw {1 1 1} def
/LCb {0 0 0} def
/LCa {0 0 0} def
/LC0 {1 0 0} def
/LC1 {0 1 0} def
/LC2 {0 0 1} def
/LC3 {1 0 1} def
/LC4 {0 1 1} def
/LC5 {1 1 0} def
/LC6 {0 0 0} def
/LC7 {1 0.3 0} def
/LC8 {0.5 0.5 0.5} def
% Default Line Types
/LTw {PL [] 1 setgray} def
/LTb {BL [] LCb DL} def
/LTa {AL [1 udl mul 2 udl mul] 0 setdash LCa setrgbcolor} def
/LT0 {PL [] LC0 DL} def
/LT1 {PL [4 dl1 2 dl2] LC1 DL} def
/LT2 {PL [2 dl1 3 dl2] LC2 DL} def
/LT3 {PL [1 dl1 1.5 dl2] LC3 DL} def
/LT4 {PL [6 dl1 2 dl2 1 dl1 2 dl2] LC4 DL} def
/LT5 {PL [3 dl1 3 dl2 1 dl1 3 dl2] LC5 DL} def
/LT6 {PL [2 dl1 2 dl2 2 dl1 6 dl2] LC6 DL} def
/LT7 {PL [1 dl1 2 dl2 6 dl1 2 dl2 1 dl1 2 dl2] LC7 DL} def
/LT8 {PL [2 dl1 2 dl2 2 dl1 2 dl2 2 dl1 2 dl2 2 dl1 4 dl2] LC8 DL} def
/Pnt {stroke [] 0 setdash gsave 1 setlinecap M 0 0 V stroke grestore} def
/Dia {stroke [] 0 setdash 2 copy vpt add M
  hpt neg vpt neg V hpt vpt neg V
  hpt vpt V hpt neg vpt V closepath stroke
  Pnt} def
/Pls {stroke [] 0 setdash vpt sub M 0 vpt2 V
  currentpoint stroke M
  hpt neg vpt neg R hpt2 0 V stroke
 } def
/Box {stroke [] 0 setdash 2 copy exch hpt sub exch vpt add M
  0 vpt2 neg V hpt2 0 V 0 vpt2 V
  hpt2 neg 0 V closepath stroke
  Pnt} def
/Crs {stroke [] 0 setdash exch hpt sub exch vpt add M
  hpt2 vpt2 neg V currentpoint stroke M
  hpt2 neg 0 R hpt2 vpt2 V stroke} def
/TriU {stroke [] 0 setdash 2 copy vpt 1.12 mul add M
  hpt neg vpt -1.62 mul V
  hpt 2 mul 0 V
  hpt neg vpt 1.62 mul V closepath stroke
  Pnt} def
/Star {2 copy Pls Crs} def
/BoxF {stroke [] 0 setdash exch hpt sub exch vpt add M
  0 vpt2 neg V hpt2 0 V 0 vpt2 V
  hpt2 neg 0 V closepath fill} def
/TriUF {stroke [] 0 setdash vpt 1.12 mul add M
  hpt neg vpt -1.62 mul V
  hpt 2 mul 0 V
  hpt neg vpt 1.62 mul V closepath fill} def
/TriD {stroke [] 0 setdash 2 copy vpt 1.12 mul sub M
  hpt neg vpt 1.62 mul V
  hpt 2 mul 0 V
  hpt neg vpt -1.62 mul V closepath stroke
  Pnt} def
/TriDF {stroke [] 0 setdash vpt 1.12 mul sub M
  hpt neg vpt 1.62 mul V
  hpt 2 mul 0 V
  hpt neg vpt -1.62 mul V closepath fill} def
/DiaF {stroke [] 0 setdash vpt add M
  hpt neg vpt neg V hpt vpt neg V
  hpt vpt V hpt neg vpt V closepath fill} def
/Pent {stroke [] 0 setdash 2 copy gsave
  translate 0 hpt M 4 {72 rotate 0 hpt L} repeat
  closepath stroke grestore Pnt} def
/PentF {stroke [] 0 setdash gsave
  translate 0 hpt M 4 {72 rotate 0 hpt L} repeat
  closepath fill grestore} def
/Circle {stroke [] 0 setdash 2 copy
  hpt 0 360 arc stroke Pnt} def
/CircleF {stroke [] 0 setdash hpt 0 360 arc fill} def
/C0 {BL [] 0 setdash 2 copy moveto vpt 90 450 arc} bind def
/C1 {BL [] 0 setdash 2 copy moveto
	2 copy vpt 0 90 arc closepath fill
	vpt 0 360 arc closepath} bind def
/C2 {BL [] 0 setdash 2 copy moveto
	2 copy vpt 90 180 arc closepath fill
	vpt 0 360 arc closepath} bind def
/C3 {BL [] 0 setdash 2 copy moveto
	2 copy vpt 0 180 arc closepath fill
	vpt 0 360 arc closepath} bind def
/C4 {BL [] 0 setdash 2 copy moveto
	2 copy vpt 180 270 arc closepath fill
	vpt 0 360 arc closepath} bind def
/C5 {BL [] 0 setdash 2 copy moveto
	2 copy vpt 0 90 arc
	2 copy moveto
	2 copy vpt 180 270 arc closepath fill
	vpt 0 360 arc} bind def
/C6 {BL [] 0 setdash 2 copy moveto
	2 copy vpt 90 270 arc closepath fill
	vpt 0 360 arc closepath} bind def
/C7 {BL [] 0 setdash 2 copy moveto
	2 copy vpt 0 270 arc closepath fill
	vpt 0 360 arc closepath} bind def
/C8 {BL [] 0 setdash 2 copy moveto
	2 copy vpt 270 360 arc closepath fill
	vpt 0 360 arc closepath} bind def
/C9 {BL [] 0 setdash 2 copy moveto
	2 copy vpt 270 450 arc closepath fill
	vpt 0 360 arc closepath} bind def
/C10 {BL [] 0 setdash 2 copy 2 copy moveto vpt 270 360 arc closepath fill
	2 copy moveto
	2 copy vpt 90 180 arc closepath fill
	vpt 0 360 arc closepath} bind def
/C11 {BL [] 0 setdash 2 copy moveto
	2 copy vpt 0 180 arc closepath fill
	2 copy moveto
	2 copy vpt 270 360 arc closepath fill
	vpt 0 360 arc closepath} bind def
/C12 {BL [] 0 setdash 2 copy moveto
	2 copy vpt 180 360 arc closepath fill
	vpt 0 360 arc closepath} bind def
/C13 {BL [] 0 setdash 2 copy moveto
	2 copy vpt 0 90 arc closepath fill
	2 copy moveto
	2 copy vpt 180 360 arc closepath fill
	vpt 0 360 arc closepath} bind def
/C14 {BL [] 0 setdash 2 copy moveto
	2 copy vpt 90 360 arc closepath fill
	vpt 0 360 arc} bind def
/C15 {BL [] 0 setdash 2 copy vpt 0 360 arc closepath fill
	vpt 0 360 arc closepath} bind def
/Rec {newpath 4 2 roll moveto 1 index 0 rlineto 0 exch rlineto
	neg 0 rlineto closepath} bind def
/Square {dup Rec} bind def
/Bsquare {vpt sub exch vpt sub exch vpt2 Square} bind def
/S0 {BL [] 0 setdash 2 copy moveto 0 vpt rlineto BL Bsquare} bind def
/S1 {BL [] 0 setdash 2 copy vpt Square fill Bsquare} bind def
/S2 {BL [] 0 setdash 2 copy exch vpt sub exch vpt Square fill Bsquare} bind def
/S3 {BL [] 0 setdash 2 copy exch vpt sub exch vpt2 vpt Rec fill Bsquare} bind def
/S4 {BL [] 0 setdash 2 copy exch vpt sub exch vpt sub vpt Square fill Bsquare} bind def
/S5 {BL [] 0 setdash 2 copy 2 copy vpt Square fill
	exch vpt sub exch vpt sub vpt Square fill Bsquare} bind def
/S6 {BL [] 0 setdash 2 copy exch vpt sub exch vpt sub vpt vpt2 Rec fill Bsquare} bind def
/S7 {BL [] 0 setdash 2 copy exch vpt sub exch vpt sub vpt vpt2 Rec fill
	2 copy vpt Square fill Bsquare} bind def
/S8 {BL [] 0 setdash 2 copy vpt sub vpt Square fill Bsquare} bind def
/S9 {BL [] 0 setdash 2 copy vpt sub vpt vpt2 Rec fill Bsquare} bind def
/S10 {BL [] 0 setdash 2 copy vpt sub vpt Square fill 2 copy exch vpt sub exch vpt Square fill
	Bsquare} bind def
/S11 {BL [] 0 setdash 2 copy vpt sub vpt Square fill 2 copy exch vpt sub exch vpt2 vpt Rec fill
	Bsquare} bind def
/S12 {BL [] 0 setdash 2 copy exch vpt sub exch vpt sub vpt2 vpt Rec fill Bsquare} bind def
/S13 {BL [] 0 setdash 2 copy exch vpt sub exch vpt sub vpt2 vpt Rec fill
	2 copy vpt Square fill Bsquare} bind def
/S14 {BL [] 0 setdash 2 copy exch vpt sub exch vpt sub vpt2 vpt Rec fill
	2 copy exch vpt sub exch vpt Square fill Bsquare} bind def
/S15 {BL [] 0 setdash 2 copy Bsquare fill Bsquare} bind def
/D0 {gsave translate 45 rotate 0 0 S0 stroke grestore} bind def
/D1 {gsave translate 45 rotate 0 0 S1 stroke grestore} bind def
/D2 {gsave translate 45 rotate 0 0 S2 stroke grestore} bind def
/D3 {gsave translate 45 rotate 0 0 S3 stroke grestore} bind def
/D4 {gsave translate 45 rotate 0 0 S4 stroke grestore} bind def
/D5 {gsave translate 45 rotate 0 0 S5 stroke grestore} bind def
/D6 {gsave translate 45 rotate 0 0 S6 stroke grestore} bind def
/D7 {gsave translate 45 rotate 0 0 S7 stroke grestore} bind def
/D8 {gsave translate 45 rotate 0 0 S8 stroke grestore} bind def
/D9 {gsave translate 45 rotate 0 0 S9 stroke grestore} bind def
/D10 {gsave translate 45 rotate 0 0 S10 stroke grestore} bind def
/D11 {gsave translate 45 rotate 0 0 S11 stroke grestore} bind def
/D12 {gsave translate 45 rotate 0 0 S12 stroke grestore} bind def
/D13 {gsave translate 45 rotate 0 0 S13 stroke grestore} bind def
/D14 {gsave translate 45 rotate 0 0 S14 stroke grestore} bind def
/D15 {gsave translate 45 rotate 0 0 S15 stroke grestore} bind def
/DiaE {stroke [] 0 setdash vpt add M
  hpt neg vpt neg V hpt vpt neg V
  hpt vpt V hpt neg vpt V closepath stroke} def
/BoxE {stroke [] 0 setdash exch hpt sub exch vpt add M
  0 vpt2 neg V hpt2 0 V 0 vpt2 V
  hpt2 neg 0 V closepath stroke} def
/TriUE {stroke [] 0 setdash vpt 1.12 mul add M
  hpt neg vpt -1.62 mul V
  hpt 2 mul 0 V
  hpt neg vpt 1.62 mul V closepath stroke} def
/TriDE {stroke [] 0 setdash vpt 1.12 mul sub M
  hpt neg vpt 1.62 mul V
  hpt 2 mul 0 V
  hpt neg vpt -1.62 mul V closepath stroke} def
/PentE {stroke [] 0 setdash gsave
  translate 0 hpt M 4 {72 rotate 0 hpt L} repeat
  closepath stroke grestore} def
/CircE {stroke [] 0 setdash 
  hpt 0 360 arc stroke} def
/Opaque {gsave closepath 1 setgray fill grestore 0 setgray closepath} def
/DiaW {stroke [] 0 setdash vpt add M
  hpt neg vpt neg V hpt vpt neg V
  hpt vpt V hpt neg vpt V Opaque stroke} def
/BoxW {stroke [] 0 setdash exch hpt sub exch vpt add M
  0 vpt2 neg V hpt2 0 V 0 vpt2 V
  hpt2 neg 0 V Opaque stroke} def
/TriUW {stroke [] 0 setdash vpt 1.12 mul add M
  hpt neg vpt -1.62 mul V
  hpt 2 mul 0 V
  hpt neg vpt 1.62 mul V Opaque stroke} def
/TriDW {stroke [] 0 setdash vpt 1.12 mul sub M
  hpt neg vpt 1.62 mul V
  hpt 2 mul 0 V
  hpt neg vpt -1.62 mul V Opaque stroke} def
/PentW {stroke [] 0 setdash gsave
  translate 0 hpt M 4 {72 rotate 0 hpt L} repeat
  Opaque stroke grestore} def
/CircW {stroke [] 0 setdash 
  hpt 0 360 arc Opaque stroke} def
/BoxFill {gsave Rec 1 setgray fill grestore} def
/Density {
  /Fillden exch def
  currentrgbcolor
  /ColB exch def /ColG exch def /ColR exch def
  /ColR ColR Fillden mul Fillden sub 1 add def
  /ColG ColG Fillden mul Fillden sub 1 add def
  /ColB ColB Fillden mul Fillden sub 1 add def
  ColR ColG ColB setrgbcolor} def
/BoxColFill {gsave Rec PolyFill} def
/PolyFill {gsave Density fill grestore grestore} def
/h {rlineto rlineto rlineto gsave closepath fill grestore} bind def
%
% PostScript Level 1 Pattern Fill routine for rectangles
% Usage: x y w h s a XX PatternFill
%	x,y = lower left corner of box to be filled
%	w,h = width and height of box
%	  a = angle in degrees between lines and x-axis
%	 XX = 0/1 for no/yes cross-hatch
%
/PatternFill {gsave /PFa [ 9 2 roll ] def
  PFa 0 get PFa 2 get 2 div add PFa 1 get PFa 3 get 2 div add translate
  PFa 2 get -2 div PFa 3 get -2 div PFa 2 get PFa 3 get Rec
  gsave 1 setgray fill grestore clip
  currentlinewidth 0.5 mul setlinewidth
  /PFs PFa 2 get dup mul PFa 3 get dup mul add sqrt def
  0 0 M PFa 5 get rotate PFs -2 div dup translate
  0 1 PFs PFa 4 get div 1 add floor cvi
	{PFa 4 get mul 0 M 0 PFs V} for
  0 PFa 6 get ne {
	0 1 PFs PFa 4 get div 1 add floor cvi
	{PFa 4 get mul 0 2 1 roll M PFs 0 V} for
 } if
  stroke grestore} def
%
/languagelevel where
 {pop languagelevel} {1} ifelse
 2 lt
	{/InterpretLevel1 true def}
	{/InterpretLevel1 Level1 def}
 ifelse
%
% PostScript level 2 pattern fill definitions
%
/Level2PatternFill {
/Tile8x8 {/PaintType 2 /PatternType 1 /TilingType 1 /BBox [0 0 8 8] /XStep 8 /YStep 8}
	bind def
/KeepColor {currentrgbcolor [/Pattern /DeviceRGB] setcolorspace} bind def
<< Tile8x8
 /PaintProc {0.5 setlinewidth pop 0 0 M 8 8 L 0 8 M 8 0 L stroke} 
>> matrix makepattern
/Pat1 exch def
<< Tile8x8
 /PaintProc {0.5 setlinewidth pop 0 0 M 8 8 L 0 8 M 8 0 L stroke
	0 4 M 4 8 L 8 4 L 4 0 L 0 4 L stroke}
>> matrix makepattern
/Pat2 exch def
<< Tile8x8
 /PaintProc {0.5 setlinewidth pop 0 0 M 0 8 L
	8 8 L 8 0 L 0 0 L fill}
>> matrix makepattern
/Pat3 exch def
<< Tile8x8
 /PaintProc {0.5 setlinewidth pop -4 8 M 8 -4 L
	0 12 M 12 0 L stroke}
>> matrix makepattern
/Pat4 exch def
<< Tile8x8
 /PaintProc {0.5 setlinewidth pop -4 0 M 8 12 L
	0 -4 M 12 8 L stroke}
>> matrix makepattern
/Pat5 exch def
<< Tile8x8
 /PaintProc {0.5 setlinewidth pop -2 8 M 4 -4 L
	0 12 M 8 -4 L 4 12 M 10 0 L stroke}
>> matrix makepattern
/Pat6 exch def
<< Tile8x8
 /PaintProc {0.5 setlinewidth pop -2 0 M 4 12 L
	0 -4 M 8 12 L 4 -4 M 10 8 L stroke}
>> matrix makepattern
/Pat7 exch def
<< Tile8x8
 /PaintProc {0.5 setlinewidth pop 8 -2 M -4 4 L
	12 0 M -4 8 L 12 4 M 0 10 L stroke}
>> matrix makepattern
/Pat8 exch def
<< Tile8x8
 /PaintProc {0.5 setlinewidth pop 0 -2 M 12 4 L
	-4 0 M 12 8 L -4 4 M 8 10 L stroke}
>> matrix makepattern
/Pat9 exch def
/Pattern1 {PatternBgnd KeepColor Pat1 setpattern} bind def
/Pattern2 {PatternBgnd KeepColor Pat2 setpattern} bind def
/Pattern3 {PatternBgnd KeepColor Pat3 setpattern} bind def
/Pattern4 {PatternBgnd KeepColor Landscape {Pat5} {Pat4} ifelse setpattern} bind def
/Pattern5 {PatternBgnd KeepColor Landscape {Pat4} {Pat5} ifelse setpattern} bind def
/Pattern6 {PatternBgnd KeepColor Landscape {Pat9} {Pat6} ifelse setpattern} bind def
/Pattern7 {PatternBgnd KeepColor Landscape {Pat8} {Pat7} ifelse setpattern} bind def
} def
%
%
%End of PostScript Level 2 code
%
/PatternBgnd {
  TransparentPatterns {} {gsave 1 setgray fill grestore} ifelse
} def
%
% Substitute for Level 2 pattern fill codes with
% grayscale if Level 2 support is not selected.
%
/Level1PatternFill {
/Pattern1 {0.250 Density} bind def
/Pattern2 {0.500 Density} bind def
/Pattern3 {0.750 Density} bind def
/Pattern4 {0.125 Density} bind def
/Pattern5 {0.375 Density} bind def
/Pattern6 {0.625 Density} bind def
/Pattern7 {0.875 Density} bind def
} def
%
% Now test for support of Level 2 code
%
Level1 {Level1PatternFill} {Level2PatternFill} ifelse
%
/Symbol-Oblique /Symbol findfont [1 0 .167 1 0 0] makefont
dup length dict begin {1 index /FID eq {pop pop} {def} ifelse} forall
currentdict end definefont pop
end
%%EndProlog
gnudict begin
gsave
doclip
50 50 translate
0.050 0.050 scale
0 setgray
newpath
(Helvetica) findfont 140 scalefont setfont
1.000 UL
LTb
770 448 M
63 0 V
6114 0 R
-63 0 V
686 448 M
( 0) Rshow
1.000 UL
LTb
770 890 M
63 0 V
6114 0 R
-63 0 V
686 890 M
( 100) Rshow
1.000 UL
LTb
770 1333 M
63 0 V
6114 0 R
-63 0 V
-6198 0 R
( 200) Rshow
1.000 UL
LTb
770 1775 M
63 0 V
6114 0 R
-63 0 V
-6198 0 R
( 300) Rshow
1.000 UL
LTb
770 2217 M
63 0 V
6114 0 R
-63 0 V
-6198 0 R
( 400) Rshow
1.000 UL
LTb
770 2660 M
63 0 V
6114 0 R
-63 0 V
-6198 0 R
( 500) Rshow
1.000 UL
LTb
770 3102 M
63 0 V
6114 0 R
-63 0 V
-6198 0 R
( 600) Rshow
1.000 UL
LTb
770 3544 M
63 0 V
6114 0 R
-63 0 V
-6198 0 R
( 700) Rshow
1.000 UL
LTb
770 3986 M
63 0 V
6114 0 R
-63 0 V
-6198 0 R
( 800) Rshow
1.000 UL
LTb
770 4429 M
63 0 V
6114 0 R
-63 0 V
-6198 0 R
( 900) Rshow
1.000 UL
LTb
770 4871 M
63 0 V
6114 0 R
-63 0 V
-6198 0 R
( 1000) Rshow
1.000 UL
LTb
770 448 M
0 63 V
0 4360 R
0 -63 V
770 308 M
( 0) Cshow
1.000 UL
LTb
1542 448 M
0 63 V
0 4360 R
0 -63 V
0 -4500 R
( 200) Cshow
1.000 UL
LTb
2314 448 M
0 63 V
0 4360 R
0 -63 V
0 -4500 R
( 400) Cshow
1.000 UL
LTb
3086 448 M
0 63 V
0 4360 R
0 -63 V
0 -4500 R
( 600) Cshow
1.000 UL
LTb
3859 448 M
0 63 V
0 4360 R
0 -63 V
0 -4500 R
( 800) Cshow
1.000 UL
LTb
4631 448 M
0 63 V
0 4360 R
0 -63 V
0 -4500 R
( 1000) Cshow
1.000 UL
LTb
5403 448 M
0 63 V
0 4360 R
0 -63 V
0 -4500 R
( 1200) Cshow
1.000 UL
LTb
6175 448 M
0 63 V
0 4360 R
0 -63 V
0 -4500 R
( 1400) Cshow
1.000 UL
LTb
6947 448 M
0 63 V
0 4360 R
0 -63 V
0 -4500 R
( 1600) Cshow
1.000 UL
LTb
1.000 UL
LTb
770 4871 N
770 448 L
6177 0 V
0 4423 V
-6177 0 V
Z stroke
LCb setrgbcolor
112 2659 M
currentpoint gsave translate -270 rotate 0 0 M
(Visit Count) Cshow
grestore
LTb
LCb setrgbcolor
3858 98 M
(States \(Sorted by Earliest Visit Time\)) Cshow
LTb
1.000 UP
1.000 UL
LTb
% Begin plot #1
1.000 UP
1.000 UL
LT0
LCb setrgbcolor
6296 4738 M
(p = 0.50) Rshow
LT0
770 4871 Pls
774 1585 Pls
778 1532 Pls
782 1576 Pls
785 1545 Pls
789 1713 Pls
793 1983 Pls
797 1523 Pls
801 1735 Pls
805 647 Pls
809 727 Pls
812 749 Pls
816 1023 Pls
820 598 Pls
824 634 Pls
828 625 Pls
832 744 Pls
836 762 Pls
839 828 Pls
843 634 Pls
847 979 Pls
851 713 Pls
855 939 Pls
859 731 Pls
863 567 Pls
867 780 Pls
870 581 Pls
874 793 Pls
878 722 Pls
882 510 Pls
886 744 Pls
890 643 Pls
894 660 Pls
897 612 Pls
901 612 Pls
905 996 Pls
909 691 Pls
913 859 Pls
917 762 Pls
921 497 Pls
924 612 Pls
928 541 Pls
932 629 Pls
936 594 Pls
940 634 Pls
944 541 Pls
948 731 Pls
951 616 Pls
955 643 Pls
959 532 Pls
963 651 Pls
967 775 Pls
971 674 Pls
975 820 Pls
978 532 Pls
982 638 Pls
986 567 Pls
990 550 Pls
994 620 Pls
998 700 Pls
1002 620 Pls
1005 674 Pls
1009 581 Pls
1013 572 Pls
1017 523 Pls
1021 820 Pls
1025 669 Pls
1029 682 Pls
1033 581 Pls
1036 678 Pls
1040 612 Pls
1044 638 Pls
1048 479 Pls
1052 510 Pls
1056 514 Pls
1060 598 Pls
1063 656 Pls
1067 550 Pls
1071 590 Pls
1075 514 Pls
1079 523 Pls
1083 545 Pls
1087 691 Pls
1090 638 Pls
1094 656 Pls
1098 713 Pls
1102 753 Pls
1106 709 Pls
1110 780 Pls
1114 528 Pls
1117 550 Pls
1121 536 Pls
1125 550 Pls
1129 536 Pls
1133 497 Pls
1137 475 Pls
1141 505 Pls
1144 536 Pls
1148 523 Pls
1152 528 Pls
1156 501 Pls
1160 528 Pls
1164 585 Pls
1168 647 Pls
1172 674 Pls
1175 488 Pls
1179 638 Pls
1183 647 Pls
1187 536 Pls
1191 550 Pls
1195 594 Pls
1199 567 Pls
1202 594 Pls
1206 629 Pls
1210 523 Pls
1214 470 Pls
1218 461 Pls
1222 488 Pls
1226 492 Pls
1229 585 Pls
1233 519 Pls
1237 563 Pls
1241 567 Pls
1245 550 Pls
1249 519 Pls
1253 514 Pls
1256 576 Pls
1260 607 Pls
1264 638 Pls
1268 780 Pls
1272 766 Pls
1276 505 Pls
1280 563 Pls
1283 536 Pls
1287 590 Pls
1291 718 Pls
1295 877 Pls
1299 536 Pls
1303 475 Pls
1307 483 Pls
1310 581 Pls
1314 567 Pls
1318 594 Pls
1322 682 Pls
1326 718 Pls
1330 470 Pls
1334 505 Pls
1338 532 Pls
1341 718 Pls
1345 789 Pls
1349 590 Pls
1353 612 Pls
1357 559 Pls
1361 514 Pls
1365 483 Pls
1368 488 Pls
1372 488 Pls
1376 545 Pls
1380 475 Pls
1384 519 Pls
1388 594 Pls
1392 528 Pls
1395 541 Pls
1399 505 Pls
1403 541 Pls
1407 510 Pls
1411 554 Pls
1415 528 Pls
1419 514 Pls
1422 567 Pls
1426 620 Pls
1430 532 Pls
1434 514 Pls
1438 541 Pls
1442 567 Pls
1446 616 Pls
1449 567 Pls
1453 470 Pls
1457 488 Pls
1461 479 Pls
1465 492 Pls
1469 501 Pls
1473 532 Pls
1476 585 Pls
1480 510 Pls
1484 510 Pls
1488 572 Pls
1492 559 Pls
1496 616 Pls
1500 705 Pls
1504 488 Pls
1507 510 Pls
1511 528 Pls
1515 541 Pls
1519 554 Pls
1523 576 Pls
1527 479 Pls
1531 492 Pls
1534 461 Pls
1538 497 Pls
1542 594 Pls
1546 660 Pls
1550 510 Pls
1554 598 Pls
1558 572 Pls
1561 505 Pls
1565 475 Pls
1569 576 Pls
1573 585 Pls
1577 638 Pls
1581 651 Pls
1585 625 Pls
1588 466 Pls
1592 483 Pls
1596 532 Pls
1600 607 Pls
1604 550 Pls
1608 682 Pls
1612 576 Pls
1615 479 Pls
1619 523 Pls
1623 550 Pls
1627 461 Pls
1631 492 Pls
1635 479 Pls
1639 492 Pls
1643 554 Pls
1646 545 Pls
1650 550 Pls
1654 461 Pls
1658 528 Pls
1662 532 Pls
1666 607 Pls
1670 581 Pls
1673 559 Pls
1677 550 Pls
1681 594 Pls
1685 594 Pls
1689 674 Pls
1693 629 Pls
1697 620 Pls
1700 598 Pls
1704 576 Pls
1708 691 Pls
1712 483 Pls
1716 505 Pls
1720 567 Pls
1724 479 Pls
1727 470 Pls
1731 483 Pls
1735 510 Pls
1739 488 Pls
1743 497 Pls
1747 479 Pls
1751 536 Pls
1754 497 Pls
1758 545 Pls
1762 523 Pls
1766 550 Pls
1770 519 Pls
1774 536 Pls
1778 536 Pls
1781 510 Pls
1785 523 Pls
1789 541 Pls
1793 505 Pls
1797 567 Pls
1801 550 Pls
1805 620 Pls
1809 590 Pls
1812 665 Pls
1816 603 Pls
1820 590 Pls
1824 457 Pls
1828 519 Pls
1832 674 Pls
1836 620 Pls
1839 514 Pls
1843 452 Pls
1847 501 Pls
1851 470 Pls
1855 466 Pls
1859 466 Pls
1863 461 Pls
1866 483 Pls
1870 461 Pls
1874 483 Pls
1878 501 Pls
1882 492 Pls
1886 572 Pls
1890 505 Pls
1893 492 Pls
1897 501 Pls
1901 510 Pls
1905 514 Pls
1909 519 Pls
1913 497 Pls
1917 501 Pls
1920 550 Pls
1924 532 Pls
1928 572 Pls
1932 581 Pls
1936 559 Pls
1940 475 Pls
1944 488 Pls
1947 501 Pls
1951 519 Pls
1955 554 Pls
1959 532 Pls
1963 559 Pls
1967 510 Pls
1971 479 Pls
1975 576 Pls
1978 638 Pls
1982 466 Pls
1986 461 Pls
1990 479 Pls
1994 479 Pls
1998 519 Pls
2002 457 Pls
2005 528 Pls
2009 550 Pls
2013 567 Pls
2017 545 Pls
2021 656 Pls
2025 497 Pls
2029 545 Pls
2032 488 Pls
2036 497 Pls
2040 536 Pls
2044 590 Pls
2048 519 Pls
2052 590 Pls
2056 483 Pls
2059 501 Pls
2063 479 Pls
2067 475 Pls
2071 563 Pls
2075 479 Pls
2079 532 Pls
2083 567 Pls
2086 523 Pls
2090 505 Pls
2094 536 Pls
2098 629 Pls
2102 483 Pls
2106 461 Pls
2110 682 Pls
2113 572 Pls
2117 620 Pls
2121 519 Pls
2125 563 Pls
2129 523 Pls
2133 594 Pls
2137 567 Pls
2141 620 Pls
2144 492 Pls
2148 532 Pls
2152 479 Pls
2156 528 Pls
2160 519 Pls
2164 585 Pls
2168 581 Pls
2171 612 Pls
2175 559 Pls
2179 550 Pls
2183 457 Pls
2187 519 Pls
2191 536 Pls
2195 501 Pls
2198 523 Pls
2202 457 Pls
2206 528 Pls
2210 492 Pls
2214 519 Pls
2218 452 Pls
2222 488 Pls
2225 475 Pls
2229 541 Pls
2233 501 Pls
2237 576 Pls
2241 563 Pls
2245 536 Pls
2249 576 Pls
2252 492 Pls
2256 541 Pls
2260 559 Pls
2264 598 Pls
2268 501 Pls
2272 559 Pls
2276 532 Pls
2280 550 Pls
2283 590 Pls
2287 514 Pls
2291 505 Pls
2295 479 Pls
2299 461 Pls
2303 501 Pls
2307 497 Pls
2310 590 Pls
2314 483 Pls
2318 461 Pls
2322 466 Pls
2326 479 Pls
2330 519 Pls
2334 483 Pls
2337 519 Pls
2341 479 Pls
2345 514 Pls
2349 510 Pls
2353 505 Pls
2357 519 Pls
2361 479 Pls
2364 532 Pls
2368 501 Pls
2372 559 Pls
2376 461 Pls
2380 505 Pls
2384 475 Pls
2388 625 Pls
2391 510 Pls
2395 488 Pls
2399 466 Pls
2403 488 Pls
2407 545 Pls
2411 501 Pls
2415 483 Pls
2418 466 Pls
2422 497 Pls
2426 532 Pls
2430 567 Pls
2434 563 Pls
2438 545 Pls
2442 497 Pls
2446 501 Pls
2449 567 Pls
2453 528 Pls
2457 572 Pls
2461 510 Pls
2465 492 Pls
2469 488 Pls
2473 510 Pls
2476 505 Pls
2480 475 Pls
2484 475 Pls
2488 501 Pls
2492 510 Pls
2496 479 Pls
2500 510 Pls
2503 497 Pls
2507 536 Pls
2511 545 Pls
2515 523 Pls
2519 572 Pls
2523 545 Pls
2527 620 Pls
2530 528 Pls
2534 466 Pls
2538 505 Pls
2542 475 Pls
2546 497 Pls
2550 523 Pls
2554 523 Pls
2557 576 Pls
2561 514 Pls
2565 483 Pls
2569 466 Pls
2573 563 Pls
2577 541 Pls
2581 545 Pls
2584 479 Pls
2588 514 Pls
2592 536 Pls
2596 497 Pls
2600 541 Pls
2604 483 Pls
2608 501 Pls
2612 536 Pls
2615 554 Pls
2619 505 Pls
2623 483 Pls
2627 492 Pls
2631 470 Pls
2635 479 Pls
2639 510 Pls
2642 501 Pls
2646 488 Pls
2650 514 Pls
2654 559 Pls
2658 545 Pls
2662 598 Pls
2666 581 Pls
2669 510 Pls
2673 536 Pls
2677 660 Pls
2681 585 Pls
2685 492 Pls
2689 483 Pls
2693 492 Pls
2696 501 Pls
2700 488 Pls
2704 514 Pls
2708 470 Pls
2712 523 Pls
2716 625 Pls
2720 585 Pls
2723 488 Pls
2727 528 Pls
2731 475 Pls
2735 466 Pls
2739 452 Pls
2743 541 Pls
2747 510 Pls
2751 563 Pls
2754 492 Pls
2758 514 Pls
2762 559 Pls
2766 497 Pls
2770 620 Pls
2774 682 Pls
2778 616 Pls
2781 567 Pls
2785 590 Pls
2789 585 Pls
2793 457 Pls
2797 559 Pls
2801 532 Pls
2805 590 Pls
2808 572 Pls
2812 572 Pls
2816 576 Pls
2820 656 Pls
2824 483 Pls
2828 532 Pls
2832 576 Pls
2835 497 Pls
2839 523 Pls
2843 541 Pls
2847 475 Pls
2851 479 Pls
2855 475 Pls
2859 488 Pls
2862 497 Pls
2866 510 Pls
2870 510 Pls
2874 532 Pls
2878 510 Pls
2882 479 Pls
2886 479 Pls
2889 461 Pls
2893 475 Pls
2897 576 Pls
2901 612 Pls
2905 572 Pls
2909 585 Pls
2913 528 Pls
2917 479 Pls
2920 505 Pls
2924 479 Pls
2928 541 Pls
2932 567 Pls
2936 559 Pls
2940 488 Pls
2944 510 Pls
2947 532 Pls
2951 598 Pls
2955 452 Pls
2959 470 Pls
2963 466 Pls
2967 488 Pls
2971 497 Pls
2974 585 Pls
2978 563 Pls
2982 590 Pls
2986 466 Pls
2990 528 Pls
2994 532 Pls
2998 501 Pls
3001 497 Pls
3005 563 Pls
3009 559 Pls
3013 479 Pls
3017 550 Pls
3021 470 Pls
3025 545 Pls
3028 554 Pls
3032 488 Pls
3036 479 Pls
3040 563 Pls
3044 483 Pls
3048 523 Pls
3052 550 Pls
3055 497 Pls
3059 519 Pls
3063 505 Pls
3067 585 Pls
3071 581 Pls
3075 510 Pls
3079 629 Pls
3083 550 Pls
3086 545 Pls
3090 550 Pls
3094 559 Pls
3098 470 Pls
3102 475 Pls
3106 483 Pls
3110 501 Pls
3113 545 Pls
3117 581 Pls
3121 567 Pls
3125 488 Pls
3129 625 Pls
3133 532 Pls
3137 501 Pls
3140 488 Pls
3144 497 Pls
3148 475 Pls
3152 475 Pls
3156 492 Pls
3160 505 Pls
3164 479 Pls
3167 510 Pls
3171 479 Pls
3175 576 Pls
3179 550 Pls
3183 492 Pls
3187 501 Pls
3191 466 Pls
3194 519 Pls
3198 497 Pls
3202 541 Pls
3206 528 Pls
3210 528 Pls
3214 536 Pls
3218 682 Pls
3221 501 Pls
3225 550 Pls
3229 501 Pls
3233 523 Pls
3237 528 Pls
3241 532 Pls
3245 585 Pls
3249 528 Pls
3252 559 Pls
3256 559 Pls
3260 532 Pls
3264 501 Pls
3268 536 Pls
3272 479 Pls
3276 470 Pls
3279 457 Pls
3283 519 Pls
3287 505 Pls
3291 461 Pls
3295 452 Pls
3299 488 Pls
3303 492 Pls
3306 545 Pls
3310 505 Pls
3314 501 Pls
3318 475 Pls
3322 483 Pls
3326 536 Pls
3330 510 Pls
3333 483 Pls
3337 470 Pls
3341 475 Pls
3345 483 Pls
3349 470 Pls
3353 457 Pls
3357 466 Pls
3360 501 Pls
3364 488 Pls
3368 483 Pls
3372 536 Pls
3376 488 Pls
3380 483 Pls
3384 514 Pls
3388 510 Pls
3391 475 Pls
3395 492 Pls
3399 510 Pls
3403 576 Pls
3407 501 Pls
3411 528 Pls
3415 497 Pls
3418 497 Pls
3422 466 Pls
3426 488 Pls
3430 590 Pls
3434 576 Pls
3438 479 Pls
3442 590 Pls
3445 514 Pls
3449 554 Pls
3453 528 Pls
3457 497 Pls
3461 479 Pls
3465 483 Pls
3469 461 Pls
3472 492 Pls
3476 470 Pls
3480 470 Pls
3484 470 Pls
3488 501 Pls
3492 501 Pls
3496 505 Pls
3499 479 Pls
3503 492 Pls
3507 466 Pls
3511 461 Pls
3515 475 Pls
3519 505 Pls
3523 545 Pls
3526 475 Pls
3530 457 Pls
3534 483 Pls
3538 475 Pls
3542 505 Pls
3546 510 Pls
3550 492 Pls
3554 536 Pls
3557 523 Pls
3561 501 Pls
3565 514 Pls
3569 559 Pls
3573 541 Pls
3577 563 Pls
3581 545 Pls
3584 541 Pls
3588 519 Pls
3592 501 Pls
3596 501 Pls
3600 488 Pls
3604 479 Pls
3608 501 Pls
3611 510 Pls
3615 510 Pls
3619 519 Pls
3623 519 Pls
3627 545 Pls
3631 505 Pls
3635 625 Pls
3638 523 Pls
3642 470 Pls
3646 475 Pls
3650 452 Pls
3654 691 Pls
3658 722 Pls
3662 528 Pls
3665 479 Pls
3669 470 Pls
3673 457 Pls
3677 483 Pls
3681 479 Pls
3685 475 Pls
3689 488 Pls
3692 519 Pls
3696 554 Pls
3700 528 Pls
3704 572 Pls
3708 536 Pls
3712 576 Pls
3716 620 Pls
3720 590 Pls
3723 532 Pls
3727 505 Pls
3731 550 Pls
3735 479 Pls
3739 532 Pls
3743 483 Pls
3747 696 Pls
3750 567 Pls
3754 559 Pls
3758 559 Pls
3762 479 Pls
3766 497 Pls
3770 457 Pls
3774 457 Pls
3777 479 Pls
3781 563 Pls
3785 581 Pls
3789 572 Pls
3793 536 Pls
3797 514 Pls
3801 475 Pls
3804 488 Pls
3808 475 Pls
3812 483 Pls
3816 475 Pls
3820 483 Pls
3824 483 Pls
3828 501 Pls
3831 492 Pls
3835 567 Pls
3839 554 Pls
3843 452 Pls
3847 475 Pls
3851 497 Pls
3855 497 Pls
3859 492 Pls
3862 470 Pls
3866 536 Pls
3870 497 Pls
3874 510 Pls
3878 528 Pls
3882 510 Pls
3886 554 Pls
3889 541 Pls
3893 492 Pls
3897 514 Pls
3901 470 Pls
3905 483 Pls
3909 475 Pls
3913 492 Pls
3916 505 Pls
3920 501 Pls
3924 452 Pls
3928 519 Pls
3932 470 Pls
3936 488 Pls
3940 554 Pls
3943 505 Pls
3947 488 Pls
3951 475 Pls
3955 457 Pls
3959 475 Pls
3963 532 Pls
3967 470 Pls
3970 567 Pls
3974 523 Pls
3978 488 Pls
3982 536 Pls
3986 461 Pls
3990 470 Pls
3994 475 Pls
3997 536 Pls
4001 452 Pls
4005 541 Pls
4009 536 Pls
4013 497 Pls
4017 559 Pls
4021 541 Pls
4025 466 Pls
4028 488 Pls
4032 572 Pls
4036 607 Pls
4040 585 Pls
4044 497 Pls
4048 501 Pls
4052 519 Pls
4055 510 Pls
4059 501 Pls
4063 492 Pls
4067 461 Pls
4071 479 Pls
4075 479 Pls
4079 452 Pls
4082 497 Pls
4086 483 Pls
4090 567 Pls
4094 598 Pls
4098 629 Pls
4102 559 Pls
4106 523 Pls
4109 483 Pls
4113 514 Pls
4117 731 Pls
4121 550 Pls
4125 581 Pls
4129 475 Pls
4133 532 Pls
4136 505 Pls
4140 461 Pls
4144 483 Pls
4148 483 Pls
4152 541 Pls
4156 479 Pls
4160 488 Pls
4163 532 Pls
4167 528 Pls
4171 479 Pls
4175 475 Pls
4179 470 Pls
4183 545 Pls
4187 576 Pls
4191 576 Pls
4194 563 Pls
4198 457 Pls
4202 475 Pls
4206 466 Pls
4210 501 Pls
4214 514 Pls
4218 457 Pls
4221 501 Pls
4225 475 Pls
4229 523 Pls
4233 536 Pls
4237 519 Pls
4241 488 Pls
4245 510 Pls
4248 466 Pls
4252 594 Pls
4256 479 Pls
4260 501 Pls
4264 470 Pls
4268 457 Pls
4272 470 Pls
4275 492 Pls
4279 492 Pls
4283 479 Pls
4287 452 Pls
4291 497 Pls
4295 514 Pls
4299 479 Pls
4302 466 Pls
4306 452 Pls
4310 532 Pls
4314 501 Pls
4318 510 Pls
4322 510 Pls
4326 475 Pls
4329 475 Pls
4333 479 Pls
4337 479 Pls
4341 528 Pls
4345 585 Pls
4349 466 Pls
4353 576 Pls
4357 603 Pls
4360 536 Pls
4364 483 Pls
4368 492 Pls
4372 567 Pls
4376 519 Pls
4380 475 Pls
4384 475 Pls
4387 457 Pls
4391 470 Pls
4395 470 Pls
4399 475 Pls
4403 563 Pls
4407 466 Pls
4411 505 Pls
4414 567 Pls
4418 545 Pls
4422 488 Pls
4426 457 Pls
4430 651 Pls
4434 523 Pls
4438 700 Pls
4441 545 Pls
4445 603 Pls
4449 519 Pls
4453 492 Pls
4457 483 Pls
4461 483 Pls
4465 598 Pls
4468 497 Pls
4472 475 Pls
4476 594 Pls
4480 590 Pls
4484 554 Pls
4488 510 Pls
4492 501 Pls
4496 488 Pls
4499 545 Pls
4503 470 Pls
4507 475 Pls
4511 483 Pls
4515 567 Pls
4519 563 Pls
4523 536 Pls
4526 625 Pls
4530 647 Pls
4534 603 Pls
4538 532 Pls
4542 501 Pls
4546 475 Pls
4550 479 Pls
4553 470 Pls
4557 461 Pls
4561 492 Pls
4565 475 Pls
4569 492 Pls
4573 497 Pls
4577 488 Pls
4580 461 Pls
4584 479 Pls
4588 452 Pls
4592 479 Pls
4596 479 Pls
4600 466 Pls
4604 470 Pls
4607 479 Pls
4611 479 Pls
4615 470 Pls
4619 488 Pls
4623 470 Pls
4627 479 Pls
4631 488 Pls
4634 475 Pls
4638 585 Pls
4642 501 Pls
4646 466 Pls
4650 572 Pls
4654 470 Pls
4658 452 Pls
4662 479 Pls
4665 461 Pls
4669 483 Pls
4673 466 Pls
4677 567 Pls
4681 488 Pls
4685 492 Pls
4689 545 Pls
4692 475 Pls
4696 550 Pls
4700 501 Pls
4704 514 Pls
4708 457 Pls
4712 514 Pls
4716 457 Pls
4719 461 Pls
4723 492 Pls
4727 620 Pls
4731 519 Pls
4735 616 Pls
4739 607 Pls
4743 536 Pls
4746 492 Pls
4750 528 Pls
4754 514 Pls
4758 461 Pls
4762 457 Pls
4766 581 Pls
4770 510 Pls
4773 563 Pls
4777 475 Pls
4781 501 Pls
4785 519 Pls
4789 713 Pls
4793 678 Pls
4797 612 Pls
4800 466 Pls
4804 727 Pls
4808 789 Pls
4812 643 Pls
4816 479 Pls
4820 479 Pls
4824 523 Pls
4828 479 Pls
4831 466 Pls
4835 820 Pls
4839 470 Pls
4843 488 Pls
4847 457 Pls
4851 457 Pls
4855 475 Pls
4858 492 Pls
4862 466 Pls
4866 497 Pls
4870 483 Pls
4874 461 Pls
4878 466 Pls
4882 501 Pls
4885 457 Pls
4889 475 Pls
4893 461 Pls
4897 479 Pls
4901 461 Pls
4905 457 Pls
4909 466 Pls
4912 461 Pls
4916 466 Pls
4920 457 Pls
4924 466 Pls
4928 479 Pls
4932 475 Pls
4936 475 Pls
4939 492 Pls
4943 461 Pls
4947 483 Pls
4951 483 Pls
4955 461 Pls
4959 519 Pls
4963 497 Pls
4966 532 Pls
4970 452 Pls
4974 470 Pls
4978 479 Pls
4982 541 Pls
4986 510 Pls
4990 532 Pls
4994 620 Pls
4997 585 Pls
5001 700 Pls
5005 634 Pls
5009 470 Pls
5013 479 Pls
5017 497 Pls
5021 470 Pls
5024 479 Pls
5028 727 Pls
5032 665 Pls
5036 550 Pls
5040 554 Pls
5044 483 Pls
5048 475 Pls
5051 479 Pls
5055 483 Pls
5059 483 Pls
5063 470 Pls
5067 607 Pls
5071 581 Pls
5075 514 Pls
5078 492 Pls
5082 488 Pls
5086 461 Pls
5090 457 Pls
5094 488 Pls
5098 470 Pls
5102 470 Pls
5105 452 Pls
5109 466 Pls
5113 457 Pls
5117 479 Pls
5121 479 Pls
5125 700 Pls
5129 625 Pls
5133 559 Pls
5136 523 Pls
5140 514 Pls
5144 483 Pls
5148 970 Pls
5152 996 Pls
5156 536 Pls
5160 638 Pls
5163 541 Pls
5167 492 Pls
5171 452 Pls
5175 461 Pls
5179 1080 Pls
5183 674 Pls
5187 475 Pls
5190 483 Pls
5194 470 Pls
5198 457 Pls
5202 461 Pls
5206 497 Pls
5210 466 Pls
5214 461 Pls
5217 492 Pls
5221 483 Pls
5225 461 Pls
5229 461 Pls
5233 475 Pls
5237 470 Pls
5241 452 Pls
5244 461 Pls
5248 475 Pls
5252 457 Pls
5256 461 Pls
5260 457 Pls
5264 470 Pls
5268 470 Pls
5271 528 Pls
5275 483 Pls
5279 479 Pls
5283 479 Pls
5287 452 Pls
5291 510 Pls
5295 479 Pls
5299 550 Pls
5302 457 Pls
5306 452 Pls
5310 488 Pls
5314 501 Pls
5318 563 Pls
5322 510 Pls
5326 479 Pls
5329 452 Pls
5333 452 Pls
5337 461 Pls
5341 452 Pls
5345 483 Pls
5349 452 Pls
5353 461 Pls
5356 590 Pls
5360 475 Pls
5364 466 Pls
5368 771 Pls
5372 567 Pls
5376 470 Pls
5380 536 Pls
5383 488 Pls
5387 483 Pls
5391 523 Pls
5395 492 Pls
5399 598 Pls
5403 629 Pls
5407 514 Pls
5410 514 Pls
5414 470 Pls
5418 452 Pls
5422 475 Pls
5426 475 Pls
5430 483 Pls
5434 1359 Pls
5437 590 Pls
5441 638 Pls
5445 634 Pls
5449 678 Pls
5453 536 Pls
5457 492 Pls
5461 519 Pls
5465 475 Pls
5468 475 Pls
5472 466 Pls
5476 452 Pls
5480 457 Pls
5484 457 Pls
5488 452 Pls
5492 475 Pls
5495 466 Pls
5499 470 Pls
5503 452 Pls
5507 452 Pls
5511 466 Pls
5515 501 Pls
5519 470 Pls
5522 488 Pls
5526 501 Pls
5530 452 Pls
5534 457 Pls
5538 466 Pls
5542 519 Pls
5546 576 Pls
5549 461 Pls
5553 457 Pls
5557 470 Pls
5561 466 Pls
5565 461 Pls
5569 488 Pls
5573 475 Pls
5576 634 Pls
5580 461 Pls
5584 483 Pls
5588 457 Pls
5592 479 Pls
5596 470 Pls
5600 457 Pls
5604 457 Pls
5607 452 Pls
5611 470 Pls
5615 457 Pls
5619 461 Pls
5623 461 Pls
5627 510 Pls
5631 479 Pls
5634 470 Pls
5638 466 Pls
5642 625 Pls
5646 758 Pls
5650 492 Pls
5654 532 Pls
5658 488 Pls
5661 475 Pls
5665 457 Pls
5669 452 Pls
5673 461 Pls
5677 466 Pls
5681 492 Pls
5685 492 Pls
5688 457 Pls
5692 488 Pls
5696 452 Pls
5700 466 Pls
5704 475 Pls
5708 470 Pls
5712 470 Pls
5715 461 Pls
5719 452 Pls
5723 452 Pls
5727 466 Pls
5731 466 Pls
5735 452 Pls
5739 452 Pls
5742 466 Pls
5746 457 Pls
5750 452 Pls
5754 466 Pls
5758 466 Pls
5762 510 Pls
5766 466 Pls
5770 470 Pls
5773 452 Pls
5777 457 Pls
5781 452 Pls
5785 466 Pls
5789 466 Pls
5793 457 Pls
5797 466 Pls
5800 563 Pls
5804 483 Pls
5808 466 Pls
5812 501 Pls
5816 466 Pls
5820 461 Pls
5824 452 Pls
5827 452 Pls
5831 457 Pls
5835 466 Pls
5839 457 Pls
5843 461 Pls
5847 461 Pls
5851 452 Pls
5854 479 Pls
5858 452 Pls
5862 466 Pls
5866 466 Pls
5870 470 Pls
5874 457 Pls
5878 475 Pls
5881 475 Pls
5885 457 Pls
5889 457 Pls
5893 461 Pls
5897 501 Pls
5901 452 Pls
5905 483 Pls
5908 461 Pls
5912 461 Pls
5916 452 Pls
5920 457 Pls
5924 475 Pls
5928 452 Pls
5932 466 Pls
5936 479 Pls
5939 475 Pls
5943 466 Pls
5947 457 Pls
5951 461 Pls
5955 452 Pls
5959 466 Pls
5963 452 Pls
5966 466 Pls
5970 457 Pls
5974 452 Pls
5978 452 Pls
5982 461 Pls
5986 452 Pls
5990 457 Pls
5993 452 Pls
5997 452 Pls
6001 457 Pls
6005 452 Pls
6009 470 Pls
6013 461 Pls
6017 452 Pls
6020 466 Pls
6024 466 Pls
6028 452 Pls
6032 457 Pls
6036 475 Pls
6040 461 Pls
6044 457 Pls
6047 452 Pls
6051 461 Pls
6055 461 Pls
6059 461 Pls
6063 452 Pls
6067 457 Pls
6071 488 Pls
6074 466 Pls
6078 461 Pls
6082 466 Pls
6086 452 Pls
6090 452 Pls
6094 452 Pls
6098 452 Pls
6102 457 Pls
6105 461 Pls
6109 470 Pls
6113 452 Pls
6117 466 Pls
6121 452 Pls
6125 452 Pls
6129 457 Pls
6132 452 Pls
6136 457 Pls
6140 452 Pls
6144 452 Pls
6148 457 Pls
6152 461 Pls
6156 461 Pls
6159 452 Pls
6163 457 Pls
6167 470 Pls
6171 466 Pls
6175 457 Pls
6179 461 Pls
6183 452 Pls
6186 452 Pls
6190 457 Pls
6194 452 Pls
6198 452 Pls
6202 475 Pls
6206 452 Pls
6210 452 Pls
6213 452 Pls
6217 452 Pls
6221 461 Pls
6225 452 Pls
6229 452 Pls
6233 457 Pls
6237 461 Pls
6241 461 Pls
6244 457 Pls
6248 466 Pls
6252 457 Pls
6256 457 Pls
6260 452 Pls
6264 452 Pls
6268 461 Pls
6271 461 Pls
6275 452 Pls
6279 461 Pls
6283 457 Pls
6287 457 Pls
6291 452 Pls
6295 452 Pls
6298 457 Pls
6302 452 Pls
6306 488 Pls
6310 457 Pls
6314 452 Pls
6318 461 Pls
6322 457 Pls
6325 457 Pls
6329 452 Pls
6333 452 Pls
6337 452 Pls
6341 452 Pls
6345 452 Pls
6349 452 Pls
6352 452 Pls
6356 452 Pls
6360 457 Pls
6364 452 Pls
6368 452 Pls
6372 457 Pls
6376 457 Pls
6379 457 Pls
6383 457 Pls
6387 457 Pls
6391 457 Pls
6395 461 Pls
6399 452 Pls
6403 452 Pls
6407 457 Pls
6410 461 Pls
6414 457 Pls
6418 452 Pls
6422 466 Pls
6426 457 Pls
6430 452 Pls
6434 461 Pls
6437 452 Pls
6441 452 Pls
6445 452 Pls
6449 457 Pls
6453 452 Pls
6457 452 Pls
6461 457 Pls
6464 452 Pls
6468 461 Pls
6472 452 Pls
6476 461 Pls
6480 452 Pls
6484 457 Pls
6488 457 Pls
6491 457 Pls
6495 452 Pls
6499 452 Pls
6503 457 Pls
6507 457 Pls
6511 452 Pls
6515 452 Pls
6518 457 Pls
6522 452 Pls
6526 461 Pls
6530 457 Pls
6534 457 Pls
6538 457 Pls
6542 457 Pls
6545 461 Pls
6549 461 Pls
6553 457 Pls
6557 452 Pls
6561 452 Pls
6565 457 Pls
6569 457 Pls
6573 452 Pls
6576 457 Pls
6580 452 Pls
6584 452 Pls
6588 457 Pls
6592 452 Pls
6596 452 Pls
6600 461 Pls
6603 452 Pls
6607 452 Pls
6611 466 Pls
6615 452 Pls
6619 452 Pls
6623 452 Pls
6627 452 Pls
6630 452 Pls
6634 452 Pls
6638 452 Pls
6642 457 Pls
6646 452 Pls
6650 457 Pls
6654 452 Pls
6657 457 Pls
6661 457 Pls
6665 457 Pls
6669 452 Pls
6673 457 Pls
6677 452 Pls
6681 452 Pls
6684 452 Pls
6688 452 Pls
6692 452 Pls
6696 452 Pls
6700 457 Pls
6704 457 Pls
6708 452 Pls
6712 457 Pls
6715 457 Pls
6719 457 Pls
6723 452 Pls
6727 452 Pls
6731 452 Pls
6735 457 Pls
6739 452 Pls
6742 452 Pls
6746 452 Pls
6750 452 Pls
6754 452 Pls
6758 452 Pls
6762 452 Pls
6766 452 Pls
6769 452 Pls
6773 452 Pls
6777 452 Pls
6781 452 Pls
6785 452 Pls
6789 452 Pls
6793 452 Pls
6796 452 Pls
6800 452 Pls
6804 452 Pls
6808 452 Pls
6812 452 Pls
6816 452 Pls
6820 452 Pls
6823 452 Pls
6827 452 Pls
6831 457 Pls
6835 452 Pls
6839 452 Pls
6843 452 Pls
6579 4738 Pls
% End plot #1
1.000 UL
LTb
770 4871 N
770 448 L
6177 0 V
0 4423 V
-6177 0 V
Z stroke
1.000 UP
1.000 UL
LTb
stroke
grestore
end
showpage
%%Trailer
%%DocumentFonts: Helvetica
