%!PS-Adobe-2.0 EPSF-2.0
%%Title: ../plots/domainstats/states-sorted-by-ply-visit-count-over-avg-num-plies-nannon-offset-2.eps
%%Creator: gnuplot 4.4 patchlevel 3
%%CreationDate: Wed Dec 14 04:42:16 2011
%%DocumentFonts: (atend)
%%BoundingBox: 50 50 410 302
%%EndComments
%%BeginProlog
/gnudict 256 dict def
gnudict begin
%
% The following true/false flags may be edited by hand if desired.
% The unit line width and grayscale image gamma correction may also be changed.
%
/Color true def
/Blacktext false def
/Solid false def
/Dashlength 1 def
/Landscape false def
/Level1 false def
/Rounded false def
/ClipToBoundingBox false def
/TransparentPatterns false def
/gnulinewidth 5.000 def
/userlinewidth gnulinewidth def
/Gamma 1.0 def
%
/vshift -46 def
/dl1 {
  10.0 Dashlength mul mul
  Rounded { currentlinewidth 0.75 mul sub dup 0 le { pop 0.01 } if } if
} def
/dl2 {
  10.0 Dashlength mul mul
  Rounded { currentlinewidth 0.75 mul add } if
} def
/hpt_ 31.5 def
/vpt_ 31.5 def
/hpt hpt_ def
/vpt vpt_ def
Level1 {} {
/SDict 10 dict def
systemdict /pdfmark known not {
  userdict /pdfmark systemdict /cleartomark get put
} if
SDict begin [
  /Title (../plots/domainstats/states-sorted-by-ply-visit-count-over-avg-num-plies-nannon-offset-2.eps)
  /Subject (gnuplot plot)
  /Creator (gnuplot 4.4 patchlevel 3)
  /Author (reza)
%  /Producer (gnuplot)
%  /Keywords ()
  /CreationDate (Wed Dec 14 04:42:16 2011)
  /DOCINFO pdfmark
end
} ifelse
/doclip {
  ClipToBoundingBox {
    newpath 50 50 moveto 410 50 lineto 410 302 lineto 50 302 lineto closepath
    clip
  } if
} def
%
% Gnuplot Prolog Version 4.4 (August 2010)
%
%/SuppressPDFMark true def
%
/M {moveto} bind def
/L {lineto} bind def
/R {rmoveto} bind def
/V {rlineto} bind def
/N {newpath moveto} bind def
/Z {closepath} bind def
/C {setrgbcolor} bind def
/f {rlineto fill} bind def
/g {setgray} bind def
/Gshow {show} def   % May be redefined later in the file to support UTF-8
/vpt2 vpt 2 mul def
/hpt2 hpt 2 mul def
/Lshow {currentpoint stroke M 0 vshift R 
	Blacktext {gsave 0 setgray show grestore} {show} ifelse} def
/Rshow {currentpoint stroke M dup stringwidth pop neg vshift R
	Blacktext {gsave 0 setgray show grestore} {show} ifelse} def
/Cshow {currentpoint stroke M dup stringwidth pop -2 div vshift R 
	Blacktext {gsave 0 setgray show grestore} {show} ifelse} def
/UP {dup vpt_ mul /vpt exch def hpt_ mul /hpt exch def
  /hpt2 hpt 2 mul def /vpt2 vpt 2 mul def} def
/DL {Color {setrgbcolor Solid {pop []} if 0 setdash}
 {pop pop pop 0 setgray Solid {pop []} if 0 setdash} ifelse} def
/BL {stroke userlinewidth 2 mul setlinewidth
	Rounded {1 setlinejoin 1 setlinecap} if} def
/AL {stroke userlinewidth 2 div setlinewidth
	Rounded {1 setlinejoin 1 setlinecap} if} def
/UL {dup gnulinewidth mul /userlinewidth exch def
	dup 1 lt {pop 1} if 10 mul /udl exch def} def
/PL {stroke userlinewidth setlinewidth
	Rounded {1 setlinejoin 1 setlinecap} if} def
3.8 setmiterlimit
% Default Line colors
/LCw {1 1 1} def
/LCb {0 0 0} def
/LCa {0 0 0} def
/LC0 {1 0 0} def
/LC1 {0 1 0} def
/LC2 {0 0 1} def
/LC3 {1 0 1} def
/LC4 {0 1 1} def
/LC5 {1 1 0} def
/LC6 {0 0 0} def
/LC7 {1 0.3 0} def
/LC8 {0.5 0.5 0.5} def
% Default Line Types
/LTw {PL [] 1 setgray} def
/LTb {BL [] LCb DL} def
/LTa {AL [1 udl mul 2 udl mul] 0 setdash LCa setrgbcolor} def
/LT0 {PL [] LC0 DL} def
/LT1 {PL [4 dl1 2 dl2] LC1 DL} def
/LT2 {PL [2 dl1 3 dl2] LC2 DL} def
/LT3 {PL [1 dl1 1.5 dl2] LC3 DL} def
/LT4 {PL [6 dl1 2 dl2 1 dl1 2 dl2] LC4 DL} def
/LT5 {PL [3 dl1 3 dl2 1 dl1 3 dl2] LC5 DL} def
/LT6 {PL [2 dl1 2 dl2 2 dl1 6 dl2] LC6 DL} def
/LT7 {PL [1 dl1 2 dl2 6 dl1 2 dl2 1 dl1 2 dl2] LC7 DL} def
/LT8 {PL [2 dl1 2 dl2 2 dl1 2 dl2 2 dl1 2 dl2 2 dl1 4 dl2] LC8 DL} def
/Pnt {stroke [] 0 setdash gsave 1 setlinecap M 0 0 V stroke grestore} def
/Dia {stroke [] 0 setdash 2 copy vpt add M
  hpt neg vpt neg V hpt vpt neg V
  hpt vpt V hpt neg vpt V closepath stroke
  Pnt} def
/Pls {stroke [] 0 setdash vpt sub M 0 vpt2 V
  currentpoint stroke M
  hpt neg vpt neg R hpt2 0 V stroke
 } def
/Box {stroke [] 0 setdash 2 copy exch hpt sub exch vpt add M
  0 vpt2 neg V hpt2 0 V 0 vpt2 V
  hpt2 neg 0 V closepath stroke
  Pnt} def
/Crs {stroke [] 0 setdash exch hpt sub exch vpt add M
  hpt2 vpt2 neg V currentpoint stroke M
  hpt2 neg 0 R hpt2 vpt2 V stroke} def
/TriU {stroke [] 0 setdash 2 copy vpt 1.12 mul add M
  hpt neg vpt -1.62 mul V
  hpt 2 mul 0 V
  hpt neg vpt 1.62 mul V closepath stroke
  Pnt} def
/Star {2 copy Pls Crs} def
/BoxF {stroke [] 0 setdash exch hpt sub exch vpt add M
  0 vpt2 neg V hpt2 0 V 0 vpt2 V
  hpt2 neg 0 V closepath fill} def
/TriUF {stroke [] 0 setdash vpt 1.12 mul add M
  hpt neg vpt -1.62 mul V
  hpt 2 mul 0 V
  hpt neg vpt 1.62 mul V closepath fill} def
/TriD {stroke [] 0 setdash 2 copy vpt 1.12 mul sub M
  hpt neg vpt 1.62 mul V
  hpt 2 mul 0 V
  hpt neg vpt -1.62 mul V closepath stroke
  Pnt} def
/TriDF {stroke [] 0 setdash vpt 1.12 mul sub M
  hpt neg vpt 1.62 mul V
  hpt 2 mul 0 V
  hpt neg vpt -1.62 mul V closepath fill} def
/DiaF {stroke [] 0 setdash vpt add M
  hpt neg vpt neg V hpt vpt neg V
  hpt vpt V hpt neg vpt V closepath fill} def
/Pent {stroke [] 0 setdash 2 copy gsave
  translate 0 hpt M 4 {72 rotate 0 hpt L} repeat
  closepath stroke grestore Pnt} def
/PentF {stroke [] 0 setdash gsave
  translate 0 hpt M 4 {72 rotate 0 hpt L} repeat
  closepath fill grestore} def
/Circle {stroke [] 0 setdash 2 copy
  hpt 0 360 arc stroke Pnt} def
/CircleF {stroke [] 0 setdash hpt 0 360 arc fill} def
/C0 {BL [] 0 setdash 2 copy moveto vpt 90 450 arc} bind def
/C1 {BL [] 0 setdash 2 copy moveto
	2 copy vpt 0 90 arc closepath fill
	vpt 0 360 arc closepath} bind def
/C2 {BL [] 0 setdash 2 copy moveto
	2 copy vpt 90 180 arc closepath fill
	vpt 0 360 arc closepath} bind def
/C3 {BL [] 0 setdash 2 copy moveto
	2 copy vpt 0 180 arc closepath fill
	vpt 0 360 arc closepath} bind def
/C4 {BL [] 0 setdash 2 copy moveto
	2 copy vpt 180 270 arc closepath fill
	vpt 0 360 arc closepath} bind def
/C5 {BL [] 0 setdash 2 copy moveto
	2 copy vpt 0 90 arc
	2 copy moveto
	2 copy vpt 180 270 arc closepath fill
	vpt 0 360 arc} bind def
/C6 {BL [] 0 setdash 2 copy moveto
	2 copy vpt 90 270 arc closepath fill
	vpt 0 360 arc closepath} bind def
/C7 {BL [] 0 setdash 2 copy moveto
	2 copy vpt 0 270 arc closepath fill
	vpt 0 360 arc closepath} bind def
/C8 {BL [] 0 setdash 2 copy moveto
	2 copy vpt 270 360 arc closepath fill
	vpt 0 360 arc closepath} bind def
/C9 {BL [] 0 setdash 2 copy moveto
	2 copy vpt 270 450 arc closepath fill
	vpt 0 360 arc closepath} bind def
/C10 {BL [] 0 setdash 2 copy 2 copy moveto vpt 270 360 arc closepath fill
	2 copy moveto
	2 copy vpt 90 180 arc closepath fill
	vpt 0 360 arc closepath} bind def
/C11 {BL [] 0 setdash 2 copy moveto
	2 copy vpt 0 180 arc closepath fill
	2 copy moveto
	2 copy vpt 270 360 arc closepath fill
	vpt 0 360 arc closepath} bind def
/C12 {BL [] 0 setdash 2 copy moveto
	2 copy vpt 180 360 arc closepath fill
	vpt 0 360 arc closepath} bind def
/C13 {BL [] 0 setdash 2 copy moveto
	2 copy vpt 0 90 arc closepath fill
	2 copy moveto
	2 copy vpt 180 360 arc closepath fill
	vpt 0 360 arc closepath} bind def
/C14 {BL [] 0 setdash 2 copy moveto
	2 copy vpt 90 360 arc closepath fill
	vpt 0 360 arc} bind def
/C15 {BL [] 0 setdash 2 copy vpt 0 360 arc closepath fill
	vpt 0 360 arc closepath} bind def
/Rec {newpath 4 2 roll moveto 1 index 0 rlineto 0 exch rlineto
	neg 0 rlineto closepath} bind def
/Square {dup Rec} bind def
/Bsquare {vpt sub exch vpt sub exch vpt2 Square} bind def
/S0 {BL [] 0 setdash 2 copy moveto 0 vpt rlineto BL Bsquare} bind def
/S1 {BL [] 0 setdash 2 copy vpt Square fill Bsquare} bind def
/S2 {BL [] 0 setdash 2 copy exch vpt sub exch vpt Square fill Bsquare} bind def
/S3 {BL [] 0 setdash 2 copy exch vpt sub exch vpt2 vpt Rec fill Bsquare} bind def
/S4 {BL [] 0 setdash 2 copy exch vpt sub exch vpt sub vpt Square fill Bsquare} bind def
/S5 {BL [] 0 setdash 2 copy 2 copy vpt Square fill
	exch vpt sub exch vpt sub vpt Square fill Bsquare} bind def
/S6 {BL [] 0 setdash 2 copy exch vpt sub exch vpt sub vpt vpt2 Rec fill Bsquare} bind def
/S7 {BL [] 0 setdash 2 copy exch vpt sub exch vpt sub vpt vpt2 Rec fill
	2 copy vpt Square fill Bsquare} bind def
/S8 {BL [] 0 setdash 2 copy vpt sub vpt Square fill Bsquare} bind def
/S9 {BL [] 0 setdash 2 copy vpt sub vpt vpt2 Rec fill Bsquare} bind def
/S10 {BL [] 0 setdash 2 copy vpt sub vpt Square fill 2 copy exch vpt sub exch vpt Square fill
	Bsquare} bind def
/S11 {BL [] 0 setdash 2 copy vpt sub vpt Square fill 2 copy exch vpt sub exch vpt2 vpt Rec fill
	Bsquare} bind def
/S12 {BL [] 0 setdash 2 copy exch vpt sub exch vpt sub vpt2 vpt Rec fill Bsquare} bind def
/S13 {BL [] 0 setdash 2 copy exch vpt sub exch vpt sub vpt2 vpt Rec fill
	2 copy vpt Square fill Bsquare} bind def
/S14 {BL [] 0 setdash 2 copy exch vpt sub exch vpt sub vpt2 vpt Rec fill
	2 copy exch vpt sub exch vpt Square fill Bsquare} bind def
/S15 {BL [] 0 setdash 2 copy Bsquare fill Bsquare} bind def
/D0 {gsave translate 45 rotate 0 0 S0 stroke grestore} bind def
/D1 {gsave translate 45 rotate 0 0 S1 stroke grestore} bind def
/D2 {gsave translate 45 rotate 0 0 S2 stroke grestore} bind def
/D3 {gsave translate 45 rotate 0 0 S3 stroke grestore} bind def
/D4 {gsave translate 45 rotate 0 0 S4 stroke grestore} bind def
/D5 {gsave translate 45 rotate 0 0 S5 stroke grestore} bind def
/D6 {gsave translate 45 rotate 0 0 S6 stroke grestore} bind def
/D7 {gsave translate 45 rotate 0 0 S7 stroke grestore} bind def
/D8 {gsave translate 45 rotate 0 0 S8 stroke grestore} bind def
/D9 {gsave translate 45 rotate 0 0 S9 stroke grestore} bind def
/D10 {gsave translate 45 rotate 0 0 S10 stroke grestore} bind def
/D11 {gsave translate 45 rotate 0 0 S11 stroke grestore} bind def
/D12 {gsave translate 45 rotate 0 0 S12 stroke grestore} bind def
/D13 {gsave translate 45 rotate 0 0 S13 stroke grestore} bind def
/D14 {gsave translate 45 rotate 0 0 S14 stroke grestore} bind def
/D15 {gsave translate 45 rotate 0 0 S15 stroke grestore} bind def
/DiaE {stroke [] 0 setdash vpt add M
  hpt neg vpt neg V hpt vpt neg V
  hpt vpt V hpt neg vpt V closepath stroke} def
/BoxE {stroke [] 0 setdash exch hpt sub exch vpt add M
  0 vpt2 neg V hpt2 0 V 0 vpt2 V
  hpt2 neg 0 V closepath stroke} def
/TriUE {stroke [] 0 setdash vpt 1.12 mul add M
  hpt neg vpt -1.62 mul V
  hpt 2 mul 0 V
  hpt neg vpt 1.62 mul V closepath stroke} def
/TriDE {stroke [] 0 setdash vpt 1.12 mul sub M
  hpt neg vpt 1.62 mul V
  hpt 2 mul 0 V
  hpt neg vpt -1.62 mul V closepath stroke} def
/PentE {stroke [] 0 setdash gsave
  translate 0 hpt M 4 {72 rotate 0 hpt L} repeat
  closepath stroke grestore} def
/CircE {stroke [] 0 setdash 
  hpt 0 360 arc stroke} def
/Opaque {gsave closepath 1 setgray fill grestore 0 setgray closepath} def
/DiaW {stroke [] 0 setdash vpt add M
  hpt neg vpt neg V hpt vpt neg V
  hpt vpt V hpt neg vpt V Opaque stroke} def
/BoxW {stroke [] 0 setdash exch hpt sub exch vpt add M
  0 vpt2 neg V hpt2 0 V 0 vpt2 V
  hpt2 neg 0 V Opaque stroke} def
/TriUW {stroke [] 0 setdash vpt 1.12 mul add M
  hpt neg vpt -1.62 mul V
  hpt 2 mul 0 V
  hpt neg vpt 1.62 mul V Opaque stroke} def
/TriDW {stroke [] 0 setdash vpt 1.12 mul sub M
  hpt neg vpt 1.62 mul V
  hpt 2 mul 0 V
  hpt neg vpt -1.62 mul V Opaque stroke} def
/PentW {stroke [] 0 setdash gsave
  translate 0 hpt M 4 {72 rotate 0 hpt L} repeat
  Opaque stroke grestore} def
/CircW {stroke [] 0 setdash 
  hpt 0 360 arc Opaque stroke} def
/BoxFill {gsave Rec 1 setgray fill grestore} def
/Density {
  /Fillden exch def
  currentrgbcolor
  /ColB exch def /ColG exch def /ColR exch def
  /ColR ColR Fillden mul Fillden sub 1 add def
  /ColG ColG Fillden mul Fillden sub 1 add def
  /ColB ColB Fillden mul Fillden sub 1 add def
  ColR ColG ColB setrgbcolor} def
/BoxColFill {gsave Rec PolyFill} def
/PolyFill {gsave Density fill grestore grestore} def
/h {rlineto rlineto rlineto gsave closepath fill grestore} bind def
%
% PostScript Level 1 Pattern Fill routine for rectangles
% Usage: x y w h s a XX PatternFill
%	x,y = lower left corner of box to be filled
%	w,h = width and height of box
%	  a = angle in degrees between lines and x-axis
%	 XX = 0/1 for no/yes cross-hatch
%
/PatternFill {gsave /PFa [ 9 2 roll ] def
  PFa 0 get PFa 2 get 2 div add PFa 1 get PFa 3 get 2 div add translate
  PFa 2 get -2 div PFa 3 get -2 div PFa 2 get PFa 3 get Rec
  gsave 1 setgray fill grestore clip
  currentlinewidth 0.5 mul setlinewidth
  /PFs PFa 2 get dup mul PFa 3 get dup mul add sqrt def
  0 0 M PFa 5 get rotate PFs -2 div dup translate
  0 1 PFs PFa 4 get div 1 add floor cvi
	{PFa 4 get mul 0 M 0 PFs V} for
  0 PFa 6 get ne {
	0 1 PFs PFa 4 get div 1 add floor cvi
	{PFa 4 get mul 0 2 1 roll M PFs 0 V} for
 } if
  stroke grestore} def
%
/languagelevel where
 {pop languagelevel} {1} ifelse
 2 lt
	{/InterpretLevel1 true def}
	{/InterpretLevel1 Level1 def}
 ifelse
%
% PostScript level 2 pattern fill definitions
%
/Level2PatternFill {
/Tile8x8 {/PaintType 2 /PatternType 1 /TilingType 1 /BBox [0 0 8 8] /XStep 8 /YStep 8}
	bind def
/KeepColor {currentrgbcolor [/Pattern /DeviceRGB] setcolorspace} bind def
<< Tile8x8
 /PaintProc {0.5 setlinewidth pop 0 0 M 8 8 L 0 8 M 8 0 L stroke} 
>> matrix makepattern
/Pat1 exch def
<< Tile8x8
 /PaintProc {0.5 setlinewidth pop 0 0 M 8 8 L 0 8 M 8 0 L stroke
	0 4 M 4 8 L 8 4 L 4 0 L 0 4 L stroke}
>> matrix makepattern
/Pat2 exch def
<< Tile8x8
 /PaintProc {0.5 setlinewidth pop 0 0 M 0 8 L
	8 8 L 8 0 L 0 0 L fill}
>> matrix makepattern
/Pat3 exch def
<< Tile8x8
 /PaintProc {0.5 setlinewidth pop -4 8 M 8 -4 L
	0 12 M 12 0 L stroke}
>> matrix makepattern
/Pat4 exch def
<< Tile8x8
 /PaintProc {0.5 setlinewidth pop -4 0 M 8 12 L
	0 -4 M 12 8 L stroke}
>> matrix makepattern
/Pat5 exch def
<< Tile8x8
 /PaintProc {0.5 setlinewidth pop -2 8 M 4 -4 L
	0 12 M 8 -4 L 4 12 M 10 0 L stroke}
>> matrix makepattern
/Pat6 exch def
<< Tile8x8
 /PaintProc {0.5 setlinewidth pop -2 0 M 4 12 L
	0 -4 M 8 12 L 4 -4 M 10 8 L stroke}
>> matrix makepattern
/Pat7 exch def
<< Tile8x8
 /PaintProc {0.5 setlinewidth pop 8 -2 M -4 4 L
	12 0 M -4 8 L 12 4 M 0 10 L stroke}
>> matrix makepattern
/Pat8 exch def
<< Tile8x8
 /PaintProc {0.5 setlinewidth pop 0 -2 M 12 4 L
	-4 0 M 12 8 L -4 4 M 8 10 L stroke}
>> matrix makepattern
/Pat9 exch def
/Pattern1 {PatternBgnd KeepColor Pat1 setpattern} bind def
/Pattern2 {PatternBgnd KeepColor Pat2 setpattern} bind def
/Pattern3 {PatternBgnd KeepColor Pat3 setpattern} bind def
/Pattern4 {PatternBgnd KeepColor Landscape {Pat5} {Pat4} ifelse setpattern} bind def
/Pattern5 {PatternBgnd KeepColor Landscape {Pat4} {Pat5} ifelse setpattern} bind def
/Pattern6 {PatternBgnd KeepColor Landscape {Pat9} {Pat6} ifelse setpattern} bind def
/Pattern7 {PatternBgnd KeepColor Landscape {Pat8} {Pat7} ifelse setpattern} bind def
} def
%
%
%End of PostScript Level 2 code
%
/PatternBgnd {
  TransparentPatterns {} {gsave 1 setgray fill grestore} ifelse
} def
%
% Substitute for Level 2 pattern fill codes with
% grayscale if Level 2 support is not selected.
%
/Level1PatternFill {
/Pattern1 {0.250 Density} bind def
/Pattern2 {0.500 Density} bind def
/Pattern3 {0.750 Density} bind def
/Pattern4 {0.125 Density} bind def
/Pattern5 {0.375 Density} bind def
/Pattern6 {0.625 Density} bind def
/Pattern7 {0.875 Density} bind def
} def
%
% Now test for support of Level 2 code
%
Level1 {Level1PatternFill} {Level2PatternFill} ifelse
%
/Symbol-Oblique /Symbol findfont [1 0 .167 1 0 0] makefont
dup length dict begin {1 index /FID eq {pop pop} {def} ifelse} forall
currentdict end definefont pop
end
%%EndProlog
gnudict begin
gsave
doclip
50 50 translate
0.050 0.050 scale
0 setgray
newpath
(Helvetica) findfont 140 scalefont setfont
1.000 UL
LTb
686 448 M
63 0 V
6198 0 R
-63 0 V
602 448 M
( 0) Rshow
1.000 UL
LTb
686 1185 M
63 0 V
6198 0 R
-63 0 V
-6282 0 R
( 20) Rshow
1.000 UL
LTb
686 1922 M
63 0 V
6198 0 R
-63 0 V
-6282 0 R
( 40) Rshow
1.000 UL
LTb
686 2660 M
63 0 V
6198 0 R
-63 0 V
-6282 0 R
( 60) Rshow
1.000 UL
LTb
686 3397 M
63 0 V
6198 0 R
-63 0 V
-6282 0 R
( 80) Rshow
1.000 UL
LTb
686 4134 M
63 0 V
6198 0 R
-63 0 V
-6282 0 R
( 100) Rshow
1.000 UL
LTb
686 4871 M
63 0 V
6198 0 R
-63 0 V
-6282 0 R
( 120) Rshow
1.000 UL
LTb
686 448 M
0 63 V
0 4360 R
0 -63 V
686 308 M
( 0) Cshow
1.000 UL
LTb
1382 448 M
0 63 V
0 4360 R
0 -63 V
0 -4500 R
( 200) Cshow
1.000 UL
LTb
2077 448 M
0 63 V
0 4360 R
0 -63 V
0 -4500 R
( 400) Cshow
1.000 UL
LTb
2773 448 M
0 63 V
0 4360 R
0 -63 V
0 -4500 R
( 600) Cshow
1.000 UL
LTb
3469 448 M
0 63 V
0 4360 R
0 -63 V
0 -4500 R
( 800) Cshow
1.000 UL
LTb
4164 448 M
0 63 V
0 4360 R
0 -63 V
0 -4500 R
( 1000) Cshow
1.000 UL
LTb
4860 448 M
0 63 V
0 4360 R
0 -63 V
0 -4500 R
( 1200) Cshow
1.000 UL
LTb
5556 448 M
0 63 V
0 4360 R
0 -63 V
0 -4500 R
( 1400) Cshow
1.000 UL
LTb
6251 448 M
0 63 V
0 4360 R
0 -63 V
0 -4500 R
( 1600) Cshow
1.000 UL
LTb
6947 448 M
0 63 V
0 4360 R
0 -63 V
0 -4500 R
( 1800) Cshow
1.000 UL
LTb
1.000 UL
LTb
686 4871 N
686 448 L
6261 0 V
0 4423 V
-6261 0 V
Z stroke
LCb setrgbcolor
112 2659 M
currentpoint gsave translate -270 rotate 0 0 M
(Visit Count per 1000 Plies) Cshow
grestore
LTb
LCb setrgbcolor
3816 98 M
(States \(Sorted by Earliest Visit Time\)) Cshow
LTb
1.000 UP
1.000 UL
LTb
% Begin plot #1
1.000 UP
1.000 UL
LT0
LCb setrgbcolor
6296 4738 M
(Offset = 2) Rshow
LT0
686 4609 Pls
689 586 Pls
693 685 Pls
696 738 Pls
700 794 Pls
703 635 Pls
707 568 Pls
710 692 Pls
714 908 Pls
717 865 Pls
721 649 Pls
724 773 Pls
728 639 Pls
731 819 Pls
735 660 Pls
738 579 Pls
742 579 Pls
745 512 Pls
749 490 Pls
752 476 Pls
756 494 Pls
759 466 Pls
763 455 Pls
766 490 Pls
769 497 Pls
773 459 Pls
776 529 Pls
780 487 Pls
783 473 Pls
787 466 Pls
790 466 Pls
794 476 Pls
797 515 Pls
801 473 Pls
804 452 Pls
808 487 Pls
811 490 Pls
815 543 Pls
818 501 Pls
822 554 Pls
825 508 Pls
829 558 Pls
832 476 Pls
836 515 Pls
839 459 Pls
843 490 Pls
846 476 Pls
849 476 Pls
853 466 Pls
856 487 Pls
860 505 Pls
863 462 Pls
867 480 Pls
870 466 Pls
874 466 Pls
877 497 Pls
881 490 Pls
884 459 Pls
888 473 Pls
891 512 Pls
895 476 Pls
898 466 Pls
902 466 Pls
905 476 Pls
909 515 Pls
912 490 Pls
916 466 Pls
919 494 Pls
923 501 Pls
926 558 Pls
929 533 Pls
933 487 Pls
936 476 Pls
940 476 Pls
943 480 Pls
947 487 Pls
950 476 Pls
954 554 Pls
957 469 Pls
961 497 Pls
964 505 Pls
968 490 Pls
971 466 Pls
975 476 Pls
978 490 Pls
982 473 Pls
985 547 Pls
989 529 Pls
992 480 Pls
996 483 Pls
999 452 Pls
1003 459 Pls
1006 490 Pls
1009 473 Pls
1013 487 Pls
1016 480 Pls
1020 522 Pls
1023 515 Pls
1027 519 Pls
1030 462 Pls
1034 476 Pls
1037 494 Pls
1041 466 Pls
1044 483 Pls
1048 476 Pls
1051 501 Pls
1055 497 Pls
1058 476 Pls
1062 494 Pls
1065 466 Pls
1069 508 Pls
1072 490 Pls
1076 501 Pls
1079 483 Pls
1083 501 Pls
1086 512 Pls
1089 529 Pls
1093 466 Pls
1096 558 Pls
1100 469 Pls
1103 483 Pls
1107 469 Pls
1110 490 Pls
1114 540 Pls
1117 497 Pls
1121 540 Pls
1124 466 Pls
1128 473 Pls
1131 476 Pls
1135 480 Pls
1138 497 Pls
1142 459 Pls
1145 476 Pls
1149 466 Pls
1152 483 Pls
1156 469 Pls
1159 469 Pls
1163 480 Pls
1166 483 Pls
1169 487 Pls
1173 469 Pls
1176 462 Pls
1180 469 Pls
1183 455 Pls
1187 476 Pls
1190 473 Pls
1194 459 Pls
1197 455 Pls
1201 455 Pls
1204 462 Pls
1208 452 Pls
1211 473 Pls
1215 469 Pls
1218 462 Pls
1222 522 Pls
1225 459 Pls
1229 462 Pls
1232 455 Pls
1236 480 Pls
1239 459 Pls
1243 455 Pls
1246 455 Pls
1249 466 Pls
1253 452 Pls
1256 455 Pls
1260 459 Pls
1263 459 Pls
1267 455 Pls
1270 455 Pls
1274 452 Pls
1277 476 Pls
1281 466 Pls
1284 476 Pls
1288 452 Pls
1291 459 Pls
1295 452 Pls
1298 473 Pls
1302 473 Pls
1305 455 Pls
1309 455 Pls
1312 452 Pls
1316 452 Pls
1319 452 Pls
1323 455 Pls
1326 462 Pls
1329 455 Pls
1333 459 Pls
1336 455 Pls
1340 480 Pls
1343 476 Pls
1347 462 Pls
1350 487 Pls
1354 452 Pls
1357 452 Pls
1361 459 Pls
1364 476 Pls
1368 483 Pls
1371 476 Pls
1375 473 Pls
1378 455 Pls
1382 462 Pls
1385 476 Pls
1389 487 Pls
1392 469 Pls
1396 462 Pls
1399 473 Pls
1403 487 Pls
1406 473 Pls
1409 473 Pls
1413 476 Pls
1416 480 Pls
1420 473 Pls
1423 459 Pls
1427 462 Pls
1430 452 Pls
1434 497 Pls
1437 473 Pls
1441 466 Pls
1444 459 Pls
1448 466 Pls
1451 490 Pls
1455 505 Pls
1458 476 Pls
1462 480 Pls
1465 476 Pls
1469 462 Pls
1472 487 Pls
1476 487 Pls
1479 466 Pls
1483 455 Pls
1486 455 Pls
1489 452 Pls
1493 452 Pls
1496 459 Pls
1500 452 Pls
1503 452 Pls
1507 483 Pls
1510 455 Pls
1514 466 Pls
1517 455 Pls
1521 455 Pls
1524 459 Pls
1528 473 Pls
1531 462 Pls
1535 452 Pls
1538 455 Pls
1542 455 Pls
1545 469 Pls
1549 459 Pls
1552 466 Pls
1556 459 Pls
1559 455 Pls
1563 459 Pls
1566 459 Pls
1569 455 Pls
1573 455 Pls
1576 452 Pls
1580 480 Pls
1583 494 Pls
1587 455 Pls
1590 452 Pls
1594 455 Pls
1597 462 Pls
1601 459 Pls
1604 473 Pls
1608 462 Pls
1611 466 Pls
1615 462 Pls
1618 462 Pls
1622 490 Pls
1625 462 Pls
1629 462 Pls
1632 462 Pls
1636 455 Pls
1639 476 Pls
1643 469 Pls
1646 462 Pls
1649 469 Pls
1653 462 Pls
1656 483 Pls
1660 476 Pls
1663 459 Pls
1667 452 Pls
1670 466 Pls
1674 466 Pls
1677 466 Pls
1681 455 Pls
1684 459 Pls
1688 455 Pls
1691 459 Pls
1695 452 Pls
1698 455 Pls
1702 462 Pls
1705 462 Pls
1709 480 Pls
1712 487 Pls
1716 476 Pls
1719 452 Pls
1723 452 Pls
1726 452 Pls
1730 459 Pls
1733 469 Pls
1736 455 Pls
1740 455 Pls
1743 452 Pls
1747 452 Pls
1750 462 Pls
1754 462 Pls
1757 469 Pls
1761 452 Pls
1764 459 Pls
1768 452 Pls
1771 452 Pls
1775 455 Pls
1778 459 Pls
1782 483 Pls
1785 533 Pls
1789 459 Pls
1792 480 Pls
1796 487 Pls
1799 494 Pls
1803 480 Pls
1806 483 Pls
1810 466 Pls
1813 483 Pls
1816 469 Pls
1820 459 Pls
1823 476 Pls
1827 480 Pls
1830 473 Pls
1834 487 Pls
1837 476 Pls
1841 487 Pls
1844 501 Pls
1848 466 Pls
1851 469 Pls
1855 466 Pls
1858 490 Pls
1862 473 Pls
1865 452 Pls
1869 452 Pls
1872 455 Pls
1876 455 Pls
1879 459 Pls
1883 459 Pls
1886 462 Pls
1890 462 Pls
1893 505 Pls
1896 501 Pls
1900 452 Pls
1903 466 Pls
1907 469 Pls
1910 501 Pls
1914 476 Pls
1917 497 Pls
1921 459 Pls
1924 455 Pls
1928 487 Pls
1931 483 Pls
1935 483 Pls
1938 462 Pls
1942 466 Pls
1945 459 Pls
1949 455 Pls
1952 462 Pls
1956 466 Pls
1959 469 Pls
1963 455 Pls
1966 452 Pls
1970 459 Pls
1973 469 Pls
1976 476 Pls
1980 469 Pls
1983 466 Pls
1987 466 Pls
1990 466 Pls
1994 466 Pls
1997 459 Pls
2001 455 Pls
2004 452 Pls
2008 455 Pls
2011 455 Pls
2015 459 Pls
2018 452 Pls
2022 452 Pls
2025 455 Pls
2029 462 Pls
2032 455 Pls
2036 466 Pls
2039 462 Pls
2043 455 Pls
2046 455 Pls
2050 473 Pls
2053 462 Pls
2056 459 Pls
2060 452 Pls
2063 455 Pls
2067 455 Pls
2070 452 Pls
2074 462 Pls
2077 483 Pls
2081 459 Pls
2084 462 Pls
2088 455 Pls
2091 469 Pls
2095 452 Pls
2098 476 Pls
2102 459 Pls
2105 455 Pls
2109 459 Pls
2112 452 Pls
2116 459 Pls
2119 455 Pls
2123 455 Pls
2126 462 Pls
2130 455 Pls
2133 487 Pls
2136 469 Pls
2140 462 Pls
2143 459 Pls
2147 452 Pls
2150 459 Pls
2154 455 Pls
2157 462 Pls
2161 452 Pls
2164 459 Pls
2168 452 Pls
2171 459 Pls
2175 459 Pls
2178 459 Pls
2182 452 Pls
2185 452 Pls
2189 452 Pls
2192 452 Pls
2196 459 Pls
2199 452 Pls
2203 452 Pls
2206 455 Pls
2210 455 Pls
2213 452 Pls
2216 462 Pls
2220 462 Pls
2223 455 Pls
2227 452 Pls
2230 455 Pls
2234 455 Pls
2237 455 Pls
2241 452 Pls
2244 462 Pls
2248 452 Pls
2251 466 Pls
2255 452 Pls
2258 452 Pls
2262 462 Pls
2265 459 Pls
2269 455 Pls
2272 452 Pls
2276 455 Pls
2279 455 Pls
2283 452 Pls
2286 452 Pls
2290 462 Pls
2293 455 Pls
2296 452 Pls
2300 459 Pls
2303 466 Pls
2307 455 Pls
2310 459 Pls
2314 459 Pls
2317 455 Pls
2321 459 Pls
2324 452 Pls
2328 459 Pls
2331 462 Pls
2335 452 Pls
2338 462 Pls
2342 462 Pls
2345 452 Pls
2349 473 Pls
2352 494 Pls
2356 469 Pls
2359 462 Pls
2363 459 Pls
2366 473 Pls
2370 466 Pls
2373 469 Pls
2376 462 Pls
2380 469 Pls
2383 490 Pls
2387 469 Pls
2390 459 Pls
2394 462 Pls
2397 462 Pls
2401 455 Pls
2404 455 Pls
2408 505 Pls
2411 476 Pls
2415 473 Pls
2418 487 Pls
2422 459 Pls
2425 452 Pls
2429 452 Pls
2432 462 Pls
2436 455 Pls
2439 455 Pls
2443 459 Pls
2446 462 Pls
2450 459 Pls
2453 455 Pls
2456 459 Pls
2460 452 Pls
2463 473 Pls
2467 476 Pls
2470 473 Pls
2474 462 Pls
2477 466 Pls
2481 497 Pls
2484 462 Pls
2488 483 Pls
2491 483 Pls
2495 462 Pls
2498 455 Pls
2502 480 Pls
2505 459 Pls
2509 473 Pls
2512 462 Pls
2516 483 Pls
2519 469 Pls
2523 462 Pls
2526 483 Pls
2530 455 Pls
2533 469 Pls
2536 452 Pls
2540 452 Pls
2543 455 Pls
2547 466 Pls
2550 466 Pls
2554 452 Pls
2557 494 Pls
2561 466 Pls
2564 469 Pls
2568 452 Pls
2571 476 Pls
2575 459 Pls
2578 459 Pls
2582 501 Pls
2585 480 Pls
2589 452 Pls
2592 452 Pls
2596 455 Pls
2599 452 Pls
2603 483 Pls
2606 466 Pls
2610 452 Pls
2613 452 Pls
2616 452 Pls
2620 452 Pls
2623 459 Pls
2627 452 Pls
2630 452 Pls
2634 459 Pls
2637 452 Pls
2641 455 Pls
2644 455 Pls
2648 452 Pls
2651 462 Pls
2655 473 Pls
2658 455 Pls
2662 459 Pls
2665 459 Pls
2669 455 Pls
2672 459 Pls
2676 462 Pls
2679 452 Pls
2683 459 Pls
2686 455 Pls
2690 459 Pls
2693 462 Pls
2696 466 Pls
2700 452 Pls
2703 452 Pls
2707 452 Pls
2710 452 Pls
2714 455 Pls
2717 455 Pls
2721 455 Pls
2724 459 Pls
2728 455 Pls
2731 469 Pls
2735 455 Pls
2738 452 Pls
2742 469 Pls
2745 459 Pls
2749 455 Pls
2752 452 Pls
2756 462 Pls
2759 452 Pls
2763 452 Pls
2766 462 Pls
2770 459 Pls
2773 452 Pls
2776 455 Pls
2780 459 Pls
2783 452 Pls
2787 455 Pls
2790 455 Pls
2794 455 Pls
2797 476 Pls
2801 452 Pls
2804 452 Pls
2808 455 Pls
2811 452 Pls
2815 452 Pls
2818 452 Pls
2822 459 Pls
2825 459 Pls
2829 469 Pls
2832 452 Pls
2836 476 Pls
2839 476 Pls
2843 473 Pls
2846 473 Pls
2850 476 Pls
2853 476 Pls
2856 480 Pls
2860 473 Pls
2863 466 Pls
2867 473 Pls
2870 462 Pls
2874 459 Pls
2877 466 Pls
2881 497 Pls
2884 483 Pls
2888 480 Pls
2891 473 Pls
2895 466 Pls
2898 466 Pls
2902 480 Pls
2905 455 Pls
2909 487 Pls
2912 455 Pls
2916 459 Pls
2919 480 Pls
2923 469 Pls
2926 455 Pls
2930 455 Pls
2933 462 Pls
2936 455 Pls
2940 459 Pls
2943 455 Pls
2947 459 Pls
2950 462 Pls
2954 494 Pls
2957 469 Pls
2961 462 Pls
2964 466 Pls
2968 455 Pls
2971 455 Pls
2975 455 Pls
2978 515 Pls
2982 473 Pls
2985 522 Pls
2989 476 Pls
2992 490 Pls
2996 476 Pls
2999 480 Pls
3003 452 Pls
3006 476 Pls
3010 459 Pls
3013 487 Pls
3016 455 Pls
3020 459 Pls
3023 462 Pls
3027 459 Pls
3030 483 Pls
3034 462 Pls
3037 466 Pls
3041 469 Pls
3044 455 Pls
3048 459 Pls
3051 462 Pls
3055 462 Pls
3058 455 Pls
3062 459 Pls
3065 469 Pls
3069 473 Pls
3072 462 Pls
3076 452 Pls
3079 505 Pls
3083 497 Pls
3086 469 Pls
3090 476 Pls
3093 455 Pls
3096 455 Pls
3100 455 Pls
3103 455 Pls
3107 473 Pls
3110 466 Pls
3114 466 Pls
3117 455 Pls
3121 455 Pls
3124 462 Pls
3128 462 Pls
3131 452 Pls
3135 462 Pls
3138 455 Pls
3142 455 Pls
3145 452 Pls
3149 452 Pls
3152 466 Pls
3156 462 Pls
3159 452 Pls
3163 459 Pls
3166 452 Pls
3170 452 Pls
3173 469 Pls
3176 459 Pls
3180 466 Pls
3183 459 Pls
3187 452 Pls
3190 462 Pls
3194 466 Pls
3197 469 Pls
3201 455 Pls
3204 452 Pls
3208 483 Pls
3211 452 Pls
3215 452 Pls
3218 469 Pls
3222 452 Pls
3225 455 Pls
3229 455 Pls
3232 462 Pls
3236 459 Pls
3239 455 Pls
3243 466 Pls
3246 452 Pls
3250 452 Pls
3253 455 Pls
3256 452 Pls
3260 455 Pls
3263 452 Pls
3267 466 Pls
3270 452 Pls
3274 462 Pls
3277 462 Pls
3281 455 Pls
3284 452 Pls
3288 462 Pls
3291 452 Pls
3295 452 Pls
3298 452 Pls
3302 452 Pls
3305 459 Pls
3309 455 Pls
3312 452 Pls
3316 452 Pls
3319 455 Pls
3323 452 Pls
3326 459 Pls
3330 452 Pls
3333 455 Pls
3336 455 Pls
3340 452 Pls
3343 452 Pls
3347 459 Pls
3350 455 Pls
3354 452 Pls
3357 452 Pls
3361 452 Pls
3364 452 Pls
3368 462 Pls
3371 455 Pls
3375 455 Pls
3378 455 Pls
3382 452 Pls
3385 452 Pls
3389 452 Pls
3392 455 Pls
3396 455 Pls
3399 455 Pls
3403 459 Pls
3406 452 Pls
3410 452 Pls
3413 452 Pls
3416 455 Pls
3420 452 Pls
3423 452 Pls
3427 452 Pls
3430 452 Pls
3434 452 Pls
3437 452 Pls
3441 452 Pls
3444 462 Pls
3448 462 Pls
3451 466 Pls
3455 462 Pls
3458 466 Pls
3462 473 Pls
3465 459 Pls
3469 483 Pls
3472 469 Pls
3476 462 Pls
3479 466 Pls
3483 459 Pls
3486 459 Pls
3490 455 Pls
3493 462 Pls
3496 459 Pls
3500 466 Pls
3503 459 Pls
3507 455 Pls
3510 452 Pls
3514 466 Pls
3517 459 Pls
3521 476 Pls
3524 483 Pls
3528 466 Pls
3531 459 Pls
3535 466 Pls
3538 455 Pls
3542 469 Pls
3545 459 Pls
3549 469 Pls
3552 462 Pls
3556 462 Pls
3559 487 Pls
3563 473 Pls
3566 473 Pls
3570 487 Pls
3573 476 Pls
3576 459 Pls
3580 494 Pls
3583 480 Pls
3587 476 Pls
3590 452 Pls
3594 462 Pls
3597 455 Pls
3601 466 Pls
3604 455 Pls
3608 462 Pls
3611 452 Pls
3615 455 Pls
3618 469 Pls
3622 452 Pls
3625 459 Pls
3629 452 Pls
3632 473 Pls
3636 459 Pls
3639 452 Pls
3643 469 Pls
3646 469 Pls
3650 462 Pls
3653 455 Pls
3656 466 Pls
3660 459 Pls
3663 452 Pls
3667 455 Pls
3670 459 Pls
3674 469 Pls
3677 466 Pls
3681 459 Pls
3684 469 Pls
3688 459 Pls
3691 459 Pls
3695 480 Pls
3698 459 Pls
3702 462 Pls
3705 452 Pls
3709 462 Pls
3712 466 Pls
3716 459 Pls
3719 483 Pls
3723 452 Pls
3726 551 Pls
3730 494 Pls
3733 473 Pls
3736 490 Pls
3740 469 Pls
3743 480 Pls
3747 466 Pls
3750 455 Pls
3754 480 Pls
3757 469 Pls
3761 469 Pls
3764 469 Pls
3768 501 Pls
3771 466 Pls
3775 462 Pls
3778 455 Pls
3782 480 Pls
3785 480 Pls
3789 476 Pls
3792 459 Pls
3796 459 Pls
3799 466 Pls
3803 455 Pls
3806 455 Pls
3810 455 Pls
3813 462 Pls
3817 452 Pls
3820 455 Pls
3823 452 Pls
3827 455 Pls
3830 452 Pls
3834 452 Pls
3837 452 Pls
3841 455 Pls
3844 452 Pls
3848 452 Pls
3851 452 Pls
3855 452 Pls
3858 462 Pls
3862 455 Pls
3865 459 Pls
3869 476 Pls
3872 455 Pls
3876 452 Pls
3879 455 Pls
3883 452 Pls
3886 459 Pls
3890 462 Pls
3893 459 Pls
3897 462 Pls
3900 459 Pls
3903 466 Pls
3907 459 Pls
3910 455 Pls
3914 469 Pls
3917 459 Pls
3921 469 Pls
3924 455 Pls
3928 459 Pls
3931 452 Pls
3935 452 Pls
3938 462 Pls
3942 452 Pls
3945 452 Pls
3949 455 Pls
3952 452 Pls
3956 452 Pls
3959 452 Pls
3963 452 Pls
3966 452 Pls
3970 452 Pls
3973 462 Pls
3977 490 Pls
3980 476 Pls
3983 501 Pls
3987 480 Pls
3990 462 Pls
3994 487 Pls
3997 483 Pls
4001 455 Pls
4004 459 Pls
4008 452 Pls
4011 469 Pls
4015 473 Pls
4018 452 Pls
4022 480 Pls
4025 501 Pls
4029 497 Pls
4032 494 Pls
4036 469 Pls
4039 487 Pls
4043 476 Pls
4046 452 Pls
4050 452 Pls
4053 459 Pls
4057 462 Pls
4060 455 Pls
4063 452 Pls
4067 462 Pls
4070 501 Pls
4074 459 Pls
4077 483 Pls
4081 466 Pls
4084 476 Pls
4088 452 Pls
4091 462 Pls
4095 515 Pls
4098 476 Pls
4102 466 Pls
4105 490 Pls
4109 452 Pls
4112 455 Pls
4116 462 Pls
4119 452 Pls
4123 459 Pls
4126 487 Pls
4130 452 Pls
4133 459 Pls
4137 452 Pls
4140 459 Pls
4143 452 Pls
4147 565 Pls
4150 473 Pls
4154 480 Pls
4157 462 Pls
4161 455 Pls
4164 459 Pls
4168 455 Pls
4171 487 Pls
4175 487 Pls
4178 466 Pls
4182 462 Pls
4185 480 Pls
4189 462 Pls
4192 466 Pls
4196 476 Pls
4199 476 Pls
4203 455 Pls
4206 483 Pls
4210 455 Pls
4213 459 Pls
4217 462 Pls
4220 575 Pls
4223 452 Pls
4227 480 Pls
4230 462 Pls
4234 452 Pls
4237 459 Pls
4241 452 Pls
4244 452 Pls
4248 455 Pls
4251 452 Pls
4255 452 Pls
4258 452 Pls
4262 459 Pls
4265 462 Pls
4269 455 Pls
4272 466 Pls
4276 459 Pls
4279 452 Pls
4283 452 Pls
4286 455 Pls
4290 466 Pls
4293 455 Pls
4297 452 Pls
4300 452 Pls
4303 455 Pls
4307 455 Pls
4310 473 Pls
4314 452 Pls
4317 452 Pls
4321 466 Pls
4324 462 Pls
4328 455 Pls
4331 452 Pls
4335 459 Pls
4338 452 Pls
4342 452 Pls
4345 455 Pls
4349 452 Pls
4352 452 Pls
4356 452 Pls
4359 452 Pls
4363 452 Pls
4366 452 Pls
4370 452 Pls
4373 455 Pls
4377 452 Pls
4380 452 Pls
4383 452 Pls
4387 455 Pls
4390 452 Pls
4394 455 Pls
4397 455 Pls
4401 455 Pls
4404 452 Pls
4408 455 Pls
4411 452 Pls
4415 462 Pls
4418 455 Pls
4422 466 Pls
4425 455 Pls
4429 452 Pls
4432 452 Pls
4436 452 Pls
4439 452 Pls
4443 452 Pls
4446 459 Pls
4450 452 Pls
4453 452 Pls
4457 452 Pls
4460 452 Pls
4463 455 Pls
4467 452 Pls
4470 452 Pls
4474 452 Pls
4477 452 Pls
4481 452 Pls
4484 452 Pls
4488 452 Pls
4491 455 Pls
4495 476 Pls
4498 455 Pls
4502 462 Pls
4505 455 Pls
4509 473 Pls
4512 462 Pls
4516 473 Pls
4519 487 Pls
4523 459 Pls
4526 462 Pls
4530 459 Pls
4533 455 Pls
4537 473 Pls
4540 459 Pls
4543 469 Pls
4547 455 Pls
4550 455 Pls
4554 459 Pls
4557 452 Pls
4561 490 Pls
4564 508 Pls
4568 462 Pls
4571 466 Pls
4575 476 Pls
4578 466 Pls
4582 469 Pls
4585 469 Pls
4589 459 Pls
4592 490 Pls
4596 462 Pls
4599 462 Pls
4603 480 Pls
4606 469 Pls
4610 469 Pls
4613 462 Pls
4617 452 Pls
4620 459 Pls
4623 455 Pls
4627 466 Pls
4630 480 Pls
4634 483 Pls
4637 480 Pls
4641 462 Pls
4644 508 Pls
4648 476 Pls
4651 508 Pls
4655 466 Pls
4658 469 Pls
4662 494 Pls
4665 459 Pls
4669 462 Pls
4672 487 Pls
4676 462 Pls
4679 466 Pls
4683 455 Pls
4686 473 Pls
4690 455 Pls
4693 455 Pls
4697 452 Pls
4700 459 Pls
4703 455 Pls
4707 455 Pls
4710 480 Pls
4714 466 Pls
4717 459 Pls
4721 452 Pls
4724 455 Pls
4728 452 Pls
4731 466 Pls
4735 455 Pls
4738 565 Pls
4742 600 Pls
4745 575 Pls
4749 579 Pls
4752 469 Pls
4756 487 Pls
4759 469 Pls
4763 473 Pls
4766 466 Pls
4770 526 Pls
4773 476 Pls
4777 526 Pls
4780 455 Pls
4783 480 Pls
4787 476 Pls
4790 462 Pls
4794 469 Pls
4797 512 Pls
4801 469 Pls
4804 512 Pls
4808 469 Pls
4811 469 Pls
4815 452 Pls
4818 452 Pls
4822 476 Pls
4825 452 Pls
4829 480 Pls
4832 579 Pls
4836 476 Pls
4839 455 Pls
4843 483 Pls
4846 455 Pls
4850 480 Pls
4853 469 Pls
4857 494 Pls
4860 459 Pls
4863 462 Pls
4867 501 Pls
4870 462 Pls
4874 494 Pls
4877 459 Pls
4881 455 Pls
4884 452 Pls
4888 452 Pls
4891 452 Pls
4895 452 Pls
4898 455 Pls
4902 452 Pls
4905 455 Pls
4909 452 Pls
4912 452 Pls
4916 452 Pls
4919 466 Pls
4923 455 Pls
4926 452 Pls
4930 452 Pls
4933 452 Pls
4937 452 Pls
4940 452 Pls
4943 455 Pls
4947 455 Pls
4950 452 Pls
4954 459 Pls
4957 452 Pls
4961 452 Pls
4964 452 Pls
4968 452 Pls
4971 452 Pls
4975 452 Pls
4978 452 Pls
4982 452 Pls
4985 462 Pls
4989 462 Pls
4992 515 Pls
4996 473 Pls
4999 466 Pls
5003 501 Pls
5006 469 Pls
5010 501 Pls
5013 480 Pls
5017 452 Pls
5020 462 Pls
5023 455 Pls
5027 452 Pls
5030 505 Pls
5034 473 Pls
5037 452 Pls
5041 462 Pls
5044 462 Pls
5048 476 Pls
5051 455 Pls
5055 469 Pls
5058 452 Pls
5062 455 Pls
5065 452 Pls
5069 452 Pls
5072 452 Pls
5076 452 Pls
5079 466 Pls
5083 543 Pls
5086 462 Pls
5090 582 Pls
5093 508 Pls
5097 572 Pls
5100 490 Pls
5103 561 Pls
5107 501 Pls
5110 476 Pls
5114 455 Pls
5117 466 Pls
5121 455 Pls
5124 462 Pls
5128 476 Pls
5131 501 Pls
5135 490 Pls
5138 455 Pls
5142 462 Pls
5145 466 Pls
5149 452 Pls
5152 459 Pls
5156 459 Pls
5159 452 Pls
5163 452 Pls
5166 452 Pls
5170 455 Pls
5173 452 Pls
5177 452 Pls
5180 466 Pls
5183 452 Pls
5187 452 Pls
5190 462 Pls
5194 476 Pls
5197 452 Pls
5201 462 Pls
5204 455 Pls
5208 466 Pls
5211 462 Pls
5215 452 Pls
5218 452 Pls
5222 452 Pls
5225 459 Pls
5229 452 Pls
5232 452 Pls
5236 452 Pls
5239 455 Pls
5243 452 Pls
5246 452 Pls
5250 452 Pls
5253 452 Pls
5257 452 Pls
5260 452 Pls
5263 452 Pls
5267 452 Pls
5270 455 Pls
5274 452 Pls
5277 459 Pls
5281 455 Pls
5284 452 Pls
5288 462 Pls
5291 452 Pls
5295 455 Pls
5298 459 Pls
5302 452 Pls
5305 452 Pls
5309 455 Pls
5312 452 Pls
5316 480 Pls
5319 469 Pls
5323 459 Pls
5326 452 Pls
5330 473 Pls
5333 452 Pls
5337 455 Pls
5340 480 Pls
5343 501 Pls
5347 480 Pls
5350 455 Pls
5354 455 Pls
5357 480 Pls
5361 455 Pls
5364 452 Pls
5368 459 Pls
5371 459 Pls
5375 455 Pls
5378 452 Pls
5382 462 Pls
5385 455 Pls
5389 452 Pls
5392 452 Pls
5396 487 Pls
5399 505 Pls
5403 462 Pls
5406 473 Pls
5410 455 Pls
5413 459 Pls
5417 480 Pls
5420 469 Pls
5423 459 Pls
5427 459 Pls
5430 452 Pls
5434 497 Pls
5437 469 Pls
5441 452 Pls
5444 455 Pls
5448 455 Pls
5451 466 Pls
5455 476 Pls
5458 459 Pls
5462 452 Pls
5465 459 Pls
5469 452 Pls
5472 480 Pls
5476 480 Pls
5479 497 Pls
5483 575 Pls
5486 487 Pls
5490 505 Pls
5493 547 Pls
5497 579 Pls
5500 543 Pls
5503 483 Pls
5507 480 Pls
5510 501 Pls
5514 469 Pls
5517 505 Pls
5521 639 Pls
5524 586 Pls
5528 494 Pls
5531 536 Pls
5535 473 Pls
5538 473 Pls
5542 455 Pls
5545 455 Pls
5549 466 Pls
5552 462 Pls
5556 452 Pls
5559 455 Pls
5563 646 Pls
5566 593 Pls
5570 565 Pls
5573 505 Pls
5577 490 Pls
5580 452 Pls
5583 462 Pls
5587 466 Pls
5590 476 Pls
5594 462 Pls
5597 455 Pls
5601 452 Pls
5604 452 Pls
5608 462 Pls
5611 452 Pls
5615 455 Pls
5618 452 Pls
5622 452 Pls
5625 455 Pls
5629 459 Pls
5632 452 Pls
5636 452 Pls
5639 473 Pls
5643 452 Pls
5646 452 Pls
5650 466 Pls
5653 452 Pls
5657 452 Pls
5660 455 Pls
5663 455 Pls
5667 452 Pls
5670 466 Pls
5674 452 Pls
5677 512 Pls
5681 466 Pls
5684 452 Pls
5688 455 Pls
5691 469 Pls
5695 483 Pls
5698 452 Pls
5702 452 Pls
5705 452 Pls
5709 455 Pls
5712 487 Pls
5716 476 Pls
5719 462 Pls
5723 452 Pls
5726 452 Pls
5730 452 Pls
5733 452 Pls
5737 455 Pls
5740 455 Pls
5743 452 Pls
5747 476 Pls
5750 452 Pls
5754 452 Pls
5757 452 Pls
5761 455 Pls
5764 452 Pls
5768 455 Pls
5771 452 Pls
5775 452 Pls
5778 452 Pls
5782 452 Pls
5785 452 Pls
5789 452 Pls
5792 452 Pls
5796 452 Pls
5799 455 Pls
5803 455 Pls
5806 455 Pls
5810 452 Pls
5813 452 Pls
5817 455 Pls
5820 452 Pls
5823 459 Pls
5827 455 Pls
5830 455 Pls
5834 452 Pls
5837 452 Pls
5841 452 Pls
5844 452 Pls
5848 452 Pls
5851 455 Pls
5855 459 Pls
5858 455 Pls
5862 466 Pls
5865 452 Pls
5869 455 Pls
5872 455 Pls
5876 459 Pls
5879 459 Pls
5883 452 Pls
5886 455 Pls
5890 455 Pls
5893 469 Pls
5897 459 Pls
5900 455 Pls
5904 473 Pls
5907 462 Pls
5910 459 Pls
5914 452 Pls
5917 490 Pls
5921 466 Pls
5924 476 Pls
5928 455 Pls
5931 469 Pls
5935 469 Pls
5938 455 Pls
5942 452 Pls
5945 459 Pls
5949 455 Pls
5952 452 Pls
5956 565 Pls
5959 490 Pls
5963 455 Pls
5966 469 Pls
5970 455 Pls
5973 480 Pls
5977 476 Pls
5980 466 Pls
5984 508 Pls
5987 459 Pls
5990 480 Pls
5994 480 Pls
5997 459 Pls
6001 452 Pls
6004 452 Pls
6008 452 Pls
6011 452 Pls
6015 455 Pls
6018 452 Pls
6022 452 Pls
6025 455 Pls
6029 452 Pls
6032 452 Pls
6036 459 Pls
6039 452 Pls
6043 452 Pls
6046 452 Pls
6050 455 Pls
6053 452 Pls
6057 452 Pls
6060 452 Pls
6064 452 Pls
6067 452 Pls
6070 452 Pls
6074 452 Pls
6077 455 Pls
6081 452 Pls
6084 452 Pls
6088 452 Pls
6091 452 Pls
6095 452 Pls
6098 452 Pls
6102 452 Pls
6105 455 Pls
6109 452 Pls
6112 452 Pls
6116 452 Pls
6119 459 Pls
6123 452 Pls
6126 452 Pls
6130 455 Pls
6133 459 Pls
6137 462 Pls
6140 452 Pls
6144 452 Pls
6147 455 Pls
6150 452 Pls
6154 459 Pls
6157 452 Pls
6161 452 Pls
6164 452 Pls
6168 455 Pls
6171 452 Pls
6175 452 Pls
6178 452 Pls
6182 452 Pls
6185 452 Pls
6189 455 Pls
6192 452 Pls
6196 452 Pls
6199 452 Pls
6203 452 Pls
6206 452 Pls
6210 452 Pls
6213 452 Pls
6217 455 Pls
6220 452 Pls
6224 452 Pls
6227 455 Pls
6230 452 Pls
6234 452 Pls
6237 452 Pls
6241 455 Pls
6244 452 Pls
6248 452 Pls
6251 452 Pls
6255 452 Pls
6258 452 Pls
6262 452 Pls
6265 452 Pls
6269 452 Pls
6272 452 Pls
6276 452 Pls
6279 452 Pls
6283 455 Pls
6286 452 Pls
6290 452 Pls
6293 452 Pls
6579 4738 Pls
% End plot #1
1.000 UL
LTb
686 4871 N
686 448 L
6261 0 V
0 4423 V
-6261 0 V
Z stroke
1.000 UP
1.000 UL
LTb
stroke
grestore
end
showpage
%%Trailer
%%DocumentFonts: Helvetica
