%!PS-Adobe-2.0 EPSF-2.0
%%Title: ../plots/domainstats/states-sorted-by-ply-visit-count-over-avg-num-plies-nannon-p-0.00.eps
%%Creator: gnuplot 4.4 patchlevel 3
%%CreationDate: Wed Dec 14 04:42:17 2011
%%DocumentFonts: (atend)
%%BoundingBox: 50 50 410 302
%%EndComments
%%BeginProlog
/gnudict 256 dict def
gnudict begin
%
% The following true/false flags may be edited by hand if desired.
% The unit line width and grayscale image gamma correction may also be changed.
%
/Color true def
/Blacktext false def
/Solid false def
/Dashlength 1 def
/Landscape false def
/Level1 false def
/Rounded false def
/ClipToBoundingBox false def
/TransparentPatterns false def
/gnulinewidth 5.000 def
/userlinewidth gnulinewidth def
/Gamma 1.0 def
%
/vshift -46 def
/dl1 {
  10.0 Dashlength mul mul
  Rounded { currentlinewidth 0.75 mul sub dup 0 le { pop 0.01 } if } if
} def
/dl2 {
  10.0 Dashlength mul mul
  Rounded { currentlinewidth 0.75 mul add } if
} def
/hpt_ 31.5 def
/vpt_ 31.5 def
/hpt hpt_ def
/vpt vpt_ def
Level1 {} {
/SDict 10 dict def
systemdict /pdfmark known not {
  userdict /pdfmark systemdict /cleartomark get put
} if
SDict begin [
  /Title (../plots/domainstats/states-sorted-by-ply-visit-count-over-avg-num-plies-nannon-p-0.00.eps)
  /Subject (gnuplot plot)
  /Creator (gnuplot 4.4 patchlevel 3)
  /Author (reza)
%  /Producer (gnuplot)
%  /Keywords ()
  /CreationDate (Wed Dec 14 04:42:17 2011)
  /DOCINFO pdfmark
end
} ifelse
/doclip {
  ClipToBoundingBox {
    newpath 50 50 moveto 410 50 lineto 410 302 lineto 50 302 lineto closepath
    clip
  } if
} def
%
% Gnuplot Prolog Version 4.4 (August 2010)
%
%/SuppressPDFMark true def
%
/M {moveto} bind def
/L {lineto} bind def
/R {rmoveto} bind def
/V {rlineto} bind def
/N {newpath moveto} bind def
/Z {closepath} bind def
/C {setrgbcolor} bind def
/f {rlineto fill} bind def
/g {setgray} bind def
/Gshow {show} def   % May be redefined later in the file to support UTF-8
/vpt2 vpt 2 mul def
/hpt2 hpt 2 mul def
/Lshow {currentpoint stroke M 0 vshift R 
	Blacktext {gsave 0 setgray show grestore} {show} ifelse} def
/Rshow {currentpoint stroke M dup stringwidth pop neg vshift R
	Blacktext {gsave 0 setgray show grestore} {show} ifelse} def
/Cshow {currentpoint stroke M dup stringwidth pop -2 div vshift R 
	Blacktext {gsave 0 setgray show grestore} {show} ifelse} def
/UP {dup vpt_ mul /vpt exch def hpt_ mul /hpt exch def
  /hpt2 hpt 2 mul def /vpt2 vpt 2 mul def} def
/DL {Color {setrgbcolor Solid {pop []} if 0 setdash}
 {pop pop pop 0 setgray Solid {pop []} if 0 setdash} ifelse} def
/BL {stroke userlinewidth 2 mul setlinewidth
	Rounded {1 setlinejoin 1 setlinecap} if} def
/AL {stroke userlinewidth 2 div setlinewidth
	Rounded {1 setlinejoin 1 setlinecap} if} def
/UL {dup gnulinewidth mul /userlinewidth exch def
	dup 1 lt {pop 1} if 10 mul /udl exch def} def
/PL {stroke userlinewidth setlinewidth
	Rounded {1 setlinejoin 1 setlinecap} if} def
3.8 setmiterlimit
% Default Line colors
/LCw {1 1 1} def
/LCb {0 0 0} def
/LCa {0 0 0} def
/LC0 {1 0 0} def
/LC1 {0 1 0} def
/LC2 {0 0 1} def
/LC3 {1 0 1} def
/LC4 {0 1 1} def
/LC5 {1 1 0} def
/LC6 {0 0 0} def
/LC7 {1 0.3 0} def
/LC8 {0.5 0.5 0.5} def
% Default Line Types
/LTw {PL [] 1 setgray} def
/LTb {BL [] LCb DL} def
/LTa {AL [1 udl mul 2 udl mul] 0 setdash LCa setrgbcolor} def
/LT0 {PL [] LC0 DL} def
/LT1 {PL [4 dl1 2 dl2] LC1 DL} def
/LT2 {PL [2 dl1 3 dl2] LC2 DL} def
/LT3 {PL [1 dl1 1.5 dl2] LC3 DL} def
/LT4 {PL [6 dl1 2 dl2 1 dl1 2 dl2] LC4 DL} def
/LT5 {PL [3 dl1 3 dl2 1 dl1 3 dl2] LC5 DL} def
/LT6 {PL [2 dl1 2 dl2 2 dl1 6 dl2] LC6 DL} def
/LT7 {PL [1 dl1 2 dl2 6 dl1 2 dl2 1 dl1 2 dl2] LC7 DL} def
/LT8 {PL [2 dl1 2 dl2 2 dl1 2 dl2 2 dl1 2 dl2 2 dl1 4 dl2] LC8 DL} def
/Pnt {stroke [] 0 setdash gsave 1 setlinecap M 0 0 V stroke grestore} def
/Dia {stroke [] 0 setdash 2 copy vpt add M
  hpt neg vpt neg V hpt vpt neg V
  hpt vpt V hpt neg vpt V closepath stroke
  Pnt} def
/Pls {stroke [] 0 setdash vpt sub M 0 vpt2 V
  currentpoint stroke M
  hpt neg vpt neg R hpt2 0 V stroke
 } def
/Box {stroke [] 0 setdash 2 copy exch hpt sub exch vpt add M
  0 vpt2 neg V hpt2 0 V 0 vpt2 V
  hpt2 neg 0 V closepath stroke
  Pnt} def
/Crs {stroke [] 0 setdash exch hpt sub exch vpt add M
  hpt2 vpt2 neg V currentpoint stroke M
  hpt2 neg 0 R hpt2 vpt2 V stroke} def
/TriU {stroke [] 0 setdash 2 copy vpt 1.12 mul add M
  hpt neg vpt -1.62 mul V
  hpt 2 mul 0 V
  hpt neg vpt 1.62 mul V closepath stroke
  Pnt} def
/Star {2 copy Pls Crs} def
/BoxF {stroke [] 0 setdash exch hpt sub exch vpt add M
  0 vpt2 neg V hpt2 0 V 0 vpt2 V
  hpt2 neg 0 V closepath fill} def
/TriUF {stroke [] 0 setdash vpt 1.12 mul add M
  hpt neg vpt -1.62 mul V
  hpt 2 mul 0 V
  hpt neg vpt 1.62 mul V closepath fill} def
/TriD {stroke [] 0 setdash 2 copy vpt 1.12 mul sub M
  hpt neg vpt 1.62 mul V
  hpt 2 mul 0 V
  hpt neg vpt -1.62 mul V closepath stroke
  Pnt} def
/TriDF {stroke [] 0 setdash vpt 1.12 mul sub M
  hpt neg vpt 1.62 mul V
  hpt 2 mul 0 V
  hpt neg vpt -1.62 mul V closepath fill} def
/DiaF {stroke [] 0 setdash vpt add M
  hpt neg vpt neg V hpt vpt neg V
  hpt vpt V hpt neg vpt V closepath fill} def
/Pent {stroke [] 0 setdash 2 copy gsave
  translate 0 hpt M 4 {72 rotate 0 hpt L} repeat
  closepath stroke grestore Pnt} def
/PentF {stroke [] 0 setdash gsave
  translate 0 hpt M 4 {72 rotate 0 hpt L} repeat
  closepath fill grestore} def
/Circle {stroke [] 0 setdash 2 copy
  hpt 0 360 arc stroke Pnt} def
/CircleF {stroke [] 0 setdash hpt 0 360 arc fill} def
/C0 {BL [] 0 setdash 2 copy moveto vpt 90 450 arc} bind def
/C1 {BL [] 0 setdash 2 copy moveto
	2 copy vpt 0 90 arc closepath fill
	vpt 0 360 arc closepath} bind def
/C2 {BL [] 0 setdash 2 copy moveto
	2 copy vpt 90 180 arc closepath fill
	vpt 0 360 arc closepath} bind def
/C3 {BL [] 0 setdash 2 copy moveto
	2 copy vpt 0 180 arc closepath fill
	vpt 0 360 arc closepath} bind def
/C4 {BL [] 0 setdash 2 copy moveto
	2 copy vpt 180 270 arc closepath fill
	vpt 0 360 arc closepath} bind def
/C5 {BL [] 0 setdash 2 copy moveto
	2 copy vpt 0 90 arc
	2 copy moveto
	2 copy vpt 180 270 arc closepath fill
	vpt 0 360 arc} bind def
/C6 {BL [] 0 setdash 2 copy moveto
	2 copy vpt 90 270 arc closepath fill
	vpt 0 360 arc closepath} bind def
/C7 {BL [] 0 setdash 2 copy moveto
	2 copy vpt 0 270 arc closepath fill
	vpt 0 360 arc closepath} bind def
/C8 {BL [] 0 setdash 2 copy moveto
	2 copy vpt 270 360 arc closepath fill
	vpt 0 360 arc closepath} bind def
/C9 {BL [] 0 setdash 2 copy moveto
	2 copy vpt 270 450 arc closepath fill
	vpt 0 360 arc closepath} bind def
/C10 {BL [] 0 setdash 2 copy 2 copy moveto vpt 270 360 arc closepath fill
	2 copy moveto
	2 copy vpt 90 180 arc closepath fill
	vpt 0 360 arc closepath} bind def
/C11 {BL [] 0 setdash 2 copy moveto
	2 copy vpt 0 180 arc closepath fill
	2 copy moveto
	2 copy vpt 270 360 arc closepath fill
	vpt 0 360 arc closepath} bind def
/C12 {BL [] 0 setdash 2 copy moveto
	2 copy vpt 180 360 arc closepath fill
	vpt 0 360 arc closepath} bind def
/C13 {BL [] 0 setdash 2 copy moveto
	2 copy vpt 0 90 arc closepath fill
	2 copy moveto
	2 copy vpt 180 360 arc closepath fill
	vpt 0 360 arc closepath} bind def
/C14 {BL [] 0 setdash 2 copy moveto
	2 copy vpt 90 360 arc closepath fill
	vpt 0 360 arc} bind def
/C15 {BL [] 0 setdash 2 copy vpt 0 360 arc closepath fill
	vpt 0 360 arc closepath} bind def
/Rec {newpath 4 2 roll moveto 1 index 0 rlineto 0 exch rlineto
	neg 0 rlineto closepath} bind def
/Square {dup Rec} bind def
/Bsquare {vpt sub exch vpt sub exch vpt2 Square} bind def
/S0 {BL [] 0 setdash 2 copy moveto 0 vpt rlineto BL Bsquare} bind def
/S1 {BL [] 0 setdash 2 copy vpt Square fill Bsquare} bind def
/S2 {BL [] 0 setdash 2 copy exch vpt sub exch vpt Square fill Bsquare} bind def
/S3 {BL [] 0 setdash 2 copy exch vpt sub exch vpt2 vpt Rec fill Bsquare} bind def
/S4 {BL [] 0 setdash 2 copy exch vpt sub exch vpt sub vpt Square fill Bsquare} bind def
/S5 {BL [] 0 setdash 2 copy 2 copy vpt Square fill
	exch vpt sub exch vpt sub vpt Square fill Bsquare} bind def
/S6 {BL [] 0 setdash 2 copy exch vpt sub exch vpt sub vpt vpt2 Rec fill Bsquare} bind def
/S7 {BL [] 0 setdash 2 copy exch vpt sub exch vpt sub vpt vpt2 Rec fill
	2 copy vpt Square fill Bsquare} bind def
/S8 {BL [] 0 setdash 2 copy vpt sub vpt Square fill Bsquare} bind def
/S9 {BL [] 0 setdash 2 copy vpt sub vpt vpt2 Rec fill Bsquare} bind def
/S10 {BL [] 0 setdash 2 copy vpt sub vpt Square fill 2 copy exch vpt sub exch vpt Square fill
	Bsquare} bind def
/S11 {BL [] 0 setdash 2 copy vpt sub vpt Square fill 2 copy exch vpt sub exch vpt2 vpt Rec fill
	Bsquare} bind def
/S12 {BL [] 0 setdash 2 copy exch vpt sub exch vpt sub vpt2 vpt Rec fill Bsquare} bind def
/S13 {BL [] 0 setdash 2 copy exch vpt sub exch vpt sub vpt2 vpt Rec fill
	2 copy vpt Square fill Bsquare} bind def
/S14 {BL [] 0 setdash 2 copy exch vpt sub exch vpt sub vpt2 vpt Rec fill
	2 copy exch vpt sub exch vpt Square fill Bsquare} bind def
/S15 {BL [] 0 setdash 2 copy Bsquare fill Bsquare} bind def
/D0 {gsave translate 45 rotate 0 0 S0 stroke grestore} bind def
/D1 {gsave translate 45 rotate 0 0 S1 stroke grestore} bind def
/D2 {gsave translate 45 rotate 0 0 S2 stroke grestore} bind def
/D3 {gsave translate 45 rotate 0 0 S3 stroke grestore} bind def
/D4 {gsave translate 45 rotate 0 0 S4 stroke grestore} bind def
/D5 {gsave translate 45 rotate 0 0 S5 stroke grestore} bind def
/D6 {gsave translate 45 rotate 0 0 S6 stroke grestore} bind def
/D7 {gsave translate 45 rotate 0 0 S7 stroke grestore} bind def
/D8 {gsave translate 45 rotate 0 0 S8 stroke grestore} bind def
/D9 {gsave translate 45 rotate 0 0 S9 stroke grestore} bind def
/D10 {gsave translate 45 rotate 0 0 S10 stroke grestore} bind def
/D11 {gsave translate 45 rotate 0 0 S11 stroke grestore} bind def
/D12 {gsave translate 45 rotate 0 0 S12 stroke grestore} bind def
/D13 {gsave translate 45 rotate 0 0 S13 stroke grestore} bind def
/D14 {gsave translate 45 rotate 0 0 S14 stroke grestore} bind def
/D15 {gsave translate 45 rotate 0 0 S15 stroke grestore} bind def
/DiaE {stroke [] 0 setdash vpt add M
  hpt neg vpt neg V hpt vpt neg V
  hpt vpt V hpt neg vpt V closepath stroke} def
/BoxE {stroke [] 0 setdash exch hpt sub exch vpt add M
  0 vpt2 neg V hpt2 0 V 0 vpt2 V
  hpt2 neg 0 V closepath stroke} def
/TriUE {stroke [] 0 setdash vpt 1.12 mul add M
  hpt neg vpt -1.62 mul V
  hpt 2 mul 0 V
  hpt neg vpt 1.62 mul V closepath stroke} def
/TriDE {stroke [] 0 setdash vpt 1.12 mul sub M
  hpt neg vpt 1.62 mul V
  hpt 2 mul 0 V
  hpt neg vpt -1.62 mul V closepath stroke} def
/PentE {stroke [] 0 setdash gsave
  translate 0 hpt M 4 {72 rotate 0 hpt L} repeat
  closepath stroke grestore} def
/CircE {stroke [] 0 setdash 
  hpt 0 360 arc stroke} def
/Opaque {gsave closepath 1 setgray fill grestore 0 setgray closepath} def
/DiaW {stroke [] 0 setdash vpt add M
  hpt neg vpt neg V hpt vpt neg V
  hpt vpt V hpt neg vpt V Opaque stroke} def
/BoxW {stroke [] 0 setdash exch hpt sub exch vpt add M
  0 vpt2 neg V hpt2 0 V 0 vpt2 V
  hpt2 neg 0 V Opaque stroke} def
/TriUW {stroke [] 0 setdash vpt 1.12 mul add M
  hpt neg vpt -1.62 mul V
  hpt 2 mul 0 V
  hpt neg vpt 1.62 mul V Opaque stroke} def
/TriDW {stroke [] 0 setdash vpt 1.12 mul sub M
  hpt neg vpt 1.62 mul V
  hpt 2 mul 0 V
  hpt neg vpt -1.62 mul V Opaque stroke} def
/PentW {stroke [] 0 setdash gsave
  translate 0 hpt M 4 {72 rotate 0 hpt L} repeat
  Opaque stroke grestore} def
/CircW {stroke [] 0 setdash 
  hpt 0 360 arc Opaque stroke} def
/BoxFill {gsave Rec 1 setgray fill grestore} def
/Density {
  /Fillden exch def
  currentrgbcolor
  /ColB exch def /ColG exch def /ColR exch def
  /ColR ColR Fillden mul Fillden sub 1 add def
  /ColG ColG Fillden mul Fillden sub 1 add def
  /ColB ColB Fillden mul Fillden sub 1 add def
  ColR ColG ColB setrgbcolor} def
/BoxColFill {gsave Rec PolyFill} def
/PolyFill {gsave Density fill grestore grestore} def
/h {rlineto rlineto rlineto gsave closepath fill grestore} bind def
%
% PostScript Level 1 Pattern Fill routine for rectangles
% Usage: x y w h s a XX PatternFill
%	x,y = lower left corner of box to be filled
%	w,h = width and height of box
%	  a = angle in degrees between lines and x-axis
%	 XX = 0/1 for no/yes cross-hatch
%
/PatternFill {gsave /PFa [ 9 2 roll ] def
  PFa 0 get PFa 2 get 2 div add PFa 1 get PFa 3 get 2 div add translate
  PFa 2 get -2 div PFa 3 get -2 div PFa 2 get PFa 3 get Rec
  gsave 1 setgray fill grestore clip
  currentlinewidth 0.5 mul setlinewidth
  /PFs PFa 2 get dup mul PFa 3 get dup mul add sqrt def
  0 0 M PFa 5 get rotate PFs -2 div dup translate
  0 1 PFs PFa 4 get div 1 add floor cvi
	{PFa 4 get mul 0 M 0 PFs V} for
  0 PFa 6 get ne {
	0 1 PFs PFa 4 get div 1 add floor cvi
	{PFa 4 get mul 0 2 1 roll M PFs 0 V} for
 } if
  stroke grestore} def
%
/languagelevel where
 {pop languagelevel} {1} ifelse
 2 lt
	{/InterpretLevel1 true def}
	{/InterpretLevel1 Level1 def}
 ifelse
%
% PostScript level 2 pattern fill definitions
%
/Level2PatternFill {
/Tile8x8 {/PaintType 2 /PatternType 1 /TilingType 1 /BBox [0 0 8 8] /XStep 8 /YStep 8}
	bind def
/KeepColor {currentrgbcolor [/Pattern /DeviceRGB] setcolorspace} bind def
<< Tile8x8
 /PaintProc {0.5 setlinewidth pop 0 0 M 8 8 L 0 8 M 8 0 L stroke} 
>> matrix makepattern
/Pat1 exch def
<< Tile8x8
 /PaintProc {0.5 setlinewidth pop 0 0 M 8 8 L 0 8 M 8 0 L stroke
	0 4 M 4 8 L 8 4 L 4 0 L 0 4 L stroke}
>> matrix makepattern
/Pat2 exch def
<< Tile8x8
 /PaintProc {0.5 setlinewidth pop 0 0 M 0 8 L
	8 8 L 8 0 L 0 0 L fill}
>> matrix makepattern
/Pat3 exch def
<< Tile8x8
 /PaintProc {0.5 setlinewidth pop -4 8 M 8 -4 L
	0 12 M 12 0 L stroke}
>> matrix makepattern
/Pat4 exch def
<< Tile8x8
 /PaintProc {0.5 setlinewidth pop -4 0 M 8 12 L
	0 -4 M 12 8 L stroke}
>> matrix makepattern
/Pat5 exch def
<< Tile8x8
 /PaintProc {0.5 setlinewidth pop -2 8 M 4 -4 L
	0 12 M 8 -4 L 4 12 M 10 0 L stroke}
>> matrix makepattern
/Pat6 exch def
<< Tile8x8
 /PaintProc {0.5 setlinewidth pop -2 0 M 4 12 L
	0 -4 M 8 12 L 4 -4 M 10 8 L stroke}
>> matrix makepattern
/Pat7 exch def
<< Tile8x8
 /PaintProc {0.5 setlinewidth pop 8 -2 M -4 4 L
	12 0 M -4 8 L 12 4 M 0 10 L stroke}
>> matrix makepattern
/Pat8 exch def
<< Tile8x8
 /PaintProc {0.5 setlinewidth pop 0 -2 M 12 4 L
	-4 0 M 12 8 L -4 4 M 8 10 L stroke}
>> matrix makepattern
/Pat9 exch def
/Pattern1 {PatternBgnd KeepColor Pat1 setpattern} bind def
/Pattern2 {PatternBgnd KeepColor Pat2 setpattern} bind def
/Pattern3 {PatternBgnd KeepColor Pat3 setpattern} bind def
/Pattern4 {PatternBgnd KeepColor Landscape {Pat5} {Pat4} ifelse setpattern} bind def
/Pattern5 {PatternBgnd KeepColor Landscape {Pat4} {Pat5} ifelse setpattern} bind def
/Pattern6 {PatternBgnd KeepColor Landscape {Pat9} {Pat6} ifelse setpattern} bind def
/Pattern7 {PatternBgnd KeepColor Landscape {Pat8} {Pat7} ifelse setpattern} bind def
} def
%
%
%End of PostScript Level 2 code
%
/PatternBgnd {
  TransparentPatterns {} {gsave 1 setgray fill grestore} ifelse
} def
%
% Substitute for Level 2 pattern fill codes with
% grayscale if Level 2 support is not selected.
%
/Level1PatternFill {
/Pattern1 {0.250 Density} bind def
/Pattern2 {0.500 Density} bind def
/Pattern3 {0.750 Density} bind def
/Pattern4 {0.125 Density} bind def
/Pattern5 {0.375 Density} bind def
/Pattern6 {0.625 Density} bind def
/Pattern7 {0.875 Density} bind def
} def
%
% Now test for support of Level 2 code
%
Level1 {Level1PatternFill} {Level2PatternFill} ifelse
%
/Symbol-Oblique /Symbol findfont [1 0 .167 1 0 0] makefont
dup length dict begin {1 index /FID eq {pop pop} {def} ifelse} forall
currentdict end definefont pop
end
%%EndProlog
gnudict begin
gsave
doclip
50 50 translate
0.050 0.050 scale
0 setgray
newpath
(Helvetica) findfont 140 scalefont setfont
1.000 UL
LTb
686 448 M
63 0 V
6198 0 R
-63 0 V
602 448 M
( 0) Rshow
1.000 UL
LTb
686 1185 M
63 0 V
6198 0 R
-63 0 V
-6282 0 R
( 20) Rshow
1.000 UL
LTb
686 1922 M
63 0 V
6198 0 R
-63 0 V
-6282 0 R
( 40) Rshow
1.000 UL
LTb
686 2660 M
63 0 V
6198 0 R
-63 0 V
-6282 0 R
( 60) Rshow
1.000 UL
LTb
686 3397 M
63 0 V
6198 0 R
-63 0 V
-6282 0 R
( 80) Rshow
1.000 UL
LTb
686 4134 M
63 0 V
6198 0 R
-63 0 V
-6282 0 R
( 100) Rshow
1.000 UL
LTb
686 4871 M
63 0 V
6198 0 R
-63 0 V
-6282 0 R
( 120) Rshow
1.000 UL
LTb
686 448 M
0 63 V
0 4360 R
0 -63 V
686 308 M
( 0) Cshow
1.000 UL
LTb
1469 448 M
0 63 V
0 4360 R
0 -63 V
0 -4500 R
( 200) Cshow
1.000 UL
LTb
2251 448 M
0 63 V
0 4360 R
0 -63 V
0 -4500 R
( 400) Cshow
1.000 UL
LTb
3034 448 M
0 63 V
0 4360 R
0 -63 V
0 -4500 R
( 600) Cshow
1.000 UL
LTb
3816 448 M
0 63 V
0 4360 R
0 -63 V
0 -4500 R
( 800) Cshow
1.000 UL
LTb
4599 448 M
0 63 V
0 4360 R
0 -63 V
0 -4500 R
( 1000) Cshow
1.000 UL
LTb
5382 448 M
0 63 V
0 4360 R
0 -63 V
0 -4500 R
( 1200) Cshow
1.000 UL
LTb
6164 448 M
0 63 V
0 4360 R
0 -63 V
0 -4500 R
( 1400) Cshow
1.000 UL
LTb
6947 448 M
0 63 V
0 4360 R
0 -63 V
0 -4500 R
( 1600) Cshow
1.000 UL
LTb
1.000 UL
LTb
686 4871 N
686 448 L
6261 0 V
0 4423 V
-6261 0 V
Z stroke
LCb setrgbcolor
112 2659 M
currentpoint gsave translate -270 rotate 0 0 M
(Visit Count per 1000 Plies) Cshow
grestore
LTb
LCb setrgbcolor
3816 98 M
(States \(Sorted by Earliest Visit Time\)) Cshow
LTb
1.000 UP
1.000 UL
LTb
% Begin plot #1
1.000 UP
1.000 UL
LT0
LCb setrgbcolor
6296 4738 M
(p = 0.00) Rshow
LT0
686 4434 Pls
690 727 Pls
694 667 Pls
698 867 Pls
702 795 Pls
706 560 Pls
709 651 Pls
713 942 Pls
717 910 Pls
721 771 Pls
725 663 Pls
729 883 Pls
733 675 Pls
737 520 Pls
741 763 Pls
745 584 Pls
749 484 Pls
753 568 Pls
756 496 Pls
760 464 Pls
764 476 Pls
768 500 Pls
772 504 Pls
776 592 Pls
780 520 Pls
784 468 Pls
788 468 Pls
792 452 Pls
796 472 Pls
799 512 Pls
803 476 Pls
807 556 Pls
811 488 Pls
815 528 Pls
819 667 Pls
823 464 Pls
827 484 Pls
831 476 Pls
835 540 Pls
839 500 Pls
843 472 Pls
846 512 Pls
850 480 Pls
854 484 Pls
858 512 Pls
862 472 Pls
866 468 Pls
870 500 Pls
874 476 Pls
878 484 Pls
882 472 Pls
886 468 Pls
889 492 Pls
893 500 Pls
897 520 Pls
901 464 Pls
905 472 Pls
909 548 Pls
913 584 Pls
917 492 Pls
921 464 Pls
925 484 Pls
929 480 Pls
933 480 Pls
936 528 Pls
940 536 Pls
944 468 Pls
948 504 Pls
952 492 Pls
956 464 Pls
960 484 Pls
964 480 Pls
968 456 Pls
972 556 Pls
976 512 Pls
979 468 Pls
983 464 Pls
987 468 Pls
991 484 Pls
995 480 Pls
999 476 Pls
1003 480 Pls
1007 500 Pls
1011 607 Pls
1015 540 Pls
1019 472 Pls
1023 484 Pls
1026 460 Pls
1030 468 Pls
1034 460 Pls
1038 508 Pls
1042 496 Pls
1046 484 Pls
1050 468 Pls
1054 524 Pls
1058 464 Pls
1062 560 Pls
1066 480 Pls
1069 592 Pls
1073 504 Pls
1077 484 Pls
1081 588 Pls
1085 516 Pls
1089 460 Pls
1093 500 Pls
1097 580 Pls
1101 480 Pls
1105 504 Pls
1109 464 Pls
1113 512 Pls
1116 552 Pls
1120 488 Pls
1124 564 Pls
1128 492 Pls
1132 492 Pls
1136 472 Pls
1140 496 Pls
1144 464 Pls
1148 456 Pls
1152 468 Pls
1156 464 Pls
1159 468 Pls
1163 480 Pls
1167 468 Pls
1171 484 Pls
1175 488 Pls
1179 484 Pls
1183 452 Pls
1187 460 Pls
1191 468 Pls
1195 480 Pls
1199 460 Pls
1203 468 Pls
1206 452 Pls
1210 452 Pls
1214 452 Pls
1218 452 Pls
1222 464 Pls
1226 456 Pls
1230 452 Pls
1234 460 Pls
1238 452 Pls
1242 452 Pls
1246 452 Pls
1249 452 Pls
1253 460 Pls
1257 488 Pls
1261 452 Pls
1265 468 Pls
1269 460 Pls
1273 452 Pls
1277 460 Pls
1281 452 Pls
1285 452 Pls
1289 460 Pls
1293 456 Pls
1296 452 Pls
1300 464 Pls
1304 464 Pls
1308 456 Pls
1312 472 Pls
1316 460 Pls
1320 452 Pls
1324 452 Pls
1328 456 Pls
1332 456 Pls
1336 452 Pls
1339 492 Pls
1343 472 Pls
1347 452 Pls
1351 456 Pls
1355 456 Pls
1359 452 Pls
1363 452 Pls
1367 468 Pls
1371 460 Pls
1375 456 Pls
1379 452 Pls
1383 456 Pls
1386 460 Pls
1390 452 Pls
1394 611 Pls
1398 476 Pls
1402 468 Pls
1406 452 Pls
1410 452 Pls
1414 456 Pls
1418 520 Pls
1422 488 Pls
1426 452 Pls
1429 456 Pls
1433 456 Pls
1437 464 Pls
1441 488 Pls
1445 456 Pls
1449 508 Pls
1453 484 Pls
1457 472 Pls
1461 488 Pls
1465 492 Pls
1469 468 Pls
1473 468 Pls
1476 476 Pls
1480 456 Pls
1484 496 Pls
1488 460 Pls
1492 496 Pls
1496 496 Pls
1500 464 Pls
1504 456 Pls
1508 460 Pls
1512 468 Pls
1516 456 Pls
1519 476 Pls
1523 500 Pls
1527 468 Pls
1531 492 Pls
1535 468 Pls
1539 452 Pls
1543 512 Pls
1547 480 Pls
1551 488 Pls
1555 484 Pls
1559 452 Pls
1563 460 Pls
1566 456 Pls
1570 460 Pls
1574 476 Pls
1578 472 Pls
1582 460 Pls
1586 452 Pls
1590 452 Pls
1594 456 Pls
1598 456 Pls
1602 452 Pls
1606 452 Pls
1609 460 Pls
1613 468 Pls
1617 464 Pls
1621 456 Pls
1625 456 Pls
1629 452 Pls
1633 452 Pls
1637 452 Pls
1641 468 Pls
1645 456 Pls
1649 472 Pls
1653 464 Pls
1656 456 Pls
1660 460 Pls
1664 456 Pls
1668 452 Pls
1672 452 Pls
1676 452 Pls
1680 488 Pls
1684 468 Pls
1688 468 Pls
1692 452 Pls
1696 460 Pls
1699 452 Pls
1703 452 Pls
1707 456 Pls
1711 476 Pls
1715 472 Pls
1719 456 Pls
1723 452 Pls
1727 464 Pls
1731 456 Pls
1735 472 Pls
1739 476 Pls
1743 452 Pls
1746 452 Pls
1750 456 Pls
1754 456 Pls
1758 456 Pls
1762 480 Pls
1766 456 Pls
1770 464 Pls
1774 464 Pls
1778 496 Pls
1782 452 Pls
1786 456 Pls
1790 456 Pls
1793 464 Pls
1797 460 Pls
1801 452 Pls
1805 468 Pls
1809 456 Pls
1813 456 Pls
1817 452 Pls
1821 452 Pls
1825 452 Pls
1829 452 Pls
1833 452 Pls
1836 496 Pls
1840 460 Pls
1844 456 Pls
1848 472 Pls
1852 456 Pls
1856 452 Pls
1860 456 Pls
1864 460 Pls
1868 452 Pls
1872 452 Pls
1876 464 Pls
1880 452 Pls
1883 456 Pls
1887 452 Pls
1891 488 Pls
1895 456 Pls
1899 452 Pls
1903 456 Pls
1907 460 Pls
1911 456 Pls
1915 452 Pls
1919 464 Pls
1923 460 Pls
1926 452 Pls
1930 452 Pls
1934 456 Pls
1938 476 Pls
1942 488 Pls
1946 480 Pls
1950 496 Pls
1954 456 Pls
1958 480 Pls
1962 464 Pls
1966 476 Pls
1970 464 Pls
1973 460 Pls
1977 484 Pls
1981 548 Pls
1985 544 Pls
1989 500 Pls
1993 472 Pls
1997 472 Pls
2001 472 Pls
2005 484 Pls
2009 488 Pls
2013 460 Pls
2016 456 Pls
2020 480 Pls
2024 468 Pls
2028 468 Pls
2032 460 Pls
2036 468 Pls
2040 452 Pls
2044 452 Pls
2048 460 Pls
2052 460 Pls
2056 468 Pls
2060 480 Pls
2063 468 Pls
2067 456 Pls
2071 460 Pls
2075 456 Pls
2079 452 Pls
2083 456 Pls
2087 480 Pls
2091 500 Pls
2095 472 Pls
2099 488 Pls
2103 460 Pls
2106 456 Pls
2110 476 Pls
2114 492 Pls
2118 460 Pls
2122 512 Pls
2126 456 Pls
2130 452 Pls
2134 460 Pls
2138 468 Pls
2142 460 Pls
2146 464 Pls
2150 456 Pls
2153 456 Pls
2157 452 Pls
2161 460 Pls
2165 484 Pls
2169 452 Pls
2173 468 Pls
2177 460 Pls
2181 460 Pls
2185 452 Pls
2189 484 Pls
2193 468 Pls
2196 460 Pls
2200 452 Pls
2204 456 Pls
2208 456 Pls
2212 460 Pls
2216 456 Pls
2220 452 Pls
2224 452 Pls
2228 452 Pls
2232 452 Pls
2236 464 Pls
2240 468 Pls
2243 468 Pls
2247 456 Pls
2251 460 Pls
2255 472 Pls
2259 472 Pls
2263 456 Pls
2267 468 Pls
2271 456 Pls
2275 456 Pls
2279 460 Pls
2283 460 Pls
2286 452 Pls
2290 452 Pls
2294 456 Pls
2298 452 Pls
2302 452 Pls
2306 452 Pls
2310 480 Pls
2314 456 Pls
2318 460 Pls
2322 484 Pls
2326 472 Pls
2330 468 Pls
2333 452 Pls
2337 452 Pls
2341 452 Pls
2345 452 Pls
2349 460 Pls
2353 452 Pls
2357 464 Pls
2361 452 Pls
2365 452 Pls
2369 452 Pls
2373 480 Pls
2376 452 Pls
2380 452 Pls
2384 456 Pls
2388 452 Pls
2392 456 Pls
2396 452 Pls
2400 472 Pls
2404 464 Pls
2408 452 Pls
2412 452 Pls
2416 456 Pls
2420 456 Pls
2423 452 Pls
2427 452 Pls
2431 456 Pls
2435 456 Pls
2439 464 Pls
2443 456 Pls
2447 452 Pls
2451 452 Pls
2455 460 Pls
2459 452 Pls
2463 452 Pls
2466 452 Pls
2470 452 Pls
2474 456 Pls
2478 460 Pls
2482 464 Pls
2486 456 Pls
2490 452 Pls
2494 452 Pls
2498 452 Pls
2502 456 Pls
2506 452 Pls
2510 452 Pls
2513 452 Pls
2517 460 Pls
2521 460 Pls
2525 460 Pls
2529 452 Pls
2533 492 Pls
2537 460 Pls
2541 456 Pls
2545 452 Pls
2549 452 Pls
2553 452 Pls
2556 456 Pls
2560 460 Pls
2564 472 Pls
2568 452 Pls
2572 472 Pls
2576 460 Pls
2580 452 Pls
2584 456 Pls
2588 456 Pls
2592 456 Pls
2596 456 Pls
2600 456 Pls
2603 452 Pls
2607 452 Pls
2611 456 Pls
2615 452 Pls
2619 464 Pls
2623 468 Pls
2627 456 Pls
2631 488 Pls
2635 476 Pls
2639 460 Pls
2643 472 Pls
2646 460 Pls
2650 456 Pls
2654 480 Pls
2658 496 Pls
2662 464 Pls
2666 456 Pls
2670 472 Pls
2674 460 Pls
2678 468 Pls
2682 484 Pls
2686 480 Pls
2690 484 Pls
2693 472 Pls
2697 464 Pls
2701 464 Pls
2705 468 Pls
2709 460 Pls
2713 468 Pls
2717 456 Pls
2721 452 Pls
2725 452 Pls
2729 468 Pls
2733 468 Pls
2736 468 Pls
2740 460 Pls
2744 472 Pls
2748 456 Pls
2752 452 Pls
2756 476 Pls
2760 456 Pls
2764 456 Pls
2768 460 Pls
2772 476 Pls
2776 452 Pls
2780 452 Pls
2783 468 Pls
2787 460 Pls
2791 456 Pls
2795 464 Pls
2799 464 Pls
2803 464 Pls
2807 480 Pls
2811 476 Pls
2815 480 Pls
2819 468 Pls
2823 464 Pls
2826 464 Pls
2830 456 Pls
2834 456 Pls
2838 456 Pls
2842 500 Pls
2846 476 Pls
2850 484 Pls
2854 492 Pls
2858 468 Pls
2862 464 Pls
2866 480 Pls
2870 468 Pls
2873 464 Pls
2877 476 Pls
2881 460 Pls
2885 464 Pls
2889 480 Pls
2893 472 Pls
2897 456 Pls
2901 464 Pls
2905 452 Pls
2909 460 Pls
2913 456 Pls
2916 460 Pls
2920 492 Pls
2924 456 Pls
2928 460 Pls
2932 456 Pls
2936 464 Pls
2940 452 Pls
2944 464 Pls
2948 464 Pls
2952 460 Pls
2956 456 Pls
2960 496 Pls
2963 508 Pls
2967 456 Pls
2971 460 Pls
2975 476 Pls
2979 456 Pls
2983 456 Pls
2987 456 Pls
2991 500 Pls
2995 500 Pls
2999 504 Pls
3003 472 Pls
3006 472 Pls
3010 460 Pls
3014 472 Pls
3018 452 Pls
3022 488 Pls
3026 456 Pls
3030 464 Pls
3034 452 Pls
3038 464 Pls
3042 452 Pls
3046 452 Pls
3050 456 Pls
3053 468 Pls
3057 468 Pls
3061 456 Pls
3065 460 Pls
3069 460 Pls
3073 456 Pls
3077 456 Pls
3081 472 Pls
3085 452 Pls
3089 460 Pls
3093 452 Pls
3096 452 Pls
3100 456 Pls
3104 452 Pls
3108 452 Pls
3112 452 Pls
3116 456 Pls
3120 452 Pls
3124 452 Pls
3128 452 Pls
3132 452 Pls
3136 460 Pls
3140 452 Pls
3143 472 Pls
3147 452 Pls
3151 456 Pls
3155 456 Pls
3159 476 Pls
3163 464 Pls
3167 456 Pls
3171 460 Pls
3175 464 Pls
3179 456 Pls
3183 460 Pls
3186 456 Pls
3190 452 Pls
3194 460 Pls
3198 460 Pls
3202 460 Pls
3206 456 Pls
3210 464 Pls
3214 456 Pls
3218 452 Pls
3222 452 Pls
3226 452 Pls
3230 452 Pls
3233 456 Pls
3237 464 Pls
3241 452 Pls
3245 456 Pls
3249 456 Pls
3253 460 Pls
3257 452 Pls
3261 456 Pls
3265 464 Pls
3269 472 Pls
3273 464 Pls
3276 464 Pls
3280 480 Pls
3284 472 Pls
3288 452 Pls
3292 456 Pls
3296 472 Pls
3300 500 Pls
3304 476 Pls
3308 480 Pls
3312 468 Pls
3316 484 Pls
3320 456 Pls
3323 472 Pls
3327 464 Pls
3331 460 Pls
3335 460 Pls
3339 460 Pls
3343 492 Pls
3347 464 Pls
3351 468 Pls
3355 468 Pls
3359 472 Pls
3363 456 Pls
3366 460 Pls
3370 452 Pls
3374 464 Pls
3378 496 Pls
3382 480 Pls
3386 456 Pls
3390 496 Pls
3394 464 Pls
3398 464 Pls
3402 460 Pls
3406 460 Pls
3410 456 Pls
3413 456 Pls
3417 460 Pls
3421 460 Pls
3425 452 Pls
3429 452 Pls
3433 452 Pls
3437 472 Pls
3441 452 Pls
3445 472 Pls
3449 512 Pls
3453 504 Pls
3456 500 Pls
3460 464 Pls
3464 468 Pls
3468 464 Pls
3472 460 Pls
3476 480 Pls
3480 456 Pls
3484 460 Pls
3488 456 Pls
3492 464 Pls
3496 460 Pls
3500 464 Pls
3503 476 Pls
3507 460 Pls
3511 464 Pls
3515 452 Pls
3519 452 Pls
3523 456 Pls
3527 452 Pls
3531 456 Pls
3535 464 Pls
3539 456 Pls
3543 452 Pls
3546 504 Pls
3550 508 Pls
3554 472 Pls
3558 480 Pls
3562 460 Pls
3566 464 Pls
3570 488 Pls
3574 456 Pls
3578 460 Pls
3582 488 Pls
3586 472 Pls
3590 472 Pls
3593 468 Pls
3597 452 Pls
3601 456 Pls
3605 456 Pls
3609 456 Pls
3613 456 Pls
3617 456 Pls
3621 452 Pls
3625 452 Pls
3629 452 Pls
3633 452 Pls
3636 456 Pls
3640 456 Pls
3644 472 Pls
3648 456 Pls
3652 452 Pls
3656 452 Pls
3660 468 Pls
3664 452 Pls
3668 452 Pls
3672 452 Pls
3676 452 Pls
3680 452 Pls
3683 452 Pls
3687 460 Pls
3691 460 Pls
3695 460 Pls
3699 456 Pls
3703 452 Pls
3707 452 Pls
3711 464 Pls
3715 452 Pls
3719 452 Pls
3723 460 Pls
3726 472 Pls
3730 452 Pls
3734 452 Pls
3738 452 Pls
3742 476 Pls
3746 456 Pls
3750 456 Pls
3754 456 Pls
3758 452 Pls
3762 456 Pls
3766 452 Pls
3770 452 Pls
3773 464 Pls
3777 468 Pls
3781 452 Pls
3785 452 Pls
3789 472 Pls
3793 456 Pls
3797 456 Pls
3801 452 Pls
3805 452 Pls
3809 452 Pls
3813 452 Pls
3816 452 Pls
3820 452 Pls
3824 452 Pls
3828 452 Pls
3832 456 Pls
3836 452 Pls
3840 456 Pls
3844 452 Pls
3848 452 Pls
3852 452 Pls
3856 452 Pls
3860 452 Pls
3863 452 Pls
3867 464 Pls
3871 456 Pls
3875 452 Pls
3879 452 Pls
3883 456 Pls
3887 452 Pls
3891 456 Pls
3895 456 Pls
3899 452 Pls
3903 456 Pls
3907 452 Pls
3910 452 Pls
3914 456 Pls
3918 460 Pls
3922 452 Pls
3926 460 Pls
3930 452 Pls
3934 452 Pls
3938 460 Pls
3942 452 Pls
3946 452 Pls
3950 452 Pls
3953 452 Pls
3957 452 Pls
3961 456 Pls
3965 460 Pls
3969 460 Pls
3973 456 Pls
3977 452 Pls
3981 452 Pls
3985 452 Pls
3989 464 Pls
3993 452 Pls
3997 452 Pls
4000 464 Pls
4004 460 Pls
4008 464 Pls
4012 468 Pls
4016 464 Pls
4020 464 Pls
4024 460 Pls
4028 456 Pls
4032 452 Pls
4036 504 Pls
4040 500 Pls
4043 480 Pls
4047 468 Pls
4051 468 Pls
4055 472 Pls
4059 456 Pls
4063 468 Pls
4067 464 Pls
4071 460 Pls
4075 472 Pls
4079 468 Pls
4083 460 Pls
4087 476 Pls
4090 468 Pls
4094 468 Pls
4098 460 Pls
4102 456 Pls
4106 460 Pls
4110 460 Pls
4114 468 Pls
4118 484 Pls
4122 456 Pls
4126 508 Pls
4130 460 Pls
4133 472 Pls
4137 472 Pls
4141 480 Pls
4145 464 Pls
4149 464 Pls
4153 464 Pls
4157 452 Pls
4161 456 Pls
4165 452 Pls
4169 460 Pls
4173 456 Pls
4177 460 Pls
4180 464 Pls
4184 452 Pls
4188 468 Pls
4192 472 Pls
4196 508 Pls
4200 480 Pls
4204 464 Pls
4208 456 Pls
4212 460 Pls
4216 468 Pls
4220 460 Pls
4223 452 Pls
4227 456 Pls
4231 464 Pls
4235 476 Pls
4239 472 Pls
4243 476 Pls
4247 480 Pls
4251 464 Pls
4255 452 Pls
4259 456 Pls
4263 452 Pls
4267 452 Pls
4270 452 Pls
4274 452 Pls
4278 468 Pls
4282 476 Pls
4286 464 Pls
4290 480 Pls
4294 468 Pls
4298 452 Pls
4302 460 Pls
4306 480 Pls
4310 472 Pls
4313 460 Pls
4317 460 Pls
4321 456 Pls
4325 456 Pls
4329 456 Pls
4333 456 Pls
4337 472 Pls
4341 460 Pls
4345 456 Pls
4349 456 Pls
4353 476 Pls
4357 584 Pls
4360 540 Pls
4364 528 Pls
4368 528 Pls
4372 472 Pls
4376 500 Pls
4380 472 Pls
4384 496 Pls
4388 500 Pls
4392 456 Pls
4396 520 Pls
4400 504 Pls
4403 472 Pls
4407 464 Pls
4411 476 Pls
4415 464 Pls
4419 476 Pls
4423 472 Pls
4427 452 Pls
4431 456 Pls
4435 464 Pls
4439 532 Pls
4443 468 Pls
4447 476 Pls
4450 456 Pls
4454 452 Pls
4458 456 Pls
4462 456 Pls
4466 456 Pls
4470 500 Pls
4474 496 Pls
4478 508 Pls
4482 472 Pls
4486 460 Pls
4490 468 Pls
4493 456 Pls
4497 504 Pls
4501 476 Pls
4505 500 Pls
4509 460 Pls
4513 480 Pls
4517 452 Pls
4521 464 Pls
4525 452 Pls
4529 460 Pls
4533 452 Pls
4537 452 Pls
4540 452 Pls
4544 452 Pls
4548 452 Pls
4552 456 Pls
4556 456 Pls
4560 460 Pls
4564 452 Pls
4568 460 Pls
4572 456 Pls
4576 452 Pls
4580 460 Pls
4583 460 Pls
4587 460 Pls
4591 452 Pls
4595 452 Pls
4599 456 Pls
4603 456 Pls
4607 456 Pls
4611 452 Pls
4615 456 Pls
4619 460 Pls
4623 452 Pls
4627 452 Pls
4630 452 Pls
4634 460 Pls
4638 452 Pls
4642 480 Pls
4646 452 Pls
4650 468 Pls
4654 452 Pls
4658 480 Pls
4662 460 Pls
4666 468 Pls
4670 452 Pls
4673 464 Pls
4677 456 Pls
4681 452 Pls
4685 452 Pls
4689 460 Pls
4693 452 Pls
4697 456 Pls
4701 456 Pls
4705 452 Pls
4709 452 Pls
4713 452 Pls
4717 452 Pls
4720 492 Pls
4724 468 Pls
4728 468 Pls
4732 452 Pls
4736 460 Pls
4740 476 Pls
4744 492 Pls
4748 472 Pls
4752 464 Pls
4756 456 Pls
4760 464 Pls
4763 504 Pls
4767 488 Pls
4771 512 Pls
4775 464 Pls
4779 464 Pls
4783 468 Pls
4787 452 Pls
4791 460 Pls
4795 480 Pls
4799 456 Pls
4803 472 Pls
4807 464 Pls
4810 456 Pls
4814 488 Pls
4818 480 Pls
4822 476 Pls
4826 496 Pls
4830 484 Pls
4834 468 Pls
4838 468 Pls
4842 504 Pls
4846 456 Pls
4850 452 Pls
4853 452 Pls
4857 456 Pls
4861 452 Pls
4865 456 Pls
4869 476 Pls
4873 460 Pls
4877 452 Pls
4881 456 Pls
4885 456 Pls
4889 452 Pls
4893 524 Pls
4897 464 Pls
4900 516 Pls
4904 468 Pls
4908 460 Pls
4912 472 Pls
4916 484 Pls
4920 508 Pls
4924 456 Pls
4928 460 Pls
4932 452 Pls
4936 584 Pls
4940 480 Pls
4943 460 Pls
4947 452 Pls
4951 468 Pls
4955 460 Pls
4959 456 Pls
4963 464 Pls
4967 456 Pls
4971 460 Pls
4975 452 Pls
4979 460 Pls
4983 452 Pls
4987 452 Pls
4990 452 Pls
4994 452 Pls
4998 452 Pls
5002 460 Pls
5006 452 Pls
5010 452 Pls
5014 460 Pls
5018 452 Pls
5022 452 Pls
5026 452 Pls
5030 460 Pls
5033 452 Pls
5037 452 Pls
5041 452 Pls
5045 456 Pls
5049 456 Pls
5053 452 Pls
5057 452 Pls
5061 452 Pls
5065 456 Pls
5069 452 Pls
5073 452 Pls
5077 460 Pls
5080 452 Pls
5084 452 Pls
5088 452 Pls
5092 452 Pls
5096 452 Pls
5100 452 Pls
5104 452 Pls
5108 452 Pls
5112 452 Pls
5116 452 Pls
5120 452 Pls
5123 452 Pls
5127 452 Pls
5131 452 Pls
5135 456 Pls
5139 452 Pls
5143 452 Pls
5147 456 Pls
5151 460 Pls
5155 452 Pls
5159 452 Pls
5163 456 Pls
5167 452 Pls
5170 452 Pls
5174 452 Pls
5178 456 Pls
5182 464 Pls
5186 464 Pls
5190 456 Pls
5194 456 Pls
5198 452 Pls
5202 468 Pls
5206 460 Pls
5210 472 Pls
5213 464 Pls
5217 464 Pls
5221 456 Pls
5225 460 Pls
5229 452 Pls
5233 464 Pls
5237 452 Pls
5241 452 Pls
5245 504 Pls
5249 464 Pls
5253 468 Pls
5257 472 Pls
5260 472 Pls
5264 472 Pls
5268 452 Pls
5272 504 Pls
5276 468 Pls
5280 464 Pls
5284 460 Pls
5288 456 Pls
5292 456 Pls
5296 460 Pls
5300 456 Pls
5303 468 Pls
5307 460 Pls
5311 460 Pls
5315 476 Pls
5319 452 Pls
5323 452 Pls
5327 500 Pls
5331 468 Pls
5335 496 Pls
5339 472 Pls
5343 472 Pls
5347 464 Pls
5350 496 Pls
5354 464 Pls
5358 468 Pls
5362 456 Pls
5366 452 Pls
5370 456 Pls
5374 452 Pls
5378 452 Pls
5382 452 Pls
5386 456 Pls
5390 456 Pls
5393 464 Pls
5397 452 Pls
5401 456 Pls
5405 472 Pls
5409 460 Pls
5413 452 Pls
5417 452 Pls
5421 452 Pls
5425 452 Pls
5429 504 Pls
5433 599 Pls
5437 504 Pls
5440 520 Pls
5444 520 Pls
5448 488 Pls
5452 603 Pls
5456 516 Pls
5460 496 Pls
5464 484 Pls
5468 504 Pls
5472 488 Pls
5476 492 Pls
5480 468 Pls
5483 456 Pls
5487 468 Pls
5491 484 Pls
5495 500 Pls
5499 452 Pls
5503 643 Pls
5507 484 Pls
5511 460 Pls
5515 540 Pls
5519 476 Pls
5523 452 Pls
5527 508 Pls
5530 488 Pls
5534 480 Pls
5538 468 Pls
5542 452 Pls
5546 452 Pls
5550 452 Pls
5554 655 Pls
5558 512 Pls
5562 464 Pls
5566 468 Pls
5570 492 Pls
5573 460 Pls
5577 452 Pls
5581 464 Pls
5585 452 Pls
5589 452 Pls
5593 452 Pls
5597 508 Pls
5601 472 Pls
5605 476 Pls
5609 456 Pls
5613 456 Pls
5617 452 Pls
5620 452 Pls
5624 456 Pls
5628 452 Pls
5632 452 Pls
5636 456 Pls
5640 460 Pls
5644 456 Pls
5648 452 Pls
5652 452 Pls
5656 460 Pls
5660 460 Pls
5663 460 Pls
5667 456 Pls
5671 452 Pls
5675 468 Pls
5679 456 Pls
5683 456 Pls
5687 456 Pls
5691 468 Pls
5695 500 Pls
5699 452 Pls
5703 456 Pls
5707 456 Pls
5710 492 Pls
5714 496 Pls
5718 480 Pls
5722 504 Pls
5726 476 Pls
5730 464 Pls
5734 456 Pls
5738 484 Pls
5742 452 Pls
5746 456 Pls
5750 456 Pls
5753 484 Pls
5757 472 Pls
5761 452 Pls
5765 460 Pls
5769 512 Pls
5773 460 Pls
5777 464 Pls
5781 456 Pls
5785 456 Pls
5789 452 Pls
5793 524 Pls
5797 524 Pls
5800 468 Pls
5804 464 Pls
5808 520 Pls
5812 508 Pls
5816 452 Pls
5820 476 Pls
5824 452 Pls
5828 480 Pls
5832 460 Pls
5836 460 Pls
5840 452 Pls
5843 460 Pls
5847 460 Pls
5851 452 Pls
5855 500 Pls
5859 468 Pls
5863 452 Pls
5867 456 Pls
5871 452 Pls
5875 456 Pls
5879 460 Pls
5883 452 Pls
5887 452 Pls
5890 460 Pls
5894 452 Pls
5898 460 Pls
5902 456 Pls
5906 452 Pls
5910 456 Pls
5914 452 Pls
5918 456 Pls
5922 452 Pls
5926 452 Pls
5930 452 Pls
5934 452 Pls
5937 460 Pls
5941 452 Pls
5945 452 Pls
5949 452 Pls
5953 452 Pls
5957 452 Pls
5961 452 Pls
5965 452 Pls
5969 456 Pls
5973 452 Pls
5977 456 Pls
5980 452 Pls
5984 452 Pls
5988 452 Pls
5992 452 Pls
5996 460 Pls
6000 468 Pls
6004 468 Pls
6008 452 Pls
6012 456 Pls
6016 456 Pls
6020 464 Pls
6024 460 Pls
6027 488 Pls
6031 464 Pls
6035 480 Pls
6039 456 Pls
6043 456 Pls
6047 456 Pls
6051 484 Pls
6055 456 Pls
6059 460 Pls
6063 452 Pls
6067 452 Pls
6070 504 Pls
6074 472 Pls
6078 488 Pls
6082 464 Pls
6086 468 Pls
6090 456 Pls
6094 452 Pls
6098 460 Pls
6102 452 Pls
6106 452 Pls
6110 452 Pls
6114 452 Pls
6117 456 Pls
6121 492 Pls
6125 468 Pls
6129 532 Pls
6133 588 Pls
6137 492 Pls
6141 464 Pls
6145 508 Pls
6149 492 Pls
6153 460 Pls
6157 631 Pls
6160 504 Pls
6164 592 Pls
6168 504 Pls
6172 472 Pls
6176 480 Pls
6180 456 Pls
6184 452 Pls
6188 464 Pls
6192 643 Pls
6196 512 Pls
6200 595 Pls
6204 488 Pls
6207 460 Pls
6211 496 Pls
6215 460 Pls
6219 452 Pls
6223 468 Pls
6227 456 Pls
6231 456 Pls
6235 456 Pls
6239 452 Pls
6243 452 Pls
6247 452 Pls
6250 456 Pls
6254 452 Pls
6258 468 Pls
6262 452 Pls
6266 452 Pls
6270 452 Pls
6274 504 Pls
6278 472 Pls
6282 452 Pls
6286 456 Pls
6290 476 Pls
6294 460 Pls
6297 508 Pls
6301 468 Pls
6305 452 Pls
6309 592 Pls
6313 492 Pls
6317 468 Pls
6321 456 Pls
6325 468 Pls
6329 456 Pls
6333 452 Pls
6337 452 Pls
6340 452 Pls
6344 452 Pls
6348 452 Pls
6352 452 Pls
6356 452 Pls
6360 452 Pls
6364 452 Pls
6368 456 Pls
6372 452 Pls
6376 452 Pls
6380 452 Pls
6384 452 Pls
6387 480 Pls
6391 468 Pls
6395 456 Pls
6399 452 Pls
6403 468 Pls
6407 476 Pls
6411 452 Pls
6415 456 Pls
6419 452 Pls
6423 452 Pls
6427 496 Pls
6430 452 Pls
6434 452 Pls
6438 452 Pls
6442 452 Pls
6446 452 Pls
6450 452 Pls
6454 452 Pls
6458 452 Pls
6462 456 Pls
6466 452 Pls
6470 452 Pls
6474 456 Pls
6477 452 Pls
6481 452 Pls
6485 452 Pls
6489 456 Pls
6493 452 Pls
6497 452 Pls
6579 4738 Pls
% End plot #1
1.000 UL
LTb
686 4871 N
686 448 L
6261 0 V
0 4423 V
-6261 0 V
Z stroke
1.000 UP
1.000 UL
LTb
stroke
grestore
end
showpage
%%Trailer
%%DocumentFonts: Helvetica
