%!PS-Adobe-2.0 EPSF-2.0
%%Title: ../plots/domainstats/states-sorted-by-ply-visit-count-nannon-p-1.00.eps
%%Creator: gnuplot 4.4 patchlevel 3
%%CreationDate: Wed Dec 14 04:42:17 2011
%%DocumentFonts: (atend)
%%BoundingBox: 50 50 410 302
%%EndComments
%%BeginProlog
/gnudict 256 dict def
gnudict begin
%
% The following true/false flags may be edited by hand if desired.
% The unit line width and grayscale image gamma correction may also be changed.
%
/Color true def
/Blacktext false def
/Solid false def
/Dashlength 1 def
/Landscape false def
/Level1 false def
/Rounded false def
/ClipToBoundingBox false def
/TransparentPatterns false def
/gnulinewidth 5.000 def
/userlinewidth gnulinewidth def
/Gamma 1.0 def
%
/vshift -46 def
/dl1 {
  10.0 Dashlength mul mul
  Rounded { currentlinewidth 0.75 mul sub dup 0 le { pop 0.01 } if } if
} def
/dl2 {
  10.0 Dashlength mul mul
  Rounded { currentlinewidth 0.75 mul add } if
} def
/hpt_ 31.5 def
/vpt_ 31.5 def
/hpt hpt_ def
/vpt vpt_ def
Level1 {} {
/SDict 10 dict def
systemdict /pdfmark known not {
  userdict /pdfmark systemdict /cleartomark get put
} if
SDict begin [
  /Title (../plots/domainstats/states-sorted-by-ply-visit-count-nannon-p-1.00.eps)
  /Subject (gnuplot plot)
  /Creator (gnuplot 4.4 patchlevel 3)
  /Author (reza)
%  /Producer (gnuplot)
%  /Keywords ()
  /CreationDate (Wed Dec 14 04:42:17 2011)
  /DOCINFO pdfmark
end
} ifelse
/doclip {
  ClipToBoundingBox {
    newpath 50 50 moveto 410 50 lineto 410 302 lineto 50 302 lineto closepath
    clip
  } if
} def
%
% Gnuplot Prolog Version 4.4 (August 2010)
%
%/SuppressPDFMark true def
%
/M {moveto} bind def
/L {lineto} bind def
/R {rmoveto} bind def
/V {rlineto} bind def
/N {newpath moveto} bind def
/Z {closepath} bind def
/C {setrgbcolor} bind def
/f {rlineto fill} bind def
/g {setgray} bind def
/Gshow {show} def   % May be redefined later in the file to support UTF-8
/vpt2 vpt 2 mul def
/hpt2 hpt 2 mul def
/Lshow {currentpoint stroke M 0 vshift R 
	Blacktext {gsave 0 setgray show grestore} {show} ifelse} def
/Rshow {currentpoint stroke M dup stringwidth pop neg vshift R
	Blacktext {gsave 0 setgray show grestore} {show} ifelse} def
/Cshow {currentpoint stroke M dup stringwidth pop -2 div vshift R 
	Blacktext {gsave 0 setgray show grestore} {show} ifelse} def
/UP {dup vpt_ mul /vpt exch def hpt_ mul /hpt exch def
  /hpt2 hpt 2 mul def /vpt2 vpt 2 mul def} def
/DL {Color {setrgbcolor Solid {pop []} if 0 setdash}
 {pop pop pop 0 setgray Solid {pop []} if 0 setdash} ifelse} def
/BL {stroke userlinewidth 2 mul setlinewidth
	Rounded {1 setlinejoin 1 setlinecap} if} def
/AL {stroke userlinewidth 2 div setlinewidth
	Rounded {1 setlinejoin 1 setlinecap} if} def
/UL {dup gnulinewidth mul /userlinewidth exch def
	dup 1 lt {pop 1} if 10 mul /udl exch def} def
/PL {stroke userlinewidth setlinewidth
	Rounded {1 setlinejoin 1 setlinecap} if} def
3.8 setmiterlimit
% Default Line colors
/LCw {1 1 1} def
/LCb {0 0 0} def
/LCa {0 0 0} def
/LC0 {1 0 0} def
/LC1 {0 1 0} def
/LC2 {0 0 1} def
/LC3 {1 0 1} def
/LC4 {0 1 1} def
/LC5 {1 1 0} def
/LC6 {0 0 0} def
/LC7 {1 0.3 0} def
/LC8 {0.5 0.5 0.5} def
% Default Line Types
/LTw {PL [] 1 setgray} def
/LTb {BL [] LCb DL} def
/LTa {AL [1 udl mul 2 udl mul] 0 setdash LCa setrgbcolor} def
/LT0 {PL [] LC0 DL} def
/LT1 {PL [4 dl1 2 dl2] LC1 DL} def
/LT2 {PL [2 dl1 3 dl2] LC2 DL} def
/LT3 {PL [1 dl1 1.5 dl2] LC3 DL} def
/LT4 {PL [6 dl1 2 dl2 1 dl1 2 dl2] LC4 DL} def
/LT5 {PL [3 dl1 3 dl2 1 dl1 3 dl2] LC5 DL} def
/LT6 {PL [2 dl1 2 dl2 2 dl1 6 dl2] LC6 DL} def
/LT7 {PL [1 dl1 2 dl2 6 dl1 2 dl2 1 dl1 2 dl2] LC7 DL} def
/LT8 {PL [2 dl1 2 dl2 2 dl1 2 dl2 2 dl1 2 dl2 2 dl1 4 dl2] LC8 DL} def
/Pnt {stroke [] 0 setdash gsave 1 setlinecap M 0 0 V stroke grestore} def
/Dia {stroke [] 0 setdash 2 copy vpt add M
  hpt neg vpt neg V hpt vpt neg V
  hpt vpt V hpt neg vpt V closepath stroke
  Pnt} def
/Pls {stroke [] 0 setdash vpt sub M 0 vpt2 V
  currentpoint stroke M
  hpt neg vpt neg R hpt2 0 V stroke
 } def
/Box {stroke [] 0 setdash 2 copy exch hpt sub exch vpt add M
  0 vpt2 neg V hpt2 0 V 0 vpt2 V
  hpt2 neg 0 V closepath stroke
  Pnt} def
/Crs {stroke [] 0 setdash exch hpt sub exch vpt add M
  hpt2 vpt2 neg V currentpoint stroke M
  hpt2 neg 0 R hpt2 vpt2 V stroke} def
/TriU {stroke [] 0 setdash 2 copy vpt 1.12 mul add M
  hpt neg vpt -1.62 mul V
  hpt 2 mul 0 V
  hpt neg vpt 1.62 mul V closepath stroke
  Pnt} def
/Star {2 copy Pls Crs} def
/BoxF {stroke [] 0 setdash exch hpt sub exch vpt add M
  0 vpt2 neg V hpt2 0 V 0 vpt2 V
  hpt2 neg 0 V closepath fill} def
/TriUF {stroke [] 0 setdash vpt 1.12 mul add M
  hpt neg vpt -1.62 mul V
  hpt 2 mul 0 V
  hpt neg vpt 1.62 mul V closepath fill} def
/TriD {stroke [] 0 setdash 2 copy vpt 1.12 mul sub M
  hpt neg vpt 1.62 mul V
  hpt 2 mul 0 V
  hpt neg vpt -1.62 mul V closepath stroke
  Pnt} def
/TriDF {stroke [] 0 setdash vpt 1.12 mul sub M
  hpt neg vpt 1.62 mul V
  hpt 2 mul 0 V
  hpt neg vpt -1.62 mul V closepath fill} def
/DiaF {stroke [] 0 setdash vpt add M
  hpt neg vpt neg V hpt vpt neg V
  hpt vpt V hpt neg vpt V closepath fill} def
/Pent {stroke [] 0 setdash 2 copy gsave
  translate 0 hpt M 4 {72 rotate 0 hpt L} repeat
  closepath stroke grestore Pnt} def
/PentF {stroke [] 0 setdash gsave
  translate 0 hpt M 4 {72 rotate 0 hpt L} repeat
  closepath fill grestore} def
/Circle {stroke [] 0 setdash 2 copy
  hpt 0 360 arc stroke Pnt} def
/CircleF {stroke [] 0 setdash hpt 0 360 arc fill} def
/C0 {BL [] 0 setdash 2 copy moveto vpt 90 450 arc} bind def
/C1 {BL [] 0 setdash 2 copy moveto
	2 copy vpt 0 90 arc closepath fill
	vpt 0 360 arc closepath} bind def
/C2 {BL [] 0 setdash 2 copy moveto
	2 copy vpt 90 180 arc closepath fill
	vpt 0 360 arc closepath} bind def
/C3 {BL [] 0 setdash 2 copy moveto
	2 copy vpt 0 180 arc closepath fill
	vpt 0 360 arc closepath} bind def
/C4 {BL [] 0 setdash 2 copy moveto
	2 copy vpt 180 270 arc closepath fill
	vpt 0 360 arc closepath} bind def
/C5 {BL [] 0 setdash 2 copy moveto
	2 copy vpt 0 90 arc
	2 copy moveto
	2 copy vpt 180 270 arc closepath fill
	vpt 0 360 arc} bind def
/C6 {BL [] 0 setdash 2 copy moveto
	2 copy vpt 90 270 arc closepath fill
	vpt 0 360 arc closepath} bind def
/C7 {BL [] 0 setdash 2 copy moveto
	2 copy vpt 0 270 arc closepath fill
	vpt 0 360 arc closepath} bind def
/C8 {BL [] 0 setdash 2 copy moveto
	2 copy vpt 270 360 arc closepath fill
	vpt 0 360 arc closepath} bind def
/C9 {BL [] 0 setdash 2 copy moveto
	2 copy vpt 270 450 arc closepath fill
	vpt 0 360 arc closepath} bind def
/C10 {BL [] 0 setdash 2 copy 2 copy moveto vpt 270 360 arc closepath fill
	2 copy moveto
	2 copy vpt 90 180 arc closepath fill
	vpt 0 360 arc closepath} bind def
/C11 {BL [] 0 setdash 2 copy moveto
	2 copy vpt 0 180 arc closepath fill
	2 copy moveto
	2 copy vpt 270 360 arc closepath fill
	vpt 0 360 arc closepath} bind def
/C12 {BL [] 0 setdash 2 copy moveto
	2 copy vpt 180 360 arc closepath fill
	vpt 0 360 arc closepath} bind def
/C13 {BL [] 0 setdash 2 copy moveto
	2 copy vpt 0 90 arc closepath fill
	2 copy moveto
	2 copy vpt 180 360 arc closepath fill
	vpt 0 360 arc closepath} bind def
/C14 {BL [] 0 setdash 2 copy moveto
	2 copy vpt 90 360 arc closepath fill
	vpt 0 360 arc} bind def
/C15 {BL [] 0 setdash 2 copy vpt 0 360 arc closepath fill
	vpt 0 360 arc closepath} bind def
/Rec {newpath 4 2 roll moveto 1 index 0 rlineto 0 exch rlineto
	neg 0 rlineto closepath} bind def
/Square {dup Rec} bind def
/Bsquare {vpt sub exch vpt sub exch vpt2 Square} bind def
/S0 {BL [] 0 setdash 2 copy moveto 0 vpt rlineto BL Bsquare} bind def
/S1 {BL [] 0 setdash 2 copy vpt Square fill Bsquare} bind def
/S2 {BL [] 0 setdash 2 copy exch vpt sub exch vpt Square fill Bsquare} bind def
/S3 {BL [] 0 setdash 2 copy exch vpt sub exch vpt2 vpt Rec fill Bsquare} bind def
/S4 {BL [] 0 setdash 2 copy exch vpt sub exch vpt sub vpt Square fill Bsquare} bind def
/S5 {BL [] 0 setdash 2 copy 2 copy vpt Square fill
	exch vpt sub exch vpt sub vpt Square fill Bsquare} bind def
/S6 {BL [] 0 setdash 2 copy exch vpt sub exch vpt sub vpt vpt2 Rec fill Bsquare} bind def
/S7 {BL [] 0 setdash 2 copy exch vpt sub exch vpt sub vpt vpt2 Rec fill
	2 copy vpt Square fill Bsquare} bind def
/S8 {BL [] 0 setdash 2 copy vpt sub vpt Square fill Bsquare} bind def
/S9 {BL [] 0 setdash 2 copy vpt sub vpt vpt2 Rec fill Bsquare} bind def
/S10 {BL [] 0 setdash 2 copy vpt sub vpt Square fill 2 copy exch vpt sub exch vpt Square fill
	Bsquare} bind def
/S11 {BL [] 0 setdash 2 copy vpt sub vpt Square fill 2 copy exch vpt sub exch vpt2 vpt Rec fill
	Bsquare} bind def
/S12 {BL [] 0 setdash 2 copy exch vpt sub exch vpt sub vpt2 vpt Rec fill Bsquare} bind def
/S13 {BL [] 0 setdash 2 copy exch vpt sub exch vpt sub vpt2 vpt Rec fill
	2 copy vpt Square fill Bsquare} bind def
/S14 {BL [] 0 setdash 2 copy exch vpt sub exch vpt sub vpt2 vpt Rec fill
	2 copy exch vpt sub exch vpt Square fill Bsquare} bind def
/S15 {BL [] 0 setdash 2 copy Bsquare fill Bsquare} bind def
/D0 {gsave translate 45 rotate 0 0 S0 stroke grestore} bind def
/D1 {gsave translate 45 rotate 0 0 S1 stroke grestore} bind def
/D2 {gsave translate 45 rotate 0 0 S2 stroke grestore} bind def
/D3 {gsave translate 45 rotate 0 0 S3 stroke grestore} bind def
/D4 {gsave translate 45 rotate 0 0 S4 stroke grestore} bind def
/D5 {gsave translate 45 rotate 0 0 S5 stroke grestore} bind def
/D6 {gsave translate 45 rotate 0 0 S6 stroke grestore} bind def
/D7 {gsave translate 45 rotate 0 0 S7 stroke grestore} bind def
/D8 {gsave translate 45 rotate 0 0 S8 stroke grestore} bind def
/D9 {gsave translate 45 rotate 0 0 S9 stroke grestore} bind def
/D10 {gsave translate 45 rotate 0 0 S10 stroke grestore} bind def
/D11 {gsave translate 45 rotate 0 0 S11 stroke grestore} bind def
/D12 {gsave translate 45 rotate 0 0 S12 stroke grestore} bind def
/D13 {gsave translate 45 rotate 0 0 S13 stroke grestore} bind def
/D14 {gsave translate 45 rotate 0 0 S14 stroke grestore} bind def
/D15 {gsave translate 45 rotate 0 0 S15 stroke grestore} bind def
/DiaE {stroke [] 0 setdash vpt add M
  hpt neg vpt neg V hpt vpt neg V
  hpt vpt V hpt neg vpt V closepath stroke} def
/BoxE {stroke [] 0 setdash exch hpt sub exch vpt add M
  0 vpt2 neg V hpt2 0 V 0 vpt2 V
  hpt2 neg 0 V closepath stroke} def
/TriUE {stroke [] 0 setdash vpt 1.12 mul add M
  hpt neg vpt -1.62 mul V
  hpt 2 mul 0 V
  hpt neg vpt 1.62 mul V closepath stroke} def
/TriDE {stroke [] 0 setdash vpt 1.12 mul sub M
  hpt neg vpt 1.62 mul V
  hpt 2 mul 0 V
  hpt neg vpt -1.62 mul V closepath stroke} def
/PentE {stroke [] 0 setdash gsave
  translate 0 hpt M 4 {72 rotate 0 hpt L} repeat
  closepath stroke grestore} def
/CircE {stroke [] 0 setdash 
  hpt 0 360 arc stroke} def
/Opaque {gsave closepath 1 setgray fill grestore 0 setgray closepath} def
/DiaW {stroke [] 0 setdash vpt add M
  hpt neg vpt neg V hpt vpt neg V
  hpt vpt V hpt neg vpt V Opaque stroke} def
/BoxW {stroke [] 0 setdash exch hpt sub exch vpt add M
  0 vpt2 neg V hpt2 0 V 0 vpt2 V
  hpt2 neg 0 V Opaque stroke} def
/TriUW {stroke [] 0 setdash vpt 1.12 mul add M
  hpt neg vpt -1.62 mul V
  hpt 2 mul 0 V
  hpt neg vpt 1.62 mul V Opaque stroke} def
/TriDW {stroke [] 0 setdash vpt 1.12 mul sub M
  hpt neg vpt 1.62 mul V
  hpt 2 mul 0 V
  hpt neg vpt -1.62 mul V Opaque stroke} def
/PentW {stroke [] 0 setdash gsave
  translate 0 hpt M 4 {72 rotate 0 hpt L} repeat
  Opaque stroke grestore} def
/CircW {stroke [] 0 setdash 
  hpt 0 360 arc Opaque stroke} def
/BoxFill {gsave Rec 1 setgray fill grestore} def
/Density {
  /Fillden exch def
  currentrgbcolor
  /ColB exch def /ColG exch def /ColR exch def
  /ColR ColR Fillden mul Fillden sub 1 add def
  /ColG ColG Fillden mul Fillden sub 1 add def
  /ColB ColB Fillden mul Fillden sub 1 add def
  ColR ColG ColB setrgbcolor} def
/BoxColFill {gsave Rec PolyFill} def
/PolyFill {gsave Density fill grestore grestore} def
/h {rlineto rlineto rlineto gsave closepath fill grestore} bind def
%
% PostScript Level 1 Pattern Fill routine for rectangles
% Usage: x y w h s a XX PatternFill
%	x,y = lower left corner of box to be filled
%	w,h = width and height of box
%	  a = angle in degrees between lines and x-axis
%	 XX = 0/1 for no/yes cross-hatch
%
/PatternFill {gsave /PFa [ 9 2 roll ] def
  PFa 0 get PFa 2 get 2 div add PFa 1 get PFa 3 get 2 div add translate
  PFa 2 get -2 div PFa 3 get -2 div PFa 2 get PFa 3 get Rec
  gsave 1 setgray fill grestore clip
  currentlinewidth 0.5 mul setlinewidth
  /PFs PFa 2 get dup mul PFa 3 get dup mul add sqrt def
  0 0 M PFa 5 get rotate PFs -2 div dup translate
  0 1 PFs PFa 4 get div 1 add floor cvi
	{PFa 4 get mul 0 M 0 PFs V} for
  0 PFa 6 get ne {
	0 1 PFs PFa 4 get div 1 add floor cvi
	{PFa 4 get mul 0 2 1 roll M PFs 0 V} for
 } if
  stroke grestore} def
%
/languagelevel where
 {pop languagelevel} {1} ifelse
 2 lt
	{/InterpretLevel1 true def}
	{/InterpretLevel1 Level1 def}
 ifelse
%
% PostScript level 2 pattern fill definitions
%
/Level2PatternFill {
/Tile8x8 {/PaintType 2 /PatternType 1 /TilingType 1 /BBox [0 0 8 8] /XStep 8 /YStep 8}
	bind def
/KeepColor {currentrgbcolor [/Pattern /DeviceRGB] setcolorspace} bind def
<< Tile8x8
 /PaintProc {0.5 setlinewidth pop 0 0 M 8 8 L 0 8 M 8 0 L stroke} 
>> matrix makepattern
/Pat1 exch def
<< Tile8x8
 /PaintProc {0.5 setlinewidth pop 0 0 M 8 8 L 0 8 M 8 0 L stroke
	0 4 M 4 8 L 8 4 L 4 0 L 0 4 L stroke}
>> matrix makepattern
/Pat2 exch def
<< Tile8x8
 /PaintProc {0.5 setlinewidth pop 0 0 M 0 8 L
	8 8 L 8 0 L 0 0 L fill}
>> matrix makepattern
/Pat3 exch def
<< Tile8x8
 /PaintProc {0.5 setlinewidth pop -4 8 M 8 -4 L
	0 12 M 12 0 L stroke}
>> matrix makepattern
/Pat4 exch def
<< Tile8x8
 /PaintProc {0.5 setlinewidth pop -4 0 M 8 12 L
	0 -4 M 12 8 L stroke}
>> matrix makepattern
/Pat5 exch def
<< Tile8x8
 /PaintProc {0.5 setlinewidth pop -2 8 M 4 -4 L
	0 12 M 8 -4 L 4 12 M 10 0 L stroke}
>> matrix makepattern
/Pat6 exch def
<< Tile8x8
 /PaintProc {0.5 setlinewidth pop -2 0 M 4 12 L
	0 -4 M 8 12 L 4 -4 M 10 8 L stroke}
>> matrix makepattern
/Pat7 exch def
<< Tile8x8
 /PaintProc {0.5 setlinewidth pop 8 -2 M -4 4 L
	12 0 M -4 8 L 12 4 M 0 10 L stroke}
>> matrix makepattern
/Pat8 exch def
<< Tile8x8
 /PaintProc {0.5 setlinewidth pop 0 -2 M 12 4 L
	-4 0 M 12 8 L -4 4 M 8 10 L stroke}
>> matrix makepattern
/Pat9 exch def
/Pattern1 {PatternBgnd KeepColor Pat1 setpattern} bind def
/Pattern2 {PatternBgnd KeepColor Pat2 setpattern} bind def
/Pattern3 {PatternBgnd KeepColor Pat3 setpattern} bind def
/Pattern4 {PatternBgnd KeepColor Landscape {Pat5} {Pat4} ifelse setpattern} bind def
/Pattern5 {PatternBgnd KeepColor Landscape {Pat4} {Pat5} ifelse setpattern} bind def
/Pattern6 {PatternBgnd KeepColor Landscape {Pat9} {Pat6} ifelse setpattern} bind def
/Pattern7 {PatternBgnd KeepColor Landscape {Pat8} {Pat7} ifelse setpattern} bind def
} def
%
%
%End of PostScript Level 2 code
%
/PatternBgnd {
  TransparentPatterns {} {gsave 1 setgray fill grestore} ifelse
} def
%
% Substitute for Level 2 pattern fill codes with
% grayscale if Level 2 support is not selected.
%
/Level1PatternFill {
/Pattern1 {0.250 Density} bind def
/Pattern2 {0.500 Density} bind def
/Pattern3 {0.750 Density} bind def
/Pattern4 {0.125 Density} bind def
/Pattern5 {0.375 Density} bind def
/Pattern6 {0.625 Density} bind def
/Pattern7 {0.875 Density} bind def
} def
%
% Now test for support of Level 2 code
%
Level1 {Level1PatternFill} {Level2PatternFill} ifelse
%
/Symbol-Oblique /Symbol findfont [1 0 .167 1 0 0] makefont
dup length dict begin {1 index /FID eq {pop pop} {def} ifelse} forall
currentdict end definefont pop
end
%%EndProlog
gnudict begin
gsave
doclip
50 50 translate
0.050 0.050 scale
0 setgray
newpath
(Helvetica) findfont 140 scalefont setfont
1.000 UL
LTb
770 448 M
63 0 V
6114 0 R
-63 0 V
686 448 M
( 0) Rshow
1.000 UL
LTb
770 1185 M
63 0 V
6114 0 R
-63 0 V
-6198 0 R
( 200) Rshow
1.000 UL
LTb
770 1922 M
63 0 V
6114 0 R
-63 0 V
-6198 0 R
( 400) Rshow
1.000 UL
LTb
770 2660 M
63 0 V
6114 0 R
-63 0 V
-6198 0 R
( 600) Rshow
1.000 UL
LTb
770 3397 M
63 0 V
6114 0 R
-63 0 V
-6198 0 R
( 800) Rshow
1.000 UL
LTb
770 4134 M
63 0 V
6114 0 R
-63 0 V
-6198 0 R
( 1000) Rshow
1.000 UL
LTb
770 4871 M
63 0 V
6114 0 R
-63 0 V
-6198 0 R
( 1200) Rshow
1.000 UL
LTb
770 448 M
0 63 V
0 4360 R
0 -63 V
770 308 M
( 0) Cshow
1.000 UL
LTb
1456 448 M
0 63 V
0 4360 R
0 -63 V
0 -4500 R
( 200) Cshow
1.000 UL
LTb
2143 448 M
0 63 V
0 4360 R
0 -63 V
0 -4500 R
( 400) Cshow
1.000 UL
LTb
2829 448 M
0 63 V
0 4360 R
0 -63 V
0 -4500 R
( 600) Cshow
1.000 UL
LTb
3515 448 M
0 63 V
0 4360 R
0 -63 V
0 -4500 R
( 800) Cshow
1.000 UL
LTb
4202 448 M
0 63 V
0 4360 R
0 -63 V
0 -4500 R
( 1000) Cshow
1.000 UL
LTb
4888 448 M
0 63 V
0 4360 R
0 -63 V
0 -4500 R
( 1200) Cshow
1.000 UL
LTb
5574 448 M
0 63 V
0 4360 R
0 -63 V
0 -4500 R
( 1400) Cshow
1.000 UL
LTb
6261 448 M
0 63 V
0 4360 R
0 -63 V
0 -4500 R
( 1600) Cshow
1.000 UL
LTb
6947 448 M
0 63 V
0 4360 R
0 -63 V
0 -4500 R
( 1800) Cshow
1.000 UL
LTb
1.000 UL
LTb
770 4871 N
770 448 L
6177 0 V
0 4423 V
-6177 0 V
Z stroke
LCb setrgbcolor
112 2659 M
currentpoint gsave translate -270 rotate 0 0 M
(Visit Count) Cshow
grestore
LTb
LCb setrgbcolor
3858 98 M
(States \(Sorted by Earliest Visit Time\)) Cshow
LTb
1.000 UP
1.000 UL
LTb
% Begin plot #1
1.000 UP
1.000 UL
LT0
LCb setrgbcolor
6296 4738 M
(p = 1.00) Rshow
LT0
770 4138 Pls
773 732 Pls
777 794 Pls
780 566 Pls
784 824 Pls
787 562 Pls
791 658 Pls
794 1104 Pls
797 1119 Pls
801 828 Pls
804 750 Pls
808 570 Pls
811 658 Pls
815 706 Pls
818 595 Pls
821 481 Pls
825 503 Pls
828 500 Pls
832 511 Pls
835 470 Pls
839 455 Pls
842 481 Pls
845 470 Pls
849 548 Pls
852 463 Pls
856 485 Pls
859 551 Pls
863 702 Pls
866 850 Pls
870 511 Pls
873 492 Pls
876 548 Pls
880 503 Pls
883 536 Pls
887 514 Pls
890 536 Pls
894 489 Pls
897 507 Pls
900 522 Pls
904 507 Pls
907 492 Pls
911 492 Pls
914 481 Pls
918 463 Pls
921 470 Pls
924 489 Pls
928 466 Pls
931 452 Pls
935 477 Pls
938 466 Pls
942 463 Pls
945 459 Pls
948 474 Pls
952 485 Pls
955 592 Pls
959 640 Pls
962 684 Pls
966 485 Pls
969 477 Pls
972 463 Pls
976 522 Pls
979 518 Pls
983 485 Pls
986 555 Pls
990 511 Pls
993 570 Pls
996 562 Pls
1000 522 Pls
1003 533 Pls
1007 500 Pls
1010 459 Pls
1014 466 Pls
1017 511 Pls
1021 555 Pls
1024 466 Pls
1027 474 Pls
1031 455 Pls
1034 492 Pls
1038 489 Pls
1041 474 Pls
1045 485 Pls
1048 492 Pls
1051 677 Pls
1055 614 Pls
1058 555 Pls
1062 474 Pls
1065 492 Pls
1069 474 Pls
1072 466 Pls
1075 481 Pls
1079 492 Pls
1082 485 Pls
1086 459 Pls
1089 525 Pls
1093 481 Pls
1096 485 Pls
1099 525 Pls
1103 536 Pls
1106 518 Pls
1110 577 Pls
1113 492 Pls
1117 481 Pls
1120 496 Pls
1123 474 Pls
1127 555 Pls
1130 533 Pls
1134 459 Pls
1137 459 Pls
1141 455 Pls
1144 470 Pls
1147 485 Pls
1151 466 Pls
1154 503 Pls
1158 503 Pls
1161 470 Pls
1165 474 Pls
1168 463 Pls
1172 500 Pls
1175 503 Pls
1178 481 Pls
1182 500 Pls
1185 481 Pls
1189 474 Pls
1192 503 Pls
1196 525 Pls
1199 500 Pls
1202 459 Pls
1206 459 Pls
1209 459 Pls
1213 466 Pls
1216 481 Pls
1220 463 Pls
1223 452 Pls
1226 463 Pls
1230 470 Pls
1233 452 Pls
1237 455 Pls
1240 452 Pls
1244 455 Pls
1247 466 Pls
1250 459 Pls
1254 466 Pls
1257 470 Pls
1261 455 Pls
1264 485 Pls
1268 466 Pls
1271 455 Pls
1274 463 Pls
1278 459 Pls
1281 477 Pls
1285 459 Pls
1288 470 Pls
1292 455 Pls
1295 459 Pls
1298 466 Pls
1302 452 Pls
1305 470 Pls
1309 466 Pls
1312 511 Pls
1316 500 Pls
1319 459 Pls
1322 463 Pls
1326 489 Pls
1329 500 Pls
1333 474 Pls
1336 455 Pls
1340 455 Pls
1343 452 Pls
1347 481 Pls
1350 477 Pls
1353 477 Pls
1357 470 Pls
1360 477 Pls
1364 492 Pls
1367 503 Pls
1371 466 Pls
1374 496 Pls
1377 459 Pls
1381 489 Pls
1384 489 Pls
1388 489 Pls
1391 544 Pls
1395 470 Pls
1398 470 Pls
1401 477 Pls
1405 507 Pls
1408 492 Pls
1412 511 Pls
1415 507 Pls
1419 459 Pls
1422 481 Pls
1425 485 Pls
1429 466 Pls
1432 459 Pls
1436 463 Pls
1439 452 Pls
1443 511 Pls
1446 518 Pls
1449 489 Pls
1453 452 Pls
1456 455 Pls
1460 470 Pls
1463 452 Pls
1467 459 Pls
1470 455 Pls
1473 455 Pls
1477 459 Pls
1480 474 Pls
1484 496 Pls
1487 477 Pls
1491 452 Pls
1494 511 Pls
1498 459 Pls
1501 452 Pls
1504 455 Pls
1508 463 Pls
1511 455 Pls
1515 466 Pls
1518 459 Pls
1522 459 Pls
1525 455 Pls
1528 459 Pls
1532 481 Pls
1535 477 Pls
1539 452 Pls
1542 470 Pls
1546 459 Pls
1549 455 Pls
1552 459 Pls
1556 481 Pls
1559 485 Pls
1563 466 Pls
1566 455 Pls
1570 459 Pls
1573 481 Pls
1576 463 Pls
1580 481 Pls
1583 466 Pls
1587 463 Pls
1590 466 Pls
1594 496 Pls
1597 470 Pls
1600 455 Pls
1604 463 Pls
1607 455 Pls
1611 459 Pls
1614 459 Pls
1618 459 Pls
1621 474 Pls
1624 466 Pls
1628 452 Pls
1631 463 Pls
1635 470 Pls
1638 470 Pls
1642 463 Pls
1645 514 Pls
1649 496 Pls
1652 485 Pls
1655 463 Pls
1659 470 Pls
1662 459 Pls
1666 452 Pls
1669 459 Pls
1673 463 Pls
1676 481 Pls
1679 470 Pls
1683 463 Pls
1686 477 Pls
1690 466 Pls
1693 459 Pls
1697 466 Pls
1700 459 Pls
1703 452 Pls
1707 455 Pls
1710 496 Pls
1714 474 Pls
1717 481 Pls
1721 485 Pls
1724 470 Pls
1727 522 Pls
1731 496 Pls
1734 507 Pls
1738 489 Pls
1741 481 Pls
1745 466 Pls
1748 511 Pls
1751 507 Pls
1755 511 Pls
1758 481 Pls
1762 463 Pls
1765 470 Pls
1769 496 Pls
1772 470 Pls
1775 485 Pls
1779 452 Pls
1782 463 Pls
1786 474 Pls
1789 485 Pls
1793 459 Pls
1796 474 Pls
1799 470 Pls
1803 452 Pls
1806 525 Pls
1810 562 Pls
1813 474 Pls
1817 463 Pls
1820 536 Pls
1824 503 Pls
1827 489 Pls
1830 455 Pls
1834 452 Pls
1837 500 Pls
1841 474 Pls
1844 489 Pls
1848 481 Pls
1851 455 Pls
1854 459 Pls
1858 477 Pls
1861 477 Pls
1865 466 Pls
1868 463 Pls
1872 474 Pls
1875 477 Pls
1878 459 Pls
1882 455 Pls
1885 466 Pls
1889 463 Pls
1892 455 Pls
1896 452 Pls
1899 452 Pls
1902 470 Pls
1906 470 Pls
1909 466 Pls
1913 455 Pls
1916 455 Pls
1920 455 Pls
1923 459 Pls
1926 466 Pls
1930 455 Pls
1933 470 Pls
1937 455 Pls
1940 459 Pls
1944 459 Pls
1947 459 Pls
1950 466 Pls
1954 452 Pls
1957 459 Pls
1961 466 Pls
1964 492 Pls
1968 455 Pls
1971 459 Pls
1975 459 Pls
1978 459 Pls
1981 463 Pls
1985 455 Pls
1988 485 Pls
1992 477 Pls
1995 481 Pls
1999 455 Pls
2002 474 Pls
2005 500 Pls
2009 470 Pls
2012 463 Pls
2016 466 Pls
2019 466 Pls
2023 485 Pls
2026 466 Pls
2029 466 Pls
2033 463 Pls
2036 452 Pls
2040 452 Pls
2043 455 Pls
2047 459 Pls
2050 474 Pls
2053 466 Pls
2057 481 Pls
2060 452 Pls
2064 455 Pls
2067 459 Pls
2071 485 Pls
2074 455 Pls
2077 452 Pls
2081 455 Pls
2084 459 Pls
2088 459 Pls
2091 455 Pls
2095 455 Pls
2098 459 Pls
2101 466 Pls
2105 452 Pls
2108 455 Pls
2112 459 Pls
2115 459 Pls
2119 452 Pls
2122 452 Pls
2126 452 Pls
2129 463 Pls
2132 452 Pls
2136 485 Pls
2139 459 Pls
2143 459 Pls
2146 459 Pls
2150 455 Pls
2153 459 Pls
2156 459 Pls
2160 455 Pls
2163 459 Pls
2167 459 Pls
2170 452 Pls
2174 452 Pls
2177 455 Pls
2180 459 Pls
2184 477 Pls
2187 500 Pls
2191 503 Pls
2194 452 Pls
2198 481 Pls
2201 466 Pls
2204 470 Pls
2208 463 Pls
2211 452 Pls
2215 466 Pls
2218 474 Pls
2222 481 Pls
2225 496 Pls
2228 459 Pls
2232 474 Pls
2235 455 Pls
2239 459 Pls
2242 474 Pls
2246 470 Pls
2249 477 Pls
2252 470 Pls
2256 459 Pls
2259 459 Pls
2263 481 Pls
2266 470 Pls
2270 481 Pls
2273 459 Pls
2277 463 Pls
2280 489 Pls
2283 481 Pls
2287 489 Pls
2290 477 Pls
2294 466 Pls
2297 474 Pls
2301 463 Pls
2304 452 Pls
2307 466 Pls
2311 496 Pls
2314 477 Pls
2318 452 Pls
2321 485 Pls
2325 492 Pls
2328 485 Pls
2331 474 Pls
2335 459 Pls
2338 455 Pls
2342 459 Pls
2345 470 Pls
2349 459 Pls
2352 466 Pls
2355 477 Pls
2359 525 Pls
2362 459 Pls
2366 496 Pls
2369 514 Pls
2373 466 Pls
2376 470 Pls
2379 481 Pls
2383 489 Pls
2386 481 Pls
2390 470 Pls
2393 455 Pls
2397 503 Pls
2400 452 Pls
2403 452 Pls
2407 463 Pls
2410 452 Pls
2414 459 Pls
2417 466 Pls
2421 455 Pls
2424 455 Pls
2427 452 Pls
2431 459 Pls
2434 455 Pls
2438 452 Pls
2441 459 Pls
2445 470 Pls
2448 455 Pls
2452 452 Pls
2455 466 Pls
2458 470 Pls
2462 459 Pls
2465 463 Pls
2469 455 Pls
2472 459 Pls
2476 463 Pls
2479 463 Pls
2482 459 Pls
2486 455 Pls
2489 455 Pls
2493 452 Pls
2496 459 Pls
2500 459 Pls
2503 455 Pls
2506 455 Pls
2510 455 Pls
2513 474 Pls
2517 466 Pls
2520 459 Pls
2524 455 Pls
2527 452 Pls
2530 459 Pls
2534 455 Pls
2537 455 Pls
2541 463 Pls
2544 463 Pls
2548 466 Pls
2551 474 Pls
2554 455 Pls
2558 481 Pls
2561 466 Pls
2565 470 Pls
2568 459 Pls
2572 455 Pls
2575 463 Pls
2578 452 Pls
2582 455 Pls
2585 474 Pls
2589 459 Pls
2592 477 Pls
2596 459 Pls
2599 459 Pls
2603 459 Pls
2606 459 Pls
2609 466 Pls
2613 455 Pls
2616 452 Pls
2620 466 Pls
2623 455 Pls
2627 485 Pls
2630 477 Pls
2633 455 Pls
2637 459 Pls
2640 455 Pls
2644 452 Pls
2647 452 Pls
2651 452 Pls
2654 452 Pls
2657 459 Pls
2661 455 Pls
2664 455 Pls
2668 452 Pls
2671 455 Pls
2675 459 Pls
2678 452 Pls
2681 455 Pls
2685 507 Pls
2688 496 Pls
2692 507 Pls
2695 477 Pls
2699 474 Pls
2702 485 Pls
2705 485 Pls
2709 496 Pls
2712 548 Pls
2716 466 Pls
2719 485 Pls
2723 481 Pls
2726 477 Pls
2729 474 Pls
2733 533 Pls
2736 485 Pls
2740 466 Pls
2743 455 Pls
2747 481 Pls
2750 485 Pls
2754 496 Pls
2757 503 Pls
2760 455 Pls
2764 470 Pls
2767 463 Pls
2771 459 Pls
2774 485 Pls
2778 500 Pls
2781 500 Pls
2784 466 Pls
2788 496 Pls
2791 452 Pls
2795 455 Pls
2798 459 Pls
2802 463 Pls
2805 455 Pls
2808 459 Pls
2812 466 Pls
2815 507 Pls
2819 481 Pls
2822 492 Pls
2826 466 Pls
2829 463 Pls
2832 452 Pls
2836 485 Pls
2839 477 Pls
2843 477 Pls
2846 555 Pls
2850 492 Pls
2853 485 Pls
2856 463 Pls
2860 511 Pls
2863 466 Pls
2867 485 Pls
2870 463 Pls
2874 463 Pls
2877 455 Pls
2880 518 Pls
2884 470 Pls
2887 463 Pls
2891 466 Pls
2894 496 Pls
2898 470 Pls
2901 455 Pls
2904 452 Pls
2908 463 Pls
2911 492 Pls
2915 452 Pls
2918 452 Pls
2922 455 Pls
2925 452 Pls
2929 452 Pls
2932 466 Pls
2935 452 Pls
2939 452 Pls
2942 455 Pls
2946 452 Pls
2949 466 Pls
2953 463 Pls
2956 459 Pls
2959 452 Pls
2963 452 Pls
2966 474 Pls
2970 459 Pls
2973 459 Pls
2977 459 Pls
2980 455 Pls
2983 452 Pls
2987 452 Pls
2990 477 Pls
2994 481 Pls
2997 474 Pls
3001 452 Pls
3004 455 Pls
3007 452 Pls
3011 452 Pls
3014 452 Pls
3018 452 Pls
3021 455 Pls
3025 452 Pls
3028 452 Pls
3031 489 Pls
3035 481 Pls
3038 481 Pls
3042 463 Pls
3045 463 Pls
3049 452 Pls
3052 463 Pls
3055 452 Pls
3059 492 Pls
3062 463 Pls
3066 455 Pls
3069 477 Pls
3073 463 Pls
3076 455 Pls
3080 455 Pls
3083 455 Pls
3086 452 Pls
3090 452 Pls
3093 452 Pls
3097 452 Pls
3100 455 Pls
3104 455 Pls
3107 455 Pls
3110 455 Pls
3114 459 Pls
3117 459 Pls
3121 455 Pls
3124 459 Pls
3128 452 Pls
3131 463 Pls
3134 459 Pls
3138 459 Pls
3141 455 Pls
3145 455 Pls
3148 452 Pls
3152 455 Pls
3155 459 Pls
3158 452 Pls
3162 452 Pls
3165 455 Pls
3169 459 Pls
3172 455 Pls
3176 459 Pls
3179 452 Pls
3182 455 Pls
3186 452 Pls
3189 459 Pls
3193 455 Pls
3196 452 Pls
3200 452 Pls
3203 463 Pls
3206 463 Pls
3210 455 Pls
3213 459 Pls
3217 452 Pls
3220 459 Pls
3224 466 Pls
3227 452 Pls
3231 466 Pls
3234 455 Pls
3237 455 Pls
3241 455 Pls
3244 452 Pls
3248 459 Pls
3251 452 Pls
3255 452 Pls
3258 452 Pls
3261 452 Pls
3265 452 Pls
3268 455 Pls
3272 466 Pls
3275 489 Pls
3279 470 Pls
3282 474 Pls
3285 477 Pls
3289 485 Pls
3292 474 Pls
3296 474 Pls
3299 459 Pls
3303 474 Pls
3306 470 Pls
3309 485 Pls
3313 455 Pls
3316 485 Pls
3320 477 Pls
3323 481 Pls
3327 477 Pls
3330 489 Pls
3333 481 Pls
3337 489 Pls
3340 463 Pls
3344 470 Pls
3347 459 Pls
3351 474 Pls
3354 496 Pls
3357 492 Pls
3361 452 Pls
3364 470 Pls
3368 514 Pls
3371 485 Pls
3375 459 Pls
3378 489 Pls
3381 489 Pls
3385 452 Pls
3388 466 Pls
3392 455 Pls
3395 503 Pls
3399 489 Pls
3402 466 Pls
3406 463 Pls
3409 463 Pls
3412 477 Pls
3416 459 Pls
3419 455 Pls
3423 481 Pls
3426 477 Pls
3430 474 Pls
3433 474 Pls
3436 485 Pls
3440 470 Pls
3443 466 Pls
3447 455 Pls
3450 474 Pls
3454 470 Pls
3457 459 Pls
3460 463 Pls
3464 466 Pls
3467 466 Pls
3471 492 Pls
3474 470 Pls
3478 452 Pls
3481 455 Pls
3484 463 Pls
3488 474 Pls
3491 455 Pls
3495 470 Pls
3498 466 Pls
3502 452 Pls
3505 459 Pls
3508 455 Pls
3512 455 Pls
3515 481 Pls
3519 466 Pls
3522 477 Pls
3526 507 Pls
3529 481 Pls
3532 536 Pls
3536 500 Pls
3539 466 Pls
3543 466 Pls
3546 496 Pls
3550 474 Pls
3553 459 Pls
3557 459 Pls
3560 459 Pls
3563 466 Pls
3567 466 Pls
3570 455 Pls
3574 455 Pls
3577 452 Pls
3581 463 Pls
3584 477 Pls
3587 452 Pls
3591 455 Pls
3594 452 Pls
3598 452 Pls
3601 459 Pls
3605 459 Pls
3608 452 Pls
3611 452 Pls
3615 455 Pls
3618 455 Pls
3622 466 Pls
3625 459 Pls
3629 477 Pls
3632 455 Pls
3635 466 Pls
3639 466 Pls
3642 463 Pls
3646 477 Pls
3649 477 Pls
3653 459 Pls
3656 455 Pls
3659 455 Pls
3663 455 Pls
3666 452 Pls
3670 455 Pls
3673 459 Pls
3677 477 Pls
3680 455 Pls
3683 452 Pls
3687 459 Pls
3690 452 Pls
3694 455 Pls
3697 455 Pls
3701 463 Pls
3704 455 Pls
3708 452 Pls
3711 452 Pls
3714 459 Pls
3718 455 Pls
3721 452 Pls
3725 455 Pls
3728 455 Pls
3732 455 Pls
3735 459 Pls
3738 455 Pls
3742 496 Pls
3745 455 Pls
3749 474 Pls
3752 500 Pls
3756 514 Pls
3759 477 Pls
3762 466 Pls
3766 470 Pls
3769 481 Pls
3773 481 Pls
3776 463 Pls
3780 459 Pls
3783 518 Pls
3786 485 Pls
3790 481 Pls
3793 466 Pls
3797 455 Pls
3800 477 Pls
3804 455 Pls
3807 452 Pls
3810 455 Pls
3814 481 Pls
3817 455 Pls
3821 533 Pls
3824 514 Pls
3828 466 Pls
3831 536 Pls
3834 500 Pls
3838 463 Pls
3841 562 Pls
3845 481 Pls
3848 452 Pls
3852 474 Pls
3855 474 Pls
3858 477 Pls
3862 481 Pls
3865 459 Pls
3869 485 Pls
3872 463 Pls
3876 474 Pls
3879 455 Pls
3883 452 Pls
3886 455 Pls
3889 459 Pls
3893 489 Pls
3896 463 Pls
3900 452 Pls
3903 463 Pls
3907 452 Pls
3910 455 Pls
3913 466 Pls
3917 455 Pls
3920 459 Pls
3924 459 Pls
3927 455 Pls
3931 459 Pls
3934 548 Pls
3937 481 Pls
3941 466 Pls
3944 581 Pls
3948 477 Pls
3951 463 Pls
3955 455 Pls
3958 459 Pls
3961 474 Pls
3965 466 Pls
3968 455 Pls
3972 503 Pls
3975 455 Pls
3979 452 Pls
3982 489 Pls
3985 474 Pls
3989 452 Pls
3992 455 Pls
3996 452 Pls
3999 452 Pls
4003 463 Pls
4006 463 Pls
4009 452 Pls
4013 452 Pls
4016 452 Pls
4020 452 Pls
4023 452 Pls
4027 452 Pls
4030 452 Pls
4034 466 Pls
4037 452 Pls
4040 463 Pls
4044 466 Pls
4047 452 Pls
4051 452 Pls
4054 452 Pls
4058 466 Pls
4061 463 Pls
4064 477 Pls
4068 474 Pls
4071 474 Pls
4075 455 Pls
4078 455 Pls
4082 474 Pls
4085 466 Pls
4088 463 Pls
4092 455 Pls
4095 507 Pls
4099 477 Pls
4102 452 Pls
4106 500 Pls
4109 463 Pls
4112 463 Pls
4116 470 Pls
4119 459 Pls
4123 503 Pls
4126 452 Pls
4130 463 Pls
4133 455 Pls
4136 452 Pls
4140 452 Pls
4143 455 Pls
4147 455 Pls
4150 459 Pls
4154 455 Pls
4157 459 Pls
4160 455 Pls
4164 455 Pls
4167 452 Pls
4171 455 Pls
4174 455 Pls
4178 455 Pls
4181 459 Pls
4185 452 Pls
4188 455 Pls
4191 455 Pls
4195 452 Pls
4198 459 Pls
4202 452 Pls
4205 452 Pls
4209 452 Pls
4212 452 Pls
4215 452 Pls
4219 452 Pls
4222 452 Pls
4226 452 Pls
4229 452 Pls
4233 459 Pls
4236 455 Pls
4239 459 Pls
4243 455 Pls
4246 452 Pls
4250 455 Pls
4253 455 Pls
4257 459 Pls
4260 470 Pls
4263 477 Pls
4267 470 Pls
4270 470 Pls
4274 459 Pls
4277 459 Pls
4281 474 Pls
4284 477 Pls
4287 474 Pls
4291 463 Pls
4294 459 Pls
4298 485 Pls
4301 455 Pls
4305 485 Pls
4308 455 Pls
4311 452 Pls
4315 466 Pls
4318 466 Pls
4322 481 Pls
4325 489 Pls
4329 481 Pls
4332 477 Pls
4336 463 Pls
4339 481 Pls
4342 466 Pls
4346 455 Pls
4349 455 Pls
4353 455 Pls
4356 489 Pls
4360 459 Pls
4363 463 Pls
4366 466 Pls
4370 463 Pls
4373 489 Pls
4377 459 Pls
4380 489 Pls
4384 474 Pls
4387 466 Pls
4390 489 Pls
4394 463 Pls
4397 455 Pls
4401 496 Pls
4404 489 Pls
4408 455 Pls
4411 463 Pls
4414 470 Pls
4418 466 Pls
4421 470 Pls
4425 470 Pls
4428 481 Pls
4432 474 Pls
4435 455 Pls
4438 470 Pls
4442 525 Pls
4445 485 Pls
4449 470 Pls
4452 455 Pls
4456 452 Pls
4459 459 Pls
4462 459 Pls
4466 459 Pls
4469 452 Pls
4473 452 Pls
4476 636 Pls
4480 570 Pls
4483 533 Pls
4486 555 Pls
4490 522 Pls
4493 466 Pls
4497 540 Pls
4500 474 Pls
4504 459 Pls
4507 496 Pls
4511 452 Pls
4514 584 Pls
4517 496 Pls
4521 525 Pls
4524 470 Pls
4528 548 Pls
4531 522 Pls
4535 459 Pls
4538 489 Pls
4541 477 Pls
4545 466 Pls
4548 455 Pls
4552 481 Pls
4555 492 Pls
4559 481 Pls
4562 463 Pls
4565 477 Pls
4569 474 Pls
4572 492 Pls
4576 452 Pls
4579 459 Pls
4583 481 Pls
4586 452 Pls
4589 452 Pls
4593 452 Pls
4596 459 Pls
4600 452 Pls
4603 452 Pls
4607 459 Pls
4610 452 Pls
4613 455 Pls
4617 452 Pls
4620 452 Pls
4624 455 Pls
4627 459 Pls
4631 455 Pls
4634 459 Pls
4637 463 Pls
4641 452 Pls
4644 455 Pls
4648 466 Pls
4651 455 Pls
4655 459 Pls
4658 459 Pls
4662 455 Pls
4665 455 Pls
4668 452 Pls
4672 463 Pls
4675 455 Pls
4679 452 Pls
4682 452 Pls
4686 455 Pls
4689 455 Pls
4692 452 Pls
4696 452 Pls
4699 459 Pls
4703 463 Pls
4706 511 Pls
4710 466 Pls
4713 536 Pls
4716 466 Pls
4720 452 Pls
4723 474 Pls
4727 470 Pls
4730 503 Pls
4734 477 Pls
4737 503 Pls
4740 474 Pls
4744 496 Pls
4747 500 Pls
4751 489 Pls
4754 459 Pls
4758 466 Pls
4761 452 Pls
4764 514 Pls
4768 474 Pls
4771 485 Pls
4775 474 Pls
4778 529 Pls
4782 481 Pls
4785 455 Pls
4788 503 Pls
4792 455 Pls
4795 452 Pls
4799 452 Pls
4802 466 Pls
4806 466 Pls
4809 452 Pls
4813 474 Pls
4816 459 Pls
4819 474 Pls
4823 551 Pls
4826 555 Pls
4830 496 Pls
4833 500 Pls
4837 503 Pls
4840 477 Pls
4843 466 Pls
4847 489 Pls
4850 500 Pls
4854 466 Pls
4857 470 Pls
4861 452 Pls
4864 533 Pls
4867 470 Pls
4871 455 Pls
4874 452 Pls
4878 481 Pls
4881 452 Pls
4885 452 Pls
4888 452 Pls
4891 452 Pls
4895 452 Pls
4898 452 Pls
4902 452 Pls
4905 452 Pls
4909 452 Pls
4912 452 Pls
4915 452 Pls
4919 452 Pls
4922 452 Pls
4926 452 Pls
4929 452 Pls
4933 455 Pls
4936 455 Pls
4939 474 Pls
4943 452 Pls
4946 463 Pls
4950 477 Pls
4953 452 Pls
4957 455 Pls
4960 452 Pls
4963 463 Pls
4967 452 Pls
4970 455 Pls
4974 452 Pls
4977 452 Pls
4981 452 Pls
4984 452 Pls
4988 452 Pls
4991 452 Pls
4994 459 Pls
4998 452 Pls
5001 452 Pls
5005 455 Pls
5008 459 Pls
5012 452 Pls
5015 452 Pls
5018 455 Pls
5022 463 Pls
5025 459 Pls
5029 452 Pls
5032 452 Pls
5036 455 Pls
5039 452 Pls
5042 452 Pls
5046 455 Pls
5049 452 Pls
5053 452 Pls
5056 455 Pls
5060 452 Pls
5063 455 Pls
5066 455 Pls
5070 452 Pls
5073 452 Pls
5077 466 Pls
5080 477 Pls
5084 466 Pls
5087 474 Pls
5090 463 Pls
5094 489 Pls
5097 477 Pls
5101 485 Pls
5104 470 Pls
5108 466 Pls
5111 470 Pls
5114 477 Pls
5118 474 Pls
5121 470 Pls
5125 485 Pls
5128 466 Pls
5132 474 Pls
5135 489 Pls
5139 459 Pls
5142 455 Pls
5145 474 Pls
5149 452 Pls
5152 470 Pls
5156 485 Pls
5159 455 Pls
5163 459 Pls
5166 492 Pls
5169 459 Pls
5173 481 Pls
5176 463 Pls
5180 452 Pls
5183 496 Pls
5187 485 Pls
5190 496 Pls
5193 514 Pls
5197 496 Pls
5200 477 Pls
5204 459 Pls
5207 507 Pls
5211 470 Pls
5214 452 Pls
5217 503 Pls
5221 503 Pls
5224 500 Pls
5228 466 Pls
5231 489 Pls
5235 470 Pls
5238 489 Pls
5241 455 Pls
5245 452 Pls
5248 452 Pls
5252 459 Pls
5255 470 Pls
5259 463 Pls
5262 466 Pls
5265 452 Pls
5269 455 Pls
5272 452 Pls
5276 463 Pls
5279 463 Pls
5283 455 Pls
5286 481 Pls
5290 470 Pls
5293 459 Pls
5296 455 Pls
5300 452 Pls
5303 618 Pls
5307 544 Pls
5310 573 Pls
5314 459 Pls
5317 544 Pls
5320 466 Pls
5324 481 Pls
5327 455 Pls
5331 496 Pls
5334 489 Pls
5338 470 Pls
5341 474 Pls
5344 492 Pls
5348 481 Pls
5351 555 Pls
5355 477 Pls
5358 452 Pls
5362 485 Pls
5365 525 Pls
5368 562 Pls
5372 511 Pls
5375 529 Pls
5379 492 Pls
5382 459 Pls
5386 455 Pls
5389 500 Pls
5392 463 Pls
5396 455 Pls
5399 485 Pls
5403 481 Pls
5406 466 Pls
5410 452 Pls
5413 455 Pls
5416 452 Pls
5420 452 Pls
5423 452 Pls
5427 452 Pls
5430 452 Pls
5434 455 Pls
5437 452 Pls
5440 459 Pls
5444 455 Pls
5447 459 Pls
5451 459 Pls
5454 455 Pls
5458 452 Pls
5461 455 Pls
5465 452 Pls
5468 463 Pls
5471 500 Pls
5475 485 Pls
5478 452 Pls
5482 500 Pls
5485 518 Pls
5489 455 Pls
5492 459 Pls
5495 455 Pls
5499 452 Pls
5502 459 Pls
5506 459 Pls
5509 485 Pls
5513 452 Pls
5516 481 Pls
5519 459 Pls
5523 477 Pls
5526 452 Pls
5530 452 Pls
5533 452 Pls
5537 455 Pls
5540 463 Pls
5543 511 Pls
5547 474 Pls
5550 455 Pls
5554 503 Pls
5557 477 Pls
5561 474 Pls
5564 463 Pls
5567 662 Pls
5571 536 Pls
5574 452 Pls
5578 474 Pls
5581 452 Pls
5585 463 Pls
5588 459 Pls
5591 466 Pls
5595 614 Pls
5598 474 Pls
5602 466 Pls
5605 455 Pls
5609 452 Pls
5612 452 Pls
5616 463 Pls
5619 452 Pls
5622 452 Pls
5626 470 Pls
5629 474 Pls
5633 455 Pls
5636 452 Pls
5640 455 Pls
5643 455 Pls
5646 452 Pls
5650 452 Pls
5653 452 Pls
5657 452 Pls
5660 452 Pls
5664 452 Pls
5667 452 Pls
5670 455 Pls
5674 452 Pls
5677 455 Pls
5681 455 Pls
5684 455 Pls
5688 452 Pls
5691 452 Pls
5694 452 Pls
5698 455 Pls
5701 455 Pls
5705 452 Pls
5708 455 Pls
5712 455 Pls
5715 452 Pls
5718 452 Pls
5722 452 Pls
5725 455 Pls
5729 459 Pls
5732 452 Pls
5736 452 Pls
5739 452 Pls
5742 466 Pls
5746 463 Pls
5749 477 Pls
5753 485 Pls
5756 466 Pls
5760 466 Pls
5763 474 Pls
5767 477 Pls
5770 463 Pls
5773 466 Pls
5777 492 Pls
5780 477 Pls
5784 492 Pls
5787 463 Pls
5791 492 Pls
5794 481 Pls
5797 470 Pls
5801 459 Pls
5804 466 Pls
5808 459 Pls
5811 455 Pls
5815 455 Pls
5818 459 Pls
5821 455 Pls
5825 452 Pls
5828 452 Pls
5832 496 Pls
5835 474 Pls
5839 477 Pls
5842 463 Pls
5845 511 Pls
5849 477 Pls
5852 474 Pls
5856 477 Pls
5859 466 Pls
5863 470 Pls
5866 500 Pls
5869 474 Pls
5873 452 Pls
5876 463 Pls
5880 481 Pls
5883 452 Pls
5887 477 Pls
5890 452 Pls
5893 466 Pls
5897 533 Pls
5900 548 Pls
5904 474 Pls
5907 540 Pls
5911 536 Pls
5914 559 Pls
5917 477 Pls
5921 507 Pls
5924 477 Pls
5928 614 Pls
5931 559 Pls
5935 477 Pls
5938 522 Pls
5942 500 Pls
5945 518 Pls
5948 452 Pls
5952 577 Pls
5955 614 Pls
5959 573 Pls
5962 477 Pls
5966 481 Pls
5969 474 Pls
5972 452 Pls
5976 459 Pls
5979 496 Pls
5983 455 Pls
5986 455 Pls
5990 688 Pls
5993 618 Pls
5996 518 Pls
6000 588 Pls
6003 496 Pls
6007 474 Pls
6010 489 Pls
6014 452 Pls
6017 540 Pls
6020 459 Pls
6024 533 Pls
6027 459 Pls
6031 455 Pls
6034 455 Pls
6038 470 Pls
6041 452 Pls
6044 452 Pls
6048 452 Pls
6051 452 Pls
6055 452 Pls
6058 452 Pls
6062 452 Pls
6065 466 Pls
6068 455 Pls
6072 463 Pls
6075 452 Pls
6079 533 Pls
6082 452 Pls
6086 455 Pls
6089 529 Pls
6093 570 Pls
6096 455 Pls
6099 452 Pls
6103 474 Pls
6106 452 Pls
6110 470 Pls
6113 466 Pls
6117 459 Pls
6120 455 Pls
6123 481 Pls
6127 452 Pls
6130 452 Pls
6134 452 Pls
6137 452 Pls
6141 452 Pls
6144 455 Pls
6147 474 Pls
6151 466 Pls
6154 452 Pls
6158 452 Pls
6161 452 Pls
6165 452 Pls
6168 455 Pls
6171 452 Pls
6175 452 Pls
6178 452 Pls
6182 455 Pls
6185 452 Pls
6189 452 Pls
6192 455 Pls
6195 452 Pls
6199 452 Pls
6202 459 Pls
6206 455 Pls
6209 459 Pls
6213 452 Pls
6216 452 Pls
6219 452 Pls
6223 452 Pls
6226 455 Pls
6230 452 Pls
6233 452 Pls
6237 452 Pls
6240 463 Pls
6244 466 Pls
6247 459 Pls
6250 466 Pls
6254 455 Pls
6257 474 Pls
6261 474 Pls
6264 481 Pls
6268 459 Pls
6271 477 Pls
6274 492 Pls
6278 485 Pls
6281 455 Pls
6285 481 Pls
6288 452 Pls
6292 503 Pls
6295 455 Pls
6298 452 Pls
6302 477 Pls
6305 566 Pls
6309 466 Pls
6312 470 Pls
6316 455 Pls
6319 485 Pls
6322 570 Pls
6326 485 Pls
6329 455 Pls
6333 452 Pls
6336 654 Pls
6340 492 Pls
6343 466 Pls
6346 455 Pls
6350 463 Pls
6353 452 Pls
6357 455 Pls
6360 452 Pls
6364 455 Pls
6367 455 Pls
6370 455 Pls
6374 452 Pls
6377 452 Pls
6381 452 Pls
6384 459 Pls
6388 489 Pls
6391 455 Pls
6395 455 Pls
6398 459 Pls
6401 452 Pls
6405 463 Pls
6408 452 Pls
6412 452 Pls
6415 452 Pls
6419 452 Pls
6422 452 Pls
6425 452 Pls
6429 452 Pls
6432 452 Pls
6436 452 Pls
6439 452 Pls
6443 452 Pls
6446 452 Pls
6449 452 Pls
6453 455 Pls
6456 452 Pls
6460 455 Pls
6463 470 Pls
6467 466 Pls
6470 463 Pls
6473 455 Pls
6477 455 Pls
6480 459 Pls
6484 463 Pls
6487 455 Pls
6491 455 Pls
6494 452 Pls
6497 559 Pls
6501 463 Pls
6504 474 Pls
6508 463 Pls
6511 452 Pls
6515 455 Pls
6518 455 Pls
6521 459 Pls
6525 452 Pls
6528 452 Pls
6532 452 Pls
6535 452 Pls
6539 452 Pls
6542 452 Pls
6545 452 Pls
6549 452 Pls
6552 452 Pls
6556 452 Pls
6559 452 Pls
6563 452 Pls
6566 452 Pls
6570 455 Pls
6573 452 Pls
6576 452 Pls
6580 452 Pls
6583 452 Pls
6587 452 Pls
6590 455 Pls
6594 452 Pls
6597 466 Pls
6600 455 Pls
6604 455 Pls
6607 463 Pls
6611 452 Pls
6614 452 Pls
6618 452 Pls
6621 452 Pls
6624 452 Pls
6628 452 Pls
6631 452 Pls
6635 452 Pls
6638 452 Pls
6642 452 Pls
6645 452 Pls
6648 452 Pls
6652 452 Pls
6655 452 Pls
6659 452 Pls
6662 452 Pls
6666 452 Pls
6669 452 Pls
6672 452 Pls
6676 452 Pls
6679 452 Pls
6683 452 Pls
6686 452 Pls
6690 452 Pls
6693 452 Pls
6696 452 Pls
6700 452 Pls
6703 452 Pls
6707 452 Pls
6710 452 Pls
6714 452 Pls
6717 452 Pls
6721 452 Pls
6724 452 Pls
6727 455 Pls
6731 452 Pls
6734 452 Pls
6738 452 Pls
6741 452 Pls
6745 452 Pls
6748 452 Pls
6751 452 Pls
6579 4738 Pls
% End plot #1
1.000 UL
LTb
770 4871 N
770 448 L
6177 0 V
0 4423 V
-6177 0 V
Z stroke
1.000 UP
1.000 UL
LTb
stroke
grestore
end
showpage
%%Trailer
%%DocumentFonts: Helvetica
