%!PS-Adobe-2.0 EPSF-2.0
%%Title: ../plots/domainstats/states-sorted-by-ply-visit-count-nannon-offset-0.eps
%%Creator: gnuplot 4.4 patchlevel 3
%%CreationDate: Wed Dec 14 04:42:16 2011
%%DocumentFonts: (atend)
%%BoundingBox: 50 50 410 302
%%EndComments
%%BeginProlog
/gnudict 256 dict def
gnudict begin
%
% The following true/false flags may be edited by hand if desired.
% The unit line width and grayscale image gamma correction may also be changed.
%
/Color true def
/Blacktext false def
/Solid false def
/Dashlength 1 def
/Landscape false def
/Level1 false def
/Rounded false def
/ClipToBoundingBox false def
/TransparentPatterns false def
/gnulinewidth 5.000 def
/userlinewidth gnulinewidth def
/Gamma 1.0 def
%
/vshift -46 def
/dl1 {
  10.0 Dashlength mul mul
  Rounded { currentlinewidth 0.75 mul sub dup 0 le { pop 0.01 } if } if
} def
/dl2 {
  10.0 Dashlength mul mul
  Rounded { currentlinewidth 0.75 mul add } if
} def
/hpt_ 31.5 def
/vpt_ 31.5 def
/hpt hpt_ def
/vpt vpt_ def
Level1 {} {
/SDict 10 dict def
systemdict /pdfmark known not {
  userdict /pdfmark systemdict /cleartomark get put
} if
SDict begin [
  /Title (../plots/domainstats/states-sorted-by-ply-visit-count-nannon-offset-0.eps)
  /Subject (gnuplot plot)
  /Creator (gnuplot 4.4 patchlevel 3)
  /Author (reza)
%  /Producer (gnuplot)
%  /Keywords ()
  /CreationDate (Wed Dec 14 04:42:16 2011)
  /DOCINFO pdfmark
end
} ifelse
/doclip {
  ClipToBoundingBox {
    newpath 50 50 moveto 410 50 lineto 410 302 lineto 50 302 lineto closepath
    clip
  } if
} def
%
% Gnuplot Prolog Version 4.4 (August 2010)
%
%/SuppressPDFMark true def
%
/M {moveto} bind def
/L {lineto} bind def
/R {rmoveto} bind def
/V {rlineto} bind def
/N {newpath moveto} bind def
/Z {closepath} bind def
/C {setrgbcolor} bind def
/f {rlineto fill} bind def
/g {setgray} bind def
/Gshow {show} def   % May be redefined later in the file to support UTF-8
/vpt2 vpt 2 mul def
/hpt2 hpt 2 mul def
/Lshow {currentpoint stroke M 0 vshift R 
	Blacktext {gsave 0 setgray show grestore} {show} ifelse} def
/Rshow {currentpoint stroke M dup stringwidth pop neg vshift R
	Blacktext {gsave 0 setgray show grestore} {show} ifelse} def
/Cshow {currentpoint stroke M dup stringwidth pop -2 div vshift R 
	Blacktext {gsave 0 setgray show grestore} {show} ifelse} def
/UP {dup vpt_ mul /vpt exch def hpt_ mul /hpt exch def
  /hpt2 hpt 2 mul def /vpt2 vpt 2 mul def} def
/DL {Color {setrgbcolor Solid {pop []} if 0 setdash}
 {pop pop pop 0 setgray Solid {pop []} if 0 setdash} ifelse} def
/BL {stroke userlinewidth 2 mul setlinewidth
	Rounded {1 setlinejoin 1 setlinecap} if} def
/AL {stroke userlinewidth 2 div setlinewidth
	Rounded {1 setlinejoin 1 setlinecap} if} def
/UL {dup gnulinewidth mul /userlinewidth exch def
	dup 1 lt {pop 1} if 10 mul /udl exch def} def
/PL {stroke userlinewidth setlinewidth
	Rounded {1 setlinejoin 1 setlinecap} if} def
3.8 setmiterlimit
% Default Line colors
/LCw {1 1 1} def
/LCb {0 0 0} def
/LCa {0 0 0} def
/LC0 {1 0 0} def
/LC1 {0 1 0} def
/LC2 {0 0 1} def
/LC3 {1 0 1} def
/LC4 {0 1 1} def
/LC5 {1 1 0} def
/LC6 {0 0 0} def
/LC7 {1 0.3 0} def
/LC8 {0.5 0.5 0.5} def
% Default Line Types
/LTw {PL [] 1 setgray} def
/LTb {BL [] LCb DL} def
/LTa {AL [1 udl mul 2 udl mul] 0 setdash LCa setrgbcolor} def
/LT0 {PL [] LC0 DL} def
/LT1 {PL [4 dl1 2 dl2] LC1 DL} def
/LT2 {PL [2 dl1 3 dl2] LC2 DL} def
/LT3 {PL [1 dl1 1.5 dl2] LC3 DL} def
/LT4 {PL [6 dl1 2 dl2 1 dl1 2 dl2] LC4 DL} def
/LT5 {PL [3 dl1 3 dl2 1 dl1 3 dl2] LC5 DL} def
/LT6 {PL [2 dl1 2 dl2 2 dl1 6 dl2] LC6 DL} def
/LT7 {PL [1 dl1 2 dl2 6 dl1 2 dl2 1 dl1 2 dl2] LC7 DL} def
/LT8 {PL [2 dl1 2 dl2 2 dl1 2 dl2 2 dl1 2 dl2 2 dl1 4 dl2] LC8 DL} def
/Pnt {stroke [] 0 setdash gsave 1 setlinecap M 0 0 V stroke grestore} def
/Dia {stroke [] 0 setdash 2 copy vpt add M
  hpt neg vpt neg V hpt vpt neg V
  hpt vpt V hpt neg vpt V closepath stroke
  Pnt} def
/Pls {stroke [] 0 setdash vpt sub M 0 vpt2 V
  currentpoint stroke M
  hpt neg vpt neg R hpt2 0 V stroke
 } def
/Box {stroke [] 0 setdash 2 copy exch hpt sub exch vpt add M
  0 vpt2 neg V hpt2 0 V 0 vpt2 V
  hpt2 neg 0 V closepath stroke
  Pnt} def
/Crs {stroke [] 0 setdash exch hpt sub exch vpt add M
  hpt2 vpt2 neg V currentpoint stroke M
  hpt2 neg 0 R hpt2 vpt2 V stroke} def
/TriU {stroke [] 0 setdash 2 copy vpt 1.12 mul add M
  hpt neg vpt -1.62 mul V
  hpt 2 mul 0 V
  hpt neg vpt 1.62 mul V closepath stroke
  Pnt} def
/Star {2 copy Pls Crs} def
/BoxF {stroke [] 0 setdash exch hpt sub exch vpt add M
  0 vpt2 neg V hpt2 0 V 0 vpt2 V
  hpt2 neg 0 V closepath fill} def
/TriUF {stroke [] 0 setdash vpt 1.12 mul add M
  hpt neg vpt -1.62 mul V
  hpt 2 mul 0 V
  hpt neg vpt 1.62 mul V closepath fill} def
/TriD {stroke [] 0 setdash 2 copy vpt 1.12 mul sub M
  hpt neg vpt 1.62 mul V
  hpt 2 mul 0 V
  hpt neg vpt -1.62 mul V closepath stroke
  Pnt} def
/TriDF {stroke [] 0 setdash vpt 1.12 mul sub M
  hpt neg vpt 1.62 mul V
  hpt 2 mul 0 V
  hpt neg vpt -1.62 mul V closepath fill} def
/DiaF {stroke [] 0 setdash vpt add M
  hpt neg vpt neg V hpt vpt neg V
  hpt vpt V hpt neg vpt V closepath fill} def
/Pent {stroke [] 0 setdash 2 copy gsave
  translate 0 hpt M 4 {72 rotate 0 hpt L} repeat
  closepath stroke grestore Pnt} def
/PentF {stroke [] 0 setdash gsave
  translate 0 hpt M 4 {72 rotate 0 hpt L} repeat
  closepath fill grestore} def
/Circle {stroke [] 0 setdash 2 copy
  hpt 0 360 arc stroke Pnt} def
/CircleF {stroke [] 0 setdash hpt 0 360 arc fill} def
/C0 {BL [] 0 setdash 2 copy moveto vpt 90 450 arc} bind def
/C1 {BL [] 0 setdash 2 copy moveto
	2 copy vpt 0 90 arc closepath fill
	vpt 0 360 arc closepath} bind def
/C2 {BL [] 0 setdash 2 copy moveto
	2 copy vpt 90 180 arc closepath fill
	vpt 0 360 arc closepath} bind def
/C3 {BL [] 0 setdash 2 copy moveto
	2 copy vpt 0 180 arc closepath fill
	vpt 0 360 arc closepath} bind def
/C4 {BL [] 0 setdash 2 copy moveto
	2 copy vpt 180 270 arc closepath fill
	vpt 0 360 arc closepath} bind def
/C5 {BL [] 0 setdash 2 copy moveto
	2 copy vpt 0 90 arc
	2 copy moveto
	2 copy vpt 180 270 arc closepath fill
	vpt 0 360 arc} bind def
/C6 {BL [] 0 setdash 2 copy moveto
	2 copy vpt 90 270 arc closepath fill
	vpt 0 360 arc closepath} bind def
/C7 {BL [] 0 setdash 2 copy moveto
	2 copy vpt 0 270 arc closepath fill
	vpt 0 360 arc closepath} bind def
/C8 {BL [] 0 setdash 2 copy moveto
	2 copy vpt 270 360 arc closepath fill
	vpt 0 360 arc closepath} bind def
/C9 {BL [] 0 setdash 2 copy moveto
	2 copy vpt 270 450 arc closepath fill
	vpt 0 360 arc closepath} bind def
/C10 {BL [] 0 setdash 2 copy 2 copy moveto vpt 270 360 arc closepath fill
	2 copy moveto
	2 copy vpt 90 180 arc closepath fill
	vpt 0 360 arc closepath} bind def
/C11 {BL [] 0 setdash 2 copy moveto
	2 copy vpt 0 180 arc closepath fill
	2 copy moveto
	2 copy vpt 270 360 arc closepath fill
	vpt 0 360 arc closepath} bind def
/C12 {BL [] 0 setdash 2 copy moveto
	2 copy vpt 180 360 arc closepath fill
	vpt 0 360 arc closepath} bind def
/C13 {BL [] 0 setdash 2 copy moveto
	2 copy vpt 0 90 arc closepath fill
	2 copy moveto
	2 copy vpt 180 360 arc closepath fill
	vpt 0 360 arc closepath} bind def
/C14 {BL [] 0 setdash 2 copy moveto
	2 copy vpt 90 360 arc closepath fill
	vpt 0 360 arc} bind def
/C15 {BL [] 0 setdash 2 copy vpt 0 360 arc closepath fill
	vpt 0 360 arc closepath} bind def
/Rec {newpath 4 2 roll moveto 1 index 0 rlineto 0 exch rlineto
	neg 0 rlineto closepath} bind def
/Square {dup Rec} bind def
/Bsquare {vpt sub exch vpt sub exch vpt2 Square} bind def
/S0 {BL [] 0 setdash 2 copy moveto 0 vpt rlineto BL Bsquare} bind def
/S1 {BL [] 0 setdash 2 copy vpt Square fill Bsquare} bind def
/S2 {BL [] 0 setdash 2 copy exch vpt sub exch vpt Square fill Bsquare} bind def
/S3 {BL [] 0 setdash 2 copy exch vpt sub exch vpt2 vpt Rec fill Bsquare} bind def
/S4 {BL [] 0 setdash 2 copy exch vpt sub exch vpt sub vpt Square fill Bsquare} bind def
/S5 {BL [] 0 setdash 2 copy 2 copy vpt Square fill
	exch vpt sub exch vpt sub vpt Square fill Bsquare} bind def
/S6 {BL [] 0 setdash 2 copy exch vpt sub exch vpt sub vpt vpt2 Rec fill Bsquare} bind def
/S7 {BL [] 0 setdash 2 copy exch vpt sub exch vpt sub vpt vpt2 Rec fill
	2 copy vpt Square fill Bsquare} bind def
/S8 {BL [] 0 setdash 2 copy vpt sub vpt Square fill Bsquare} bind def
/S9 {BL [] 0 setdash 2 copy vpt sub vpt vpt2 Rec fill Bsquare} bind def
/S10 {BL [] 0 setdash 2 copy vpt sub vpt Square fill 2 copy exch vpt sub exch vpt Square fill
	Bsquare} bind def
/S11 {BL [] 0 setdash 2 copy vpt sub vpt Square fill 2 copy exch vpt sub exch vpt2 vpt Rec fill
	Bsquare} bind def
/S12 {BL [] 0 setdash 2 copy exch vpt sub exch vpt sub vpt2 vpt Rec fill Bsquare} bind def
/S13 {BL [] 0 setdash 2 copy exch vpt sub exch vpt sub vpt2 vpt Rec fill
	2 copy vpt Square fill Bsquare} bind def
/S14 {BL [] 0 setdash 2 copy exch vpt sub exch vpt sub vpt2 vpt Rec fill
	2 copy exch vpt sub exch vpt Square fill Bsquare} bind def
/S15 {BL [] 0 setdash 2 copy Bsquare fill Bsquare} bind def
/D0 {gsave translate 45 rotate 0 0 S0 stroke grestore} bind def
/D1 {gsave translate 45 rotate 0 0 S1 stroke grestore} bind def
/D2 {gsave translate 45 rotate 0 0 S2 stroke grestore} bind def
/D3 {gsave translate 45 rotate 0 0 S3 stroke grestore} bind def
/D4 {gsave translate 45 rotate 0 0 S4 stroke grestore} bind def
/D5 {gsave translate 45 rotate 0 0 S5 stroke grestore} bind def
/D6 {gsave translate 45 rotate 0 0 S6 stroke grestore} bind def
/D7 {gsave translate 45 rotate 0 0 S7 stroke grestore} bind def
/D8 {gsave translate 45 rotate 0 0 S8 stroke grestore} bind def
/D9 {gsave translate 45 rotate 0 0 S9 stroke grestore} bind def
/D10 {gsave translate 45 rotate 0 0 S10 stroke grestore} bind def
/D11 {gsave translate 45 rotate 0 0 S11 stroke grestore} bind def
/D12 {gsave translate 45 rotate 0 0 S12 stroke grestore} bind def
/D13 {gsave translate 45 rotate 0 0 S13 stroke grestore} bind def
/D14 {gsave translate 45 rotate 0 0 S14 stroke grestore} bind def
/D15 {gsave translate 45 rotate 0 0 S15 stroke grestore} bind def
/DiaE {stroke [] 0 setdash vpt add M
  hpt neg vpt neg V hpt vpt neg V
  hpt vpt V hpt neg vpt V closepath stroke} def
/BoxE {stroke [] 0 setdash exch hpt sub exch vpt add M
  0 vpt2 neg V hpt2 0 V 0 vpt2 V
  hpt2 neg 0 V closepath stroke} def
/TriUE {stroke [] 0 setdash vpt 1.12 mul add M
  hpt neg vpt -1.62 mul V
  hpt 2 mul 0 V
  hpt neg vpt 1.62 mul V closepath stroke} def
/TriDE {stroke [] 0 setdash vpt 1.12 mul sub M
  hpt neg vpt 1.62 mul V
  hpt 2 mul 0 V
  hpt neg vpt -1.62 mul V closepath stroke} def
/PentE {stroke [] 0 setdash gsave
  translate 0 hpt M 4 {72 rotate 0 hpt L} repeat
  closepath stroke grestore} def
/CircE {stroke [] 0 setdash 
  hpt 0 360 arc stroke} def
/Opaque {gsave closepath 1 setgray fill grestore 0 setgray closepath} def
/DiaW {stroke [] 0 setdash vpt add M
  hpt neg vpt neg V hpt vpt neg V
  hpt vpt V hpt neg vpt V Opaque stroke} def
/BoxW {stroke [] 0 setdash exch hpt sub exch vpt add M
  0 vpt2 neg V hpt2 0 V 0 vpt2 V
  hpt2 neg 0 V Opaque stroke} def
/TriUW {stroke [] 0 setdash vpt 1.12 mul add M
  hpt neg vpt -1.62 mul V
  hpt 2 mul 0 V
  hpt neg vpt 1.62 mul V Opaque stroke} def
/TriDW {stroke [] 0 setdash vpt 1.12 mul sub M
  hpt neg vpt 1.62 mul V
  hpt 2 mul 0 V
  hpt neg vpt -1.62 mul V Opaque stroke} def
/PentW {stroke [] 0 setdash gsave
  translate 0 hpt M 4 {72 rotate 0 hpt L} repeat
  Opaque stroke grestore} def
/CircW {stroke [] 0 setdash 
  hpt 0 360 arc Opaque stroke} def
/BoxFill {gsave Rec 1 setgray fill grestore} def
/Density {
  /Fillden exch def
  currentrgbcolor
  /ColB exch def /ColG exch def /ColR exch def
  /ColR ColR Fillden mul Fillden sub 1 add def
  /ColG ColG Fillden mul Fillden sub 1 add def
  /ColB ColB Fillden mul Fillden sub 1 add def
  ColR ColG ColB setrgbcolor} def
/BoxColFill {gsave Rec PolyFill} def
/PolyFill {gsave Density fill grestore grestore} def
/h {rlineto rlineto rlineto gsave closepath fill grestore} bind def
%
% PostScript Level 1 Pattern Fill routine for rectangles
% Usage: x y w h s a XX PatternFill
%	x,y = lower left corner of box to be filled
%	w,h = width and height of box
%	  a = angle in degrees between lines and x-axis
%	 XX = 0/1 for no/yes cross-hatch
%
/PatternFill {gsave /PFa [ 9 2 roll ] def
  PFa 0 get PFa 2 get 2 div add PFa 1 get PFa 3 get 2 div add translate
  PFa 2 get -2 div PFa 3 get -2 div PFa 2 get PFa 3 get Rec
  gsave 1 setgray fill grestore clip
  currentlinewidth 0.5 mul setlinewidth
  /PFs PFa 2 get dup mul PFa 3 get dup mul add sqrt def
  0 0 M PFa 5 get rotate PFs -2 div dup translate
  0 1 PFs PFa 4 get div 1 add floor cvi
	{PFa 4 get mul 0 M 0 PFs V} for
  0 PFa 6 get ne {
	0 1 PFs PFa 4 get div 1 add floor cvi
	{PFa 4 get mul 0 2 1 roll M PFs 0 V} for
 } if
  stroke grestore} def
%
/languagelevel where
 {pop languagelevel} {1} ifelse
 2 lt
	{/InterpretLevel1 true def}
	{/InterpretLevel1 Level1 def}
 ifelse
%
% PostScript level 2 pattern fill definitions
%
/Level2PatternFill {
/Tile8x8 {/PaintType 2 /PatternType 1 /TilingType 1 /BBox [0 0 8 8] /XStep 8 /YStep 8}
	bind def
/KeepColor {currentrgbcolor [/Pattern /DeviceRGB] setcolorspace} bind def
<< Tile8x8
 /PaintProc {0.5 setlinewidth pop 0 0 M 8 8 L 0 8 M 8 0 L stroke} 
>> matrix makepattern
/Pat1 exch def
<< Tile8x8
 /PaintProc {0.5 setlinewidth pop 0 0 M 8 8 L 0 8 M 8 0 L stroke
	0 4 M 4 8 L 8 4 L 4 0 L 0 4 L stroke}
>> matrix makepattern
/Pat2 exch def
<< Tile8x8
 /PaintProc {0.5 setlinewidth pop 0 0 M 0 8 L
	8 8 L 8 0 L 0 0 L fill}
>> matrix makepattern
/Pat3 exch def
<< Tile8x8
 /PaintProc {0.5 setlinewidth pop -4 8 M 8 -4 L
	0 12 M 12 0 L stroke}
>> matrix makepattern
/Pat4 exch def
<< Tile8x8
 /PaintProc {0.5 setlinewidth pop -4 0 M 8 12 L
	0 -4 M 12 8 L stroke}
>> matrix makepattern
/Pat5 exch def
<< Tile8x8
 /PaintProc {0.5 setlinewidth pop -2 8 M 4 -4 L
	0 12 M 8 -4 L 4 12 M 10 0 L stroke}
>> matrix makepattern
/Pat6 exch def
<< Tile8x8
 /PaintProc {0.5 setlinewidth pop -2 0 M 4 12 L
	0 -4 M 8 12 L 4 -4 M 10 8 L stroke}
>> matrix makepattern
/Pat7 exch def
<< Tile8x8
 /PaintProc {0.5 setlinewidth pop 8 -2 M -4 4 L
	12 0 M -4 8 L 12 4 M 0 10 L stroke}
>> matrix makepattern
/Pat8 exch def
<< Tile8x8
 /PaintProc {0.5 setlinewidth pop 0 -2 M 12 4 L
	-4 0 M 12 8 L -4 4 M 8 10 L stroke}
>> matrix makepattern
/Pat9 exch def
/Pattern1 {PatternBgnd KeepColor Pat1 setpattern} bind def
/Pattern2 {PatternBgnd KeepColor Pat2 setpattern} bind def
/Pattern3 {PatternBgnd KeepColor Pat3 setpattern} bind def
/Pattern4 {PatternBgnd KeepColor Landscape {Pat5} {Pat4} ifelse setpattern} bind def
/Pattern5 {PatternBgnd KeepColor Landscape {Pat4} {Pat5} ifelse setpattern} bind def
/Pattern6 {PatternBgnd KeepColor Landscape {Pat9} {Pat6} ifelse setpattern} bind def
/Pattern7 {PatternBgnd KeepColor Landscape {Pat8} {Pat7} ifelse setpattern} bind def
} def
%
%
%End of PostScript Level 2 code
%
/PatternBgnd {
  TransparentPatterns {} {gsave 1 setgray fill grestore} ifelse
} def
%
% Substitute for Level 2 pattern fill codes with
% grayscale if Level 2 support is not selected.
%
/Level1PatternFill {
/Pattern1 {0.250 Density} bind def
/Pattern2 {0.500 Density} bind def
/Pattern3 {0.750 Density} bind def
/Pattern4 {0.125 Density} bind def
/Pattern5 {0.375 Density} bind def
/Pattern6 {0.625 Density} bind def
/Pattern7 {0.875 Density} bind def
} def
%
% Now test for support of Level 2 code
%
Level1 {Level1PatternFill} {Level2PatternFill} ifelse
%
/Symbol-Oblique /Symbol findfont [1 0 .167 1 0 0] makefont
dup length dict begin {1 index /FID eq {pop pop} {def} ifelse} forall
currentdict end definefont pop
end
%%EndProlog
gnudict begin
gsave
doclip
50 50 translate
0.050 0.050 scale
0 setgray
newpath
(Helvetica) findfont 140 scalefont setfont
1.000 UL
LTb
770 448 M
63 0 V
6114 0 R
-63 0 V
686 448 M
( 0) Rshow
1.000 UL
LTb
770 890 M
63 0 V
6114 0 R
-63 0 V
686 890 M
( 100) Rshow
1.000 UL
LTb
770 1333 M
63 0 V
6114 0 R
-63 0 V
-6198 0 R
( 200) Rshow
1.000 UL
LTb
770 1775 M
63 0 V
6114 0 R
-63 0 V
-6198 0 R
( 300) Rshow
1.000 UL
LTb
770 2217 M
63 0 V
6114 0 R
-63 0 V
-6198 0 R
( 400) Rshow
1.000 UL
LTb
770 2660 M
63 0 V
6114 0 R
-63 0 V
-6198 0 R
( 500) Rshow
1.000 UL
LTb
770 3102 M
63 0 V
6114 0 R
-63 0 V
-6198 0 R
( 600) Rshow
1.000 UL
LTb
770 3544 M
63 0 V
6114 0 R
-63 0 V
-6198 0 R
( 700) Rshow
1.000 UL
LTb
770 3986 M
63 0 V
6114 0 R
-63 0 V
-6198 0 R
( 800) Rshow
1.000 UL
LTb
770 4429 M
63 0 V
6114 0 R
-63 0 V
-6198 0 R
( 900) Rshow
1.000 UL
LTb
770 4871 M
63 0 V
6114 0 R
-63 0 V
-6198 0 R
( 1000) Rshow
1.000 UL
LTb
770 448 M
0 63 V
0 4360 R
0 -63 V
770 308 M
( 0) Cshow
1.000 UL
LTb
1456 448 M
0 63 V
0 4360 R
0 -63 V
0 -4500 R
( 200) Cshow
1.000 UL
LTb
2143 448 M
0 63 V
0 4360 R
0 -63 V
0 -4500 R
( 400) Cshow
1.000 UL
LTb
2829 448 M
0 63 V
0 4360 R
0 -63 V
0 -4500 R
( 600) Cshow
1.000 UL
LTb
3515 448 M
0 63 V
0 4360 R
0 -63 V
0 -4500 R
( 800) Cshow
1.000 UL
LTb
4202 448 M
0 63 V
0 4360 R
0 -63 V
0 -4500 R
( 1000) Cshow
1.000 UL
LTb
4888 448 M
0 63 V
0 4360 R
0 -63 V
0 -4500 R
( 1200) Cshow
1.000 UL
LTb
5574 448 M
0 63 V
0 4360 R
0 -63 V
0 -4500 R
( 1400) Cshow
1.000 UL
LTb
6261 448 M
0 63 V
0 4360 R
0 -63 V
0 -4500 R
( 1600) Cshow
1.000 UL
LTb
6947 448 M
0 63 V
0 4360 R
0 -63 V
0 -4500 R
( 1800) Cshow
1.000 UL
LTb
1.000 UL
LTb
770 4871 N
770 448 L
6177 0 V
0 4423 V
-6177 0 V
Z stroke
LCb setrgbcolor
112 2659 M
currentpoint gsave translate -270 rotate 0 0 M
(Visit Count) Cshow
grestore
LTb
LCb setrgbcolor
3858 98 M
(States \(Sorted by Earliest Visit Time\)) Cshow
LTb
1.000 UP
1.000 UL
LTb
% Begin plot #1
1.000 UP
1.000 UL
LT0
LCb setrgbcolor
6296 4738 M
(Offset = 0) Rshow
LT0
770 4871 Pls
773 731 Pls
777 824 Pls
780 638 Pls
784 930 Pls
787 651 Pls
791 656 Pls
794 1235 Pls
797 1324 Pls
801 904 Pls
804 877 Pls
808 620 Pls
811 598 Pls
815 753 Pls
818 572 Pls
821 532 Pls
825 514 Pls
828 497 Pls
832 519 Pls
835 470 Pls
839 488 Pls
842 466 Pls
845 457 Pls
849 470 Pls
852 479 Pls
856 536 Pls
859 466 Pls
863 554 Pls
866 758 Pls
870 908 Pls
873 519 Pls
876 488 Pls
880 532 Pls
883 492 Pls
887 550 Pls
890 550 Pls
894 528 Pls
897 510 Pls
900 554 Pls
904 590 Pls
907 545 Pls
911 514 Pls
914 514 Pls
918 461 Pls
921 457 Pls
924 475 Pls
928 483 Pls
931 470 Pls
935 452 Pls
938 479 Pls
942 492 Pls
945 470 Pls
948 461 Pls
952 461 Pls
955 492 Pls
959 647 Pls
962 740 Pls
966 766 Pls
969 483 Pls
972 461 Pls
976 541 Pls
979 519 Pls
983 536 Pls
986 598 Pls
990 541 Pls
993 590 Pls
996 594 Pls
1000 501 Pls
1003 545 Pls
1007 501 Pls
1010 488 Pls
1014 479 Pls
1017 497 Pls
1021 585 Pls
1024 475 Pls
1027 457 Pls
1031 461 Pls
1034 479 Pls
1038 475 Pls
1041 483 Pls
1045 488 Pls
1048 497 Pls
1051 731 Pls
1055 612 Pls
1058 576 Pls
1062 523 Pls
1065 488 Pls
1069 492 Pls
1072 475 Pls
1075 470 Pls
1079 470 Pls
1082 492 Pls
1086 501 Pls
1089 492 Pls
1093 523 Pls
1096 492 Pls
1099 545 Pls
1103 488 Pls
1106 576 Pls
1110 528 Pls
1113 572 Pls
1117 488 Pls
1120 554 Pls
1123 501 Pls
1127 461 Pls
1130 545 Pls
1134 505 Pls
1137 466 Pls
1141 457 Pls
1144 470 Pls
1147 519 Pls
1151 492 Pls
1154 488 Pls
1158 492 Pls
1161 545 Pls
1165 479 Pls
1168 479 Pls
1172 457 Pls
1175 505 Pls
1178 501 Pls
1182 505 Pls
1185 492 Pls
1189 479 Pls
1192 479 Pls
1196 501 Pls
1199 510 Pls
1202 523 Pls
1206 457 Pls
1209 457 Pls
1213 452 Pls
1216 452 Pls
1220 457 Pls
1223 497 Pls
1226 479 Pls
1230 457 Pls
1233 461 Pls
1237 501 Pls
1240 452 Pls
1244 457 Pls
1247 457 Pls
1250 457 Pls
1254 461 Pls
1257 466 Pls
1261 452 Pls
1264 457 Pls
1268 457 Pls
1271 452 Pls
1274 492 Pls
1278 461 Pls
1281 466 Pls
1285 501 Pls
1288 483 Pls
1292 492 Pls
1295 461 Pls
1298 457 Pls
1302 488 Pls
1305 452 Pls
1309 452 Pls
1312 452 Pls
1316 461 Pls
1319 452 Pls
1322 457 Pls
1326 466 Pls
1329 519 Pls
1333 501 Pls
1336 466 Pls
1340 461 Pls
1343 470 Pls
1347 483 Pls
1350 461 Pls
1353 457 Pls
1357 475 Pls
1360 466 Pls
1364 505 Pls
1367 475 Pls
1371 483 Pls
1374 466 Pls
1377 505 Pls
1381 466 Pls
1384 466 Pls
1388 466 Pls
1391 475 Pls
1395 492 Pls
1398 479 Pls
1401 475 Pls
1405 457 Pls
1408 461 Pls
1412 479 Pls
1415 492 Pls
1419 483 Pls
1422 501 Pls
1425 479 Pls
1429 466 Pls
1432 470 Pls
1436 488 Pls
1439 470 Pls
1443 523 Pls
1446 528 Pls
1449 475 Pls
1453 470 Pls
1456 470 Pls
1460 461 Pls
1463 479 Pls
1467 466 Pls
1470 461 Pls
1473 470 Pls
1477 452 Pls
1480 452 Pls
1484 514 Pls
1487 501 Pls
1491 475 Pls
1494 461 Pls
1498 461 Pls
1501 461 Pls
1504 457 Pls
1508 457 Pls
1511 470 Pls
1515 461 Pls
1518 466 Pls
1522 488 Pls
1525 475 Pls
1528 466 Pls
1532 470 Pls
1535 461 Pls
1539 461 Pls
1542 475 Pls
1546 452 Pls
1549 452 Pls
1552 475 Pls
1556 466 Pls
1559 461 Pls
1563 483 Pls
1566 479 Pls
1570 475 Pls
1573 475 Pls
1576 461 Pls
1580 461 Pls
1583 475 Pls
1587 470 Pls
1590 492 Pls
1594 475 Pls
1597 479 Pls
1600 497 Pls
1604 505 Pls
1607 466 Pls
1611 461 Pls
1614 470 Pls
1618 479 Pls
1621 492 Pls
1624 488 Pls
1628 470 Pls
1631 466 Pls
1635 488 Pls
1638 475 Pls
1642 461 Pls
1645 461 Pls
1649 452 Pls
1652 452 Pls
1655 466 Pls
1659 457 Pls
1662 452 Pls
1666 483 Pls
1669 475 Pls
1673 457 Pls
1676 470 Pls
1679 519 Pls
1683 483 Pls
1686 470 Pls
1690 457 Pls
1693 470 Pls
1697 461 Pls
1700 466 Pls
1703 457 Pls
1707 497 Pls
1710 497 Pls
1714 479 Pls
1717 479 Pls
1721 461 Pls
1724 452 Pls
1727 488 Pls
1731 479 Pls
1734 457 Pls
1738 452 Pls
1741 457 Pls
1745 461 Pls
1748 457 Pls
1751 461 Pls
1755 457 Pls
1758 501 Pls
1762 497 Pls
1765 519 Pls
1769 505 Pls
1772 488 Pls
1775 536 Pls
1779 475 Pls
1782 479 Pls
1786 492 Pls
1789 510 Pls
1793 497 Pls
1796 528 Pls
1799 483 Pls
1803 492 Pls
1806 532 Pls
1810 501 Pls
1813 501 Pls
1817 536 Pls
1820 505 Pls
1824 483 Pls
1827 452 Pls
1830 545 Pls
1834 501 Pls
1837 457 Pls
1841 479 Pls
1844 470 Pls
1848 457 Pls
1851 457 Pls
1854 457 Pls
1858 505 Pls
1861 492 Pls
1865 479 Pls
1868 457 Pls
1872 514 Pls
1875 457 Pls
1878 457 Pls
1882 483 Pls
1885 510 Pls
1889 497 Pls
1892 475 Pls
1896 505 Pls
1899 457 Pls
1902 470 Pls
1906 523 Pls
1909 510 Pls
1913 488 Pls
1916 466 Pls
1920 461 Pls
1923 452 Pls
1926 470 Pls
1930 505 Pls
1933 470 Pls
1937 466 Pls
1940 452 Pls
1944 470 Pls
1947 461 Pls
1950 470 Pls
1954 452 Pls
1957 452 Pls
1961 457 Pls
1964 475 Pls
1968 452 Pls
1971 466 Pls
1975 466 Pls
1978 461 Pls
1981 452 Pls
1985 457 Pls
1988 461 Pls
1992 466 Pls
1995 457 Pls
1999 452 Pls
2002 457 Pls
2005 470 Pls
2009 466 Pls
2012 479 Pls
2016 457 Pls
2019 492 Pls
2023 479 Pls
2026 457 Pls
2029 461 Pls
2033 475 Pls
2036 452 Pls
2040 457 Pls
2043 452 Pls
2047 461 Pls
2050 461 Pls
2053 466 Pls
2057 461 Pls
2060 475 Pls
2064 479 Pls
2067 479 Pls
2071 470 Pls
2074 457 Pls
2077 466 Pls
2081 483 Pls
2084 492 Pls
2088 479 Pls
2091 461 Pls
2095 452 Pls
2098 457 Pls
2101 488 Pls
2105 466 Pls
2108 475 Pls
2112 466 Pls
2115 457 Pls
2119 452 Pls
2122 457 Pls
2126 457 Pls
2129 466 Pls
2132 475 Pls
2136 452 Pls
2139 475 Pls
2143 479 Pls
2146 470 Pls
2150 452 Pls
2153 452 Pls
2156 466 Pls
2160 457 Pls
2163 452 Pls
2167 452 Pls
2170 505 Pls
2174 452 Pls
2177 452 Pls
2180 452 Pls
2184 461 Pls
2187 457 Pls
2191 466 Pls
2194 457 Pls
2198 470 Pls
2201 452 Pls
2204 457 Pls
2208 452 Pls
2211 457 Pls
2215 466 Pls
2218 452 Pls
2222 461 Pls
2225 470 Pls
2228 457 Pls
2232 466 Pls
2235 461 Pls
2239 457 Pls
2242 461 Pls
2246 457 Pls
2249 452 Pls
2252 457 Pls
2256 452 Pls
2259 457 Pls
2263 452 Pls
2266 470 Pls
2270 457 Pls
2273 457 Pls
2277 457 Pls
2280 457 Pls
2283 457 Pls
2287 519 Pls
2290 545 Pls
2294 497 Pls
2297 457 Pls
2301 470 Pls
2304 475 Pls
2307 470 Pls
2311 457 Pls
2314 466 Pls
2318 510 Pls
2321 488 Pls
2325 461 Pls
2328 470 Pls
2331 475 Pls
2335 501 Pls
2338 452 Pls
2342 488 Pls
2345 479 Pls
2349 483 Pls
2352 497 Pls
2355 466 Pls
2359 497 Pls
2362 470 Pls
2366 523 Pls
2369 488 Pls
2373 470 Pls
2376 461 Pls
2379 479 Pls
2383 492 Pls
2386 519 Pls
2390 475 Pls
2393 452 Pls
2397 457 Pls
2400 479 Pls
2403 475 Pls
2407 470 Pls
2410 461 Pls
2414 470 Pls
2417 510 Pls
2421 550 Pls
2424 519 Pls
2427 505 Pls
2431 461 Pls
2434 461 Pls
2438 505 Pls
2441 466 Pls
2445 479 Pls
2448 457 Pls
2452 488 Pls
2455 488 Pls
2458 461 Pls
2462 470 Pls
2465 470 Pls
2469 488 Pls
2472 536 Pls
2476 461 Pls
2479 452 Pls
2482 461 Pls
2486 457 Pls
2489 479 Pls
2493 461 Pls
2496 461 Pls
2500 457 Pls
2503 452 Pls
2506 457 Pls
2510 452 Pls
2513 461 Pls
2517 461 Pls
2520 452 Pls
2524 466 Pls
2527 483 Pls
2530 475 Pls
2534 461 Pls
2537 466 Pls
2541 475 Pls
2544 457 Pls
2548 457 Pls
2551 501 Pls
2554 452 Pls
2558 457 Pls
2561 466 Pls
2565 470 Pls
2568 457 Pls
2572 457 Pls
2575 470 Pls
2578 452 Pls
2582 457 Pls
2585 452 Pls
2589 457 Pls
2592 466 Pls
2596 452 Pls
2599 452 Pls
2603 488 Pls
2606 461 Pls
2609 452 Pls
2613 461 Pls
2616 475 Pls
2620 466 Pls
2623 497 Pls
2627 461 Pls
2630 452 Pls
2633 457 Pls
2637 457 Pls
2640 479 Pls
2644 457 Pls
2647 457 Pls
2651 457 Pls
2654 470 Pls
2657 452 Pls
2661 457 Pls
2664 492 Pls
2668 488 Pls
2671 461 Pls
2675 461 Pls
2678 457 Pls
2681 461 Pls
2685 461 Pls
2688 470 Pls
2692 457 Pls
2695 457 Pls
2699 457 Pls
2702 452 Pls
2705 452 Pls
2709 497 Pls
2712 475 Pls
2716 470 Pls
2719 457 Pls
2723 466 Pls
2726 457 Pls
2729 452 Pls
2733 461 Pls
2736 452 Pls
2740 452 Pls
2743 483 Pls
2747 466 Pls
2750 457 Pls
2754 452 Pls
2757 475 Pls
2760 452 Pls
2764 461 Pls
2767 466 Pls
2771 457 Pls
2774 483 Pls
2778 514 Pls
2781 497 Pls
2784 501 Pls
2788 488 Pls
2791 483 Pls
2795 554 Pls
2798 470 Pls
2802 488 Pls
2805 505 Pls
2808 545 Pls
2812 483 Pls
2815 475 Pls
2819 470 Pls
2822 470 Pls
2826 501 Pls
2829 488 Pls
2832 488 Pls
2836 497 Pls
2839 483 Pls
2843 457 Pls
2846 475 Pls
2850 501 Pls
2853 559 Pls
2856 501 Pls
2860 470 Pls
2863 488 Pls
2867 470 Pls
2870 461 Pls
2874 452 Pls
2877 475 Pls
2880 461 Pls
2884 457 Pls
2887 452 Pls
2891 470 Pls
2894 475 Pls
2898 466 Pls
2901 483 Pls
2904 488 Pls
2908 466 Pls
2911 528 Pls
2915 488 Pls
2918 497 Pls
2922 497 Pls
2925 457 Pls
2929 466 Pls
2932 479 Pls
2935 457 Pls
2939 470 Pls
2942 457 Pls
2946 461 Pls
2949 483 Pls
2953 466 Pls
2956 466 Pls
2959 461 Pls
2963 466 Pls
2966 519 Pls
2970 475 Pls
2973 523 Pls
2977 466 Pls
2980 452 Pls
2983 452 Pls
2987 457 Pls
2990 461 Pls
2994 457 Pls
2997 492 Pls
3001 466 Pls
3004 466 Pls
3007 470 Pls
3011 461 Pls
3014 470 Pls
3018 475 Pls
3021 452 Pls
3025 452 Pls
3028 461 Pls
3031 470 Pls
3035 452 Pls
3038 479 Pls
3042 452 Pls
3045 457 Pls
3049 452 Pls
3052 452 Pls
3055 457 Pls
3059 452 Pls
3062 452 Pls
3066 457 Pls
3069 483 Pls
3073 457 Pls
3076 488 Pls
3080 470 Pls
3083 461 Pls
3086 492 Pls
3090 452 Pls
3093 457 Pls
3097 492 Pls
3100 505 Pls
3104 466 Pls
3107 461 Pls
3110 452 Pls
3114 483 Pls
3117 488 Pls
3121 457 Pls
3124 497 Pls
3128 452 Pls
3131 452 Pls
3134 461 Pls
3138 452 Pls
3141 452 Pls
3145 452 Pls
3148 452 Pls
3152 452 Pls
3155 457 Pls
3158 461 Pls
3162 452 Pls
3165 452 Pls
3169 452 Pls
3172 466 Pls
3176 466 Pls
3179 461 Pls
3182 452 Pls
3186 457 Pls
3189 452 Pls
3193 457 Pls
3196 452 Pls
3200 457 Pls
3203 457 Pls
3206 452 Pls
3210 452 Pls
3213 457 Pls
3217 452 Pls
3220 461 Pls
3224 452 Pls
3227 457 Pls
3231 457 Pls
3234 452 Pls
3237 461 Pls
3241 457 Pls
3244 452 Pls
3248 461 Pls
3251 452 Pls
3255 461 Pls
3258 452 Pls
3261 452 Pls
3265 452 Pls
3268 457 Pls
3272 457 Pls
3275 457 Pls
3279 457 Pls
3282 466 Pls
3285 475 Pls
3289 461 Pls
3292 452 Pls
3296 452 Pls
3299 452 Pls
3303 452 Pls
3306 452 Pls
3309 470 Pls
3313 475 Pls
3316 466 Pls
3320 461 Pls
3323 475 Pls
3327 483 Pls
3330 510 Pls
3333 461 Pls
3337 461 Pls
3340 475 Pls
3344 505 Pls
3347 492 Pls
3351 457 Pls
3354 479 Pls
3357 514 Pls
3361 479 Pls
3364 466 Pls
3368 479 Pls
3371 483 Pls
3375 475 Pls
3378 475 Pls
3381 479 Pls
3385 497 Pls
3388 457 Pls
3392 452 Pls
3395 536 Pls
3399 475 Pls
3402 452 Pls
3406 461 Pls
3409 466 Pls
3412 488 Pls
3416 475 Pls
3419 475 Pls
3423 479 Pls
3426 475 Pls
3430 479 Pls
3433 457 Pls
3436 457 Pls
3440 475 Pls
3443 510 Pls
3447 519 Pls
3450 475 Pls
3454 479 Pls
3457 457 Pls
3460 497 Pls
3464 492 Pls
3467 457 Pls
3471 461 Pls
3474 466 Pls
3478 466 Pls
3481 479 Pls
3484 461 Pls
3488 483 Pls
3491 452 Pls
3495 492 Pls
3498 452 Pls
3502 457 Pls
3505 550 Pls
3508 519 Pls
3512 510 Pls
3515 550 Pls
3519 466 Pls
3522 550 Pls
3526 470 Pls
3529 475 Pls
3532 497 Pls
3536 457 Pls
3539 457 Pls
3543 466 Pls
3546 479 Pls
3550 501 Pls
3553 461 Pls
3557 457 Pls
3560 457 Pls
3563 466 Pls
3567 452 Pls
3570 457 Pls
3574 452 Pls
3577 470 Pls
3581 452 Pls
3584 457 Pls
3587 466 Pls
3591 452 Pls
3594 452 Pls
3598 457 Pls
3601 461 Pls
3605 461 Pls
3608 457 Pls
3611 457 Pls
3615 457 Pls
3618 466 Pls
3622 466 Pls
3625 452 Pls
3629 475 Pls
3632 461 Pls
3635 457 Pls
3639 457 Pls
3642 479 Pls
3646 466 Pls
3649 461 Pls
3653 470 Pls
3656 470 Pls
3659 475 Pls
3663 483 Pls
3666 466 Pls
3670 452 Pls
3673 457 Pls
3677 457 Pls
3680 466 Pls
3683 457 Pls
3687 457 Pls
3690 466 Pls
3694 452 Pls
3697 452 Pls
3701 466 Pls
3704 452 Pls
3708 461 Pls
3711 492 Pls
3714 505 Pls
3718 505 Pls
3721 488 Pls
3725 505 Pls
3728 475 Pls
3732 514 Pls
3735 461 Pls
3738 466 Pls
3742 479 Pls
3745 470 Pls
3749 452 Pls
3752 514 Pls
3756 505 Pls
3759 479 Pls
3762 519 Pls
3766 461 Pls
3769 475 Pls
3773 466 Pls
3776 492 Pls
3780 488 Pls
3783 457 Pls
3786 545 Pls
3790 452 Pls
3793 488 Pls
3797 461 Pls
3800 541 Pls
3804 563 Pls
3807 545 Pls
3810 457 Pls
3814 466 Pls
3817 475 Pls
3821 452 Pls
3824 514 Pls
3828 475 Pls
3831 519 Pls
3834 461 Pls
3838 461 Pls
3841 457 Pls
3845 466 Pls
3848 497 Pls
3852 470 Pls
3855 457 Pls
3858 492 Pls
3862 452 Pls
3865 461 Pls
3869 457 Pls
3872 479 Pls
3876 457 Pls
3879 470 Pls
3883 457 Pls
3886 470 Pls
3889 452 Pls
3893 457 Pls
3896 563 Pls
3900 488 Pls
3903 497 Pls
3907 466 Pls
3910 483 Pls
3913 452 Pls
3917 475 Pls
3920 457 Pls
3924 452 Pls
3927 479 Pls
3931 479 Pls
3934 452 Pls
3937 452 Pls
3941 452 Pls
3944 452 Pls
3948 466 Pls
3951 452 Pls
3955 452 Pls
3958 452 Pls
3961 452 Pls
3965 457 Pls
3968 457 Pls
3972 457 Pls
3975 483 Pls
3979 461 Pls
3982 452 Pls
3985 452 Pls
3989 492 Pls
3992 461 Pls
3996 466 Pls
3999 452 Pls
4003 457 Pls
4006 452 Pls
4009 466 Pls
4013 470 Pls
4016 475 Pls
4020 461 Pls
4023 452 Pls
4027 466 Pls
4030 452 Pls
4034 475 Pls
4037 457 Pls
4040 457 Pls
4044 452 Pls
4047 452 Pls
4051 461 Pls
4054 461 Pls
4058 452 Pls
4061 452 Pls
4064 452 Pls
4068 452 Pls
4071 461 Pls
4075 452 Pls
4078 470 Pls
4082 452 Pls
4085 457 Pls
4088 452 Pls
4092 452 Pls
4095 452 Pls
4099 452 Pls
4102 452 Pls
4106 457 Pls
4109 461 Pls
4112 461 Pls
4116 470 Pls
4119 457 Pls
4123 452 Pls
4126 457 Pls
4130 452 Pls
4133 457 Pls
4136 461 Pls
4140 452 Pls
4143 461 Pls
4147 461 Pls
4150 452 Pls
4154 452 Pls
4157 470 Pls
4160 488 Pls
4164 488 Pls
4167 470 Pls
4171 483 Pls
4174 470 Pls
4178 470 Pls
4181 483 Pls
4185 457 Pls
4188 505 Pls
4191 457 Pls
4195 497 Pls
4198 497 Pls
4202 510 Pls
4205 466 Pls
4209 470 Pls
4212 470 Pls
4215 475 Pls
4219 466 Pls
4222 461 Pls
4226 470 Pls
4229 470 Pls
4233 461 Pls
4236 488 Pls
4239 466 Pls
4243 470 Pls
4246 457 Pls
4250 483 Pls
4253 479 Pls
4257 497 Pls
4260 461 Pls
4263 466 Pls
4267 488 Pls
4270 505 Pls
4274 505 Pls
4277 461 Pls
4281 501 Pls
4284 488 Pls
4287 479 Pls
4291 457 Pls
4294 475 Pls
4298 452 Pls
4301 488 Pls
4305 541 Pls
4308 501 Pls
4311 475 Pls
4315 483 Pls
4318 461 Pls
4322 488 Pls
4325 461 Pls
4329 452 Pls
4332 483 Pls
4336 479 Pls
4339 492 Pls
4342 457 Pls
4346 461 Pls
4349 510 Pls
4353 466 Pls
4356 483 Pls
4360 483 Pls
4363 475 Pls
4366 461 Pls
4370 461 Pls
4373 457 Pls
4377 536 Pls
4380 475 Pls
4384 475 Pls
4387 461 Pls
4390 452 Pls
4394 457 Pls
4397 457 Pls
4401 505 Pls
4404 638 Pls
4408 567 Pls
4411 488 Pls
4414 492 Pls
4418 554 Pls
4421 483 Pls
4425 519 Pls
4428 483 Pls
4432 576 Pls
4435 523 Pls
4438 466 Pls
4442 505 Pls
4445 452 Pls
4449 559 Pls
4452 475 Pls
4456 501 Pls
4459 461 Pls
4462 457 Pls
4466 461 Pls
4469 492 Pls
4473 501 Pls
4476 488 Pls
4480 466 Pls
4483 470 Pls
4486 461 Pls
4490 479 Pls
4493 457 Pls
4497 466 Pls
4500 479 Pls
4504 461 Pls
4507 452 Pls
4511 452 Pls
4514 452 Pls
4517 452 Pls
4521 457 Pls
4524 452 Pls
4528 452 Pls
4531 461 Pls
4535 457 Pls
4538 470 Pls
4541 457 Pls
4545 466 Pls
4548 479 Pls
4552 452 Pls
4555 457 Pls
4559 452 Pls
4562 452 Pls
4565 457 Pls
4569 457 Pls
4572 452 Pls
4576 457 Pls
4579 452 Pls
4583 466 Pls
4586 466 Pls
4589 475 Pls
4593 452 Pls
4596 466 Pls
4600 457 Pls
4603 452 Pls
4607 461 Pls
4610 488 Pls
4613 483 Pls
4617 457 Pls
4620 452 Pls
4624 457 Pls
4627 452 Pls
4631 461 Pls
4634 461 Pls
4637 452 Pls
4641 452 Pls
4644 479 Pls
4648 523 Pls
4651 470 Pls
4655 475 Pls
4658 479 Pls
4662 492 Pls
4665 457 Pls
4668 488 Pls
4672 461 Pls
4675 590 Pls
4679 466 Pls
4682 457 Pls
4686 598 Pls
4689 492 Pls
4692 532 Pls
4696 475 Pls
4699 598 Pls
4703 492 Pls
4706 567 Pls
4710 501 Pls
4713 466 Pls
4716 470 Pls
4720 457 Pls
4723 457 Pls
4727 452 Pls
4730 505 Pls
4734 470 Pls
4737 452 Pls
4740 452 Pls
4744 452 Pls
4747 452 Pls
4751 452 Pls
4754 598 Pls
4758 514 Pls
4761 545 Pls
4764 612 Pls
4768 479 Pls
4771 492 Pls
4775 475 Pls
4778 501 Pls
4782 457 Pls
4785 470 Pls
4788 501 Pls
4792 483 Pls
4795 457 Pls
4799 475 Pls
4802 497 Pls
4806 488 Pls
4809 452 Pls
4813 452 Pls
4816 475 Pls
4819 452 Pls
4823 457 Pls
4826 452 Pls
4830 461 Pls
4833 452 Pls
4837 452 Pls
4840 457 Pls
4843 452 Pls
4847 466 Pls
4850 457 Pls
4854 452 Pls
4857 466 Pls
4861 466 Pls
4864 457 Pls
4867 497 Pls
4871 452 Pls
4874 457 Pls
4878 483 Pls
4881 452 Pls
4885 461 Pls
4888 457 Pls
4891 452 Pls
4895 457 Pls
4898 452 Pls
4902 452 Pls
4905 457 Pls
4909 452 Pls
4912 452 Pls
4915 461 Pls
4919 457 Pls
4922 452 Pls
4926 452 Pls
4929 466 Pls
4933 452 Pls
4936 452 Pls
4939 452 Pls
4943 457 Pls
4946 461 Pls
4950 452 Pls
4953 457 Pls
4957 452 Pls
4960 457 Pls
4963 457 Pls
4967 457 Pls
4970 452 Pls
4974 461 Pls
4977 452 Pls
4981 452 Pls
4984 452 Pls
4988 452 Pls
4991 452 Pls
4994 452 Pls
4998 461 Pls
5001 461 Pls
5005 452 Pls
5008 452 Pls
5012 457 Pls
5015 452 Pls
5018 461 Pls
5022 457 Pls
5025 452 Pls
5029 452 Pls
5032 452 Pls
5036 452 Pls
5039 457 Pls
5042 466 Pls
5046 475 Pls
5049 470 Pls
5053 479 Pls
5056 510 Pls
5060 475 Pls
5063 475 Pls
5066 475 Pls
5070 497 Pls
5073 483 Pls
5077 479 Pls
5080 466 Pls
5084 483 Pls
5087 461 Pls
5090 475 Pls
5094 466 Pls
5097 461 Pls
5101 457 Pls
5104 466 Pls
5108 483 Pls
5111 483 Pls
5114 479 Pls
5118 475 Pls
5121 497 Pls
5125 461 Pls
5128 479 Pls
5132 475 Pls
5135 457 Pls
5139 510 Pls
5142 457 Pls
5145 470 Pls
5149 475 Pls
5152 475 Pls
5156 461 Pls
5159 479 Pls
5163 541 Pls
5166 510 Pls
5169 532 Pls
5173 514 Pls
5176 492 Pls
5180 483 Pls
5183 510 Pls
5187 505 Pls
5190 483 Pls
5193 470 Pls
5197 470 Pls
5200 452 Pls
5204 452 Pls
5207 452 Pls
5211 519 Pls
5214 475 Pls
5217 457 Pls
5221 452 Pls
5224 466 Pls
5228 452 Pls
5231 479 Pls
5235 457 Pls
5238 483 Pls
5241 466 Pls
5245 488 Pls
5248 452 Pls
5252 483 Pls
5255 466 Pls
5259 466 Pls
5262 461 Pls
5265 452 Pls
5269 687 Pls
5272 581 Pls
5276 665 Pls
5279 594 Pls
5283 634 Pls
5286 616 Pls
5290 488 Pls
5293 625 Pls
5296 532 Pls
5300 559 Pls
5303 510 Pls
5307 475 Pls
5310 501 Pls
5314 492 Pls
5317 536 Pls
5320 479 Pls
5324 470 Pls
5327 501 Pls
5331 488 Pls
5334 452 Pls
5338 497 Pls
5341 475 Pls
5344 452 Pls
5348 457 Pls
5351 483 Pls
5355 452 Pls
5358 492 Pls
5362 475 Pls
5365 452 Pls
5368 452 Pls
5372 559 Pls
5375 505 Pls
5379 479 Pls
5382 523 Pls
5386 483 Pls
5389 492 Pls
5392 457 Pls
5396 483 Pls
5399 461 Pls
5403 475 Pls
5406 457 Pls
5410 550 Pls
5413 479 Pls
5416 457 Pls
5420 452 Pls
5423 452 Pls
5427 452 Pls
5430 457 Pls
5434 457 Pls
5437 475 Pls
5440 457 Pls
5444 470 Pls
5447 470 Pls
5451 452 Pls
5454 452 Pls
5458 452 Pls
5461 457 Pls
5465 452 Pls
5468 452 Pls
5471 470 Pls
5475 505 Pls
5478 514 Pls
5482 452 Pls
5485 466 Pls
5489 452 Pls
5492 470 Pls
5495 505 Pls
5499 492 Pls
5502 483 Pls
5506 514 Pls
5509 510 Pls
5513 483 Pls
5516 457 Pls
5519 466 Pls
5523 452 Pls
5526 492 Pls
5530 497 Pls
5533 452 Pls
5537 452 Pls
5540 567 Pls
5543 466 Pls
5547 519 Pls
5550 479 Pls
5554 470 Pls
5557 678 Pls
5561 519 Pls
5564 510 Pls
5567 466 Pls
5571 452 Pls
5574 678 Pls
5578 452 Pls
5581 457 Pls
5585 452 Pls
5588 452 Pls
5591 466 Pls
5595 457 Pls
5598 452 Pls
5602 452 Pls
5605 457 Pls
5609 452 Pls
5612 461 Pls
5616 479 Pls
5619 452 Pls
5622 452 Pls
5626 492 Pls
5629 457 Pls
5633 452 Pls
5636 452 Pls
5640 479 Pls
5643 452 Pls
5646 452 Pls
5650 452 Pls
5653 457 Pls
5657 452 Pls
5660 452 Pls
5664 452 Pls
5667 452 Pls
5670 452 Pls
5674 452 Pls
5677 452 Pls
5681 457 Pls
5684 452 Pls
5688 452 Pls
5691 452 Pls
5694 452 Pls
5698 452 Pls
5701 457 Pls
5705 457 Pls
5708 461 Pls
5712 457 Pls
5715 457 Pls
5718 457 Pls
5722 452 Pls
5725 457 Pls
5729 475 Pls
5732 492 Pls
5736 483 Pls
5739 461 Pls
5742 461 Pls
5746 479 Pls
5749 492 Pls
5753 483 Pls
5756 492 Pls
5760 452 Pls
5763 492 Pls
5767 488 Pls
5770 475 Pls
5773 457 Pls
5777 452 Pls
5780 457 Pls
5784 461 Pls
5787 466 Pls
5791 488 Pls
5794 497 Pls
5797 466 Pls
5801 492 Pls
5804 483 Pls
5808 457 Pls
5811 457 Pls
5815 461 Pls
5818 452 Pls
5821 483 Pls
5825 470 Pls
5828 457 Pls
5832 457 Pls
5835 475 Pls
5839 457 Pls
5842 483 Pls
5845 466 Pls
5849 461 Pls
5852 501 Pls
5856 457 Pls
5859 452 Pls
5863 452 Pls
5866 466 Pls
5869 479 Pls
5873 461 Pls
5876 483 Pls
5880 461 Pls
5883 567 Pls
5887 559 Pls
5890 594 Pls
5893 585 Pls
5897 492 Pls
5900 541 Pls
5904 607 Pls
5907 479 Pls
5911 514 Pls
5914 563 Pls
5917 492 Pls
5921 466 Pls
5924 590 Pls
5928 492 Pls
5931 510 Pls
5935 466 Pls
5938 603 Pls
5942 497 Pls
5945 581 Pls
5948 519 Pls
5952 501 Pls
5955 452 Pls
5959 488 Pls
5962 735 Pls
5966 528 Pls
5969 488 Pls
5972 452 Pls
5976 585 Pls
5979 581 Pls
5983 505 Pls
5986 466 Pls
5990 466 Pls
5993 567 Pls
5996 452 Pls
6000 452 Pls
6003 452 Pls
6007 452 Pls
6010 452 Pls
6014 452 Pls
6017 452 Pls
6020 461 Pls
6024 466 Pls
6027 452 Pls
6031 452 Pls
6034 452 Pls
6038 470 Pls
6041 452 Pls
6044 452 Pls
6048 457 Pls
6051 452 Pls
6055 483 Pls
6058 452 Pls
6062 466 Pls
6065 452 Pls
6068 505 Pls
6072 514 Pls
6075 452 Pls
6079 651 Pls
6082 528 Pls
6086 492 Pls
6089 461 Pls
6093 452 Pls
6096 475 Pls
6099 452 Pls
6103 483 Pls
6106 466 Pls
6110 488 Pls
6113 452 Pls
6117 452 Pls
6120 461 Pls
6123 452 Pls
6127 457 Pls
6130 457 Pls
6134 452 Pls
6137 452 Pls
6141 452 Pls
6144 452 Pls
6147 452 Pls
6151 452 Pls
6154 452 Pls
6158 452 Pls
6161 452 Pls
6165 452 Pls
6168 452 Pls
6171 457 Pls
6175 452 Pls
6178 452 Pls
6182 452 Pls
6185 452 Pls
6189 452 Pls
6192 457 Pls
6195 457 Pls
6199 452 Pls
6202 457 Pls
6206 452 Pls
6209 452 Pls
6213 457 Pls
6216 452 Pls
6219 452 Pls
6223 452 Pls
6226 452 Pls
6230 452 Pls
6233 461 Pls
6237 466 Pls
6240 466 Pls
6244 470 Pls
6247 457 Pls
6250 497 Pls
6254 461 Pls
6257 457 Pls
6261 475 Pls
6264 457 Pls
6268 475 Pls
6271 457 Pls
6274 466 Pls
6278 483 Pls
6281 461 Pls
6285 483 Pls
6288 492 Pls
6292 461 Pls
6295 457 Pls
6298 452 Pls
6302 541 Pls
6305 501 Pls
6309 479 Pls
6312 492 Pls
6316 457 Pls
6319 452 Pls
6322 452 Pls
6326 470 Pls
6329 461 Pls
6333 607 Pls
6336 452 Pls
6340 625 Pls
6343 612 Pls
6346 523 Pls
6350 452 Pls
6353 457 Pls
6357 643 Pls
6360 514 Pls
6364 603 Pls
6367 501 Pls
6370 466 Pls
6374 457 Pls
6377 452 Pls
6381 470 Pls
6384 457 Pls
6388 461 Pls
6391 457 Pls
6395 452 Pls
6398 452 Pls
6401 452 Pls
6405 457 Pls
6408 461 Pls
6412 470 Pls
6415 457 Pls
6419 452 Pls
6422 452 Pls
6425 452 Pls
6429 452 Pls
6432 461 Pls
6436 452 Pls
6439 452 Pls
6443 452 Pls
6446 452 Pls
6449 452 Pls
6453 461 Pls
6456 452 Pls
6460 452 Pls
6463 461 Pls
6467 452 Pls
6470 461 Pls
6473 452 Pls
6477 452 Pls
6480 457 Pls
6484 452 Pls
6487 461 Pls
6491 466 Pls
6494 479 Pls
6497 452 Pls
6501 479 Pls
6504 483 Pls
6508 457 Pls
6511 461 Pls
6515 452 Pls
6518 452 Pls
6521 488 Pls
6525 452 Pls
6528 470 Pls
6532 470 Pls
6535 461 Pls
6539 452 Pls
6542 457 Pls
6545 452 Pls
6549 452 Pls
6552 452 Pls
6556 457 Pls
6559 452 Pls
6563 452 Pls
6566 452 Pls
6570 452 Pls
6573 452 Pls
6576 452 Pls
6580 457 Pls
6583 457 Pls
6587 457 Pls
6590 452 Pls
6594 452 Pls
6597 457 Pls
6600 452 Pls
6604 452 Pls
6607 452 Pls
6611 452 Pls
6614 452 Pls
6618 457 Pls
6621 452 Pls
6624 452 Pls
6628 461 Pls
6631 452 Pls
6635 452 Pls
6638 452 Pls
6642 452 Pls
6645 452 Pls
6648 452 Pls
6652 452 Pls
6655 452 Pls
6659 483 Pls
6662 461 Pls
6666 452 Pls
6669 452 Pls
6672 452 Pls
6676 452 Pls
6679 457 Pls
6683 452 Pls
6686 452 Pls
6690 452 Pls
6693 452 Pls
6696 452 Pls
6700 457 Pls
6703 452 Pls
6707 452 Pls
6710 452 Pls
6714 452 Pls
6717 452 Pls
6721 452 Pls
6724 452 Pls
6727 452 Pls
6731 452 Pls
6734 452 Pls
6738 452 Pls
6741 452 Pls
6745 452 Pls
6579 4738 Pls
% End plot #1
1.000 UL
LTb
770 4871 N
770 448 L
6177 0 V
0 4423 V
-6177 0 V
Z stroke
1.000 UP
1.000 UL
LTb
stroke
grestore
end
showpage
%%Trailer
%%DocumentFonts: Helvetica
