%!PS-Adobe-2.0 EPSF-2.0
%%Title: ../plots/domainstats/states-sorted-by-ply-visit-count-over-avg-num-plies-minigammon-p-0.50.eps
%%Creator: gnuplot 4.4 patchlevel 3
%%CreationDate: Wed Dec 14 04:42:16 2011
%%DocumentFonts: (atend)
%%BoundingBox: 50 50 410 302
%%EndComments
%%BeginProlog
/gnudict 256 dict def
gnudict begin
%
% The following true/false flags may be edited by hand if desired.
% The unit line width and grayscale image gamma correction may also be changed.
%
/Color true def
/Blacktext false def
/Solid false def
/Dashlength 1 def
/Landscape false def
/Level1 false def
/Rounded false def
/ClipToBoundingBox false def
/TransparentPatterns false def
/gnulinewidth 5.000 def
/userlinewidth gnulinewidth def
/Gamma 1.0 def
%
/vshift -46 def
/dl1 {
  10.0 Dashlength mul mul
  Rounded { currentlinewidth 0.75 mul sub dup 0 le { pop 0.01 } if } if
} def
/dl2 {
  10.0 Dashlength mul mul
  Rounded { currentlinewidth 0.75 mul add } if
} def
/hpt_ 31.5 def
/vpt_ 31.5 def
/hpt hpt_ def
/vpt vpt_ def
Level1 {} {
/SDict 10 dict def
systemdict /pdfmark known not {
  userdict /pdfmark systemdict /cleartomark get put
} if
SDict begin [
  /Title (../plots/domainstats/states-sorted-by-ply-visit-count-over-avg-num-plies-minigammon-p-0.50.eps)
  /Subject (gnuplot plot)
  /Creator (gnuplot 4.4 patchlevel 3)
  /Author (reza)
%  /Producer (gnuplot)
%  /Keywords ()
  /CreationDate (Wed Dec 14 04:42:16 2011)
  /DOCINFO pdfmark
end
} ifelse
/doclip {
  ClipToBoundingBox {
    newpath 50 50 moveto 410 50 lineto 410 302 lineto 50 302 lineto closepath
    clip
  } if
} def
%
% Gnuplot Prolog Version 4.4 (August 2010)
%
%/SuppressPDFMark true def
%
/M {moveto} bind def
/L {lineto} bind def
/R {rmoveto} bind def
/V {rlineto} bind def
/N {newpath moveto} bind def
/Z {closepath} bind def
/C {setrgbcolor} bind def
/f {rlineto fill} bind def
/g {setgray} bind def
/Gshow {show} def   % May be redefined later in the file to support UTF-8
/vpt2 vpt 2 mul def
/hpt2 hpt 2 mul def
/Lshow {currentpoint stroke M 0 vshift R 
	Blacktext {gsave 0 setgray show grestore} {show} ifelse} def
/Rshow {currentpoint stroke M dup stringwidth pop neg vshift R
	Blacktext {gsave 0 setgray show grestore} {show} ifelse} def
/Cshow {currentpoint stroke M dup stringwidth pop -2 div vshift R 
	Blacktext {gsave 0 setgray show grestore} {show} ifelse} def
/UP {dup vpt_ mul /vpt exch def hpt_ mul /hpt exch def
  /hpt2 hpt 2 mul def /vpt2 vpt 2 mul def} def
/DL {Color {setrgbcolor Solid {pop []} if 0 setdash}
 {pop pop pop 0 setgray Solid {pop []} if 0 setdash} ifelse} def
/BL {stroke userlinewidth 2 mul setlinewidth
	Rounded {1 setlinejoin 1 setlinecap} if} def
/AL {stroke userlinewidth 2 div setlinewidth
	Rounded {1 setlinejoin 1 setlinecap} if} def
/UL {dup gnulinewidth mul /userlinewidth exch def
	dup 1 lt {pop 1} if 10 mul /udl exch def} def
/PL {stroke userlinewidth setlinewidth
	Rounded {1 setlinejoin 1 setlinecap} if} def
3.8 setmiterlimit
% Default Line colors
/LCw {1 1 1} def
/LCb {0 0 0} def
/LCa {0 0 0} def
/LC0 {1 0 0} def
/LC1 {0 1 0} def
/LC2 {0 0 1} def
/LC3 {1 0 1} def
/LC4 {0 1 1} def
/LC5 {1 1 0} def
/LC6 {0 0 0} def
/LC7 {1 0.3 0} def
/LC8 {0.5 0.5 0.5} def
% Default Line Types
/LTw {PL [] 1 setgray} def
/LTb {BL [] LCb DL} def
/LTa {AL [1 udl mul 2 udl mul] 0 setdash LCa setrgbcolor} def
/LT0 {PL [] LC0 DL} def
/LT1 {PL [4 dl1 2 dl2] LC1 DL} def
/LT2 {PL [2 dl1 3 dl2] LC2 DL} def
/LT3 {PL [1 dl1 1.5 dl2] LC3 DL} def
/LT4 {PL [6 dl1 2 dl2 1 dl1 2 dl2] LC4 DL} def
/LT5 {PL [3 dl1 3 dl2 1 dl1 3 dl2] LC5 DL} def
/LT6 {PL [2 dl1 2 dl2 2 dl1 6 dl2] LC6 DL} def
/LT7 {PL [1 dl1 2 dl2 6 dl1 2 dl2 1 dl1 2 dl2] LC7 DL} def
/LT8 {PL [2 dl1 2 dl2 2 dl1 2 dl2 2 dl1 2 dl2 2 dl1 4 dl2] LC8 DL} def
/Pnt {stroke [] 0 setdash gsave 1 setlinecap M 0 0 V stroke grestore} def
/Dia {stroke [] 0 setdash 2 copy vpt add M
  hpt neg vpt neg V hpt vpt neg V
  hpt vpt V hpt neg vpt V closepath stroke
  Pnt} def
/Pls {stroke [] 0 setdash vpt sub M 0 vpt2 V
  currentpoint stroke M
  hpt neg vpt neg R hpt2 0 V stroke
 } def
/Box {stroke [] 0 setdash 2 copy exch hpt sub exch vpt add M
  0 vpt2 neg V hpt2 0 V 0 vpt2 V
  hpt2 neg 0 V closepath stroke
  Pnt} def
/Crs {stroke [] 0 setdash exch hpt sub exch vpt add M
  hpt2 vpt2 neg V currentpoint stroke M
  hpt2 neg 0 R hpt2 vpt2 V stroke} def
/TriU {stroke [] 0 setdash 2 copy vpt 1.12 mul add M
  hpt neg vpt -1.62 mul V
  hpt 2 mul 0 V
  hpt neg vpt 1.62 mul V closepath stroke
  Pnt} def
/Star {2 copy Pls Crs} def
/BoxF {stroke [] 0 setdash exch hpt sub exch vpt add M
  0 vpt2 neg V hpt2 0 V 0 vpt2 V
  hpt2 neg 0 V closepath fill} def
/TriUF {stroke [] 0 setdash vpt 1.12 mul add M
  hpt neg vpt -1.62 mul V
  hpt 2 mul 0 V
  hpt neg vpt 1.62 mul V closepath fill} def
/TriD {stroke [] 0 setdash 2 copy vpt 1.12 mul sub M
  hpt neg vpt 1.62 mul V
  hpt 2 mul 0 V
  hpt neg vpt -1.62 mul V closepath stroke
  Pnt} def
/TriDF {stroke [] 0 setdash vpt 1.12 mul sub M
  hpt neg vpt 1.62 mul V
  hpt 2 mul 0 V
  hpt neg vpt -1.62 mul V closepath fill} def
/DiaF {stroke [] 0 setdash vpt add M
  hpt neg vpt neg V hpt vpt neg V
  hpt vpt V hpt neg vpt V closepath fill} def
/Pent {stroke [] 0 setdash 2 copy gsave
  translate 0 hpt M 4 {72 rotate 0 hpt L} repeat
  closepath stroke grestore Pnt} def
/PentF {stroke [] 0 setdash gsave
  translate 0 hpt M 4 {72 rotate 0 hpt L} repeat
  closepath fill grestore} def
/Circle {stroke [] 0 setdash 2 copy
  hpt 0 360 arc stroke Pnt} def
/CircleF {stroke [] 0 setdash hpt 0 360 arc fill} def
/C0 {BL [] 0 setdash 2 copy moveto vpt 90 450 arc} bind def
/C1 {BL [] 0 setdash 2 copy moveto
	2 copy vpt 0 90 arc closepath fill
	vpt 0 360 arc closepath} bind def
/C2 {BL [] 0 setdash 2 copy moveto
	2 copy vpt 90 180 arc closepath fill
	vpt 0 360 arc closepath} bind def
/C3 {BL [] 0 setdash 2 copy moveto
	2 copy vpt 0 180 arc closepath fill
	vpt 0 360 arc closepath} bind def
/C4 {BL [] 0 setdash 2 copy moveto
	2 copy vpt 180 270 arc closepath fill
	vpt 0 360 arc closepath} bind def
/C5 {BL [] 0 setdash 2 copy moveto
	2 copy vpt 0 90 arc
	2 copy moveto
	2 copy vpt 180 270 arc closepath fill
	vpt 0 360 arc} bind def
/C6 {BL [] 0 setdash 2 copy moveto
	2 copy vpt 90 270 arc closepath fill
	vpt 0 360 arc closepath} bind def
/C7 {BL [] 0 setdash 2 copy moveto
	2 copy vpt 0 270 arc closepath fill
	vpt 0 360 arc closepath} bind def
/C8 {BL [] 0 setdash 2 copy moveto
	2 copy vpt 270 360 arc closepath fill
	vpt 0 360 arc closepath} bind def
/C9 {BL [] 0 setdash 2 copy moveto
	2 copy vpt 270 450 arc closepath fill
	vpt 0 360 arc closepath} bind def
/C10 {BL [] 0 setdash 2 copy 2 copy moveto vpt 270 360 arc closepath fill
	2 copy moveto
	2 copy vpt 90 180 arc closepath fill
	vpt 0 360 arc closepath} bind def
/C11 {BL [] 0 setdash 2 copy moveto
	2 copy vpt 0 180 arc closepath fill
	2 copy moveto
	2 copy vpt 270 360 arc closepath fill
	vpt 0 360 arc closepath} bind def
/C12 {BL [] 0 setdash 2 copy moveto
	2 copy vpt 180 360 arc closepath fill
	vpt 0 360 arc closepath} bind def
/C13 {BL [] 0 setdash 2 copy moveto
	2 copy vpt 0 90 arc closepath fill
	2 copy moveto
	2 copy vpt 180 360 arc closepath fill
	vpt 0 360 arc closepath} bind def
/C14 {BL [] 0 setdash 2 copy moveto
	2 copy vpt 90 360 arc closepath fill
	vpt 0 360 arc} bind def
/C15 {BL [] 0 setdash 2 copy vpt 0 360 arc closepath fill
	vpt 0 360 arc closepath} bind def
/Rec {newpath 4 2 roll moveto 1 index 0 rlineto 0 exch rlineto
	neg 0 rlineto closepath} bind def
/Square {dup Rec} bind def
/Bsquare {vpt sub exch vpt sub exch vpt2 Square} bind def
/S0 {BL [] 0 setdash 2 copy moveto 0 vpt rlineto BL Bsquare} bind def
/S1 {BL [] 0 setdash 2 copy vpt Square fill Bsquare} bind def
/S2 {BL [] 0 setdash 2 copy exch vpt sub exch vpt Square fill Bsquare} bind def
/S3 {BL [] 0 setdash 2 copy exch vpt sub exch vpt2 vpt Rec fill Bsquare} bind def
/S4 {BL [] 0 setdash 2 copy exch vpt sub exch vpt sub vpt Square fill Bsquare} bind def
/S5 {BL [] 0 setdash 2 copy 2 copy vpt Square fill
	exch vpt sub exch vpt sub vpt Square fill Bsquare} bind def
/S6 {BL [] 0 setdash 2 copy exch vpt sub exch vpt sub vpt vpt2 Rec fill Bsquare} bind def
/S7 {BL [] 0 setdash 2 copy exch vpt sub exch vpt sub vpt vpt2 Rec fill
	2 copy vpt Square fill Bsquare} bind def
/S8 {BL [] 0 setdash 2 copy vpt sub vpt Square fill Bsquare} bind def
/S9 {BL [] 0 setdash 2 copy vpt sub vpt vpt2 Rec fill Bsquare} bind def
/S10 {BL [] 0 setdash 2 copy vpt sub vpt Square fill 2 copy exch vpt sub exch vpt Square fill
	Bsquare} bind def
/S11 {BL [] 0 setdash 2 copy vpt sub vpt Square fill 2 copy exch vpt sub exch vpt2 vpt Rec fill
	Bsquare} bind def
/S12 {BL [] 0 setdash 2 copy exch vpt sub exch vpt sub vpt2 vpt Rec fill Bsquare} bind def
/S13 {BL [] 0 setdash 2 copy exch vpt sub exch vpt sub vpt2 vpt Rec fill
	2 copy vpt Square fill Bsquare} bind def
/S14 {BL [] 0 setdash 2 copy exch vpt sub exch vpt sub vpt2 vpt Rec fill
	2 copy exch vpt sub exch vpt Square fill Bsquare} bind def
/S15 {BL [] 0 setdash 2 copy Bsquare fill Bsquare} bind def
/D0 {gsave translate 45 rotate 0 0 S0 stroke grestore} bind def
/D1 {gsave translate 45 rotate 0 0 S1 stroke grestore} bind def
/D2 {gsave translate 45 rotate 0 0 S2 stroke grestore} bind def
/D3 {gsave translate 45 rotate 0 0 S3 stroke grestore} bind def
/D4 {gsave translate 45 rotate 0 0 S4 stroke grestore} bind def
/D5 {gsave translate 45 rotate 0 0 S5 stroke grestore} bind def
/D6 {gsave translate 45 rotate 0 0 S6 stroke grestore} bind def
/D7 {gsave translate 45 rotate 0 0 S7 stroke grestore} bind def
/D8 {gsave translate 45 rotate 0 0 S8 stroke grestore} bind def
/D9 {gsave translate 45 rotate 0 0 S9 stroke grestore} bind def
/D10 {gsave translate 45 rotate 0 0 S10 stroke grestore} bind def
/D11 {gsave translate 45 rotate 0 0 S11 stroke grestore} bind def
/D12 {gsave translate 45 rotate 0 0 S12 stroke grestore} bind def
/D13 {gsave translate 45 rotate 0 0 S13 stroke grestore} bind def
/D14 {gsave translate 45 rotate 0 0 S14 stroke grestore} bind def
/D15 {gsave translate 45 rotate 0 0 S15 stroke grestore} bind def
/DiaE {stroke [] 0 setdash vpt add M
  hpt neg vpt neg V hpt vpt neg V
  hpt vpt V hpt neg vpt V closepath stroke} def
/BoxE {stroke [] 0 setdash exch hpt sub exch vpt add M
  0 vpt2 neg V hpt2 0 V 0 vpt2 V
  hpt2 neg 0 V closepath stroke} def
/TriUE {stroke [] 0 setdash vpt 1.12 mul add M
  hpt neg vpt -1.62 mul V
  hpt 2 mul 0 V
  hpt neg vpt 1.62 mul V closepath stroke} def
/TriDE {stroke [] 0 setdash vpt 1.12 mul sub M
  hpt neg vpt 1.62 mul V
  hpt 2 mul 0 V
  hpt neg vpt -1.62 mul V closepath stroke} def
/PentE {stroke [] 0 setdash gsave
  translate 0 hpt M 4 {72 rotate 0 hpt L} repeat
  closepath stroke grestore} def
/CircE {stroke [] 0 setdash 
  hpt 0 360 arc stroke} def
/Opaque {gsave closepath 1 setgray fill grestore 0 setgray closepath} def
/DiaW {stroke [] 0 setdash vpt add M
  hpt neg vpt neg V hpt vpt neg V
  hpt vpt V hpt neg vpt V Opaque stroke} def
/BoxW {stroke [] 0 setdash exch hpt sub exch vpt add M
  0 vpt2 neg V hpt2 0 V 0 vpt2 V
  hpt2 neg 0 V Opaque stroke} def
/TriUW {stroke [] 0 setdash vpt 1.12 mul add M
  hpt neg vpt -1.62 mul V
  hpt 2 mul 0 V
  hpt neg vpt 1.62 mul V Opaque stroke} def
/TriDW {stroke [] 0 setdash vpt 1.12 mul sub M
  hpt neg vpt 1.62 mul V
  hpt 2 mul 0 V
  hpt neg vpt -1.62 mul V Opaque stroke} def
/PentW {stroke [] 0 setdash gsave
  translate 0 hpt M 4 {72 rotate 0 hpt L} repeat
  Opaque stroke grestore} def
/CircW {stroke [] 0 setdash 
  hpt 0 360 arc Opaque stroke} def
/BoxFill {gsave Rec 1 setgray fill grestore} def
/Density {
  /Fillden exch def
  currentrgbcolor
  /ColB exch def /ColG exch def /ColR exch def
  /ColR ColR Fillden mul Fillden sub 1 add def
  /ColG ColG Fillden mul Fillden sub 1 add def
  /ColB ColB Fillden mul Fillden sub 1 add def
  ColR ColG ColB setrgbcolor} def
/BoxColFill {gsave Rec PolyFill} def
/PolyFill {gsave Density fill grestore grestore} def
/h {rlineto rlineto rlineto gsave closepath fill grestore} bind def
%
% PostScript Level 1 Pattern Fill routine for rectangles
% Usage: x y w h s a XX PatternFill
%	x,y = lower left corner of box to be filled
%	w,h = width and height of box
%	  a = angle in degrees between lines and x-axis
%	 XX = 0/1 for no/yes cross-hatch
%
/PatternFill {gsave /PFa [ 9 2 roll ] def
  PFa 0 get PFa 2 get 2 div add PFa 1 get PFa 3 get 2 div add translate
  PFa 2 get -2 div PFa 3 get -2 div PFa 2 get PFa 3 get Rec
  gsave 1 setgray fill grestore clip
  currentlinewidth 0.5 mul setlinewidth
  /PFs PFa 2 get dup mul PFa 3 get dup mul add sqrt def
  0 0 M PFa 5 get rotate PFs -2 div dup translate
  0 1 PFs PFa 4 get div 1 add floor cvi
	{PFa 4 get mul 0 M 0 PFs V} for
  0 PFa 6 get ne {
	0 1 PFs PFa 4 get div 1 add floor cvi
	{PFa 4 get mul 0 2 1 roll M PFs 0 V} for
 } if
  stroke grestore} def
%
/languagelevel where
 {pop languagelevel} {1} ifelse
 2 lt
	{/InterpretLevel1 true def}
	{/InterpretLevel1 Level1 def}
 ifelse
%
% PostScript level 2 pattern fill definitions
%
/Level2PatternFill {
/Tile8x8 {/PaintType 2 /PatternType 1 /TilingType 1 /BBox [0 0 8 8] /XStep 8 /YStep 8}
	bind def
/KeepColor {currentrgbcolor [/Pattern /DeviceRGB] setcolorspace} bind def
<< Tile8x8
 /PaintProc {0.5 setlinewidth pop 0 0 M 8 8 L 0 8 M 8 0 L stroke} 
>> matrix makepattern
/Pat1 exch def
<< Tile8x8
 /PaintProc {0.5 setlinewidth pop 0 0 M 8 8 L 0 8 M 8 0 L stroke
	0 4 M 4 8 L 8 4 L 4 0 L 0 4 L stroke}
>> matrix makepattern
/Pat2 exch def
<< Tile8x8
 /PaintProc {0.5 setlinewidth pop 0 0 M 0 8 L
	8 8 L 8 0 L 0 0 L fill}
>> matrix makepattern
/Pat3 exch def
<< Tile8x8
 /PaintProc {0.5 setlinewidth pop -4 8 M 8 -4 L
	0 12 M 12 0 L stroke}
>> matrix makepattern
/Pat4 exch def
<< Tile8x8
 /PaintProc {0.5 setlinewidth pop -4 0 M 8 12 L
	0 -4 M 12 8 L stroke}
>> matrix makepattern
/Pat5 exch def
<< Tile8x8
 /PaintProc {0.5 setlinewidth pop -2 8 M 4 -4 L
	0 12 M 8 -4 L 4 12 M 10 0 L stroke}
>> matrix makepattern
/Pat6 exch def
<< Tile8x8
 /PaintProc {0.5 setlinewidth pop -2 0 M 4 12 L
	0 -4 M 8 12 L 4 -4 M 10 8 L stroke}
>> matrix makepattern
/Pat7 exch def
<< Tile8x8
 /PaintProc {0.5 setlinewidth pop 8 -2 M -4 4 L
	12 0 M -4 8 L 12 4 M 0 10 L stroke}
>> matrix makepattern
/Pat8 exch def
<< Tile8x8
 /PaintProc {0.5 setlinewidth pop 0 -2 M 12 4 L
	-4 0 M 12 8 L -4 4 M 8 10 L stroke}
>> matrix makepattern
/Pat9 exch def
/Pattern1 {PatternBgnd KeepColor Pat1 setpattern} bind def
/Pattern2 {PatternBgnd KeepColor Pat2 setpattern} bind def
/Pattern3 {PatternBgnd KeepColor Pat3 setpattern} bind def
/Pattern4 {PatternBgnd KeepColor Landscape {Pat5} {Pat4} ifelse setpattern} bind def
/Pattern5 {PatternBgnd KeepColor Landscape {Pat4} {Pat5} ifelse setpattern} bind def
/Pattern6 {PatternBgnd KeepColor Landscape {Pat9} {Pat6} ifelse setpattern} bind def
/Pattern7 {PatternBgnd KeepColor Landscape {Pat8} {Pat7} ifelse setpattern} bind def
} def
%
%
%End of PostScript Level 2 code
%
/PatternBgnd {
  TransparentPatterns {} {gsave 1 setgray fill grestore} ifelse
} def
%
% Substitute for Level 2 pattern fill codes with
% grayscale if Level 2 support is not selected.
%
/Level1PatternFill {
/Pattern1 {0.250 Density} bind def
/Pattern2 {0.500 Density} bind def
/Pattern3 {0.750 Density} bind def
/Pattern4 {0.125 Density} bind def
/Pattern5 {0.375 Density} bind def
/Pattern6 {0.625 Density} bind def
/Pattern7 {0.875 Density} bind def
} def
%
% Now test for support of Level 2 code
%
Level1 {Level1PatternFill} {Level2PatternFill} ifelse
%
/Symbol-Oblique /Symbol findfont [1 0 .167 1 0 0] makefont
dup length dict begin {1 index /FID eq {pop pop} {def} ifelse} forall
currentdict end definefont pop
end
%%EndProlog
gnudict begin
gsave
doclip
50 50 translate
0.050 0.050 scale
0 setgray
newpath
(Helvetica) findfont 140 scalefont setfont
1.000 UL
LTb
602 448 M
63 0 V
6282 0 R
-63 0 V
518 448 M
( 0) Rshow
1.000 UL
LTb
602 1001 M
63 0 V
6282 0 R
-63 0 V
-6366 0 R
( 5) Rshow
1.000 UL
LTb
602 1554 M
63 0 V
6282 0 R
-63 0 V
-6366 0 R
( 10) Rshow
1.000 UL
LTb
602 2107 M
63 0 V
6282 0 R
-63 0 V
-6366 0 R
( 15) Rshow
1.000 UL
LTb
602 2660 M
63 0 V
6282 0 R
-63 0 V
-6366 0 R
( 20) Rshow
1.000 UL
LTb
602 3212 M
63 0 V
6282 0 R
-63 0 V
-6366 0 R
( 25) Rshow
1.000 UL
LTb
602 3765 M
63 0 V
6282 0 R
-63 0 V
-6366 0 R
( 30) Rshow
1.000 UL
LTb
602 4318 M
63 0 V
6282 0 R
-63 0 V
-6366 0 R
( 35) Rshow
1.000 UL
LTb
602 4871 M
63 0 V
6282 0 R
-63 0 V
-6366 0 R
( 40) Rshow
1.000 UL
LTb
602 448 M
0 63 V
0 4360 R
0 -63 V
602 308 M
( 0) Cshow
1.000 UL
LTb
1395 448 M
0 63 V
0 4360 R
0 -63 V
0 -4500 R
( 200) Cshow
1.000 UL
LTb
2188 448 M
0 63 V
0 4360 R
0 -63 V
0 -4500 R
( 400) Cshow
1.000 UL
LTb
2981 448 M
0 63 V
0 4360 R
0 -63 V
0 -4500 R
( 600) Cshow
1.000 UL
LTb
3775 448 M
0 63 V
0 4360 R
0 -63 V
0 -4500 R
( 800) Cshow
1.000 UL
LTb
4568 448 M
0 63 V
0 4360 R
0 -63 V
0 -4500 R
( 1000) Cshow
1.000 UL
LTb
5361 448 M
0 63 V
0 4360 R
0 -63 V
0 -4500 R
( 1200) Cshow
1.000 UL
LTb
6154 448 M
0 63 V
0 4360 R
0 -63 V
0 -4500 R
( 1400) Cshow
1.000 UL
LTb
6947 448 M
0 63 V
0 4360 R
0 -63 V
0 -4500 R
( 1600) Cshow
1.000 UL
LTb
1.000 UL
LTb
602 4871 N
602 448 L
6345 0 V
0 4423 V
-6345 0 V
Z stroke
LCb setrgbcolor
112 2659 M
currentpoint gsave translate -270 rotate 0 0 M
(Visit Count per 1000 Plies) Cshow
grestore
LTb
LCb setrgbcolor
3774 98 M
(States \(Sorted by Earliest Visit Time\)) Cshow
LTb
1.000 UP
1.000 UL
LTb
% Begin plot #1
1.000 UP
1.000 UL
LT0
LCb setrgbcolor
6296 4738 M
(p = 0.50) Rshow
LT0
602 4456 Pls
606 1478 Pls
610 1430 Pls
614 1470 Pls
618 1442 Pls
622 1594 Pls
626 1839 Pls
630 1422 Pls
634 1614 Pls
638 628 Pls
642 701 Pls
646 721 Pls
650 969 Pls
654 584 Pls
658 616 Pls
661 608 Pls
665 717 Pls
669 733 Pls
673 793 Pls
677 616 Pls
681 929 Pls
685 688 Pls
689 893 Pls
693 705 Pls
697 556 Pls
701 749 Pls
705 568 Pls
709 761 Pls
713 697 Pls
717 504 Pls
721 717 Pls
725 624 Pls
729 640 Pls
733 596 Pls
737 596 Pls
741 945 Pls
745 668 Pls
749 821 Pls
753 733 Pls
757 492 Pls
761 596 Pls
765 532 Pls
769 612 Pls
773 580 Pls
776 616 Pls
780 532 Pls
784 705 Pls
788 600 Pls
792 624 Pls
796 524 Pls
800 632 Pls
804 745 Pls
808 652 Pls
812 785 Pls
816 524 Pls
820 620 Pls
824 556 Pls
828 540 Pls
832 604 Pls
836 676 Pls
840 604 Pls
844 652 Pls
848 568 Pls
852 560 Pls
856 516 Pls
860 785 Pls
864 648 Pls
868 660 Pls
872 568 Pls
876 656 Pls
880 596 Pls
884 620 Pls
888 476 Pls
891 504 Pls
895 508 Pls
899 584 Pls
903 636 Pls
907 540 Pls
911 576 Pls
915 508 Pls
919 516 Pls
923 536 Pls
927 668 Pls
931 620 Pls
935 636 Pls
939 688 Pls
943 725 Pls
947 684 Pls
951 749 Pls
955 520 Pls
959 540 Pls
963 528 Pls
967 540 Pls
971 528 Pls
975 492 Pls
979 472 Pls
983 500 Pls
987 528 Pls
991 516 Pls
995 520 Pls
999 496 Pls
1003 520 Pls
1006 572 Pls
1010 628 Pls
1014 652 Pls
1018 484 Pls
1022 620 Pls
1026 628 Pls
1030 528 Pls
1034 540 Pls
1038 580 Pls
1042 556 Pls
1046 580 Pls
1050 612 Pls
1054 516 Pls
1058 468 Pls
1062 460 Pls
1066 484 Pls
1070 488 Pls
1074 572 Pls
1078 512 Pls
1082 552 Pls
1086 556 Pls
1090 540 Pls
1094 512 Pls
1098 508 Pls
1102 564 Pls
1106 592 Pls
1110 620 Pls
1114 749 Pls
1118 737 Pls
1121 500 Pls
1125 552 Pls
1129 528 Pls
1133 576 Pls
1137 693 Pls
1141 837 Pls
1145 528 Pls
1149 472 Pls
1153 480 Pls
1157 568 Pls
1161 556 Pls
1165 580 Pls
1169 660 Pls
1173 693 Pls
1177 468 Pls
1181 500 Pls
1185 524 Pls
1189 693 Pls
1193 757 Pls
1197 576 Pls
1201 596 Pls
1205 548 Pls
1209 508 Pls
1213 480 Pls
1217 484 Pls
1221 484 Pls
1225 536 Pls
1229 472 Pls
1233 512 Pls
1237 580 Pls
1240 520 Pls
1244 532 Pls
1248 500 Pls
1252 532 Pls
1256 504 Pls
1260 544 Pls
1264 520 Pls
1268 508 Pls
1272 556 Pls
1276 604 Pls
1280 524 Pls
1284 508 Pls
1288 532 Pls
1292 556 Pls
1296 600 Pls
1300 556 Pls
1304 468 Pls
1308 484 Pls
1312 476 Pls
1316 488 Pls
1320 496 Pls
1324 524 Pls
1328 572 Pls
1332 504 Pls
1336 504 Pls
1340 560 Pls
1344 548 Pls
1348 600 Pls
1352 680 Pls
1355 484 Pls
1359 504 Pls
1363 520 Pls
1367 532 Pls
1371 544 Pls
1375 564 Pls
1379 476 Pls
1383 488 Pls
1387 460 Pls
1391 492 Pls
1395 580 Pls
1399 640 Pls
1403 504 Pls
1407 584 Pls
1411 560 Pls
1415 500 Pls
1419 472 Pls
1423 564 Pls
1427 572 Pls
1431 620 Pls
1435 632 Pls
1439 608 Pls
1443 464 Pls
1447 480 Pls
1451 524 Pls
1455 592 Pls
1459 540 Pls
1463 660 Pls
1467 564 Pls
1470 476 Pls
1474 516 Pls
1478 540 Pls
1482 460 Pls
1486 488 Pls
1490 476 Pls
1494 488 Pls
1498 544 Pls
1502 536 Pls
1506 540 Pls
1510 460 Pls
1514 520 Pls
1518 524 Pls
1522 592 Pls
1526 568 Pls
1530 548 Pls
1534 540 Pls
1538 580 Pls
1542 580 Pls
1546 652 Pls
1550 612 Pls
1554 604 Pls
1558 584 Pls
1562 564 Pls
1566 668 Pls
1570 480 Pls
1574 500 Pls
1578 556 Pls
1582 476 Pls
1585 468 Pls
1589 480 Pls
1593 504 Pls
1597 484 Pls
1601 492 Pls
1605 476 Pls
1609 528 Pls
1613 492 Pls
1617 536 Pls
1621 516 Pls
1625 540 Pls
1629 512 Pls
1633 528 Pls
1637 528 Pls
1641 504 Pls
1645 516 Pls
1649 532 Pls
1653 500 Pls
1657 556 Pls
1661 540 Pls
1665 604 Pls
1669 576 Pls
1673 644 Pls
1677 588 Pls
1681 576 Pls
1685 456 Pls
1689 512 Pls
1693 652 Pls
1697 604 Pls
1700 508 Pls
1704 452 Pls
1708 496 Pls
1712 468 Pls
1716 464 Pls
1720 464 Pls
1724 460 Pls
1728 480 Pls
1732 460 Pls
1736 480 Pls
1740 496 Pls
1744 488 Pls
1748 560 Pls
1752 500 Pls
1756 488 Pls
1760 496 Pls
1764 504 Pls
1768 508 Pls
1772 512 Pls
1776 492 Pls
1780 496 Pls
1784 540 Pls
1788 524 Pls
1792 560 Pls
1796 568 Pls
1800 548 Pls
1804 472 Pls
1808 484 Pls
1812 496 Pls
1815 512 Pls
1819 544 Pls
1823 524 Pls
1827 548 Pls
1831 504 Pls
1835 476 Pls
1839 564 Pls
1843 620 Pls
1847 464 Pls
1851 460 Pls
1855 476 Pls
1859 476 Pls
1863 512 Pls
1867 456 Pls
1871 520 Pls
1875 540 Pls
1879 556 Pls
1883 536 Pls
1887 636 Pls
1891 492 Pls
1895 536 Pls
1899 484 Pls
1903 492 Pls
1907 528 Pls
1911 576 Pls
1915 512 Pls
1919 576 Pls
1923 480 Pls
1927 496 Pls
1930 476 Pls
1934 472 Pls
1938 552 Pls
1942 476 Pls
1946 524 Pls
1950 556 Pls
1954 516 Pls
1958 500 Pls
1962 528 Pls
1966 612 Pls
1970 480 Pls
1974 460 Pls
1978 660 Pls
1982 560 Pls
1986 604 Pls
1990 512 Pls
1994 552 Pls
1998 516 Pls
2002 580 Pls
2006 556 Pls
2010 604 Pls
2014 488 Pls
2018 524 Pls
2022 476 Pls
2026 520 Pls
2030 512 Pls
2034 572 Pls
2038 568 Pls
2042 596 Pls
2045 548 Pls
2049 540 Pls
2053 456 Pls
2057 512 Pls
2061 528 Pls
2065 496 Pls
2069 516 Pls
2073 456 Pls
2077 520 Pls
2081 488 Pls
2085 512 Pls
2089 452 Pls
2093 484 Pls
2097 472 Pls
2101 532 Pls
2105 496 Pls
2109 564 Pls
2113 552 Pls
2117 528 Pls
2121 564 Pls
2125 488 Pls
2129 532 Pls
2133 548 Pls
2137 584 Pls
2141 496 Pls
2145 548 Pls
2149 524 Pls
2153 540 Pls
2157 576 Pls
2160 508 Pls
2164 500 Pls
2168 476 Pls
2172 460 Pls
2176 496 Pls
2180 492 Pls
2184 576 Pls
2188 480 Pls
2192 460 Pls
2196 464 Pls
2200 476 Pls
2204 512 Pls
2208 480 Pls
2212 512 Pls
2216 476 Pls
2220 508 Pls
2224 504 Pls
2228 500 Pls
2232 512 Pls
2236 476 Pls
2240 524 Pls
2244 496 Pls
2248 548 Pls
2252 460 Pls
2256 500 Pls
2260 472 Pls
2264 608 Pls
2268 504 Pls
2272 484 Pls
2275 464 Pls
2279 484 Pls
2283 536 Pls
2287 496 Pls
2291 480 Pls
2295 464 Pls
2299 492 Pls
2303 524 Pls
2307 556 Pls
2311 552 Pls
2315 536 Pls
2319 492 Pls
2323 496 Pls
2327 556 Pls
2331 520 Pls
2335 560 Pls
2339 504 Pls
2343 488 Pls
2347 484 Pls
2351 504 Pls
2355 500 Pls
2359 472 Pls
2363 472 Pls
2367 496 Pls
2371 504 Pls
2375 476 Pls
2379 504 Pls
2383 492 Pls
2387 528 Pls
2390 536 Pls
2394 516 Pls
2398 560 Pls
2402 536 Pls
2406 604 Pls
2410 520 Pls
2414 464 Pls
2418 500 Pls
2422 472 Pls
2426 492 Pls
2430 516 Pls
2434 516 Pls
2438 564 Pls
2442 508 Pls
2446 480 Pls
2450 464 Pls
2454 552 Pls
2458 532 Pls
2462 536 Pls
2466 476 Pls
2470 508 Pls
2474 528 Pls
2478 492 Pls
2482 532 Pls
2486 480 Pls
2490 496 Pls
2494 528 Pls
2498 544 Pls
2502 500 Pls
2506 480 Pls
2509 488 Pls
2513 468 Pls
2517 476 Pls
2521 504 Pls
2525 496 Pls
2529 484 Pls
2533 508 Pls
2537 548 Pls
2541 536 Pls
2545 584 Pls
2549 568 Pls
2553 504 Pls
2557 528 Pls
2561 640 Pls
2565 572 Pls
2569 488 Pls
2573 480 Pls
2577 488 Pls
2581 496 Pls
2585 484 Pls
2589 508 Pls
2593 468 Pls
2597 516 Pls
2601 608 Pls
2605 572 Pls
2609 484 Pls
2613 520 Pls
2617 472 Pls
2621 464 Pls
2624 452 Pls
2628 532 Pls
2632 504 Pls
2636 552 Pls
2640 488 Pls
2644 508 Pls
2648 548 Pls
2652 492 Pls
2656 604 Pls
2660 660 Pls
2664 600 Pls
2668 556 Pls
2672 576 Pls
2676 572 Pls
2680 456 Pls
2684 548 Pls
2688 524 Pls
2692 576 Pls
2696 560 Pls
2700 560 Pls
2704 564 Pls
2708 636 Pls
2712 480 Pls
2716 524 Pls
2720 564 Pls
2724 492 Pls
2728 516 Pls
2732 532 Pls
2736 472 Pls
2739 476 Pls
2743 472 Pls
2747 484 Pls
2751 492 Pls
2755 504 Pls
2759 504 Pls
2763 524 Pls
2767 504 Pls
2771 476 Pls
2775 476 Pls
2779 460 Pls
2783 472 Pls
2787 564 Pls
2791 596 Pls
2795 560 Pls
2799 572 Pls
2803 520 Pls
2807 476 Pls
2811 500 Pls
2815 476 Pls
2819 532 Pls
2823 556 Pls
2827 548 Pls
2831 484 Pls
2835 504 Pls
2839 524 Pls
2843 584 Pls
2847 452 Pls
2851 468 Pls
2854 464 Pls
2858 484 Pls
2862 492 Pls
2866 572 Pls
2870 552 Pls
2874 576 Pls
2878 464 Pls
2882 520 Pls
2886 524 Pls
2890 496 Pls
2894 492 Pls
2898 552 Pls
2902 548 Pls
2906 476 Pls
2910 540 Pls
2914 468 Pls
2918 536 Pls
2922 544 Pls
2926 484 Pls
2930 476 Pls
2934 552 Pls
2938 480 Pls
2942 516 Pls
2946 540 Pls
2950 492 Pls
2954 512 Pls
2958 500 Pls
2962 572 Pls
2966 568 Pls
2969 504 Pls
2973 612 Pls
2977 540 Pls
2981 536 Pls
2985 540 Pls
2989 548 Pls
2993 468 Pls
2997 472 Pls
3001 480 Pls
3005 496 Pls
3009 536 Pls
3013 568 Pls
3017 556 Pls
3021 484 Pls
3025 608 Pls
3029 524 Pls
3033 496 Pls
3037 484 Pls
3041 492 Pls
3045 472 Pls
3049 472 Pls
3053 488 Pls
3057 500 Pls
3061 476 Pls
3065 504 Pls
3069 476 Pls
3073 564 Pls
3077 540 Pls
3081 488 Pls
3084 496 Pls
3088 464 Pls
3092 512 Pls
3096 492 Pls
3100 532 Pls
3104 520 Pls
3108 520 Pls
3112 528 Pls
3116 660 Pls
3120 496 Pls
3124 540 Pls
3128 496 Pls
3132 516 Pls
3136 520 Pls
3140 524 Pls
3144 572 Pls
3148 520 Pls
3152 548 Pls
3156 548 Pls
3160 524 Pls
3164 496 Pls
3168 528 Pls
3172 476 Pls
3176 468 Pls
3180 456 Pls
3184 512 Pls
3188 500 Pls
3192 460 Pls
3196 452 Pls
3199 484 Pls
3203 488 Pls
3207 536 Pls
3211 500 Pls
3215 496 Pls
3219 472 Pls
3223 480 Pls
3227 528 Pls
3231 504 Pls
3235 480 Pls
3239 468 Pls
3243 472 Pls
3247 480 Pls
3251 468 Pls
3255 456 Pls
3259 464 Pls
3263 496 Pls
3267 484 Pls
3271 480 Pls
3275 528 Pls
3279 484 Pls
3283 480 Pls
3287 508 Pls
3291 504 Pls
3295 472 Pls
3299 488 Pls
3303 504 Pls
3307 564 Pls
3311 496 Pls
3314 520 Pls
3318 492 Pls
3322 492 Pls
3326 464 Pls
3330 484 Pls
3334 576 Pls
3338 564 Pls
3342 476 Pls
3346 576 Pls
3350 508 Pls
3354 544 Pls
3358 520 Pls
3362 492 Pls
3366 476 Pls
3370 480 Pls
3374 460 Pls
3378 488 Pls
3382 468 Pls
3386 468 Pls
3390 468 Pls
3394 496 Pls
3398 496 Pls
3402 500 Pls
3406 476 Pls
3410 488 Pls
3414 464 Pls
3418 460 Pls
3422 472 Pls
3426 500 Pls
3429 536 Pls
3433 472 Pls
3437 456 Pls
3441 480 Pls
3445 472 Pls
3449 500 Pls
3453 504 Pls
3457 488 Pls
3461 528 Pls
3465 516 Pls
3469 496 Pls
3473 508 Pls
3477 548 Pls
3481 532 Pls
3485 552 Pls
3489 536 Pls
3493 532 Pls
3497 512 Pls
3501 496 Pls
3505 496 Pls
3509 484 Pls
3513 476 Pls
3517 496 Pls
3521 504 Pls
3525 504 Pls
3529 512 Pls
3533 512 Pls
3537 536 Pls
3541 500 Pls
3544 608 Pls
3548 516 Pls
3552 468 Pls
3556 472 Pls
3560 452 Pls
3564 668 Pls
3568 697 Pls
3572 520 Pls
3576 476 Pls
3580 468 Pls
3584 456 Pls
3588 480 Pls
3592 476 Pls
3596 472 Pls
3600 484 Pls
3604 512 Pls
3608 544 Pls
3612 520 Pls
3616 560 Pls
3620 528 Pls
3624 564 Pls
3628 604 Pls
3632 576 Pls
3636 524 Pls
3640 500 Pls
3644 540 Pls
3648 476 Pls
3652 524 Pls
3656 480 Pls
3659 672 Pls
3663 556 Pls
3667 548 Pls
3671 548 Pls
3675 476 Pls
3679 492 Pls
3683 456 Pls
3687 456 Pls
3691 476 Pls
3695 552 Pls
3699 568 Pls
3703 560 Pls
3707 528 Pls
3711 508 Pls
3715 472 Pls
3719 484 Pls
3723 472 Pls
3727 480 Pls
3731 472 Pls
3735 480 Pls
3739 480 Pls
3743 496 Pls
3747 488 Pls
3751 556 Pls
3755 544 Pls
3759 452 Pls
3763 472 Pls
3767 492 Pls
3771 492 Pls
3775 488 Pls
3778 468 Pls
3782 528 Pls
3786 492 Pls
3790 504 Pls
3794 520 Pls
3798 504 Pls
3802 544 Pls
3806 532 Pls
3810 488 Pls
3814 508 Pls
3818 468 Pls
3822 480 Pls
3826 472 Pls
3830 488 Pls
3834 500 Pls
3838 496 Pls
3842 452 Pls
3846 512 Pls
3850 468 Pls
3854 484 Pls
3858 544 Pls
3862 500 Pls
3866 484 Pls
3870 472 Pls
3874 456 Pls
3878 472 Pls
3882 524 Pls
3886 468 Pls
3890 556 Pls
3893 516 Pls
3897 484 Pls
3901 528 Pls
3905 460 Pls
3909 468 Pls
3913 472 Pls
3917 528 Pls
3921 452 Pls
3925 532 Pls
3929 528 Pls
3933 492 Pls
3937 548 Pls
3941 532 Pls
3945 464 Pls
3949 484 Pls
3953 560 Pls
3957 592 Pls
3961 572 Pls
3965 492 Pls
3969 496 Pls
3973 512 Pls
3977 504 Pls
3981 496 Pls
3985 488 Pls
3989 460 Pls
3993 476 Pls
3997 476 Pls
4001 452 Pls
4005 492 Pls
4008 480 Pls
4012 556 Pls
4016 584 Pls
4020 612 Pls
4024 548 Pls
4028 516 Pls
4032 480 Pls
4036 508 Pls
4040 705 Pls
4044 540 Pls
4048 568 Pls
4052 472 Pls
4056 524 Pls
4060 500 Pls
4064 460 Pls
4068 480 Pls
4072 480 Pls
4076 532 Pls
4080 476 Pls
4084 484 Pls
4088 524 Pls
4092 520 Pls
4096 476 Pls
4100 472 Pls
4104 468 Pls
4108 536 Pls
4112 564 Pls
4116 564 Pls
4120 552 Pls
4123 456 Pls
4127 472 Pls
4131 464 Pls
4135 496 Pls
4139 508 Pls
4143 456 Pls
4147 496 Pls
4151 472 Pls
4155 516 Pls
4159 528 Pls
4163 512 Pls
4167 484 Pls
4171 504 Pls
4175 464 Pls
4179 580 Pls
4183 476 Pls
4187 496 Pls
4191 468 Pls
4195 456 Pls
4199 468 Pls
4203 488 Pls
4207 488 Pls
4211 476 Pls
4215 452 Pls
4219 492 Pls
4223 508 Pls
4227 476 Pls
4231 464 Pls
4235 452 Pls
4238 524 Pls
4242 496 Pls
4246 504 Pls
4250 504 Pls
4254 472 Pls
4258 472 Pls
4262 476 Pls
4266 476 Pls
4270 520 Pls
4274 572 Pls
4278 464 Pls
4282 564 Pls
4286 588 Pls
4290 528 Pls
4294 480 Pls
4298 488 Pls
4302 556 Pls
4306 512 Pls
4310 472 Pls
4314 472 Pls
4318 456 Pls
4322 468 Pls
4326 468 Pls
4330 472 Pls
4334 552 Pls
4338 464 Pls
4342 500 Pls
4346 556 Pls
4350 536 Pls
4353 484 Pls
4357 456 Pls
4361 632 Pls
4365 516 Pls
4369 676 Pls
4373 536 Pls
4377 588 Pls
4381 512 Pls
4385 488 Pls
4389 480 Pls
4393 480 Pls
4397 584 Pls
4401 492 Pls
4405 472 Pls
4409 580 Pls
4413 576 Pls
4417 544 Pls
4421 504 Pls
4425 496 Pls
4429 484 Pls
4433 536 Pls
4437 468 Pls
4441 472 Pls
4445 480 Pls
4449 556 Pls
4453 552 Pls
4457 528 Pls
4461 608 Pls
4465 628 Pls
4468 588 Pls
4472 524 Pls
4476 496 Pls
4480 472 Pls
4484 476 Pls
4488 468 Pls
4492 460 Pls
4496 488 Pls
4500 472 Pls
4504 488 Pls
4508 492 Pls
4512 484 Pls
4516 460 Pls
4520 476 Pls
4524 452 Pls
4528 476 Pls
4532 476 Pls
4536 464 Pls
4540 468 Pls
4544 476 Pls
4548 476 Pls
4552 468 Pls
4556 484 Pls
4560 468 Pls
4564 476 Pls
4568 484 Pls
4572 472 Pls
4576 572 Pls
4580 496 Pls
4583 464 Pls
4587 560 Pls
4591 468 Pls
4595 452 Pls
4599 476 Pls
4603 460 Pls
4607 480 Pls
4611 464 Pls
4615 556 Pls
4619 484 Pls
4623 488 Pls
4627 536 Pls
4631 472 Pls
4635 540 Pls
4639 496 Pls
4643 508 Pls
4647 456 Pls
4651 508 Pls
4655 456 Pls
4659 460 Pls
4663 488 Pls
4667 604 Pls
4671 512 Pls
4675 600 Pls
4679 592 Pls
4683 528 Pls
4687 488 Pls
4691 520 Pls
4695 508 Pls
4698 460 Pls
4702 456 Pls
4706 568 Pls
4710 504 Pls
4714 552 Pls
4718 472 Pls
4722 496 Pls
4726 512 Pls
4730 688 Pls
4734 656 Pls
4738 596 Pls
4742 464 Pls
4746 701 Pls
4750 757 Pls
4754 624 Pls
4758 476 Pls
4762 476 Pls
4766 516 Pls
4770 476 Pls
4774 464 Pls
4778 785 Pls
4782 468 Pls
4786 484 Pls
4790 456 Pls
4794 456 Pls
4798 472 Pls
4802 488 Pls
4806 464 Pls
4810 492 Pls
4813 480 Pls
4817 460 Pls
4821 464 Pls
4825 496 Pls
4829 456 Pls
4833 472 Pls
4837 460 Pls
4841 476 Pls
4845 460 Pls
4849 456 Pls
4853 464 Pls
4857 460 Pls
4861 464 Pls
4865 456 Pls
4869 464 Pls
4873 476 Pls
4877 472 Pls
4881 472 Pls
4885 488 Pls
4889 460 Pls
4893 480 Pls
4897 480 Pls
4901 460 Pls
4905 512 Pls
4909 492 Pls
4913 524 Pls
4917 452 Pls
4921 468 Pls
4925 476 Pls
4928 532 Pls
4932 504 Pls
4936 524 Pls
4940 604 Pls
4944 572 Pls
4948 676 Pls
4952 616 Pls
4956 468 Pls
4960 476 Pls
4964 492 Pls
4968 468 Pls
4972 476 Pls
4976 701 Pls
4980 644 Pls
4984 540 Pls
4988 544 Pls
4992 480 Pls
4996 472 Pls
5000 476 Pls
5004 480 Pls
5008 480 Pls
5012 468 Pls
5016 592 Pls
5020 568 Pls
5024 508 Pls
5028 488 Pls
5032 484 Pls
5036 460 Pls
5040 456 Pls
5044 484 Pls
5047 468 Pls
5051 468 Pls
5055 452 Pls
5059 464 Pls
5063 456 Pls
5067 476 Pls
5071 476 Pls
5075 676 Pls
5079 608 Pls
5083 548 Pls
5087 516 Pls
5091 508 Pls
5095 480 Pls
5099 921 Pls
5103 945 Pls
5107 528 Pls
5111 620 Pls
5115 532 Pls
5119 488 Pls
5123 452 Pls
5127 460 Pls
5131 1021 Pls
5135 652 Pls
5139 472 Pls
5143 480 Pls
5147 468 Pls
5151 456 Pls
5155 460 Pls
5159 492 Pls
5162 464 Pls
5166 460 Pls
5170 488 Pls
5174 480 Pls
5178 460 Pls
5182 460 Pls
5186 472 Pls
5190 468 Pls
5194 452 Pls
5198 460 Pls
5202 472 Pls
5206 456 Pls
5210 460 Pls
5214 456 Pls
5218 468 Pls
5222 468 Pls
5226 520 Pls
5230 480 Pls
5234 476 Pls
5238 476 Pls
5242 452 Pls
5246 504 Pls
5250 476 Pls
5254 540 Pls
5258 456 Pls
5262 452 Pls
5266 484 Pls
5270 496 Pls
5274 552 Pls
5277 504 Pls
5281 476 Pls
5285 452 Pls
5289 452 Pls
5293 460 Pls
5297 452 Pls
5301 480 Pls
5305 452 Pls
5309 460 Pls
5313 576 Pls
5317 472 Pls
5321 464 Pls
5325 741 Pls
5329 556 Pls
5333 468 Pls
5337 528 Pls
5341 484 Pls
5345 480 Pls
5349 516 Pls
5353 488 Pls
5357 584 Pls
5361 612 Pls
5365 508 Pls
5369 508 Pls
5373 468 Pls
5377 452 Pls
5381 472 Pls
5385 472 Pls
5389 480 Pls
5392 1274 Pls
5396 576 Pls
5400 620 Pls
5404 616 Pls
5408 656 Pls
5412 528 Pls
5416 488 Pls
5420 512 Pls
5424 472 Pls
5428 472 Pls
5432 464 Pls
5436 452 Pls
5440 456 Pls
5444 456 Pls
5448 452 Pls
5452 472 Pls
5456 464 Pls
5460 468 Pls
5464 452 Pls
5468 452 Pls
5472 464 Pls
5476 496 Pls
5480 468 Pls
5484 484 Pls
5488 496 Pls
5492 452 Pls
5496 456 Pls
5500 464 Pls
5504 512 Pls
5507 564 Pls
5511 460 Pls
5515 456 Pls
5519 468 Pls
5523 464 Pls
5527 460 Pls
5531 484 Pls
5535 472 Pls
5539 616 Pls
5543 460 Pls
5547 480 Pls
5551 456 Pls
5555 476 Pls
5559 468 Pls
5563 456 Pls
5567 456 Pls
5571 452 Pls
5575 468 Pls
5579 456 Pls
5583 460 Pls
5587 460 Pls
5591 504 Pls
5595 476 Pls
5599 468 Pls
5603 464 Pls
5607 608 Pls
5611 729 Pls
5615 488 Pls
5619 524 Pls
5622 484 Pls
5626 472 Pls
5630 456 Pls
5634 452 Pls
5638 460 Pls
5642 464 Pls
5646 488 Pls
5650 488 Pls
5654 456 Pls
5658 484 Pls
5662 452 Pls
5666 464 Pls
5670 472 Pls
5674 468 Pls
5678 468 Pls
5682 460 Pls
5686 452 Pls
5690 452 Pls
5694 464 Pls
5698 464 Pls
5702 452 Pls
5706 452 Pls
5710 464 Pls
5714 456 Pls
5718 452 Pls
5722 464 Pls
5726 464 Pls
5730 504 Pls
5734 464 Pls
5737 468 Pls
5741 452 Pls
5745 456 Pls
5749 452 Pls
5753 464 Pls
5757 464 Pls
5761 456 Pls
5765 464 Pls
5769 552 Pls
5773 480 Pls
5777 464 Pls
5781 496 Pls
5785 464 Pls
5789 460 Pls
5793 452 Pls
5797 452 Pls
5801 456 Pls
5805 464 Pls
5809 456 Pls
5813 460 Pls
5817 460 Pls
5821 452 Pls
5825 476 Pls
5829 452 Pls
5833 464 Pls
5837 464 Pls
5841 468 Pls
5845 456 Pls
5849 472 Pls
5852 472 Pls
5856 456 Pls
5860 456 Pls
5864 460 Pls
5868 496 Pls
5872 452 Pls
5876 480 Pls
5880 460 Pls
5884 460 Pls
5888 452 Pls
5892 456 Pls
5896 472 Pls
5900 452 Pls
5904 464 Pls
5908 476 Pls
5912 472 Pls
5916 464 Pls
5920 456 Pls
5924 460 Pls
5928 452 Pls
5932 464 Pls
5936 452 Pls
5940 464 Pls
5944 456 Pls
5948 452 Pls
5952 452 Pls
5956 460 Pls
5960 452 Pls
5964 456 Pls
5967 452 Pls
5971 452 Pls
5975 456 Pls
5979 452 Pls
5983 468 Pls
5987 460 Pls
5991 452 Pls
5995 464 Pls
5999 464 Pls
6003 452 Pls
6007 456 Pls
6011 472 Pls
6015 460 Pls
6019 456 Pls
6023 452 Pls
6027 460 Pls
6031 460 Pls
6035 460 Pls
6039 452 Pls
6043 456 Pls
6047 484 Pls
6051 464 Pls
6055 460 Pls
6059 464 Pls
6063 452 Pls
6067 452 Pls
6071 452 Pls
6075 452 Pls
6079 456 Pls
6082 460 Pls
6086 468 Pls
6090 452 Pls
6094 464 Pls
6098 452 Pls
6102 452 Pls
6106 456 Pls
6110 452 Pls
6114 456 Pls
6118 452 Pls
6122 452 Pls
6126 456 Pls
6130 460 Pls
6134 460 Pls
6138 452 Pls
6142 456 Pls
6146 468 Pls
6150 464 Pls
6154 456 Pls
6158 460 Pls
6162 452 Pls
6166 452 Pls
6170 456 Pls
6174 452 Pls
6178 452 Pls
6182 472 Pls
6186 452 Pls
6190 452 Pls
6194 452 Pls
6197 452 Pls
6201 460 Pls
6205 452 Pls
6209 452 Pls
6213 456 Pls
6217 460 Pls
6221 460 Pls
6225 456 Pls
6229 464 Pls
6233 456 Pls
6237 456 Pls
6241 452 Pls
6245 452 Pls
6249 460 Pls
6253 460 Pls
6257 452 Pls
6261 460 Pls
6265 456 Pls
6269 456 Pls
6273 452 Pls
6277 452 Pls
6281 456 Pls
6285 452 Pls
6289 484 Pls
6293 456 Pls
6297 452 Pls
6301 460 Pls
6305 456 Pls
6309 456 Pls
6313 452 Pls
6316 452 Pls
6320 452 Pls
6324 452 Pls
6328 452 Pls
6332 452 Pls
6336 452 Pls
6340 452 Pls
6344 456 Pls
6348 452 Pls
6352 452 Pls
6356 456 Pls
6360 456 Pls
6364 456 Pls
6368 456 Pls
6372 456 Pls
6376 456 Pls
6380 460 Pls
6384 452 Pls
6388 452 Pls
6392 456 Pls
6396 460 Pls
6400 456 Pls
6404 452 Pls
6408 464 Pls
6412 456 Pls
6416 452 Pls
6420 460 Pls
6424 452 Pls
6428 452 Pls
6431 452 Pls
6435 456 Pls
6439 452 Pls
6443 452 Pls
6447 456 Pls
6451 452 Pls
6455 460 Pls
6459 452 Pls
6463 460 Pls
6467 452 Pls
6471 456 Pls
6475 456 Pls
6479 456 Pls
6483 452 Pls
6487 452 Pls
6491 456 Pls
6495 456 Pls
6499 452 Pls
6503 452 Pls
6507 456 Pls
6511 452 Pls
6515 460 Pls
6519 456 Pls
6523 456 Pls
6527 456 Pls
6531 456 Pls
6535 460 Pls
6539 460 Pls
6543 456 Pls
6546 452 Pls
6550 452 Pls
6554 456 Pls
6558 456 Pls
6562 452 Pls
6566 456 Pls
6570 452 Pls
6574 452 Pls
6578 456 Pls
6582 452 Pls
6586 452 Pls
6590 460 Pls
6594 452 Pls
6598 452 Pls
6602 464 Pls
6606 452 Pls
6610 452 Pls
6614 452 Pls
6618 452 Pls
6622 452 Pls
6626 452 Pls
6630 452 Pls
6634 456 Pls
6638 452 Pls
6642 456 Pls
6646 452 Pls
6650 456 Pls
6654 456 Pls
6658 456 Pls
6661 452 Pls
6665 456 Pls
6669 452 Pls
6673 452 Pls
6677 452 Pls
6681 452 Pls
6685 452 Pls
6689 452 Pls
6693 456 Pls
6697 456 Pls
6701 452 Pls
6705 456 Pls
6709 456 Pls
6713 456 Pls
6717 452 Pls
6721 452 Pls
6725 452 Pls
6729 456 Pls
6733 452 Pls
6737 452 Pls
6741 452 Pls
6745 452 Pls
6749 452 Pls
6753 452 Pls
6757 452 Pls
6761 452 Pls
6765 452 Pls
6769 452 Pls
6773 452 Pls
6776 452 Pls
6780 452 Pls
6784 452 Pls
6788 452 Pls
6792 452 Pls
6796 452 Pls
6800 452 Pls
6804 452 Pls
6808 452 Pls
6812 452 Pls
6816 452 Pls
6820 452 Pls
6824 452 Pls
6828 456 Pls
6832 452 Pls
6836 452 Pls
6840 452 Pls
6579 4738 Pls
% End plot #1
1.000 UL
LTb
602 4871 N
602 448 L
6345 0 V
0 4423 V
-6345 0 V
Z stroke
1.000 UP
1.000 UL
LTb
stroke
grestore
end
showpage
%%Trailer
%%DocumentFonts: Helvetica
