%!PS-Adobe-2.0 EPSF-2.0
%%Title: ../plots/domainstats/states-sorted-by-ply-visit-count-nannon-offset-4.eps
%%Creator: gnuplot 4.4 patchlevel 3
%%CreationDate: Wed Dec 14 04:42:16 2011
%%DocumentFonts: (atend)
%%BoundingBox: 50 50 410 302
%%EndComments
%%BeginProlog
/gnudict 256 dict def
gnudict begin
%
% The following true/false flags may be edited by hand if desired.
% The unit line width and grayscale image gamma correction may also be changed.
%
/Color true def
/Blacktext false def
/Solid false def
/Dashlength 1 def
/Landscape false def
/Level1 false def
/Rounded false def
/ClipToBoundingBox false def
/TransparentPatterns false def
/gnulinewidth 5.000 def
/userlinewidth gnulinewidth def
/Gamma 1.0 def
%
/vshift -46 def
/dl1 {
  10.0 Dashlength mul mul
  Rounded { currentlinewidth 0.75 mul sub dup 0 le { pop 0.01 } if } if
} def
/dl2 {
  10.0 Dashlength mul mul
  Rounded { currentlinewidth 0.75 mul add } if
} def
/hpt_ 31.5 def
/vpt_ 31.5 def
/hpt hpt_ def
/vpt vpt_ def
Level1 {} {
/SDict 10 dict def
systemdict /pdfmark known not {
  userdict /pdfmark systemdict /cleartomark get put
} if
SDict begin [
  /Title (../plots/domainstats/states-sorted-by-ply-visit-count-nannon-offset-4.eps)
  /Subject (gnuplot plot)
  /Creator (gnuplot 4.4 patchlevel 3)
  /Author (reza)
%  /Producer (gnuplot)
%  /Keywords ()
  /CreationDate (Wed Dec 14 04:42:16 2011)
  /DOCINFO pdfmark
end
} ifelse
/doclip {
  ClipToBoundingBox {
    newpath 50 50 moveto 410 50 lineto 410 302 lineto 50 302 lineto closepath
    clip
  } if
} def
%
% Gnuplot Prolog Version 4.4 (August 2010)
%
%/SuppressPDFMark true def
%
/M {moveto} bind def
/L {lineto} bind def
/R {rmoveto} bind def
/V {rlineto} bind def
/N {newpath moveto} bind def
/Z {closepath} bind def
/C {setrgbcolor} bind def
/f {rlineto fill} bind def
/g {setgray} bind def
/Gshow {show} def   % May be redefined later in the file to support UTF-8
/vpt2 vpt 2 mul def
/hpt2 hpt 2 mul def
/Lshow {currentpoint stroke M 0 vshift R 
	Blacktext {gsave 0 setgray show grestore} {show} ifelse} def
/Rshow {currentpoint stroke M dup stringwidth pop neg vshift R
	Blacktext {gsave 0 setgray show grestore} {show} ifelse} def
/Cshow {currentpoint stroke M dup stringwidth pop -2 div vshift R 
	Blacktext {gsave 0 setgray show grestore} {show} ifelse} def
/UP {dup vpt_ mul /vpt exch def hpt_ mul /hpt exch def
  /hpt2 hpt 2 mul def /vpt2 vpt 2 mul def} def
/DL {Color {setrgbcolor Solid {pop []} if 0 setdash}
 {pop pop pop 0 setgray Solid {pop []} if 0 setdash} ifelse} def
/BL {stroke userlinewidth 2 mul setlinewidth
	Rounded {1 setlinejoin 1 setlinecap} if} def
/AL {stroke userlinewidth 2 div setlinewidth
	Rounded {1 setlinejoin 1 setlinecap} if} def
/UL {dup gnulinewidth mul /userlinewidth exch def
	dup 1 lt {pop 1} if 10 mul /udl exch def} def
/PL {stroke userlinewidth setlinewidth
	Rounded {1 setlinejoin 1 setlinecap} if} def
3.8 setmiterlimit
% Default Line colors
/LCw {1 1 1} def
/LCb {0 0 0} def
/LCa {0 0 0} def
/LC0 {1 0 0} def
/LC1 {0 1 0} def
/LC2 {0 0 1} def
/LC3 {1 0 1} def
/LC4 {0 1 1} def
/LC5 {1 1 0} def
/LC6 {0 0 0} def
/LC7 {1 0.3 0} def
/LC8 {0.5 0.5 0.5} def
% Default Line Types
/LTw {PL [] 1 setgray} def
/LTb {BL [] LCb DL} def
/LTa {AL [1 udl mul 2 udl mul] 0 setdash LCa setrgbcolor} def
/LT0 {PL [] LC0 DL} def
/LT1 {PL [4 dl1 2 dl2] LC1 DL} def
/LT2 {PL [2 dl1 3 dl2] LC2 DL} def
/LT3 {PL [1 dl1 1.5 dl2] LC3 DL} def
/LT4 {PL [6 dl1 2 dl2 1 dl1 2 dl2] LC4 DL} def
/LT5 {PL [3 dl1 3 dl2 1 dl1 3 dl2] LC5 DL} def
/LT6 {PL [2 dl1 2 dl2 2 dl1 6 dl2] LC6 DL} def
/LT7 {PL [1 dl1 2 dl2 6 dl1 2 dl2 1 dl1 2 dl2] LC7 DL} def
/LT8 {PL [2 dl1 2 dl2 2 dl1 2 dl2 2 dl1 2 dl2 2 dl1 4 dl2] LC8 DL} def
/Pnt {stroke [] 0 setdash gsave 1 setlinecap M 0 0 V stroke grestore} def
/Dia {stroke [] 0 setdash 2 copy vpt add M
  hpt neg vpt neg V hpt vpt neg V
  hpt vpt V hpt neg vpt V closepath stroke
  Pnt} def
/Pls {stroke [] 0 setdash vpt sub M 0 vpt2 V
  currentpoint stroke M
  hpt neg vpt neg R hpt2 0 V stroke
 } def
/Box {stroke [] 0 setdash 2 copy exch hpt sub exch vpt add M
  0 vpt2 neg V hpt2 0 V 0 vpt2 V
  hpt2 neg 0 V closepath stroke
  Pnt} def
/Crs {stroke [] 0 setdash exch hpt sub exch vpt add M
  hpt2 vpt2 neg V currentpoint stroke M
  hpt2 neg 0 R hpt2 vpt2 V stroke} def
/TriU {stroke [] 0 setdash 2 copy vpt 1.12 mul add M
  hpt neg vpt -1.62 mul V
  hpt 2 mul 0 V
  hpt neg vpt 1.62 mul V closepath stroke
  Pnt} def
/Star {2 copy Pls Crs} def
/BoxF {stroke [] 0 setdash exch hpt sub exch vpt add M
  0 vpt2 neg V hpt2 0 V 0 vpt2 V
  hpt2 neg 0 V closepath fill} def
/TriUF {stroke [] 0 setdash vpt 1.12 mul add M
  hpt neg vpt -1.62 mul V
  hpt 2 mul 0 V
  hpt neg vpt 1.62 mul V closepath fill} def
/TriD {stroke [] 0 setdash 2 copy vpt 1.12 mul sub M
  hpt neg vpt 1.62 mul V
  hpt 2 mul 0 V
  hpt neg vpt -1.62 mul V closepath stroke
  Pnt} def
/TriDF {stroke [] 0 setdash vpt 1.12 mul sub M
  hpt neg vpt 1.62 mul V
  hpt 2 mul 0 V
  hpt neg vpt -1.62 mul V closepath fill} def
/DiaF {stroke [] 0 setdash vpt add M
  hpt neg vpt neg V hpt vpt neg V
  hpt vpt V hpt neg vpt V closepath fill} def
/Pent {stroke [] 0 setdash 2 copy gsave
  translate 0 hpt M 4 {72 rotate 0 hpt L} repeat
  closepath stroke grestore Pnt} def
/PentF {stroke [] 0 setdash gsave
  translate 0 hpt M 4 {72 rotate 0 hpt L} repeat
  closepath fill grestore} def
/Circle {stroke [] 0 setdash 2 copy
  hpt 0 360 arc stroke Pnt} def
/CircleF {stroke [] 0 setdash hpt 0 360 arc fill} def
/C0 {BL [] 0 setdash 2 copy moveto vpt 90 450 arc} bind def
/C1 {BL [] 0 setdash 2 copy moveto
	2 copy vpt 0 90 arc closepath fill
	vpt 0 360 arc closepath} bind def
/C2 {BL [] 0 setdash 2 copy moveto
	2 copy vpt 90 180 arc closepath fill
	vpt 0 360 arc closepath} bind def
/C3 {BL [] 0 setdash 2 copy moveto
	2 copy vpt 0 180 arc closepath fill
	vpt 0 360 arc closepath} bind def
/C4 {BL [] 0 setdash 2 copy moveto
	2 copy vpt 180 270 arc closepath fill
	vpt 0 360 arc closepath} bind def
/C5 {BL [] 0 setdash 2 copy moveto
	2 copy vpt 0 90 arc
	2 copy moveto
	2 copy vpt 180 270 arc closepath fill
	vpt 0 360 arc} bind def
/C6 {BL [] 0 setdash 2 copy moveto
	2 copy vpt 90 270 arc closepath fill
	vpt 0 360 arc closepath} bind def
/C7 {BL [] 0 setdash 2 copy moveto
	2 copy vpt 0 270 arc closepath fill
	vpt 0 360 arc closepath} bind def
/C8 {BL [] 0 setdash 2 copy moveto
	2 copy vpt 270 360 arc closepath fill
	vpt 0 360 arc closepath} bind def
/C9 {BL [] 0 setdash 2 copy moveto
	2 copy vpt 270 450 arc closepath fill
	vpt 0 360 arc closepath} bind def
/C10 {BL [] 0 setdash 2 copy 2 copy moveto vpt 270 360 arc closepath fill
	2 copy moveto
	2 copy vpt 90 180 arc closepath fill
	vpt 0 360 arc closepath} bind def
/C11 {BL [] 0 setdash 2 copy moveto
	2 copy vpt 0 180 arc closepath fill
	2 copy moveto
	2 copy vpt 270 360 arc closepath fill
	vpt 0 360 arc closepath} bind def
/C12 {BL [] 0 setdash 2 copy moveto
	2 copy vpt 180 360 arc closepath fill
	vpt 0 360 arc closepath} bind def
/C13 {BL [] 0 setdash 2 copy moveto
	2 copy vpt 0 90 arc closepath fill
	2 copy moveto
	2 copy vpt 180 360 arc closepath fill
	vpt 0 360 arc closepath} bind def
/C14 {BL [] 0 setdash 2 copy moveto
	2 copy vpt 90 360 arc closepath fill
	vpt 0 360 arc} bind def
/C15 {BL [] 0 setdash 2 copy vpt 0 360 arc closepath fill
	vpt 0 360 arc closepath} bind def
/Rec {newpath 4 2 roll moveto 1 index 0 rlineto 0 exch rlineto
	neg 0 rlineto closepath} bind def
/Square {dup Rec} bind def
/Bsquare {vpt sub exch vpt sub exch vpt2 Square} bind def
/S0 {BL [] 0 setdash 2 copy moveto 0 vpt rlineto BL Bsquare} bind def
/S1 {BL [] 0 setdash 2 copy vpt Square fill Bsquare} bind def
/S2 {BL [] 0 setdash 2 copy exch vpt sub exch vpt Square fill Bsquare} bind def
/S3 {BL [] 0 setdash 2 copy exch vpt sub exch vpt2 vpt Rec fill Bsquare} bind def
/S4 {BL [] 0 setdash 2 copy exch vpt sub exch vpt sub vpt Square fill Bsquare} bind def
/S5 {BL [] 0 setdash 2 copy 2 copy vpt Square fill
	exch vpt sub exch vpt sub vpt Square fill Bsquare} bind def
/S6 {BL [] 0 setdash 2 copy exch vpt sub exch vpt sub vpt vpt2 Rec fill Bsquare} bind def
/S7 {BL [] 0 setdash 2 copy exch vpt sub exch vpt sub vpt vpt2 Rec fill
	2 copy vpt Square fill Bsquare} bind def
/S8 {BL [] 0 setdash 2 copy vpt sub vpt Square fill Bsquare} bind def
/S9 {BL [] 0 setdash 2 copy vpt sub vpt vpt2 Rec fill Bsquare} bind def
/S10 {BL [] 0 setdash 2 copy vpt sub vpt Square fill 2 copy exch vpt sub exch vpt Square fill
	Bsquare} bind def
/S11 {BL [] 0 setdash 2 copy vpt sub vpt Square fill 2 copy exch vpt sub exch vpt2 vpt Rec fill
	Bsquare} bind def
/S12 {BL [] 0 setdash 2 copy exch vpt sub exch vpt sub vpt2 vpt Rec fill Bsquare} bind def
/S13 {BL [] 0 setdash 2 copy exch vpt sub exch vpt sub vpt2 vpt Rec fill
	2 copy vpt Square fill Bsquare} bind def
/S14 {BL [] 0 setdash 2 copy exch vpt sub exch vpt sub vpt2 vpt Rec fill
	2 copy exch vpt sub exch vpt Square fill Bsquare} bind def
/S15 {BL [] 0 setdash 2 copy Bsquare fill Bsquare} bind def
/D0 {gsave translate 45 rotate 0 0 S0 stroke grestore} bind def
/D1 {gsave translate 45 rotate 0 0 S1 stroke grestore} bind def
/D2 {gsave translate 45 rotate 0 0 S2 stroke grestore} bind def
/D3 {gsave translate 45 rotate 0 0 S3 stroke grestore} bind def
/D4 {gsave translate 45 rotate 0 0 S4 stroke grestore} bind def
/D5 {gsave translate 45 rotate 0 0 S5 stroke grestore} bind def
/D6 {gsave translate 45 rotate 0 0 S6 stroke grestore} bind def
/D7 {gsave translate 45 rotate 0 0 S7 stroke grestore} bind def
/D8 {gsave translate 45 rotate 0 0 S8 stroke grestore} bind def
/D9 {gsave translate 45 rotate 0 0 S9 stroke grestore} bind def
/D10 {gsave translate 45 rotate 0 0 S10 stroke grestore} bind def
/D11 {gsave translate 45 rotate 0 0 S11 stroke grestore} bind def
/D12 {gsave translate 45 rotate 0 0 S12 stroke grestore} bind def
/D13 {gsave translate 45 rotate 0 0 S13 stroke grestore} bind def
/D14 {gsave translate 45 rotate 0 0 S14 stroke grestore} bind def
/D15 {gsave translate 45 rotate 0 0 S15 stroke grestore} bind def
/DiaE {stroke [] 0 setdash vpt add M
  hpt neg vpt neg V hpt vpt neg V
  hpt vpt V hpt neg vpt V closepath stroke} def
/BoxE {stroke [] 0 setdash exch hpt sub exch vpt add M
  0 vpt2 neg V hpt2 0 V 0 vpt2 V
  hpt2 neg 0 V closepath stroke} def
/TriUE {stroke [] 0 setdash vpt 1.12 mul add M
  hpt neg vpt -1.62 mul V
  hpt 2 mul 0 V
  hpt neg vpt 1.62 mul V closepath stroke} def
/TriDE {stroke [] 0 setdash vpt 1.12 mul sub M
  hpt neg vpt 1.62 mul V
  hpt 2 mul 0 V
  hpt neg vpt -1.62 mul V closepath stroke} def
/PentE {stroke [] 0 setdash gsave
  translate 0 hpt M 4 {72 rotate 0 hpt L} repeat
  closepath stroke grestore} def
/CircE {stroke [] 0 setdash 
  hpt 0 360 arc stroke} def
/Opaque {gsave closepath 1 setgray fill grestore 0 setgray closepath} def
/DiaW {stroke [] 0 setdash vpt add M
  hpt neg vpt neg V hpt vpt neg V
  hpt vpt V hpt neg vpt V Opaque stroke} def
/BoxW {stroke [] 0 setdash exch hpt sub exch vpt add M
  0 vpt2 neg V hpt2 0 V 0 vpt2 V
  hpt2 neg 0 V Opaque stroke} def
/TriUW {stroke [] 0 setdash vpt 1.12 mul add M
  hpt neg vpt -1.62 mul V
  hpt 2 mul 0 V
  hpt neg vpt 1.62 mul V Opaque stroke} def
/TriDW {stroke [] 0 setdash vpt 1.12 mul sub M
  hpt neg vpt 1.62 mul V
  hpt 2 mul 0 V
  hpt neg vpt -1.62 mul V Opaque stroke} def
/PentW {stroke [] 0 setdash gsave
  translate 0 hpt M 4 {72 rotate 0 hpt L} repeat
  Opaque stroke grestore} def
/CircW {stroke [] 0 setdash 
  hpt 0 360 arc Opaque stroke} def
/BoxFill {gsave Rec 1 setgray fill grestore} def
/Density {
  /Fillden exch def
  currentrgbcolor
  /ColB exch def /ColG exch def /ColR exch def
  /ColR ColR Fillden mul Fillden sub 1 add def
  /ColG ColG Fillden mul Fillden sub 1 add def
  /ColB ColB Fillden mul Fillden sub 1 add def
  ColR ColG ColB setrgbcolor} def
/BoxColFill {gsave Rec PolyFill} def
/PolyFill {gsave Density fill grestore grestore} def
/h {rlineto rlineto rlineto gsave closepath fill grestore} bind def
%
% PostScript Level 1 Pattern Fill routine for rectangles
% Usage: x y w h s a XX PatternFill
%	x,y = lower left corner of box to be filled
%	w,h = width and height of box
%	  a = angle in degrees between lines and x-axis
%	 XX = 0/1 for no/yes cross-hatch
%
/PatternFill {gsave /PFa [ 9 2 roll ] def
  PFa 0 get PFa 2 get 2 div add PFa 1 get PFa 3 get 2 div add translate
  PFa 2 get -2 div PFa 3 get -2 div PFa 2 get PFa 3 get Rec
  gsave 1 setgray fill grestore clip
  currentlinewidth 0.5 mul setlinewidth
  /PFs PFa 2 get dup mul PFa 3 get dup mul add sqrt def
  0 0 M PFa 5 get rotate PFs -2 div dup translate
  0 1 PFs PFa 4 get div 1 add floor cvi
	{PFa 4 get mul 0 M 0 PFs V} for
  0 PFa 6 get ne {
	0 1 PFs PFa 4 get div 1 add floor cvi
	{PFa 4 get mul 0 2 1 roll M PFs 0 V} for
 } if
  stroke grestore} def
%
/languagelevel where
 {pop languagelevel} {1} ifelse
 2 lt
	{/InterpretLevel1 true def}
	{/InterpretLevel1 Level1 def}
 ifelse
%
% PostScript level 2 pattern fill definitions
%
/Level2PatternFill {
/Tile8x8 {/PaintType 2 /PatternType 1 /TilingType 1 /BBox [0 0 8 8] /XStep 8 /YStep 8}
	bind def
/KeepColor {currentrgbcolor [/Pattern /DeviceRGB] setcolorspace} bind def
<< Tile8x8
 /PaintProc {0.5 setlinewidth pop 0 0 M 8 8 L 0 8 M 8 0 L stroke} 
>> matrix makepattern
/Pat1 exch def
<< Tile8x8
 /PaintProc {0.5 setlinewidth pop 0 0 M 8 8 L 0 8 M 8 0 L stroke
	0 4 M 4 8 L 8 4 L 4 0 L 0 4 L stroke}
>> matrix makepattern
/Pat2 exch def
<< Tile8x8
 /PaintProc {0.5 setlinewidth pop 0 0 M 0 8 L
	8 8 L 8 0 L 0 0 L fill}
>> matrix makepattern
/Pat3 exch def
<< Tile8x8
 /PaintProc {0.5 setlinewidth pop -4 8 M 8 -4 L
	0 12 M 12 0 L stroke}
>> matrix makepattern
/Pat4 exch def
<< Tile8x8
 /PaintProc {0.5 setlinewidth pop -4 0 M 8 12 L
	0 -4 M 12 8 L stroke}
>> matrix makepattern
/Pat5 exch def
<< Tile8x8
 /PaintProc {0.5 setlinewidth pop -2 8 M 4 -4 L
	0 12 M 8 -4 L 4 12 M 10 0 L stroke}
>> matrix makepattern
/Pat6 exch def
<< Tile8x8
 /PaintProc {0.5 setlinewidth pop -2 0 M 4 12 L
	0 -4 M 8 12 L 4 -4 M 10 8 L stroke}
>> matrix makepattern
/Pat7 exch def
<< Tile8x8
 /PaintProc {0.5 setlinewidth pop 8 -2 M -4 4 L
	12 0 M -4 8 L 12 4 M 0 10 L stroke}
>> matrix makepattern
/Pat8 exch def
<< Tile8x8
 /PaintProc {0.5 setlinewidth pop 0 -2 M 12 4 L
	-4 0 M 12 8 L -4 4 M 8 10 L stroke}
>> matrix makepattern
/Pat9 exch def
/Pattern1 {PatternBgnd KeepColor Pat1 setpattern} bind def
/Pattern2 {PatternBgnd KeepColor Pat2 setpattern} bind def
/Pattern3 {PatternBgnd KeepColor Pat3 setpattern} bind def
/Pattern4 {PatternBgnd KeepColor Landscape {Pat5} {Pat4} ifelse setpattern} bind def
/Pattern5 {PatternBgnd KeepColor Landscape {Pat4} {Pat5} ifelse setpattern} bind def
/Pattern6 {PatternBgnd KeepColor Landscape {Pat9} {Pat6} ifelse setpattern} bind def
/Pattern7 {PatternBgnd KeepColor Landscape {Pat8} {Pat7} ifelse setpattern} bind def
} def
%
%
%End of PostScript Level 2 code
%
/PatternBgnd {
  TransparentPatterns {} {gsave 1 setgray fill grestore} ifelse
} def
%
% Substitute for Level 2 pattern fill codes with
% grayscale if Level 2 support is not selected.
%
/Level1PatternFill {
/Pattern1 {0.250 Density} bind def
/Pattern2 {0.500 Density} bind def
/Pattern3 {0.750 Density} bind def
/Pattern4 {0.125 Density} bind def
/Pattern5 {0.375 Density} bind def
/Pattern6 {0.625 Density} bind def
/Pattern7 {0.875 Density} bind def
} def
%
% Now test for support of Level 2 code
%
Level1 {Level1PatternFill} {Level2PatternFill} ifelse
%
/Symbol-Oblique /Symbol findfont [1 0 .167 1 0 0] makefont
dup length dict begin {1 index /FID eq {pop pop} {def} ifelse} forall
currentdict end definefont pop
end
%%EndProlog
gnudict begin
gsave
doclip
50 50 translate
0.050 0.050 scale
0 setgray
newpath
(Helvetica) findfont 140 scalefont setfont
1.000 UL
LTb
770 448 M
63 0 V
6114 0 R
-63 0 V
686 448 M
( 0) Rshow
1.000 UL
LTb
770 890 M
63 0 V
6114 0 R
-63 0 V
686 890 M
( 100) Rshow
1.000 UL
LTb
770 1333 M
63 0 V
6114 0 R
-63 0 V
-6198 0 R
( 200) Rshow
1.000 UL
LTb
770 1775 M
63 0 V
6114 0 R
-63 0 V
-6198 0 R
( 300) Rshow
1.000 UL
LTb
770 2217 M
63 0 V
6114 0 R
-63 0 V
-6198 0 R
( 400) Rshow
1.000 UL
LTb
770 2660 M
63 0 V
6114 0 R
-63 0 V
-6198 0 R
( 500) Rshow
1.000 UL
LTb
770 3102 M
63 0 V
6114 0 R
-63 0 V
-6198 0 R
( 600) Rshow
1.000 UL
LTb
770 3544 M
63 0 V
6114 0 R
-63 0 V
-6198 0 R
( 700) Rshow
1.000 UL
LTb
770 3986 M
63 0 V
6114 0 R
-63 0 V
-6198 0 R
( 800) Rshow
1.000 UL
LTb
770 4429 M
63 0 V
6114 0 R
-63 0 V
-6198 0 R
( 900) Rshow
1.000 UL
LTb
770 4871 M
63 0 V
6114 0 R
-63 0 V
-6198 0 R
( 1000) Rshow
1.000 UL
LTb
770 448 M
0 63 V
0 4360 R
0 -63 V
770 308 M
( 0) Cshow
1.000 UL
LTb
1652 448 M
0 63 V
0 4360 R
0 -63 V
0 -4500 R
( 200) Cshow
1.000 UL
LTb
2535 448 M
0 63 V
0 4360 R
0 -63 V
0 -4500 R
( 400) Cshow
1.000 UL
LTb
3417 448 M
0 63 V
0 4360 R
0 -63 V
0 -4500 R
( 600) Cshow
1.000 UL
LTb
4300 448 M
0 63 V
0 4360 R
0 -63 V
0 -4500 R
( 800) Cshow
1.000 UL
LTb
5182 448 M
0 63 V
0 4360 R
0 -63 V
0 -4500 R
( 1000) Cshow
1.000 UL
LTb
6065 448 M
0 63 V
0 4360 R
0 -63 V
0 -4500 R
( 1200) Cshow
1.000 UL
LTb
6947 448 M
0 63 V
0 4360 R
0 -63 V
0 -4500 R
( 1400) Cshow
1.000 UL
LTb
1.000 UL
LTb
770 4871 N
770 448 L
6177 0 V
0 4423 V
-6177 0 V
Z stroke
LCb setrgbcolor
112 2659 M
currentpoint gsave translate -270 rotate 0 0 M
(Visit Count) Cshow
grestore
LTb
LCb setrgbcolor
3858 98 M
(States \(Sorted by Earliest Visit Time\)) Cshow
LTb
1.000 UP
1.000 UL
LTb
% Begin plot #1
1.000 UP
1.000 UL
LT0
LCb setrgbcolor
6296 4738 M
(Offset = 4) Rshow
LT0
770 4871 Pls
774 1182 Pls
779 598 Pls
783 859 Pls
788 559 Pls
792 647 Pls
796 1067 Pls
801 1218 Pls
805 890 Pls
810 638 Pls
814 581 Pls
819 501 Pls
823 1085 Pls
827 784 Pls
832 483 Pls
836 718 Pls
841 510 Pls
845 483 Pls
849 536 Pls
854 457 Pls
858 541 Pls
863 483 Pls
867 470 Pls
871 466 Pls
876 656 Pls
880 585 Pls
885 1138 Pls
889 492 Pls
894 510 Pls
898 479 Pls
902 483 Pls
907 510 Pls
911 510 Pls
916 457 Pls
920 461 Pls
924 488 Pls
929 475 Pls
933 461 Pls
938 475 Pls
942 466 Pls
946 452 Pls
951 585 Pls
955 519 Pls
960 492 Pls
964 466 Pls
969 505 Pls
973 452 Pls
977 497 Pls
982 572 Pls
986 475 Pls
991 545 Pls
995 492 Pls
999 528 Pls
1004 479 Pls
1008 483 Pls
1013 475 Pls
1017 514 Pls
1021 461 Pls
1026 488 Pls
1030 461 Pls
1035 466 Pls
1039 466 Pls
1044 457 Pls
1048 607 Pls
1052 581 Pls
1057 483 Pls
1061 479 Pls
1066 461 Pls
1070 466 Pls
1074 505 Pls
1079 492 Pls
1083 528 Pls
1088 541 Pls
1092 483 Pls
1096 523 Pls
1101 475 Pls
1105 567 Pls
1110 523 Pls
1114 488 Pls
1119 643 Pls
1123 550 Pls
1127 492 Pls
1132 594 Pls
1136 514 Pls
1141 523 Pls
1145 536 Pls
1149 497 Pls
1154 687 Pls
1158 461 Pls
1163 452 Pls
1167 452 Pls
1172 461 Pls
1176 461 Pls
1180 501 Pls
1185 470 Pls
1189 466 Pls
1194 475 Pls
1198 457 Pls
1202 466 Pls
1207 483 Pls
1211 488 Pls
1216 488 Pls
1220 457 Pls
1224 466 Pls
1229 492 Pls
1233 475 Pls
1238 479 Pls
1242 466 Pls
1247 470 Pls
1251 466 Pls
1255 470 Pls
1260 452 Pls
1264 483 Pls
1269 457 Pls
1273 457 Pls
1277 457 Pls
1282 461 Pls
1286 457 Pls
1291 452 Pls
1295 492 Pls
1299 461 Pls
1304 466 Pls
1308 479 Pls
1313 461 Pls
1317 470 Pls
1322 475 Pls
1326 457 Pls
1330 470 Pls
1335 479 Pls
1339 466 Pls
1344 452 Pls
1348 475 Pls
1352 452 Pls
1357 470 Pls
1361 475 Pls
1366 457 Pls
1370 452 Pls
1374 452 Pls
1379 457 Pls
1383 452 Pls
1388 452 Pls
1392 452 Pls
1397 479 Pls
1401 457 Pls
1405 466 Pls
1410 483 Pls
1414 452 Pls
1419 457 Pls
1423 528 Pls
1427 457 Pls
1432 519 Pls
1436 514 Pls
1441 483 Pls
1445 488 Pls
1449 466 Pls
1454 483 Pls
1458 510 Pls
1463 470 Pls
1467 532 Pls
1472 452 Pls
1476 528 Pls
1480 497 Pls
1485 581 Pls
1489 457 Pls
1494 457 Pls
1498 483 Pls
1502 466 Pls
1507 483 Pls
1511 567 Pls
1516 479 Pls
1520 497 Pls
1524 497 Pls
1529 452 Pls
1533 475 Pls
1538 510 Pls
1542 461 Pls
1547 505 Pls
1551 559 Pls
1555 466 Pls
1560 452 Pls
1564 461 Pls
1569 457 Pls
1573 523 Pls
1577 541 Pls
1582 470 Pls
1586 532 Pls
1591 457 Pls
1595 452 Pls
1599 479 Pls
1604 483 Pls
1608 452 Pls
1613 514 Pls
1617 452 Pls
1622 452 Pls
1626 457 Pls
1630 528 Pls
1635 505 Pls
1639 452 Pls
1644 457 Pls
1648 457 Pls
1652 452 Pls
1657 452 Pls
1661 466 Pls
1666 457 Pls
1670 452 Pls
1674 457 Pls
1679 452 Pls
1683 452 Pls
1688 452 Pls
1692 452 Pls
1697 461 Pls
1701 452 Pls
1705 470 Pls
1710 457 Pls
1714 461 Pls
1719 452 Pls
1723 466 Pls
1727 457 Pls
1732 457 Pls
1736 475 Pls
1741 466 Pls
1745 479 Pls
1749 452 Pls
1754 461 Pls
1758 452 Pls
1763 452 Pls
1767 483 Pls
1772 461 Pls
1776 452 Pls
1780 461 Pls
1785 457 Pls
1789 466 Pls
1794 461 Pls
1798 452 Pls
1802 457 Pls
1807 452 Pls
1811 452 Pls
1816 452 Pls
1820 461 Pls
1825 470 Pls
1829 461 Pls
1833 452 Pls
1838 457 Pls
1842 461 Pls
1847 457 Pls
1851 470 Pls
1855 461 Pls
1860 457 Pls
1864 461 Pls
1869 457 Pls
1873 470 Pls
1877 461 Pls
1882 452 Pls
1886 461 Pls
1891 452 Pls
1895 452 Pls
1900 452 Pls
1904 452 Pls
1908 461 Pls
1913 461 Pls
1917 475 Pls
1922 479 Pls
1926 475 Pls
1930 470 Pls
1935 475 Pls
1939 457 Pls
1944 483 Pls
1948 452 Pls
1952 461 Pls
1957 475 Pls
1961 452 Pls
1966 510 Pls
1970 523 Pls
1975 488 Pls
1979 501 Pls
1983 488 Pls
1988 492 Pls
1992 483 Pls
1997 523 Pls
2001 452 Pls
2005 479 Pls
2010 461 Pls
2014 470 Pls
2019 457 Pls
2023 457 Pls
2027 470 Pls
2032 470 Pls
2036 466 Pls
2041 461 Pls
2045 475 Pls
2050 475 Pls
2054 483 Pls
2058 457 Pls
2063 461 Pls
2067 470 Pls
2072 461 Pls
2076 457 Pls
2080 457 Pls
2085 475 Pls
2089 479 Pls
2094 519 Pls
2098 488 Pls
2102 488 Pls
2107 452 Pls
2111 475 Pls
2116 457 Pls
2120 470 Pls
2125 457 Pls
2129 514 Pls
2133 452 Pls
2138 457 Pls
2142 452 Pls
2147 461 Pls
2151 479 Pls
2155 483 Pls
2160 497 Pls
2164 475 Pls
2169 466 Pls
2173 470 Pls
2177 488 Pls
2182 470 Pls
2186 466 Pls
2191 461 Pls
2195 492 Pls
2200 483 Pls
2204 461 Pls
2208 470 Pls
2213 475 Pls
2217 452 Pls
2222 452 Pls
2226 452 Pls
2230 452 Pls
2235 452 Pls
2239 452 Pls
2244 452 Pls
2248 461 Pls
2252 461 Pls
2257 452 Pls
2261 461 Pls
2266 452 Pls
2270 461 Pls
2275 452 Pls
2279 483 Pls
2283 461 Pls
2288 466 Pls
2292 452 Pls
2297 452 Pls
2301 461 Pls
2305 466 Pls
2310 466 Pls
2314 452 Pls
2319 452 Pls
2323 466 Pls
2327 452 Pls
2332 466 Pls
2336 452 Pls
2341 452 Pls
2345 452 Pls
2350 470 Pls
2354 461 Pls
2358 457 Pls
2363 452 Pls
2367 457 Pls
2372 457 Pls
2376 457 Pls
2380 452 Pls
2385 452 Pls
2389 452 Pls
2394 452 Pls
2398 452 Pls
2402 457 Pls
2407 457 Pls
2411 452 Pls
2416 452 Pls
2420 452 Pls
2425 466 Pls
2429 466 Pls
2433 457 Pls
2438 452 Pls
2442 452 Pls
2447 457 Pls
2451 457 Pls
2455 457 Pls
2460 452 Pls
2464 457 Pls
2469 457 Pls
2473 461 Pls
2477 452 Pls
2482 470 Pls
2486 452 Pls
2491 457 Pls
2495 457 Pls
2500 452 Pls
2504 452 Pls
2508 466 Pls
2513 457 Pls
2517 452 Pls
2522 452 Pls
2526 461 Pls
2530 452 Pls
2535 452 Pls
2539 452 Pls
2544 457 Pls
2548 452 Pls
2553 452 Pls
2557 483 Pls
2561 457 Pls
2566 492 Pls
2570 497 Pls
2575 501 Pls
2579 532 Pls
2583 470 Pls
2588 466 Pls
2592 461 Pls
2597 452 Pls
2601 479 Pls
2605 475 Pls
2610 488 Pls
2614 461 Pls
2619 470 Pls
2623 452 Pls
2628 457 Pls
2632 452 Pls
2636 452 Pls
2641 470 Pls
2645 452 Pls
2650 483 Pls
2654 475 Pls
2658 457 Pls
2663 488 Pls
2667 461 Pls
2672 488 Pls
2676 505 Pls
2680 466 Pls
2685 466 Pls
2689 470 Pls
2694 452 Pls
2698 488 Pls
2703 457 Pls
2707 505 Pls
2711 505 Pls
2716 492 Pls
2720 505 Pls
2725 488 Pls
2729 488 Pls
2733 452 Pls
2738 466 Pls
2742 457 Pls
2747 475 Pls
2751 505 Pls
2755 470 Pls
2760 483 Pls
2764 461 Pls
2769 452 Pls
2773 452 Pls
2778 457 Pls
2782 470 Pls
2786 501 Pls
2791 519 Pls
2795 461 Pls
2800 488 Pls
2804 488 Pls
2808 466 Pls
2813 470 Pls
2817 452 Pls
2822 452 Pls
2826 461 Pls
2830 461 Pls
2835 466 Pls
2839 461 Pls
2844 452 Pls
2848 452 Pls
2853 452 Pls
2857 572 Pls
2861 545 Pls
2866 536 Pls
2870 497 Pls
2875 488 Pls
2879 510 Pls
2883 528 Pls
2888 497 Pls
2892 475 Pls
2897 536 Pls
2901 510 Pls
2905 452 Pls
2910 461 Pls
2914 576 Pls
2919 475 Pls
2923 488 Pls
2928 475 Pls
2932 510 Pls
2936 492 Pls
2941 452 Pls
2945 483 Pls
2950 492 Pls
2954 457 Pls
2958 483 Pls
2963 452 Pls
2967 452 Pls
2972 452 Pls
2976 452 Pls
2980 457 Pls
2985 452 Pls
2989 461 Pls
2994 452 Pls
2998 452 Pls
3003 470 Pls
3007 457 Pls
3011 457 Pls
3016 452 Pls
3020 452 Pls
3025 452 Pls
3029 452 Pls
3033 457 Pls
3038 452 Pls
3042 461 Pls
3047 452 Pls
3051 483 Pls
3055 457 Pls
3060 483 Pls
3064 452 Pls
3069 457 Pls
3073 470 Pls
3078 457 Pls
3082 466 Pls
3086 461 Pls
3091 466 Pls
3095 461 Pls
3100 457 Pls
3104 457 Pls
3108 457 Pls
3113 457 Pls
3117 470 Pls
3122 452 Pls
3126 452 Pls
3130 479 Pls
3135 452 Pls
3139 452 Pls
3144 452 Pls
3148 452 Pls
3153 457 Pls
3157 452 Pls
3161 452 Pls
3166 470 Pls
3170 452 Pls
3175 457 Pls
3179 452 Pls
3183 461 Pls
3188 452 Pls
3192 483 Pls
3197 452 Pls
3201 479 Pls
3206 483 Pls
3210 466 Pls
3214 452 Pls
3219 461 Pls
3223 457 Pls
3228 452 Pls
3232 457 Pls
3236 492 Pls
3241 483 Pls
3245 470 Pls
3250 461 Pls
3254 452 Pls
3258 470 Pls
3263 452 Pls
3267 461 Pls
3272 470 Pls
3276 457 Pls
3281 457 Pls
3285 514 Pls
3289 488 Pls
3294 466 Pls
3298 483 Pls
3303 457 Pls
3307 470 Pls
3311 470 Pls
3316 461 Pls
3320 452 Pls
3325 461 Pls
3329 470 Pls
3333 475 Pls
3338 461 Pls
3342 528 Pls
3347 488 Pls
3351 519 Pls
3356 479 Pls
3360 492 Pls
3364 461 Pls
3369 479 Pls
3373 479 Pls
3378 461 Pls
3382 488 Pls
3386 452 Pls
3391 461 Pls
3395 457 Pls
3400 475 Pls
3404 452 Pls
3408 452 Pls
3413 457 Pls
3417 466 Pls
3422 466 Pls
3426 457 Pls
3431 475 Pls
3435 457 Pls
3439 461 Pls
3444 452 Pls
3448 461 Pls
3453 452 Pls
3457 501 Pls
3461 483 Pls
3466 488 Pls
3470 488 Pls
3475 466 Pls
3479 461 Pls
3483 457 Pls
3488 483 Pls
3492 461 Pls
3497 457 Pls
3501 470 Pls
3506 470 Pls
3510 497 Pls
3514 466 Pls
3519 457 Pls
3523 452 Pls
3528 466 Pls
3532 479 Pls
3536 457 Pls
3541 452 Pls
3545 461 Pls
3550 452 Pls
3554 457 Pls
3558 457 Pls
3563 452 Pls
3567 452 Pls
3572 452 Pls
3576 452 Pls
3581 457 Pls
3585 457 Pls
3589 452 Pls
3594 452 Pls
3598 461 Pls
3603 452 Pls
3607 466 Pls
3611 457 Pls
3616 457 Pls
3620 452 Pls
3625 452 Pls
3629 452 Pls
3633 457 Pls
3638 457 Pls
3642 457 Pls
3647 452 Pls
3651 452 Pls
3656 457 Pls
3660 475 Pls
3664 457 Pls
3669 452 Pls
3673 452 Pls
3678 452 Pls
3682 461 Pls
3686 457 Pls
3691 452 Pls
3695 470 Pls
3700 457 Pls
3704 461 Pls
3708 457 Pls
3713 452 Pls
3717 461 Pls
3722 461 Pls
3726 452 Pls
3731 452 Pls
3735 452 Pls
3739 452 Pls
3744 452 Pls
3748 452 Pls
3753 452 Pls
3757 452 Pls
3761 452 Pls
3766 452 Pls
3770 452 Pls
3775 452 Pls
3779 452 Pls
3783 452 Pls
3788 457 Pls
3792 461 Pls
3797 452 Pls
3801 452 Pls
3806 452 Pls
3810 457 Pls
3814 457 Pls
3819 452 Pls
3823 457 Pls
3828 452 Pls
3832 470 Pls
3836 475 Pls
3841 452 Pls
3845 457 Pls
3850 452 Pls
3854 461 Pls
3859 457 Pls
3863 457 Pls
3867 452 Pls
3872 452 Pls
3876 457 Pls
3881 457 Pls
3885 452 Pls
3889 457 Pls
3894 452 Pls
3898 457 Pls
3903 457 Pls
3907 470 Pls
3911 452 Pls
3916 461 Pls
3920 457 Pls
3925 452 Pls
3929 452 Pls
3934 466 Pls
3938 457 Pls
3942 492 Pls
3947 461 Pls
3951 466 Pls
3956 457 Pls
3960 452 Pls
3964 461 Pls
3969 461 Pls
3973 452 Pls
3978 452 Pls
3982 466 Pls
3986 457 Pls
3991 470 Pls
3995 452 Pls
4000 488 Pls
4004 466 Pls
4009 457 Pls
4013 461 Pls
4017 452 Pls
4022 492 Pls
4026 461 Pls
4031 479 Pls
4035 452 Pls
4039 461 Pls
4044 466 Pls
4048 461 Pls
4053 470 Pls
4057 466 Pls
4061 461 Pls
4066 461 Pls
4070 457 Pls
4075 492 Pls
4079 452 Pls
4084 461 Pls
4088 457 Pls
4092 461 Pls
4097 470 Pls
4101 452 Pls
4106 457 Pls
4110 470 Pls
4114 466 Pls
4119 461 Pls
4123 452 Pls
4128 457 Pls
4132 479 Pls
4136 497 Pls
4141 461 Pls
4145 461 Pls
4150 488 Pls
4154 466 Pls
4159 483 Pls
4163 470 Pls
4167 457 Pls
4172 475 Pls
4176 452 Pls
4181 470 Pls
4185 457 Pls
4189 461 Pls
4194 488 Pls
4198 466 Pls
4203 457 Pls
4207 452 Pls
4211 466 Pls
4216 457 Pls
4220 461 Pls
4225 461 Pls
4229 483 Pls
4234 461 Pls
4238 488 Pls
4242 457 Pls
4247 461 Pls
4251 457 Pls
4256 452 Pls
4260 483 Pls
4264 466 Pls
4269 470 Pls
4273 461 Pls
4278 452 Pls
4282 461 Pls
4286 483 Pls
4291 461 Pls
4295 466 Pls
4300 466 Pls
4304 452 Pls
4309 651 Pls
4313 572 Pls
4317 528 Pls
4322 541 Pls
4326 483 Pls
4331 510 Pls
4335 475 Pls
4339 523 Pls
4344 501 Pls
4348 523 Pls
4353 488 Pls
4357 470 Pls
4361 501 Pls
4366 479 Pls
4370 492 Pls
4375 452 Pls
4379 528 Pls
4384 461 Pls
4388 475 Pls
4392 479 Pls
4397 466 Pls
4401 528 Pls
4406 470 Pls
4410 479 Pls
4414 452 Pls
4419 576 Pls
4423 497 Pls
4428 470 Pls
4432 457 Pls
4436 505 Pls
4441 479 Pls
4445 545 Pls
4450 492 Pls
4454 483 Pls
4459 452 Pls
4463 457 Pls
4467 457 Pls
4472 550 Pls
4476 461 Pls
4481 470 Pls
4485 457 Pls
4489 452 Pls
4494 479 Pls
4498 505 Pls
4503 470 Pls
4507 452 Pls
4511 466 Pls
4516 457 Pls
4520 457 Pls
4525 452 Pls
4529 457 Pls
4534 457 Pls
4538 452 Pls
4542 457 Pls
4547 452 Pls
4551 457 Pls
4556 452 Pls
4560 452 Pls
4564 452 Pls
4569 452 Pls
4573 452 Pls
4578 457 Pls
4582 452 Pls
4587 452 Pls
4591 457 Pls
4595 457 Pls
4600 452 Pls
4604 470 Pls
4609 457 Pls
4613 452 Pls
4617 457 Pls
4622 452 Pls
4626 452 Pls
4631 452 Pls
4635 466 Pls
4639 452 Pls
4644 452 Pls
4648 452 Pls
4653 452 Pls
4657 457 Pls
4662 452 Pls
4666 492 Pls
4670 457 Pls
4675 457 Pls
4679 457 Pls
4684 470 Pls
4688 457 Pls
4692 457 Pls
4697 457 Pls
4701 470 Pls
4706 452 Pls
4710 475 Pls
4714 501 Pls
4719 461 Pls
4723 466 Pls
4728 452 Pls
4732 466 Pls
4737 461 Pls
4741 452 Pls
4745 457 Pls
4750 457 Pls
4754 505 Pls
4759 461 Pls
4763 466 Pls
4767 483 Pls
4772 475 Pls
4776 452 Pls
4781 461 Pls
4785 470 Pls
4789 470 Pls
4794 466 Pls
4798 497 Pls
4803 461 Pls
4807 452 Pls
4812 461 Pls
4816 452 Pls
4820 452 Pls
4825 457 Pls
4829 452 Pls
4834 452 Pls
4838 483 Pls
4842 452 Pls
4847 452 Pls
4851 457 Pls
4856 452 Pls
4860 452 Pls
4864 488 Pls
4869 550 Pls
4873 497 Pls
4878 483 Pls
4882 466 Pls
4887 461 Pls
4891 488 Pls
4895 475 Pls
4900 501 Pls
4904 466 Pls
4909 470 Pls
4913 461 Pls
4917 452 Pls
4922 572 Pls
4926 483 Pls
4931 452 Pls
4935 461 Pls
4939 452 Pls
4944 497 Pls
4948 461 Pls
4953 452 Pls
4957 452 Pls
4962 616 Pls
4966 523 Pls
4970 483 Pls
4975 479 Pls
4979 461 Pls
4984 452 Pls
4988 452 Pls
4992 466 Pls
4997 466 Pls
5001 452 Pls
5006 452 Pls
5010 452 Pls
5014 457 Pls
5019 452 Pls
5023 452 Pls
5028 470 Pls
5032 461 Pls
5037 452 Pls
5041 457 Pls
5045 452 Pls
5050 452 Pls
5054 461 Pls
5059 452 Pls
5063 452 Pls
5067 452 Pls
5072 452 Pls
5076 452 Pls
5081 475 Pls
5085 452 Pls
5089 452 Pls
5094 452 Pls
5098 461 Pls
5103 457 Pls
5107 470 Pls
5112 452 Pls
5116 452 Pls
5120 452 Pls
5125 452 Pls
5129 457 Pls
5134 452 Pls
5138 452 Pls
5142 452 Pls
5147 452 Pls
5151 452 Pls
5156 457 Pls
5160 452 Pls
5164 452 Pls
5169 461 Pls
5173 457 Pls
5178 452 Pls
5182 452 Pls
5187 452 Pls
5191 452 Pls
5195 452 Pls
5200 457 Pls
5204 461 Pls
5209 457 Pls
5213 488 Pls
5217 483 Pls
5222 457 Pls
5226 461 Pls
5231 457 Pls
5235 452 Pls
5240 457 Pls
5244 452 Pls
5248 483 Pls
5253 466 Pls
5257 479 Pls
5262 475 Pls
5266 488 Pls
5270 470 Pls
5275 461 Pls
5279 483 Pls
5284 483 Pls
5288 457 Pls
5292 452 Pls
5297 466 Pls
5301 483 Pls
5306 452 Pls
5310 457 Pls
5315 457 Pls
5319 461 Pls
5323 514 Pls
5328 470 Pls
5332 479 Pls
5337 488 Pls
5341 457 Pls
5345 470 Pls
5350 457 Pls
5354 457 Pls
5359 461 Pls
5363 452 Pls
5367 488 Pls
5372 457 Pls
5376 457 Pls
5381 479 Pls
5385 483 Pls
5390 466 Pls
5394 452 Pls
5398 452 Pls
5403 452 Pls
5407 528 Pls
5412 466 Pls
5416 457 Pls
5420 488 Pls
5425 461 Pls
5429 457 Pls
5434 452 Pls
5438 452 Pls
5442 452 Pls
5447 457 Pls
5451 457 Pls
5456 470 Pls
5460 519 Pls
5465 492 Pls
5469 572 Pls
5473 475 Pls
5478 528 Pls
5482 497 Pls
5487 479 Pls
5491 554 Pls
5495 541 Pls
5500 514 Pls
5504 483 Pls
5509 452 Pls
5513 545 Pls
5517 461 Pls
5522 488 Pls
5526 466 Pls
5531 647 Pls
5535 536 Pls
5540 510 Pls
5544 475 Pls
5548 488 Pls
5553 452 Pls
5557 541 Pls
5562 457 Pls
5566 452 Pls
5570 461 Pls
5575 452 Pls
5579 647 Pls
5584 510 Pls
5588 572 Pls
5592 483 Pls
5597 488 Pls
5601 519 Pls
5606 475 Pls
5610 466 Pls
5615 452 Pls
5619 452 Pls
5623 475 Pls
5628 452 Pls
5632 457 Pls
5637 466 Pls
5641 452 Pls
5645 452 Pls
5650 452 Pls
5654 452 Pls
5659 452 Pls
5663 470 Pls
5667 452 Pls
5672 452 Pls
5676 457 Pls
5681 466 Pls
5685 466 Pls
5690 452 Pls
5694 452 Pls
5698 466 Pls
5703 452 Pls
5707 452 Pls
5712 479 Pls
5716 457 Pls
5720 452 Pls
5725 457 Pls
5729 452 Pls
5734 475 Pls
5738 461 Pls
5742 510 Pls
5747 457 Pls
5751 452 Pls
5756 475 Pls
5760 452 Pls
5765 457 Pls
5769 452 Pls
5773 452 Pls
5778 461 Pls
5782 461 Pls
5787 519 Pls
5791 475 Pls
5795 475 Pls
5800 461 Pls
5804 452 Pls
5809 461 Pls
5813 492 Pls
5817 528 Pls
5822 461 Pls
5826 550 Pls
5831 488 Pls
5835 452 Pls
5840 510 Pls
5844 488 Pls
5848 452 Pls
5853 492 Pls
5857 452 Pls
5862 452 Pls
5866 461 Pls
5870 452 Pls
5875 461 Pls
5879 457 Pls
5884 452 Pls
5888 461 Pls
5892 457 Pls
5897 452 Pls
5901 452 Pls
5906 452 Pls
5910 452 Pls
5915 461 Pls
5919 452 Pls
5923 457 Pls
5928 452 Pls
5932 457 Pls
5937 452 Pls
5941 452 Pls
5945 452 Pls
5950 457 Pls
5954 457 Pls
5959 457 Pls
5963 452 Pls
5968 457 Pls
5972 461 Pls
5976 452 Pls
5981 452 Pls
5985 461 Pls
5990 457 Pls
5994 452 Pls
5998 452 Pls
6003 452 Pls
6007 466 Pls
6012 479 Pls
6016 461 Pls
6020 466 Pls
6025 457 Pls
6029 452 Pls
6034 541 Pls
6038 475 Pls
6043 470 Pls
6047 452 Pls
6051 452 Pls
6056 452 Pls
6060 581 Pls
6065 501 Pls
6069 475 Pls
6073 466 Pls
6078 457 Pls
6082 452 Pls
6087 457 Pls
6091 749 Pls
6095 452 Pls
6100 457 Pls
6104 457 Pls
6109 452 Pls
6113 452 Pls
6118 457 Pls
6122 452 Pls
6126 466 Pls
6131 452 Pls
6135 452 Pls
6140 452 Pls
6144 457 Pls
6148 457 Pls
6153 452 Pls
6157 452 Pls
6162 452 Pls
6166 457 Pls
6170 452 Pls
6175 452 Pls
6179 452 Pls
6184 452 Pls
6188 452 Pls
6193 461 Pls
6197 452 Pls
6201 452 Pls
6206 452 Pls
6210 452 Pls
6215 466 Pls
6219 452 Pls
6223 452 Pls
6228 452 Pls
6232 452 Pls
6237 452 Pls
6241 452 Pls
6245 452 Pls
6250 452 Pls
6254 452 Pls
6259 452 Pls
6263 457 Pls
6579 4738 Pls
% End plot #1
1.000 UL
LTb
770 4871 N
770 448 L
6177 0 V
0 4423 V
-6177 0 V
Z stroke
1.000 UP
1.000 UL
LTb
stroke
grestore
end
showpage
%%Trailer
%%DocumentFonts: Helvetica
