%!PS-Adobe-2.0 EPSF-2.0
%%Title: ../plots/domainstats/states-sorted-by-ply-visit-count-over-avg-num-plies-nannon-p-1.00.eps
%%Creator: gnuplot 4.4 patchlevel 3
%%CreationDate: Wed Dec 14 04:42:17 2011
%%DocumentFonts: (atend)
%%BoundingBox: 50 50 410 302
%%EndComments
%%BeginProlog
/gnudict 256 dict def
gnudict begin
%
% The following true/false flags may be edited by hand if desired.
% The unit line width and grayscale image gamma correction may also be changed.
%
/Color true def
/Blacktext false def
/Solid false def
/Dashlength 1 def
/Landscape false def
/Level1 false def
/Rounded false def
/ClipToBoundingBox false def
/TransparentPatterns false def
/gnulinewidth 5.000 def
/userlinewidth gnulinewidth def
/Gamma 1.0 def
%
/vshift -46 def
/dl1 {
  10.0 Dashlength mul mul
  Rounded { currentlinewidth 0.75 mul sub dup 0 le { pop 0.01 } if } if
} def
/dl2 {
  10.0 Dashlength mul mul
  Rounded { currentlinewidth 0.75 mul add } if
} def
/hpt_ 31.5 def
/vpt_ 31.5 def
/hpt hpt_ def
/vpt vpt_ def
Level1 {} {
/SDict 10 dict def
systemdict /pdfmark known not {
  userdict /pdfmark systemdict /cleartomark get put
} if
SDict begin [
  /Title (../plots/domainstats/states-sorted-by-ply-visit-count-over-avg-num-plies-nannon-p-1.00.eps)
  /Subject (gnuplot plot)
  /Creator (gnuplot 4.4 patchlevel 3)
  /Author (reza)
%  /Producer (gnuplot)
%  /Keywords ()
  /CreationDate (Wed Dec 14 04:42:17 2011)
  /DOCINFO pdfmark
end
} ifelse
/doclip {
  ClipToBoundingBox {
    newpath 50 50 moveto 410 50 lineto 410 302 lineto 50 302 lineto closepath
    clip
  } if
} def
%
% Gnuplot Prolog Version 4.4 (August 2010)
%
%/SuppressPDFMark true def
%
/M {moveto} bind def
/L {lineto} bind def
/R {rmoveto} bind def
/V {rlineto} bind def
/N {newpath moveto} bind def
/Z {closepath} bind def
/C {setrgbcolor} bind def
/f {rlineto fill} bind def
/g {setgray} bind def
/Gshow {show} def   % May be redefined later in the file to support UTF-8
/vpt2 vpt 2 mul def
/hpt2 hpt 2 mul def
/Lshow {currentpoint stroke M 0 vshift R 
	Blacktext {gsave 0 setgray show grestore} {show} ifelse} def
/Rshow {currentpoint stroke M dup stringwidth pop neg vshift R
	Blacktext {gsave 0 setgray show grestore} {show} ifelse} def
/Cshow {currentpoint stroke M dup stringwidth pop -2 div vshift R 
	Blacktext {gsave 0 setgray show grestore} {show} ifelse} def
/UP {dup vpt_ mul /vpt exch def hpt_ mul /hpt exch def
  /hpt2 hpt 2 mul def /vpt2 vpt 2 mul def} def
/DL {Color {setrgbcolor Solid {pop []} if 0 setdash}
 {pop pop pop 0 setgray Solid {pop []} if 0 setdash} ifelse} def
/BL {stroke userlinewidth 2 mul setlinewidth
	Rounded {1 setlinejoin 1 setlinecap} if} def
/AL {stroke userlinewidth 2 div setlinewidth
	Rounded {1 setlinejoin 1 setlinecap} if} def
/UL {dup gnulinewidth mul /userlinewidth exch def
	dup 1 lt {pop 1} if 10 mul /udl exch def} def
/PL {stroke userlinewidth setlinewidth
	Rounded {1 setlinejoin 1 setlinecap} if} def
3.8 setmiterlimit
% Default Line colors
/LCw {1 1 1} def
/LCb {0 0 0} def
/LCa {0 0 0} def
/LC0 {1 0 0} def
/LC1 {0 1 0} def
/LC2 {0 0 1} def
/LC3 {1 0 1} def
/LC4 {0 1 1} def
/LC5 {1 1 0} def
/LC6 {0 0 0} def
/LC7 {1 0.3 0} def
/LC8 {0.5 0.5 0.5} def
% Default Line Types
/LTw {PL [] 1 setgray} def
/LTb {BL [] LCb DL} def
/LTa {AL [1 udl mul 2 udl mul] 0 setdash LCa setrgbcolor} def
/LT0 {PL [] LC0 DL} def
/LT1 {PL [4 dl1 2 dl2] LC1 DL} def
/LT2 {PL [2 dl1 3 dl2] LC2 DL} def
/LT3 {PL [1 dl1 1.5 dl2] LC3 DL} def
/LT4 {PL [6 dl1 2 dl2 1 dl1 2 dl2] LC4 DL} def
/LT5 {PL [3 dl1 3 dl2 1 dl1 3 dl2] LC5 DL} def
/LT6 {PL [2 dl1 2 dl2 2 dl1 6 dl2] LC6 DL} def
/LT7 {PL [1 dl1 2 dl2 6 dl1 2 dl2 1 dl1 2 dl2] LC7 DL} def
/LT8 {PL [2 dl1 2 dl2 2 dl1 2 dl2 2 dl1 2 dl2 2 dl1 4 dl2] LC8 DL} def
/Pnt {stroke [] 0 setdash gsave 1 setlinecap M 0 0 V stroke grestore} def
/Dia {stroke [] 0 setdash 2 copy vpt add M
  hpt neg vpt neg V hpt vpt neg V
  hpt vpt V hpt neg vpt V closepath stroke
  Pnt} def
/Pls {stroke [] 0 setdash vpt sub M 0 vpt2 V
  currentpoint stroke M
  hpt neg vpt neg R hpt2 0 V stroke
 } def
/Box {stroke [] 0 setdash 2 copy exch hpt sub exch vpt add M
  0 vpt2 neg V hpt2 0 V 0 vpt2 V
  hpt2 neg 0 V closepath stroke
  Pnt} def
/Crs {stroke [] 0 setdash exch hpt sub exch vpt add M
  hpt2 vpt2 neg V currentpoint stroke M
  hpt2 neg 0 R hpt2 vpt2 V stroke} def
/TriU {stroke [] 0 setdash 2 copy vpt 1.12 mul add M
  hpt neg vpt -1.62 mul V
  hpt 2 mul 0 V
  hpt neg vpt 1.62 mul V closepath stroke
  Pnt} def
/Star {2 copy Pls Crs} def
/BoxF {stroke [] 0 setdash exch hpt sub exch vpt add M
  0 vpt2 neg V hpt2 0 V 0 vpt2 V
  hpt2 neg 0 V closepath fill} def
/TriUF {stroke [] 0 setdash vpt 1.12 mul add M
  hpt neg vpt -1.62 mul V
  hpt 2 mul 0 V
  hpt neg vpt 1.62 mul V closepath fill} def
/TriD {stroke [] 0 setdash 2 copy vpt 1.12 mul sub M
  hpt neg vpt 1.62 mul V
  hpt 2 mul 0 V
  hpt neg vpt -1.62 mul V closepath stroke
  Pnt} def
/TriDF {stroke [] 0 setdash vpt 1.12 mul sub M
  hpt neg vpt 1.62 mul V
  hpt 2 mul 0 V
  hpt neg vpt -1.62 mul V closepath fill} def
/DiaF {stroke [] 0 setdash vpt add M
  hpt neg vpt neg V hpt vpt neg V
  hpt vpt V hpt neg vpt V closepath fill} def
/Pent {stroke [] 0 setdash 2 copy gsave
  translate 0 hpt M 4 {72 rotate 0 hpt L} repeat
  closepath stroke grestore Pnt} def
/PentF {stroke [] 0 setdash gsave
  translate 0 hpt M 4 {72 rotate 0 hpt L} repeat
  closepath fill grestore} def
/Circle {stroke [] 0 setdash 2 copy
  hpt 0 360 arc stroke Pnt} def
/CircleF {stroke [] 0 setdash hpt 0 360 arc fill} def
/C0 {BL [] 0 setdash 2 copy moveto vpt 90 450 arc} bind def
/C1 {BL [] 0 setdash 2 copy moveto
	2 copy vpt 0 90 arc closepath fill
	vpt 0 360 arc closepath} bind def
/C2 {BL [] 0 setdash 2 copy moveto
	2 copy vpt 90 180 arc closepath fill
	vpt 0 360 arc closepath} bind def
/C3 {BL [] 0 setdash 2 copy moveto
	2 copy vpt 0 180 arc closepath fill
	vpt 0 360 arc closepath} bind def
/C4 {BL [] 0 setdash 2 copy moveto
	2 copy vpt 180 270 arc closepath fill
	vpt 0 360 arc closepath} bind def
/C5 {BL [] 0 setdash 2 copy moveto
	2 copy vpt 0 90 arc
	2 copy moveto
	2 copy vpt 180 270 arc closepath fill
	vpt 0 360 arc} bind def
/C6 {BL [] 0 setdash 2 copy moveto
	2 copy vpt 90 270 arc closepath fill
	vpt 0 360 arc closepath} bind def
/C7 {BL [] 0 setdash 2 copy moveto
	2 copy vpt 0 270 arc closepath fill
	vpt 0 360 arc closepath} bind def
/C8 {BL [] 0 setdash 2 copy moveto
	2 copy vpt 270 360 arc closepath fill
	vpt 0 360 arc closepath} bind def
/C9 {BL [] 0 setdash 2 copy moveto
	2 copy vpt 270 450 arc closepath fill
	vpt 0 360 arc closepath} bind def
/C10 {BL [] 0 setdash 2 copy 2 copy moveto vpt 270 360 arc closepath fill
	2 copy moveto
	2 copy vpt 90 180 arc closepath fill
	vpt 0 360 arc closepath} bind def
/C11 {BL [] 0 setdash 2 copy moveto
	2 copy vpt 0 180 arc closepath fill
	2 copy moveto
	2 copy vpt 270 360 arc closepath fill
	vpt 0 360 arc closepath} bind def
/C12 {BL [] 0 setdash 2 copy moveto
	2 copy vpt 180 360 arc closepath fill
	vpt 0 360 arc closepath} bind def
/C13 {BL [] 0 setdash 2 copy moveto
	2 copy vpt 0 90 arc closepath fill
	2 copy moveto
	2 copy vpt 180 360 arc closepath fill
	vpt 0 360 arc closepath} bind def
/C14 {BL [] 0 setdash 2 copy moveto
	2 copy vpt 90 360 arc closepath fill
	vpt 0 360 arc} bind def
/C15 {BL [] 0 setdash 2 copy vpt 0 360 arc closepath fill
	vpt 0 360 arc closepath} bind def
/Rec {newpath 4 2 roll moveto 1 index 0 rlineto 0 exch rlineto
	neg 0 rlineto closepath} bind def
/Square {dup Rec} bind def
/Bsquare {vpt sub exch vpt sub exch vpt2 Square} bind def
/S0 {BL [] 0 setdash 2 copy moveto 0 vpt rlineto BL Bsquare} bind def
/S1 {BL [] 0 setdash 2 copy vpt Square fill Bsquare} bind def
/S2 {BL [] 0 setdash 2 copy exch vpt sub exch vpt Square fill Bsquare} bind def
/S3 {BL [] 0 setdash 2 copy exch vpt sub exch vpt2 vpt Rec fill Bsquare} bind def
/S4 {BL [] 0 setdash 2 copy exch vpt sub exch vpt sub vpt Square fill Bsquare} bind def
/S5 {BL [] 0 setdash 2 copy 2 copy vpt Square fill
	exch vpt sub exch vpt sub vpt Square fill Bsquare} bind def
/S6 {BL [] 0 setdash 2 copy exch vpt sub exch vpt sub vpt vpt2 Rec fill Bsquare} bind def
/S7 {BL [] 0 setdash 2 copy exch vpt sub exch vpt sub vpt vpt2 Rec fill
	2 copy vpt Square fill Bsquare} bind def
/S8 {BL [] 0 setdash 2 copy vpt sub vpt Square fill Bsquare} bind def
/S9 {BL [] 0 setdash 2 copy vpt sub vpt vpt2 Rec fill Bsquare} bind def
/S10 {BL [] 0 setdash 2 copy vpt sub vpt Square fill 2 copy exch vpt sub exch vpt Square fill
	Bsquare} bind def
/S11 {BL [] 0 setdash 2 copy vpt sub vpt Square fill 2 copy exch vpt sub exch vpt2 vpt Rec fill
	Bsquare} bind def
/S12 {BL [] 0 setdash 2 copy exch vpt sub exch vpt sub vpt2 vpt Rec fill Bsquare} bind def
/S13 {BL [] 0 setdash 2 copy exch vpt sub exch vpt sub vpt2 vpt Rec fill
	2 copy vpt Square fill Bsquare} bind def
/S14 {BL [] 0 setdash 2 copy exch vpt sub exch vpt sub vpt2 vpt Rec fill
	2 copy exch vpt sub exch vpt Square fill Bsquare} bind def
/S15 {BL [] 0 setdash 2 copy Bsquare fill Bsquare} bind def
/D0 {gsave translate 45 rotate 0 0 S0 stroke grestore} bind def
/D1 {gsave translate 45 rotate 0 0 S1 stroke grestore} bind def
/D2 {gsave translate 45 rotate 0 0 S2 stroke grestore} bind def
/D3 {gsave translate 45 rotate 0 0 S3 stroke grestore} bind def
/D4 {gsave translate 45 rotate 0 0 S4 stroke grestore} bind def
/D5 {gsave translate 45 rotate 0 0 S5 stroke grestore} bind def
/D6 {gsave translate 45 rotate 0 0 S6 stroke grestore} bind def
/D7 {gsave translate 45 rotate 0 0 S7 stroke grestore} bind def
/D8 {gsave translate 45 rotate 0 0 S8 stroke grestore} bind def
/D9 {gsave translate 45 rotate 0 0 S9 stroke grestore} bind def
/D10 {gsave translate 45 rotate 0 0 S10 stroke grestore} bind def
/D11 {gsave translate 45 rotate 0 0 S11 stroke grestore} bind def
/D12 {gsave translate 45 rotate 0 0 S12 stroke grestore} bind def
/D13 {gsave translate 45 rotate 0 0 S13 stroke grestore} bind def
/D14 {gsave translate 45 rotate 0 0 S14 stroke grestore} bind def
/D15 {gsave translate 45 rotate 0 0 S15 stroke grestore} bind def
/DiaE {stroke [] 0 setdash vpt add M
  hpt neg vpt neg V hpt vpt neg V
  hpt vpt V hpt neg vpt V closepath stroke} def
/BoxE {stroke [] 0 setdash exch hpt sub exch vpt add M
  0 vpt2 neg V hpt2 0 V 0 vpt2 V
  hpt2 neg 0 V closepath stroke} def
/TriUE {stroke [] 0 setdash vpt 1.12 mul add M
  hpt neg vpt -1.62 mul V
  hpt 2 mul 0 V
  hpt neg vpt 1.62 mul V closepath stroke} def
/TriDE {stroke [] 0 setdash vpt 1.12 mul sub M
  hpt neg vpt 1.62 mul V
  hpt 2 mul 0 V
  hpt neg vpt -1.62 mul V closepath stroke} def
/PentE {stroke [] 0 setdash gsave
  translate 0 hpt M 4 {72 rotate 0 hpt L} repeat
  closepath stroke grestore} def
/CircE {stroke [] 0 setdash 
  hpt 0 360 arc stroke} def
/Opaque {gsave closepath 1 setgray fill grestore 0 setgray closepath} def
/DiaW {stroke [] 0 setdash vpt add M
  hpt neg vpt neg V hpt vpt neg V
  hpt vpt V hpt neg vpt V Opaque stroke} def
/BoxW {stroke [] 0 setdash exch hpt sub exch vpt add M
  0 vpt2 neg V hpt2 0 V 0 vpt2 V
  hpt2 neg 0 V Opaque stroke} def
/TriUW {stroke [] 0 setdash vpt 1.12 mul add M
  hpt neg vpt -1.62 mul V
  hpt 2 mul 0 V
  hpt neg vpt 1.62 mul V Opaque stroke} def
/TriDW {stroke [] 0 setdash vpt 1.12 mul sub M
  hpt neg vpt 1.62 mul V
  hpt 2 mul 0 V
  hpt neg vpt -1.62 mul V Opaque stroke} def
/PentW {stroke [] 0 setdash gsave
  translate 0 hpt M 4 {72 rotate 0 hpt L} repeat
  Opaque stroke grestore} def
/CircW {stroke [] 0 setdash 
  hpt 0 360 arc Opaque stroke} def
/BoxFill {gsave Rec 1 setgray fill grestore} def
/Density {
  /Fillden exch def
  currentrgbcolor
  /ColB exch def /ColG exch def /ColR exch def
  /ColR ColR Fillden mul Fillden sub 1 add def
  /ColG ColG Fillden mul Fillden sub 1 add def
  /ColB ColB Fillden mul Fillden sub 1 add def
  ColR ColG ColB setrgbcolor} def
/BoxColFill {gsave Rec PolyFill} def
/PolyFill {gsave Density fill grestore grestore} def
/h {rlineto rlineto rlineto gsave closepath fill grestore} bind def
%
% PostScript Level 1 Pattern Fill routine for rectangles
% Usage: x y w h s a XX PatternFill
%	x,y = lower left corner of box to be filled
%	w,h = width and height of box
%	  a = angle in degrees between lines and x-axis
%	 XX = 0/1 for no/yes cross-hatch
%
/PatternFill {gsave /PFa [ 9 2 roll ] def
  PFa 0 get PFa 2 get 2 div add PFa 1 get PFa 3 get 2 div add translate
  PFa 2 get -2 div PFa 3 get -2 div PFa 2 get PFa 3 get Rec
  gsave 1 setgray fill grestore clip
  currentlinewidth 0.5 mul setlinewidth
  /PFs PFa 2 get dup mul PFa 3 get dup mul add sqrt def
  0 0 M PFa 5 get rotate PFs -2 div dup translate
  0 1 PFs PFa 4 get div 1 add floor cvi
	{PFa 4 get mul 0 M 0 PFs V} for
  0 PFa 6 get ne {
	0 1 PFs PFa 4 get div 1 add floor cvi
	{PFa 4 get mul 0 2 1 roll M PFs 0 V} for
 } if
  stroke grestore} def
%
/languagelevel where
 {pop languagelevel} {1} ifelse
 2 lt
	{/InterpretLevel1 true def}
	{/InterpretLevel1 Level1 def}
 ifelse
%
% PostScript level 2 pattern fill definitions
%
/Level2PatternFill {
/Tile8x8 {/PaintType 2 /PatternType 1 /TilingType 1 /BBox [0 0 8 8] /XStep 8 /YStep 8}
	bind def
/KeepColor {currentrgbcolor [/Pattern /DeviceRGB] setcolorspace} bind def
<< Tile8x8
 /PaintProc {0.5 setlinewidth pop 0 0 M 8 8 L 0 8 M 8 0 L stroke} 
>> matrix makepattern
/Pat1 exch def
<< Tile8x8
 /PaintProc {0.5 setlinewidth pop 0 0 M 8 8 L 0 8 M 8 0 L stroke
	0 4 M 4 8 L 8 4 L 4 0 L 0 4 L stroke}
>> matrix makepattern
/Pat2 exch def
<< Tile8x8
 /PaintProc {0.5 setlinewidth pop 0 0 M 0 8 L
	8 8 L 8 0 L 0 0 L fill}
>> matrix makepattern
/Pat3 exch def
<< Tile8x8
 /PaintProc {0.5 setlinewidth pop -4 8 M 8 -4 L
	0 12 M 12 0 L stroke}
>> matrix makepattern
/Pat4 exch def
<< Tile8x8
 /PaintProc {0.5 setlinewidth pop -4 0 M 8 12 L
	0 -4 M 12 8 L stroke}
>> matrix makepattern
/Pat5 exch def
<< Tile8x8
 /PaintProc {0.5 setlinewidth pop -2 8 M 4 -4 L
	0 12 M 8 -4 L 4 12 M 10 0 L stroke}
>> matrix makepattern
/Pat6 exch def
<< Tile8x8
 /PaintProc {0.5 setlinewidth pop -2 0 M 4 12 L
	0 -4 M 8 12 L 4 -4 M 10 8 L stroke}
>> matrix makepattern
/Pat7 exch def
<< Tile8x8
 /PaintProc {0.5 setlinewidth pop 8 -2 M -4 4 L
	12 0 M -4 8 L 12 4 M 0 10 L stroke}
>> matrix makepattern
/Pat8 exch def
<< Tile8x8
 /PaintProc {0.5 setlinewidth pop 0 -2 M 12 4 L
	-4 0 M 12 8 L -4 4 M 8 10 L stroke}
>> matrix makepattern
/Pat9 exch def
/Pattern1 {PatternBgnd KeepColor Pat1 setpattern} bind def
/Pattern2 {PatternBgnd KeepColor Pat2 setpattern} bind def
/Pattern3 {PatternBgnd KeepColor Pat3 setpattern} bind def
/Pattern4 {PatternBgnd KeepColor Landscape {Pat5} {Pat4} ifelse setpattern} bind def
/Pattern5 {PatternBgnd KeepColor Landscape {Pat4} {Pat5} ifelse setpattern} bind def
/Pattern6 {PatternBgnd KeepColor Landscape {Pat9} {Pat6} ifelse setpattern} bind def
/Pattern7 {PatternBgnd KeepColor Landscape {Pat8} {Pat7} ifelse setpattern} bind def
} def
%
%
%End of PostScript Level 2 code
%
/PatternBgnd {
  TransparentPatterns {} {gsave 1 setgray fill grestore} ifelse
} def
%
% Substitute for Level 2 pattern fill codes with
% grayscale if Level 2 support is not selected.
%
/Level1PatternFill {
/Pattern1 {0.250 Density} bind def
/Pattern2 {0.500 Density} bind def
/Pattern3 {0.750 Density} bind def
/Pattern4 {0.125 Density} bind def
/Pattern5 {0.375 Density} bind def
/Pattern6 {0.625 Density} bind def
/Pattern7 {0.875 Density} bind def
} def
%
% Now test for support of Level 2 code
%
Level1 {Level1PatternFill} {Level2PatternFill} ifelse
%
/Symbol-Oblique /Symbol findfont [1 0 .167 1 0 0] makefont
dup length dict begin {1 index /FID eq {pop pop} {def} ifelse} forall
currentdict end definefont pop
end
%%EndProlog
gnudict begin
gsave
doclip
50 50 translate
0.050 0.050 scale
0 setgray
newpath
(Helvetica) findfont 140 scalefont setfont
1.000 UL
LTb
602 448 M
63 0 V
6282 0 R
-63 0 V
518 448 M
( 0) Rshow
1.000 UL
LTb
602 1001 M
63 0 V
6282 0 R
-63 0 V
-6366 0 R
( 10) Rshow
1.000 UL
LTb
602 1554 M
63 0 V
6282 0 R
-63 0 V
-6366 0 R
( 20) Rshow
1.000 UL
LTb
602 2107 M
63 0 V
6282 0 R
-63 0 V
-6366 0 R
( 30) Rshow
1.000 UL
LTb
602 2660 M
63 0 V
6282 0 R
-63 0 V
-6366 0 R
( 40) Rshow
1.000 UL
LTb
602 3212 M
63 0 V
6282 0 R
-63 0 V
-6366 0 R
( 50) Rshow
1.000 UL
LTb
602 3765 M
63 0 V
6282 0 R
-63 0 V
-6366 0 R
( 60) Rshow
1.000 UL
LTb
602 4318 M
63 0 V
6282 0 R
-63 0 V
-6366 0 R
( 70) Rshow
1.000 UL
LTb
602 4871 M
63 0 V
6282 0 R
-63 0 V
-6366 0 R
( 80) Rshow
1.000 UL
LTb
602 448 M
0 63 V
0 4360 R
0 -63 V
602 308 M
( 0) Cshow
1.000 UL
LTb
1307 448 M
0 63 V
0 4360 R
0 -63 V
0 -4500 R
( 200) Cshow
1.000 UL
LTb
2012 448 M
0 63 V
0 4360 R
0 -63 V
0 -4500 R
( 400) Cshow
1.000 UL
LTb
2717 448 M
0 63 V
0 4360 R
0 -63 V
0 -4500 R
( 600) Cshow
1.000 UL
LTb
3422 448 M
0 63 V
0 4360 R
0 -63 V
0 -4500 R
( 800) Cshow
1.000 UL
LTb
4127 448 M
0 63 V
0 4360 R
0 -63 V
0 -4500 R
( 1000) Cshow
1.000 UL
LTb
4832 448 M
0 63 V
0 4360 R
0 -63 V
0 -4500 R
( 1200) Cshow
1.000 UL
LTb
5537 448 M
0 63 V
0 4360 R
0 -63 V
0 -4500 R
( 1400) Cshow
1.000 UL
LTb
6242 448 M
0 63 V
0 4360 R
0 -63 V
0 -4500 R
( 1600) Cshow
1.000 UL
LTb
6947 448 M
0 63 V
0 4360 R
0 -63 V
0 -4500 R
( 1800) Cshow
1.000 UL
LTb
1.000 UL
LTb
602 4871 N
602 448 L
6345 0 V
0 4423 V
-6345 0 V
Z stroke
LCb setrgbcolor
112 2659 M
currentpoint gsave translate -270 rotate 0 0 M
(Visit Count per 1000 Plies) Cshow
grestore
LTb
LCb setrgbcolor
3774 98 M
(States \(Sorted by Earliest Visit Time\)) Cshow
LTb
1.000 UP
1.000 UL
LTb
% Begin plot #1
1.000 UP
1.000 UL
LT0
LCb setrgbcolor
6296 4738 M
(p = 1.00) Rshow
LT0
602 4687 Pls
606 774 Pls
609 846 Pls
613 584 Pls
616 880 Pls
620 579 Pls
623 689 Pls
627 1202 Pls
630 1219 Pls
634 884 Pls
637 795 Pls
641 588 Pls
644 689 Pls
648 744 Pls
651 617 Pls
655 486 Pls
658 512 Pls
662 507 Pls
665 520 Pls
669 473 Pls
672 456 Pls
676 486 Pls
680 473 Pls
683 562 Pls
687 465 Pls
690 490 Pls
694 567 Pls
697 740 Pls
701 910 Pls
704 520 Pls
708 499 Pls
711 562 Pls
715 512 Pls
718 550 Pls
722 524 Pls
725 550 Pls
729 495 Pls
732 516 Pls
736 533 Pls
739 516 Pls
743 499 Pls
747 499 Pls
750 486 Pls
754 465 Pls
757 473 Pls
761 495 Pls
764 469 Pls
768 452 Pls
771 482 Pls
775 469 Pls
778 465 Pls
782 461 Pls
785 478 Pls
789 490 Pls
792 613 Pls
796 668 Pls
799 719 Pls
803 490 Pls
806 482 Pls
810 465 Pls
813 533 Pls
817 528 Pls
821 490 Pls
824 571 Pls
828 520 Pls
831 588 Pls
835 579 Pls
838 533 Pls
842 545 Pls
845 507 Pls
849 461 Pls
852 469 Pls
856 520 Pls
859 571 Pls
863 469 Pls
866 478 Pls
870 456 Pls
873 499 Pls
877 495 Pls
880 478 Pls
884 490 Pls
888 499 Pls
891 711 Pls
895 639 Pls
898 571 Pls
902 478 Pls
905 499 Pls
909 478 Pls
912 469 Pls
916 486 Pls
919 499 Pls
923 490 Pls
926 461 Pls
930 537 Pls
933 486 Pls
937 490 Pls
940 537 Pls
944 550 Pls
947 528 Pls
951 596 Pls
954 499 Pls
958 486 Pls
962 503 Pls
965 478 Pls
969 571 Pls
972 545 Pls
976 461 Pls
979 461 Pls
983 456 Pls
986 473 Pls
990 490 Pls
993 469 Pls
997 512 Pls
1000 512 Pls
1004 473 Pls
1007 478 Pls
1011 465 Pls
1014 507 Pls
1018 512 Pls
1021 486 Pls
1025 507 Pls
1029 486 Pls
1032 478 Pls
1036 512 Pls
1039 537 Pls
1043 507 Pls
1046 461 Pls
1050 461 Pls
1053 461 Pls
1057 469 Pls
1060 486 Pls
1064 465 Pls
1067 452 Pls
1071 465 Pls
1074 473 Pls
1078 452 Pls
1081 456 Pls
1085 452 Pls
1088 456 Pls
1092 469 Pls
1095 461 Pls
1099 469 Pls
1103 473 Pls
1106 456 Pls
1110 490 Pls
1113 469 Pls
1117 456 Pls
1120 465 Pls
1124 461 Pls
1127 482 Pls
1131 461 Pls
1134 473 Pls
1138 456 Pls
1141 461 Pls
1145 469 Pls
1148 452 Pls
1152 473 Pls
1155 469 Pls
1159 520 Pls
1162 507 Pls
1166 461 Pls
1170 465 Pls
1173 495 Pls
1177 507 Pls
1180 478 Pls
1184 456 Pls
1187 456 Pls
1191 452 Pls
1194 486 Pls
1198 482 Pls
1201 482 Pls
1205 473 Pls
1208 482 Pls
1212 499 Pls
1215 512 Pls
1219 469 Pls
1222 503 Pls
1226 461 Pls
1229 495 Pls
1233 495 Pls
1236 495 Pls
1240 558 Pls
1244 473 Pls
1247 473 Pls
1251 482 Pls
1254 516 Pls
1258 499 Pls
1261 520 Pls
1265 516 Pls
1268 461 Pls
1272 486 Pls
1275 490 Pls
1279 469 Pls
1282 461 Pls
1286 465 Pls
1289 452 Pls
1293 520 Pls
1296 528 Pls
1300 495 Pls
1303 452 Pls
1307 456 Pls
1311 473 Pls
1314 452 Pls
1318 461 Pls
1321 456 Pls
1325 456 Pls
1328 461 Pls
1332 478 Pls
1335 503 Pls
1339 482 Pls
1342 452 Pls
1346 520 Pls
1349 461 Pls
1353 452 Pls
1356 456 Pls
1360 465 Pls
1363 456 Pls
1367 469 Pls
1370 461 Pls
1374 461 Pls
1377 456 Pls
1381 461 Pls
1385 486 Pls
1388 482 Pls
1392 452 Pls
1395 473 Pls
1399 461 Pls
1402 456 Pls
1406 461 Pls
1409 486 Pls
1413 490 Pls
1416 469 Pls
1420 456 Pls
1423 461 Pls
1427 486 Pls
1430 465 Pls
1434 486 Pls
1437 469 Pls
1441 465 Pls
1444 469 Pls
1448 503 Pls
1452 473 Pls
1455 456 Pls
1459 465 Pls
1462 456 Pls
1466 461 Pls
1469 461 Pls
1473 461 Pls
1476 478 Pls
1480 469 Pls
1483 452 Pls
1487 465 Pls
1490 473 Pls
1494 473 Pls
1497 465 Pls
1501 524 Pls
1504 503 Pls
1508 490 Pls
1511 465 Pls
1515 473 Pls
1518 461 Pls
1522 452 Pls
1526 461 Pls
1529 465 Pls
1533 486 Pls
1536 473 Pls
1540 465 Pls
1543 482 Pls
1547 469 Pls
1550 461 Pls
1554 469 Pls
1557 461 Pls
1561 452 Pls
1564 456 Pls
1568 503 Pls
1571 478 Pls
1575 486 Pls
1578 490 Pls
1582 473 Pls
1585 533 Pls
1589 503 Pls
1593 516 Pls
1596 495 Pls
1600 486 Pls
1603 469 Pls
1607 520 Pls
1610 516 Pls
1614 520 Pls
1617 486 Pls
1621 465 Pls
1624 473 Pls
1628 503 Pls
1631 473 Pls
1635 490 Pls
1638 452 Pls
1642 465 Pls
1645 478 Pls
1649 490 Pls
1652 461 Pls
1656 478 Pls
1659 473 Pls
1663 452 Pls
1667 537 Pls
1670 579 Pls
1674 478 Pls
1677 465 Pls
1681 550 Pls
1684 512 Pls
1688 495 Pls
1691 456 Pls
1695 452 Pls
1698 507 Pls
1702 478 Pls
1705 495 Pls
1709 486 Pls
1712 456 Pls
1716 461 Pls
1719 482 Pls
1723 482 Pls
1726 469 Pls
1730 465 Pls
1734 478 Pls
1737 482 Pls
1741 461 Pls
1744 456 Pls
1748 469 Pls
1751 465 Pls
1755 456 Pls
1758 452 Pls
1762 452 Pls
1765 473 Pls
1769 473 Pls
1772 469 Pls
1776 456 Pls
1779 456 Pls
1783 456 Pls
1786 461 Pls
1790 469 Pls
1793 456 Pls
1797 473 Pls
1800 456 Pls
1804 461 Pls
1808 461 Pls
1811 461 Pls
1815 469 Pls
1818 452 Pls
1822 461 Pls
1825 469 Pls
1829 499 Pls
1832 456 Pls
1836 461 Pls
1839 461 Pls
1843 461 Pls
1846 465 Pls
1850 456 Pls
1853 490 Pls
1857 482 Pls
1860 486 Pls
1864 456 Pls
1867 478 Pls
1871 507 Pls
1875 473 Pls
1878 465 Pls
1882 469 Pls
1885 469 Pls
1889 490 Pls
1892 469 Pls
1896 469 Pls
1899 465 Pls
1903 452 Pls
1906 452 Pls
1910 456 Pls
1913 461 Pls
1917 478 Pls
1920 469 Pls
1924 486 Pls
1927 452 Pls
1931 456 Pls
1934 461 Pls
1938 490 Pls
1941 456 Pls
1945 452 Pls
1949 456 Pls
1952 461 Pls
1956 461 Pls
1959 456 Pls
1963 456 Pls
1966 461 Pls
1970 469 Pls
1973 452 Pls
1977 456 Pls
1980 461 Pls
1984 461 Pls
1987 452 Pls
1991 452 Pls
1994 452 Pls
1998 465 Pls
2001 452 Pls
2005 490 Pls
2008 461 Pls
2012 461 Pls
2016 461 Pls
2019 456 Pls
2023 461 Pls
2026 461 Pls
2030 456 Pls
2033 461 Pls
2037 461 Pls
2040 452 Pls
2044 452 Pls
2047 456 Pls
2051 461 Pls
2054 482 Pls
2058 507 Pls
2061 512 Pls
2065 452 Pls
2068 486 Pls
2072 469 Pls
2075 473 Pls
2079 465 Pls
2082 452 Pls
2086 469 Pls
2090 478 Pls
2093 486 Pls
2097 503 Pls
2100 461 Pls
2104 478 Pls
2107 456 Pls
2111 461 Pls
2114 478 Pls
2118 473 Pls
2121 482 Pls
2125 473 Pls
2128 461 Pls
2132 461 Pls
2135 486 Pls
2139 473 Pls
2142 486 Pls
2146 461 Pls
2149 465 Pls
2153 495 Pls
2157 486 Pls
2160 495 Pls
2164 482 Pls
2167 469 Pls
2171 478 Pls
2174 465 Pls
2178 452 Pls
2181 469 Pls
2185 503 Pls
2188 482 Pls
2192 452 Pls
2195 490 Pls
2199 499 Pls
2202 490 Pls
2206 478 Pls
2209 461 Pls
2213 456 Pls
2216 461 Pls
2220 473 Pls
2223 461 Pls
2227 469 Pls
2231 482 Pls
2234 537 Pls
2238 461 Pls
2241 503 Pls
2245 524 Pls
2248 469 Pls
2252 473 Pls
2255 486 Pls
2259 495 Pls
2262 486 Pls
2266 473 Pls
2269 456 Pls
2273 512 Pls
2276 452 Pls
2280 452 Pls
2283 465 Pls
2287 452 Pls
2290 461 Pls
2294 469 Pls
2298 456 Pls
2301 456 Pls
2305 452 Pls
2308 461 Pls
2312 456 Pls
2315 452 Pls
2319 461 Pls
2322 473 Pls
2326 456 Pls
2329 452 Pls
2333 469 Pls
2336 473 Pls
2340 461 Pls
2343 465 Pls
2347 456 Pls
2350 461 Pls
2354 465 Pls
2357 465 Pls
2361 461 Pls
2364 456 Pls
2368 456 Pls
2372 452 Pls
2375 461 Pls
2379 461 Pls
2382 456 Pls
2386 456 Pls
2389 456 Pls
2393 478 Pls
2396 469 Pls
2400 461 Pls
2403 456 Pls
2407 452 Pls
2410 461 Pls
2414 456 Pls
2417 456 Pls
2421 465 Pls
2424 465 Pls
2428 469 Pls
2431 478 Pls
2435 456 Pls
2439 486 Pls
2442 469 Pls
2446 473 Pls
2449 461 Pls
2453 456 Pls
2456 465 Pls
2460 452 Pls
2463 456 Pls
2467 478 Pls
2470 461 Pls
2474 482 Pls
2477 461 Pls
2481 461 Pls
2484 461 Pls
2488 461 Pls
2491 469 Pls
2495 456 Pls
2498 452 Pls
2502 469 Pls
2505 456 Pls
2509 490 Pls
2513 482 Pls
2516 456 Pls
2520 461 Pls
2523 456 Pls
2527 452 Pls
2530 452 Pls
2534 452 Pls
2537 452 Pls
2541 461 Pls
2544 456 Pls
2548 456 Pls
2551 452 Pls
2555 456 Pls
2558 461 Pls
2562 452 Pls
2565 456 Pls
2569 516 Pls
2572 503 Pls
2576 516 Pls
2580 482 Pls
2583 478 Pls
2587 490 Pls
2590 490 Pls
2594 503 Pls
2597 562 Pls
2601 469 Pls
2604 490 Pls
2608 486 Pls
2611 482 Pls
2615 478 Pls
2618 545 Pls
2622 490 Pls
2625 469 Pls
2629 456 Pls
2632 486 Pls
2636 490 Pls
2639 503 Pls
2643 512 Pls
2646 456 Pls
2650 473 Pls
2654 465 Pls
2657 461 Pls
2661 490 Pls
2664 507 Pls
2668 507 Pls
2671 469 Pls
2675 503 Pls
2678 452 Pls
2682 456 Pls
2685 461 Pls
2689 465 Pls
2692 456 Pls
2696 461 Pls
2699 469 Pls
2703 516 Pls
2706 486 Pls
2710 499 Pls
2713 469 Pls
2717 465 Pls
2721 452 Pls
2724 490 Pls
2728 482 Pls
2731 482 Pls
2735 571 Pls
2738 499 Pls
2742 490 Pls
2745 465 Pls
2749 520 Pls
2752 469 Pls
2756 490 Pls
2759 465 Pls
2763 465 Pls
2766 456 Pls
2770 528 Pls
2773 473 Pls
2777 465 Pls
2780 469 Pls
2784 503 Pls
2787 473 Pls
2791 456 Pls
2795 452 Pls
2798 465 Pls
2802 499 Pls
2805 452 Pls
2809 452 Pls
2812 456 Pls
2816 452 Pls
2819 452 Pls
2823 469 Pls
2826 452 Pls
2830 452 Pls
2833 456 Pls
2837 452 Pls
2840 469 Pls
2844 465 Pls
2847 461 Pls
2851 452 Pls
2854 452 Pls
2858 478 Pls
2862 461 Pls
2865 461 Pls
2869 461 Pls
2872 456 Pls
2876 452 Pls
2879 452 Pls
2883 482 Pls
2886 486 Pls
2890 478 Pls
2893 452 Pls
2897 456 Pls
2900 452 Pls
2904 452 Pls
2907 452 Pls
2911 452 Pls
2914 456 Pls
2918 452 Pls
2921 452 Pls
2925 495 Pls
2928 486 Pls
2932 486 Pls
2936 465 Pls
2939 465 Pls
2943 452 Pls
2946 465 Pls
2950 452 Pls
2953 499 Pls
2957 465 Pls
2960 456 Pls
2964 482 Pls
2967 465 Pls
2971 456 Pls
2974 456 Pls
2978 456 Pls
2981 452 Pls
2985 452 Pls
2988 452 Pls
2992 452 Pls
2995 456 Pls
2999 456 Pls
3003 456 Pls
3006 456 Pls
3010 461 Pls
3013 461 Pls
3017 456 Pls
3020 461 Pls
3024 452 Pls
3027 465 Pls
3031 461 Pls
3034 461 Pls
3038 456 Pls
3041 456 Pls
3045 452 Pls
3048 456 Pls
3052 461 Pls
3055 452 Pls
3059 452 Pls
3062 456 Pls
3066 461 Pls
3069 456 Pls
3073 461 Pls
3077 452 Pls
3080 456 Pls
3084 452 Pls
3087 461 Pls
3091 456 Pls
3094 452 Pls
3098 452 Pls
3101 465 Pls
3105 465 Pls
3108 456 Pls
3112 461 Pls
3115 452 Pls
3119 461 Pls
3122 469 Pls
3126 452 Pls
3129 469 Pls
3133 456 Pls
3136 456 Pls
3140 456 Pls
3144 452 Pls
3147 461 Pls
3151 452 Pls
3154 452 Pls
3158 452 Pls
3161 452 Pls
3165 452 Pls
3168 456 Pls
3172 469 Pls
3175 495 Pls
3179 473 Pls
3182 478 Pls
3186 482 Pls
3189 490 Pls
3193 478 Pls
3196 478 Pls
3200 461 Pls
3203 478 Pls
3207 473 Pls
3210 490 Pls
3214 456 Pls
3218 490 Pls
3221 482 Pls
3225 486 Pls
3228 482 Pls
3232 495 Pls
3235 486 Pls
3239 495 Pls
3242 465 Pls
3246 473 Pls
3249 461 Pls
3253 478 Pls
3256 503 Pls
3260 499 Pls
3263 452 Pls
3267 473 Pls
3270 524 Pls
3274 490 Pls
3277 461 Pls
3281 495 Pls
3285 495 Pls
3288 452 Pls
3292 469 Pls
3295 456 Pls
3299 512 Pls
3302 495 Pls
3306 469 Pls
3309 465 Pls
3313 465 Pls
3316 482 Pls
3320 461 Pls
3323 456 Pls
3327 486 Pls
3330 482 Pls
3334 478 Pls
3337 478 Pls
3341 490 Pls
3344 473 Pls
3348 469 Pls
3351 456 Pls
3355 478 Pls
3359 473 Pls
3362 461 Pls
3366 465 Pls
3369 469 Pls
3373 469 Pls
3376 499 Pls
3380 473 Pls
3383 452 Pls
3387 456 Pls
3390 465 Pls
3394 478 Pls
3397 456 Pls
3401 473 Pls
3404 469 Pls
3408 452 Pls
3411 461 Pls
3415 456 Pls
3418 456 Pls
3422 486 Pls
3426 469 Pls
3429 482 Pls
3433 516 Pls
3436 486 Pls
3440 550 Pls
3443 507 Pls
3447 469 Pls
3450 469 Pls
3454 503 Pls
3457 478 Pls
3461 461 Pls
3464 461 Pls
3468 461 Pls
3471 469 Pls
3475 469 Pls
3478 456 Pls
3482 456 Pls
3485 452 Pls
3489 465 Pls
3492 482 Pls
3496 452 Pls
3500 456 Pls
3503 452 Pls
3507 452 Pls
3510 461 Pls
3514 461 Pls
3517 452 Pls
3521 452 Pls
3524 456 Pls
3528 456 Pls
3531 469 Pls
3535 461 Pls
3538 482 Pls
3542 456 Pls
3545 469 Pls
3549 469 Pls
3552 465 Pls
3556 482 Pls
3559 482 Pls
3563 461 Pls
3567 456 Pls
3570 456 Pls
3574 456 Pls
3577 452 Pls
3581 456 Pls
3584 461 Pls
3588 482 Pls
3591 456 Pls
3595 452 Pls
3598 461 Pls
3602 452 Pls
3605 456 Pls
3609 456 Pls
3612 465 Pls
3616 456 Pls
3619 452 Pls
3623 452 Pls
3626 461 Pls
3630 456 Pls
3633 452 Pls
3637 456 Pls
3641 456 Pls
3644 456 Pls
3648 461 Pls
3651 456 Pls
3655 503 Pls
3658 456 Pls
3662 478 Pls
3665 507 Pls
3669 524 Pls
3672 482 Pls
3676 469 Pls
3679 473 Pls
3683 486 Pls
3686 486 Pls
3690 465 Pls
3693 461 Pls
3697 528 Pls
3700 490 Pls
3704 486 Pls
3708 469 Pls
3711 456 Pls
3715 482 Pls
3718 456 Pls
3722 452 Pls
3725 456 Pls
3729 486 Pls
3732 456 Pls
3736 545 Pls
3739 524 Pls
3743 469 Pls
3746 550 Pls
3750 507 Pls
3753 465 Pls
3757 579 Pls
3760 486 Pls
3764 452 Pls
3767 478 Pls
3771 478 Pls
3774 482 Pls
3778 486 Pls
3782 461 Pls
3785 490 Pls
3789 465 Pls
3792 478 Pls
3796 456 Pls
3799 452 Pls
3803 456 Pls
3806 461 Pls
3810 495 Pls
3813 465 Pls
3817 452 Pls
3820 465 Pls
3824 452 Pls
3827 456 Pls
3831 469 Pls
3834 456 Pls
3838 461 Pls
3841 461 Pls
3845 456 Pls
3849 461 Pls
3852 562 Pls
3856 486 Pls
3859 469 Pls
3863 600 Pls
3866 482 Pls
3870 465 Pls
3873 456 Pls
3877 461 Pls
3880 478 Pls
3884 469 Pls
3887 456 Pls
3891 512 Pls
3894 456 Pls
3898 452 Pls
3901 495 Pls
3905 478 Pls
3908 452 Pls
3912 456 Pls
3915 452 Pls
3919 452 Pls
3923 465 Pls
3926 465 Pls
3930 452 Pls
3933 452 Pls
3937 452 Pls
3940 452 Pls
3944 452 Pls
3947 452 Pls
3951 452 Pls
3954 469 Pls
3958 452 Pls
3961 465 Pls
3965 469 Pls
3968 452 Pls
3972 452 Pls
3975 452 Pls
3979 469 Pls
3982 465 Pls
3986 482 Pls
3990 478 Pls
3993 478 Pls
3997 456 Pls
4000 456 Pls
4004 478 Pls
4007 469 Pls
4011 465 Pls
4014 456 Pls
4018 516 Pls
4021 482 Pls
4025 452 Pls
4028 507 Pls
4032 465 Pls
4035 465 Pls
4039 473 Pls
4042 461 Pls
4046 512 Pls
4049 452 Pls
4053 465 Pls
4056 456 Pls
4060 452 Pls
4064 452 Pls
4067 456 Pls
4071 456 Pls
4074 461 Pls
4078 456 Pls
4081 461 Pls
4085 456 Pls
4088 456 Pls
4092 452 Pls
4095 456 Pls
4099 456 Pls
4102 456 Pls
4106 461 Pls
4109 452 Pls
4113 456 Pls
4116 456 Pls
4120 452 Pls
4123 461 Pls
4127 452 Pls
4131 452 Pls
4134 452 Pls
4138 452 Pls
4141 452 Pls
4145 452 Pls
4148 452 Pls
4152 452 Pls
4155 452 Pls
4159 461 Pls
4162 456 Pls
4166 461 Pls
4169 456 Pls
4173 452 Pls
4176 456 Pls
4180 456 Pls
4183 461 Pls
4187 473 Pls
4190 482 Pls
4194 473 Pls
4197 473 Pls
4201 461 Pls
4205 461 Pls
4208 478 Pls
4212 482 Pls
4215 478 Pls
4219 465 Pls
4222 461 Pls
4226 490 Pls
4229 456 Pls
4233 490 Pls
4236 456 Pls
4240 452 Pls
4243 469 Pls
4247 469 Pls
4250 486 Pls
4254 495 Pls
4257 486 Pls
4261 482 Pls
4264 465 Pls
4268 486 Pls
4272 469 Pls
4275 456 Pls
4279 456 Pls
4282 456 Pls
4286 495 Pls
4289 461 Pls
4293 465 Pls
4296 469 Pls
4300 465 Pls
4303 495 Pls
4307 461 Pls
4310 495 Pls
4314 478 Pls
4317 469 Pls
4321 495 Pls
4324 465 Pls
4328 456 Pls
4331 503 Pls
4335 495 Pls
4338 456 Pls
4342 465 Pls
4346 473 Pls
4349 469 Pls
4353 473 Pls
4356 473 Pls
4360 486 Pls
4363 478 Pls
4367 456 Pls
4370 473 Pls
4374 537 Pls
4377 490 Pls
4381 473 Pls
4384 456 Pls
4388 452 Pls
4391 461 Pls
4395 461 Pls
4398 461 Pls
4402 452 Pls
4405 452 Pls
4409 664 Pls
4413 588 Pls
4416 545 Pls
4420 571 Pls
4423 533 Pls
4427 469 Pls
4430 554 Pls
4434 478 Pls
4437 461 Pls
4441 503 Pls
4444 452 Pls
4448 605 Pls
4451 503 Pls
4455 537 Pls
4458 473 Pls
4462 562 Pls
4465 533 Pls
4469 461 Pls
4472 495 Pls
4476 482 Pls
4479 469 Pls
4483 456 Pls
4487 486 Pls
4490 499 Pls
4494 486 Pls
4497 465 Pls
4501 482 Pls
4504 478 Pls
4508 499 Pls
4511 452 Pls
4515 461 Pls
4518 486 Pls
4522 452 Pls
4525 452 Pls
4529 452 Pls
4532 461 Pls
4536 452 Pls
4539 452 Pls
4543 461 Pls
4546 452 Pls
4550 456 Pls
4554 452 Pls
4557 452 Pls
4561 456 Pls
4564 461 Pls
4568 456 Pls
4571 461 Pls
4575 465 Pls
4578 452 Pls
4582 456 Pls
4585 469 Pls
4589 456 Pls
4592 461 Pls
4596 461 Pls
4599 456 Pls
4603 456 Pls
4606 452 Pls
4610 465 Pls
4613 456 Pls
4617 452 Pls
4620 452 Pls
4624 456 Pls
4628 456 Pls
4631 452 Pls
4635 452 Pls
4638 461 Pls
4642 465 Pls
4645 520 Pls
4649 469 Pls
4652 550 Pls
4656 469 Pls
4659 452 Pls
4663 478 Pls
4666 473 Pls
4670 512 Pls
4673 482 Pls
4677 512 Pls
4680 478 Pls
4684 503 Pls
4687 507 Pls
4691 495 Pls
4695 461 Pls
4698 469 Pls
4702 452 Pls
4705 524 Pls
4709 478 Pls
4712 490 Pls
4716 478 Pls
4719 541 Pls
4723 486 Pls
4726 456 Pls
4730 512 Pls
4733 456 Pls
4737 452 Pls
4740 452 Pls
4744 469 Pls
4747 469 Pls
4751 452 Pls
4754 478 Pls
4758 461 Pls
4761 478 Pls
4765 567 Pls
4769 571 Pls
4772 503 Pls
4776 507 Pls
4779 512 Pls
4783 482 Pls
4786 469 Pls
4790 495 Pls
4793 507 Pls
4797 469 Pls
4800 473 Pls
4804 452 Pls
4807 545 Pls
4811 473 Pls
4814 456 Pls
4818 452 Pls
4821 486 Pls
4825 452 Pls
4828 452 Pls
4832 452 Pls
4836 452 Pls
4839 452 Pls
4843 452 Pls
4846 452 Pls
4850 452 Pls
4853 452 Pls
4857 452 Pls
4860 452 Pls
4864 452 Pls
4867 452 Pls
4871 452 Pls
4874 452 Pls
4878 456 Pls
4881 456 Pls
4885 478 Pls
4888 452 Pls
4892 465 Pls
4895 482 Pls
4899 452 Pls
4902 456 Pls
4906 452 Pls
4910 465 Pls
4913 452 Pls
4917 456 Pls
4920 452 Pls
4924 452 Pls
4927 452 Pls
4931 452 Pls
4934 452 Pls
4938 452 Pls
4941 461 Pls
4945 452 Pls
4948 452 Pls
4952 456 Pls
4955 461 Pls
4959 452 Pls
4962 452 Pls
4966 456 Pls
4969 465 Pls
4973 461 Pls
4977 452 Pls
4980 452 Pls
4984 456 Pls
4987 452 Pls
4991 452 Pls
4994 456 Pls
4998 452 Pls
5001 452 Pls
5005 456 Pls
5008 452 Pls
5012 456 Pls
5015 456 Pls
5019 452 Pls
5022 452 Pls
5026 469 Pls
5029 482 Pls
5033 469 Pls
5036 478 Pls
5040 465 Pls
5043 495 Pls
5047 482 Pls
5051 490 Pls
5054 473 Pls
5058 469 Pls
5061 473 Pls
5065 482 Pls
5068 478 Pls
5072 473 Pls
5075 490 Pls
5079 469 Pls
5082 478 Pls
5086 495 Pls
5089 461 Pls
5093 456 Pls
5096 478 Pls
5100 452 Pls
5103 473 Pls
5107 490 Pls
5110 456 Pls
5114 461 Pls
5118 499 Pls
5121 461 Pls
5125 486 Pls
5128 465 Pls
5132 452 Pls
5135 503 Pls
5139 490 Pls
5142 503 Pls
5146 524 Pls
5149 503 Pls
5153 482 Pls
5156 461 Pls
5160 516 Pls
5163 473 Pls
5167 452 Pls
5170 512 Pls
5174 512 Pls
5177 507 Pls
5181 469 Pls
5184 495 Pls
5188 473 Pls
5192 495 Pls
5195 456 Pls
5199 452 Pls
5202 452 Pls
5206 461 Pls
5209 473 Pls
5213 465 Pls
5216 469 Pls
5220 452 Pls
5223 456 Pls
5227 452 Pls
5230 465 Pls
5234 465 Pls
5237 456 Pls
5241 486 Pls
5244 473 Pls
5248 461 Pls
5251 456 Pls
5255 452 Pls
5259 643 Pls
5262 558 Pls
5266 592 Pls
5269 461 Pls
5273 558 Pls
5276 469 Pls
5280 486 Pls
5283 456 Pls
5287 503 Pls
5290 495 Pls
5294 473 Pls
5297 478 Pls
5301 499 Pls
5304 486 Pls
5308 571 Pls
5311 482 Pls
5315 452 Pls
5318 490 Pls
5322 537 Pls
5325 579 Pls
5329 520 Pls
5333 541 Pls
5336 499 Pls
5340 461 Pls
5343 456 Pls
5347 507 Pls
5350 465 Pls
5354 456 Pls
5357 490 Pls
5361 486 Pls
5364 469 Pls
5368 452 Pls
5371 456 Pls
5375 452 Pls
5378 452 Pls
5382 452 Pls
5385 452 Pls
5389 452 Pls
5392 456 Pls
5396 452 Pls
5400 461 Pls
5403 456 Pls
5407 461 Pls
5410 461 Pls
5414 456 Pls
5417 452 Pls
5421 456 Pls
5424 452 Pls
5428 465 Pls
5431 507 Pls
5435 490 Pls
5438 452 Pls
5442 507 Pls
5445 528 Pls
5449 456 Pls
5452 461 Pls
5456 456 Pls
5459 452 Pls
5463 461 Pls
5466 461 Pls
5470 490 Pls
5474 452 Pls
5477 486 Pls
5481 461 Pls
5484 482 Pls
5488 452 Pls
5491 452 Pls
5495 452 Pls
5498 456 Pls
5502 465 Pls
5505 520 Pls
5509 478 Pls
5512 456 Pls
5516 512 Pls
5519 482 Pls
5523 478 Pls
5526 465 Pls
5530 694 Pls
5533 550 Pls
5537 452 Pls
5541 478 Pls
5544 452 Pls
5548 465 Pls
5551 461 Pls
5555 469 Pls
5558 639 Pls
5562 478 Pls
5565 469 Pls
5569 456 Pls
5572 452 Pls
5576 452 Pls
5579 465 Pls
5583 452 Pls
5586 452 Pls
5590 473 Pls
5593 478 Pls
5597 456 Pls
5600 452 Pls
5604 456 Pls
5607 456 Pls
5611 452 Pls
5615 452 Pls
5618 452 Pls
5622 452 Pls
5625 452 Pls
5629 452 Pls
5632 452 Pls
5636 456 Pls
5639 452 Pls
5643 456 Pls
5646 456 Pls
5650 456 Pls
5653 452 Pls
5657 452 Pls
5660 452 Pls
5664 456 Pls
5667 456 Pls
5671 452 Pls
5674 456 Pls
5678 456 Pls
5682 452 Pls
5685 452 Pls
5689 452 Pls
5692 456 Pls
5696 461 Pls
5699 452 Pls
5703 452 Pls
5706 452 Pls
5710 469 Pls
5713 465 Pls
5717 482 Pls
5720 490 Pls
5724 469 Pls
5727 469 Pls
5731 478 Pls
5734 482 Pls
5738 465 Pls
5741 469 Pls
5745 499 Pls
5748 482 Pls
5752 499 Pls
5756 465 Pls
5759 499 Pls
5763 486 Pls
5766 473 Pls
5770 461 Pls
5773 469 Pls
5777 461 Pls
5780 456 Pls
5784 456 Pls
5787 461 Pls
5791 456 Pls
5794 452 Pls
5798 452 Pls
5801 503 Pls
5805 478 Pls
5808 482 Pls
5812 465 Pls
5815 520 Pls
5819 482 Pls
5823 478 Pls
5826 482 Pls
5830 469 Pls
5833 473 Pls
5837 507 Pls
5840 478 Pls
5844 452 Pls
5847 465 Pls
5851 486 Pls
5854 452 Pls
5858 482 Pls
5861 452 Pls
5865 469 Pls
5868 545 Pls
5872 562 Pls
5875 478 Pls
5879 554 Pls
5882 550 Pls
5886 575 Pls
5889 482 Pls
5893 516 Pls
5897 482 Pls
5900 639 Pls
5904 575 Pls
5907 482 Pls
5911 533 Pls
5914 507 Pls
5918 528 Pls
5921 452 Pls
5925 596 Pls
5928 639 Pls
5932 592 Pls
5935 482 Pls
5939 486 Pls
5942 478 Pls
5946 452 Pls
5949 461 Pls
5953 503 Pls
5956 456 Pls
5960 456 Pls
5964 723 Pls
5967 643 Pls
5971 528 Pls
5974 609 Pls
5978 503 Pls
5981 478 Pls
5985 495 Pls
5988 452 Pls
5992 554 Pls
5995 461 Pls
5999 545 Pls
6002 461 Pls
6006 456 Pls
6009 456 Pls
6013 473 Pls
6016 452 Pls
6020 452 Pls
6023 452 Pls
6027 452 Pls
6030 452 Pls
6034 452 Pls
6038 452 Pls
6041 469 Pls
6045 456 Pls
6048 465 Pls
6052 452 Pls
6055 545 Pls
6059 452 Pls
6062 456 Pls
6066 541 Pls
6069 588 Pls
6073 456 Pls
6076 452 Pls
6080 478 Pls
6083 452 Pls
6087 473 Pls
6090 469 Pls
6094 461 Pls
6097 456 Pls
6101 486 Pls
6105 452 Pls
6108 452 Pls
6112 452 Pls
6115 452 Pls
6119 452 Pls
6122 456 Pls
6126 478 Pls
6129 469 Pls
6133 452 Pls
6136 452 Pls
6140 452 Pls
6143 452 Pls
6147 456 Pls
6150 452 Pls
6154 452 Pls
6157 452 Pls
6161 456 Pls
6164 452 Pls
6168 452 Pls
6171 456 Pls
6175 452 Pls
6179 452 Pls
6182 461 Pls
6186 456 Pls
6189 461 Pls
6193 452 Pls
6196 452 Pls
6200 452 Pls
6203 452 Pls
6207 456 Pls
6210 452 Pls
6214 452 Pls
6217 452 Pls
6221 465 Pls
6224 469 Pls
6228 461 Pls
6231 469 Pls
6235 456 Pls
6238 478 Pls
6242 478 Pls
6246 486 Pls
6249 461 Pls
6253 482 Pls
6256 499 Pls
6260 490 Pls
6263 456 Pls
6267 486 Pls
6270 452 Pls
6274 512 Pls
6277 456 Pls
6281 452 Pls
6284 482 Pls
6288 584 Pls
6291 469 Pls
6295 473 Pls
6298 456 Pls
6302 490 Pls
6305 588 Pls
6309 490 Pls
6312 456 Pls
6316 452 Pls
6320 685 Pls
6323 499 Pls
6327 469 Pls
6330 456 Pls
6334 465 Pls
6337 452 Pls
6341 456 Pls
6344 452 Pls
6348 456 Pls
6351 456 Pls
6355 456 Pls
6358 452 Pls
6362 452 Pls
6365 452 Pls
6369 461 Pls
6372 495 Pls
6376 456 Pls
6379 456 Pls
6383 461 Pls
6387 452 Pls
6390 465 Pls
6394 452 Pls
6397 452 Pls
6401 452 Pls
6404 452 Pls
6408 452 Pls
6411 452 Pls
6415 452 Pls
6418 452 Pls
6422 452 Pls
6425 452 Pls
6429 452 Pls
6432 452 Pls
6436 452 Pls
6439 456 Pls
6443 452 Pls
6446 456 Pls
6450 473 Pls
6453 469 Pls
6457 465 Pls
6461 456 Pls
6464 456 Pls
6468 461 Pls
6471 465 Pls
6475 456 Pls
6478 456 Pls
6482 452 Pls
6485 575 Pls
6489 465 Pls
6492 478 Pls
6496 465 Pls
6499 452 Pls
6503 456 Pls
6506 456 Pls
6510 461 Pls
6513 452 Pls
6517 452 Pls
6520 452 Pls
6524 452 Pls
6528 452 Pls
6531 452 Pls
6535 452 Pls
6538 452 Pls
6542 452 Pls
6545 452 Pls
6549 452 Pls
6552 452 Pls
6556 452 Pls
6559 456 Pls
6563 452 Pls
6566 452 Pls
6570 452 Pls
6573 452 Pls
6577 452 Pls
6580 456 Pls
6584 452 Pls
6587 469 Pls
6591 456 Pls
6594 456 Pls
6598 465 Pls
6602 452 Pls
6605 452 Pls
6609 452 Pls
6612 452 Pls
6616 452 Pls
6619 452 Pls
6623 452 Pls
6626 452 Pls
6630 452 Pls
6633 452 Pls
6637 452 Pls
6640 452 Pls
6644 452 Pls
6647 452 Pls
6651 452 Pls
6654 452 Pls
6658 452 Pls
6661 452 Pls
6665 452 Pls
6669 452 Pls
6672 452 Pls
6676 452 Pls
6679 452 Pls
6683 452 Pls
6686 452 Pls
6690 452 Pls
6693 452 Pls
6697 452 Pls
6700 452 Pls
6704 452 Pls
6707 452 Pls
6711 452 Pls
6714 452 Pls
6718 452 Pls
6721 456 Pls
6725 452 Pls
6728 452 Pls
6732 452 Pls
6735 452 Pls
6739 452 Pls
6743 452 Pls
6746 452 Pls
6579 4738 Pls
% End plot #1
1.000 UL
LTb
602 4871 N
602 448 L
6345 0 V
0 4423 V
-6345 0 V
Z stroke
1.000 UP
1.000 UL
LTb
stroke
grestore
end
showpage
%%Trailer
%%DocumentFonts: Helvetica
