%!PS-Adobe-2.0 EPSF-2.0
%%Title: ../plots/domainstats/states-sorted-by-ply-visit-count-nannon-p-0.00.eps
%%Creator: gnuplot 4.4 patchlevel 3
%%CreationDate: Wed Dec 14 04:42:17 2011
%%DocumentFonts: (atend)
%%BoundingBox: 50 50 410 302
%%EndComments
%%BeginProlog
/gnudict 256 dict def
gnudict begin
%
% The following true/false flags may be edited by hand if desired.
% The unit line width and grayscale image gamma correction may also be changed.
%
/Color true def
/Blacktext false def
/Solid false def
/Dashlength 1 def
/Landscape false def
/Level1 false def
/Rounded false def
/ClipToBoundingBox false def
/TransparentPatterns false def
/gnulinewidth 5.000 def
/userlinewidth gnulinewidth def
/Gamma 1.0 def
%
/vshift -46 def
/dl1 {
  10.0 Dashlength mul mul
  Rounded { currentlinewidth 0.75 mul sub dup 0 le { pop 0.01 } if } if
} def
/dl2 {
  10.0 Dashlength mul mul
  Rounded { currentlinewidth 0.75 mul add } if
} def
/hpt_ 31.5 def
/vpt_ 31.5 def
/hpt hpt_ def
/vpt vpt_ def
Level1 {} {
/SDict 10 dict def
systemdict /pdfmark known not {
  userdict /pdfmark systemdict /cleartomark get put
} if
SDict begin [
  /Title (../plots/domainstats/states-sorted-by-ply-visit-count-nannon-p-0.00.eps)
  /Subject (gnuplot plot)
  /Creator (gnuplot 4.4 patchlevel 3)
  /Author (reza)
%  /Producer (gnuplot)
%  /Keywords ()
  /CreationDate (Wed Dec 14 04:42:17 2011)
  /DOCINFO pdfmark
end
} ifelse
/doclip {
  ClipToBoundingBox {
    newpath 50 50 moveto 410 50 lineto 410 302 lineto 50 302 lineto closepath
    clip
  } if
} def
%
% Gnuplot Prolog Version 4.4 (August 2010)
%
%/SuppressPDFMark true def
%
/M {moveto} bind def
/L {lineto} bind def
/R {rmoveto} bind def
/V {rlineto} bind def
/N {newpath moveto} bind def
/Z {closepath} bind def
/C {setrgbcolor} bind def
/f {rlineto fill} bind def
/g {setgray} bind def
/Gshow {show} def   % May be redefined later in the file to support UTF-8
/vpt2 vpt 2 mul def
/hpt2 hpt 2 mul def
/Lshow {currentpoint stroke M 0 vshift R 
	Blacktext {gsave 0 setgray show grestore} {show} ifelse} def
/Rshow {currentpoint stroke M dup stringwidth pop neg vshift R
	Blacktext {gsave 0 setgray show grestore} {show} ifelse} def
/Cshow {currentpoint stroke M dup stringwidth pop -2 div vshift R 
	Blacktext {gsave 0 setgray show grestore} {show} ifelse} def
/UP {dup vpt_ mul /vpt exch def hpt_ mul /hpt exch def
  /hpt2 hpt 2 mul def /vpt2 vpt 2 mul def} def
/DL {Color {setrgbcolor Solid {pop []} if 0 setdash}
 {pop pop pop 0 setgray Solid {pop []} if 0 setdash} ifelse} def
/BL {stroke userlinewidth 2 mul setlinewidth
	Rounded {1 setlinejoin 1 setlinecap} if} def
/AL {stroke userlinewidth 2 div setlinewidth
	Rounded {1 setlinejoin 1 setlinecap} if} def
/UL {dup gnulinewidth mul /userlinewidth exch def
	dup 1 lt {pop 1} if 10 mul /udl exch def} def
/PL {stroke userlinewidth setlinewidth
	Rounded {1 setlinejoin 1 setlinecap} if} def
3.8 setmiterlimit
% Default Line colors
/LCw {1 1 1} def
/LCb {0 0 0} def
/LCa {0 0 0} def
/LC0 {1 0 0} def
/LC1 {0 1 0} def
/LC2 {0 0 1} def
/LC3 {1 0 1} def
/LC4 {0 1 1} def
/LC5 {1 1 0} def
/LC6 {0 0 0} def
/LC7 {1 0.3 0} def
/LC8 {0.5 0.5 0.5} def
% Default Line Types
/LTw {PL [] 1 setgray} def
/LTb {BL [] LCb DL} def
/LTa {AL [1 udl mul 2 udl mul] 0 setdash LCa setrgbcolor} def
/LT0 {PL [] LC0 DL} def
/LT1 {PL [4 dl1 2 dl2] LC1 DL} def
/LT2 {PL [2 dl1 3 dl2] LC2 DL} def
/LT3 {PL [1 dl1 1.5 dl2] LC3 DL} def
/LT4 {PL [6 dl1 2 dl2 1 dl1 2 dl2] LC4 DL} def
/LT5 {PL [3 dl1 3 dl2 1 dl1 3 dl2] LC5 DL} def
/LT6 {PL [2 dl1 2 dl2 2 dl1 6 dl2] LC6 DL} def
/LT7 {PL [1 dl1 2 dl2 6 dl1 2 dl2 1 dl1 2 dl2] LC7 DL} def
/LT8 {PL [2 dl1 2 dl2 2 dl1 2 dl2 2 dl1 2 dl2 2 dl1 4 dl2] LC8 DL} def
/Pnt {stroke [] 0 setdash gsave 1 setlinecap M 0 0 V stroke grestore} def
/Dia {stroke [] 0 setdash 2 copy vpt add M
  hpt neg vpt neg V hpt vpt neg V
  hpt vpt V hpt neg vpt V closepath stroke
  Pnt} def
/Pls {stroke [] 0 setdash vpt sub M 0 vpt2 V
  currentpoint stroke M
  hpt neg vpt neg R hpt2 0 V stroke
 } def
/Box {stroke [] 0 setdash 2 copy exch hpt sub exch vpt add M
  0 vpt2 neg V hpt2 0 V 0 vpt2 V
  hpt2 neg 0 V closepath stroke
  Pnt} def
/Crs {stroke [] 0 setdash exch hpt sub exch vpt add M
  hpt2 vpt2 neg V currentpoint stroke M
  hpt2 neg 0 R hpt2 vpt2 V stroke} def
/TriU {stroke [] 0 setdash 2 copy vpt 1.12 mul add M
  hpt neg vpt -1.62 mul V
  hpt 2 mul 0 V
  hpt neg vpt 1.62 mul V closepath stroke
  Pnt} def
/Star {2 copy Pls Crs} def
/BoxF {stroke [] 0 setdash exch hpt sub exch vpt add M
  0 vpt2 neg V hpt2 0 V 0 vpt2 V
  hpt2 neg 0 V closepath fill} def
/TriUF {stroke [] 0 setdash vpt 1.12 mul add M
  hpt neg vpt -1.62 mul V
  hpt 2 mul 0 V
  hpt neg vpt 1.62 mul V closepath fill} def
/TriD {stroke [] 0 setdash 2 copy vpt 1.12 mul sub M
  hpt neg vpt 1.62 mul V
  hpt 2 mul 0 V
  hpt neg vpt -1.62 mul V closepath stroke
  Pnt} def
/TriDF {stroke [] 0 setdash vpt 1.12 mul sub M
  hpt neg vpt 1.62 mul V
  hpt 2 mul 0 V
  hpt neg vpt -1.62 mul V closepath fill} def
/DiaF {stroke [] 0 setdash vpt add M
  hpt neg vpt neg V hpt vpt neg V
  hpt vpt V hpt neg vpt V closepath fill} def
/Pent {stroke [] 0 setdash 2 copy gsave
  translate 0 hpt M 4 {72 rotate 0 hpt L} repeat
  closepath stroke grestore Pnt} def
/PentF {stroke [] 0 setdash gsave
  translate 0 hpt M 4 {72 rotate 0 hpt L} repeat
  closepath fill grestore} def
/Circle {stroke [] 0 setdash 2 copy
  hpt 0 360 arc stroke Pnt} def
/CircleF {stroke [] 0 setdash hpt 0 360 arc fill} def
/C0 {BL [] 0 setdash 2 copy moveto vpt 90 450 arc} bind def
/C1 {BL [] 0 setdash 2 copy moveto
	2 copy vpt 0 90 arc closepath fill
	vpt 0 360 arc closepath} bind def
/C2 {BL [] 0 setdash 2 copy moveto
	2 copy vpt 90 180 arc closepath fill
	vpt 0 360 arc closepath} bind def
/C3 {BL [] 0 setdash 2 copy moveto
	2 copy vpt 0 180 arc closepath fill
	vpt 0 360 arc closepath} bind def
/C4 {BL [] 0 setdash 2 copy moveto
	2 copy vpt 180 270 arc closepath fill
	vpt 0 360 arc closepath} bind def
/C5 {BL [] 0 setdash 2 copy moveto
	2 copy vpt 0 90 arc
	2 copy moveto
	2 copy vpt 180 270 arc closepath fill
	vpt 0 360 arc} bind def
/C6 {BL [] 0 setdash 2 copy moveto
	2 copy vpt 90 270 arc closepath fill
	vpt 0 360 arc closepath} bind def
/C7 {BL [] 0 setdash 2 copy moveto
	2 copy vpt 0 270 arc closepath fill
	vpt 0 360 arc closepath} bind def
/C8 {BL [] 0 setdash 2 copy moveto
	2 copy vpt 270 360 arc closepath fill
	vpt 0 360 arc closepath} bind def
/C9 {BL [] 0 setdash 2 copy moveto
	2 copy vpt 270 450 arc closepath fill
	vpt 0 360 arc closepath} bind def
/C10 {BL [] 0 setdash 2 copy 2 copy moveto vpt 270 360 arc closepath fill
	2 copy moveto
	2 copy vpt 90 180 arc closepath fill
	vpt 0 360 arc closepath} bind def
/C11 {BL [] 0 setdash 2 copy moveto
	2 copy vpt 0 180 arc closepath fill
	2 copy moveto
	2 copy vpt 270 360 arc closepath fill
	vpt 0 360 arc closepath} bind def
/C12 {BL [] 0 setdash 2 copy moveto
	2 copy vpt 180 360 arc closepath fill
	vpt 0 360 arc closepath} bind def
/C13 {BL [] 0 setdash 2 copy moveto
	2 copy vpt 0 90 arc closepath fill
	2 copy moveto
	2 copy vpt 180 360 arc closepath fill
	vpt 0 360 arc closepath} bind def
/C14 {BL [] 0 setdash 2 copy moveto
	2 copy vpt 90 360 arc closepath fill
	vpt 0 360 arc} bind def
/C15 {BL [] 0 setdash 2 copy vpt 0 360 arc closepath fill
	vpt 0 360 arc closepath} bind def
/Rec {newpath 4 2 roll moveto 1 index 0 rlineto 0 exch rlineto
	neg 0 rlineto closepath} bind def
/Square {dup Rec} bind def
/Bsquare {vpt sub exch vpt sub exch vpt2 Square} bind def
/S0 {BL [] 0 setdash 2 copy moveto 0 vpt rlineto BL Bsquare} bind def
/S1 {BL [] 0 setdash 2 copy vpt Square fill Bsquare} bind def
/S2 {BL [] 0 setdash 2 copy exch vpt sub exch vpt Square fill Bsquare} bind def
/S3 {BL [] 0 setdash 2 copy exch vpt sub exch vpt2 vpt Rec fill Bsquare} bind def
/S4 {BL [] 0 setdash 2 copy exch vpt sub exch vpt sub vpt Square fill Bsquare} bind def
/S5 {BL [] 0 setdash 2 copy 2 copy vpt Square fill
	exch vpt sub exch vpt sub vpt Square fill Bsquare} bind def
/S6 {BL [] 0 setdash 2 copy exch vpt sub exch vpt sub vpt vpt2 Rec fill Bsquare} bind def
/S7 {BL [] 0 setdash 2 copy exch vpt sub exch vpt sub vpt vpt2 Rec fill
	2 copy vpt Square fill Bsquare} bind def
/S8 {BL [] 0 setdash 2 copy vpt sub vpt Square fill Bsquare} bind def
/S9 {BL [] 0 setdash 2 copy vpt sub vpt vpt2 Rec fill Bsquare} bind def
/S10 {BL [] 0 setdash 2 copy vpt sub vpt Square fill 2 copy exch vpt sub exch vpt Square fill
	Bsquare} bind def
/S11 {BL [] 0 setdash 2 copy vpt sub vpt Square fill 2 copy exch vpt sub exch vpt2 vpt Rec fill
	Bsquare} bind def
/S12 {BL [] 0 setdash 2 copy exch vpt sub exch vpt sub vpt2 vpt Rec fill Bsquare} bind def
/S13 {BL [] 0 setdash 2 copy exch vpt sub exch vpt sub vpt2 vpt Rec fill
	2 copy vpt Square fill Bsquare} bind def
/S14 {BL [] 0 setdash 2 copy exch vpt sub exch vpt sub vpt2 vpt Rec fill
	2 copy exch vpt sub exch vpt Square fill Bsquare} bind def
/S15 {BL [] 0 setdash 2 copy Bsquare fill Bsquare} bind def
/D0 {gsave translate 45 rotate 0 0 S0 stroke grestore} bind def
/D1 {gsave translate 45 rotate 0 0 S1 stroke grestore} bind def
/D2 {gsave translate 45 rotate 0 0 S2 stroke grestore} bind def
/D3 {gsave translate 45 rotate 0 0 S3 stroke grestore} bind def
/D4 {gsave translate 45 rotate 0 0 S4 stroke grestore} bind def
/D5 {gsave translate 45 rotate 0 0 S5 stroke grestore} bind def
/D6 {gsave translate 45 rotate 0 0 S6 stroke grestore} bind def
/D7 {gsave translate 45 rotate 0 0 S7 stroke grestore} bind def
/D8 {gsave translate 45 rotate 0 0 S8 stroke grestore} bind def
/D9 {gsave translate 45 rotate 0 0 S9 stroke grestore} bind def
/D10 {gsave translate 45 rotate 0 0 S10 stroke grestore} bind def
/D11 {gsave translate 45 rotate 0 0 S11 stroke grestore} bind def
/D12 {gsave translate 45 rotate 0 0 S12 stroke grestore} bind def
/D13 {gsave translate 45 rotate 0 0 S13 stroke grestore} bind def
/D14 {gsave translate 45 rotate 0 0 S14 stroke grestore} bind def
/D15 {gsave translate 45 rotate 0 0 S15 stroke grestore} bind def
/DiaE {stroke [] 0 setdash vpt add M
  hpt neg vpt neg V hpt vpt neg V
  hpt vpt V hpt neg vpt V closepath stroke} def
/BoxE {stroke [] 0 setdash exch hpt sub exch vpt add M
  0 vpt2 neg V hpt2 0 V 0 vpt2 V
  hpt2 neg 0 V closepath stroke} def
/TriUE {stroke [] 0 setdash vpt 1.12 mul add M
  hpt neg vpt -1.62 mul V
  hpt 2 mul 0 V
  hpt neg vpt 1.62 mul V closepath stroke} def
/TriDE {stroke [] 0 setdash vpt 1.12 mul sub M
  hpt neg vpt 1.62 mul V
  hpt 2 mul 0 V
  hpt neg vpt -1.62 mul V closepath stroke} def
/PentE {stroke [] 0 setdash gsave
  translate 0 hpt M 4 {72 rotate 0 hpt L} repeat
  closepath stroke grestore} def
/CircE {stroke [] 0 setdash 
  hpt 0 360 arc stroke} def
/Opaque {gsave closepath 1 setgray fill grestore 0 setgray closepath} def
/DiaW {stroke [] 0 setdash vpt add M
  hpt neg vpt neg V hpt vpt neg V
  hpt vpt V hpt neg vpt V Opaque stroke} def
/BoxW {stroke [] 0 setdash exch hpt sub exch vpt add M
  0 vpt2 neg V hpt2 0 V 0 vpt2 V
  hpt2 neg 0 V Opaque stroke} def
/TriUW {stroke [] 0 setdash vpt 1.12 mul add M
  hpt neg vpt -1.62 mul V
  hpt 2 mul 0 V
  hpt neg vpt 1.62 mul V Opaque stroke} def
/TriDW {stroke [] 0 setdash vpt 1.12 mul sub M
  hpt neg vpt 1.62 mul V
  hpt 2 mul 0 V
  hpt neg vpt -1.62 mul V Opaque stroke} def
/PentW {stroke [] 0 setdash gsave
  translate 0 hpt M 4 {72 rotate 0 hpt L} repeat
  Opaque stroke grestore} def
/CircW {stroke [] 0 setdash 
  hpt 0 360 arc Opaque stroke} def
/BoxFill {gsave Rec 1 setgray fill grestore} def
/Density {
  /Fillden exch def
  currentrgbcolor
  /ColB exch def /ColG exch def /ColR exch def
  /ColR ColR Fillden mul Fillden sub 1 add def
  /ColG ColG Fillden mul Fillden sub 1 add def
  /ColB ColB Fillden mul Fillden sub 1 add def
  ColR ColG ColB setrgbcolor} def
/BoxColFill {gsave Rec PolyFill} def
/PolyFill {gsave Density fill grestore grestore} def
/h {rlineto rlineto rlineto gsave closepath fill grestore} bind def
%
% PostScript Level 1 Pattern Fill routine for rectangles
% Usage: x y w h s a XX PatternFill
%	x,y = lower left corner of box to be filled
%	w,h = width and height of box
%	  a = angle in degrees between lines and x-axis
%	 XX = 0/1 for no/yes cross-hatch
%
/PatternFill {gsave /PFa [ 9 2 roll ] def
  PFa 0 get PFa 2 get 2 div add PFa 1 get PFa 3 get 2 div add translate
  PFa 2 get -2 div PFa 3 get -2 div PFa 2 get PFa 3 get Rec
  gsave 1 setgray fill grestore clip
  currentlinewidth 0.5 mul setlinewidth
  /PFs PFa 2 get dup mul PFa 3 get dup mul add sqrt def
  0 0 M PFa 5 get rotate PFs -2 div dup translate
  0 1 PFs PFa 4 get div 1 add floor cvi
	{PFa 4 get mul 0 M 0 PFs V} for
  0 PFa 6 get ne {
	0 1 PFs PFa 4 get div 1 add floor cvi
	{PFa 4 get mul 0 2 1 roll M PFs 0 V} for
 } if
  stroke grestore} def
%
/languagelevel where
 {pop languagelevel} {1} ifelse
 2 lt
	{/InterpretLevel1 true def}
	{/InterpretLevel1 Level1 def}
 ifelse
%
% PostScript level 2 pattern fill definitions
%
/Level2PatternFill {
/Tile8x8 {/PaintType 2 /PatternType 1 /TilingType 1 /BBox [0 0 8 8] /XStep 8 /YStep 8}
	bind def
/KeepColor {currentrgbcolor [/Pattern /DeviceRGB] setcolorspace} bind def
<< Tile8x8
 /PaintProc {0.5 setlinewidth pop 0 0 M 8 8 L 0 8 M 8 0 L stroke} 
>> matrix makepattern
/Pat1 exch def
<< Tile8x8
 /PaintProc {0.5 setlinewidth pop 0 0 M 8 8 L 0 8 M 8 0 L stroke
	0 4 M 4 8 L 8 4 L 4 0 L 0 4 L stroke}
>> matrix makepattern
/Pat2 exch def
<< Tile8x8
 /PaintProc {0.5 setlinewidth pop 0 0 M 0 8 L
	8 8 L 8 0 L 0 0 L fill}
>> matrix makepattern
/Pat3 exch def
<< Tile8x8
 /PaintProc {0.5 setlinewidth pop -4 8 M 8 -4 L
	0 12 M 12 0 L stroke}
>> matrix makepattern
/Pat4 exch def
<< Tile8x8
 /PaintProc {0.5 setlinewidth pop -4 0 M 8 12 L
	0 -4 M 12 8 L stroke}
>> matrix makepattern
/Pat5 exch def
<< Tile8x8
 /PaintProc {0.5 setlinewidth pop -2 8 M 4 -4 L
	0 12 M 8 -4 L 4 12 M 10 0 L stroke}
>> matrix makepattern
/Pat6 exch def
<< Tile8x8
 /PaintProc {0.5 setlinewidth pop -2 0 M 4 12 L
	0 -4 M 8 12 L 4 -4 M 10 8 L stroke}
>> matrix makepattern
/Pat7 exch def
<< Tile8x8
 /PaintProc {0.5 setlinewidth pop 8 -2 M -4 4 L
	12 0 M -4 8 L 12 4 M 0 10 L stroke}
>> matrix makepattern
/Pat8 exch def
<< Tile8x8
 /PaintProc {0.5 setlinewidth pop 0 -2 M 12 4 L
	-4 0 M 12 8 L -4 4 M 8 10 L stroke}
>> matrix makepattern
/Pat9 exch def
/Pattern1 {PatternBgnd KeepColor Pat1 setpattern} bind def
/Pattern2 {PatternBgnd KeepColor Pat2 setpattern} bind def
/Pattern3 {PatternBgnd KeepColor Pat3 setpattern} bind def
/Pattern4 {PatternBgnd KeepColor Landscape {Pat5} {Pat4} ifelse setpattern} bind def
/Pattern5 {PatternBgnd KeepColor Landscape {Pat4} {Pat5} ifelse setpattern} bind def
/Pattern6 {PatternBgnd KeepColor Landscape {Pat9} {Pat6} ifelse setpattern} bind def
/Pattern7 {PatternBgnd KeepColor Landscape {Pat8} {Pat7} ifelse setpattern} bind def
} def
%
%
%End of PostScript Level 2 code
%
/PatternBgnd {
  TransparentPatterns {} {gsave 1 setgray fill grestore} ifelse
} def
%
% Substitute for Level 2 pattern fill codes with
% grayscale if Level 2 support is not selected.
%
/Level1PatternFill {
/Pattern1 {0.250 Density} bind def
/Pattern2 {0.500 Density} bind def
/Pattern3 {0.750 Density} bind def
/Pattern4 {0.125 Density} bind def
/Pattern5 {0.375 Density} bind def
/Pattern6 {0.625 Density} bind def
/Pattern7 {0.875 Density} bind def
} def
%
% Now test for support of Level 2 code
%
Level1 {Level1PatternFill} {Level2PatternFill} ifelse
%
/Symbol-Oblique /Symbol findfont [1 0 .167 1 0 0] makefont
dup length dict begin {1 index /FID eq {pop pop} {def} ifelse} forall
currentdict end definefont pop
end
%%EndProlog
gnudict begin
gsave
doclip
50 50 translate
0.050 0.050 scale
0 setgray
newpath
(Helvetica) findfont 140 scalefont setfont
1.000 UL
LTb
770 448 M
63 0 V
6114 0 R
-63 0 V
686 448 M
( 0) Rshow
1.000 UL
LTb
770 890 M
63 0 V
6114 0 R
-63 0 V
686 890 M
( 100) Rshow
1.000 UL
LTb
770 1333 M
63 0 V
6114 0 R
-63 0 V
-6198 0 R
( 200) Rshow
1.000 UL
LTb
770 1775 M
63 0 V
6114 0 R
-63 0 V
-6198 0 R
( 300) Rshow
1.000 UL
LTb
770 2217 M
63 0 V
6114 0 R
-63 0 V
-6198 0 R
( 400) Rshow
1.000 UL
LTb
770 2660 M
63 0 V
6114 0 R
-63 0 V
-6198 0 R
( 500) Rshow
1.000 UL
LTb
770 3102 M
63 0 V
6114 0 R
-63 0 V
-6198 0 R
( 600) Rshow
1.000 UL
LTb
770 3544 M
63 0 V
6114 0 R
-63 0 V
-6198 0 R
( 700) Rshow
1.000 UL
LTb
770 3986 M
63 0 V
6114 0 R
-63 0 V
-6198 0 R
( 800) Rshow
1.000 UL
LTb
770 4429 M
63 0 V
6114 0 R
-63 0 V
-6198 0 R
( 900) Rshow
1.000 UL
LTb
770 4871 M
63 0 V
6114 0 R
-63 0 V
-6198 0 R
( 1000) Rshow
1.000 UL
LTb
770 448 M
0 63 V
0 4360 R
0 -63 V
770 308 M
( 0) Cshow
1.000 UL
LTb
1542 448 M
0 63 V
0 4360 R
0 -63 V
0 -4500 R
( 200) Cshow
1.000 UL
LTb
2314 448 M
0 63 V
0 4360 R
0 -63 V
0 -4500 R
( 400) Cshow
1.000 UL
LTb
3086 448 M
0 63 V
0 4360 R
0 -63 V
0 -4500 R
( 600) Cshow
1.000 UL
LTb
3859 448 M
0 63 V
0 4360 R
0 -63 V
0 -4500 R
( 800) Cshow
1.000 UL
LTb
4631 448 M
0 63 V
0 4360 R
0 -63 V
0 -4500 R
( 1000) Cshow
1.000 UL
LTb
5403 448 M
0 63 V
0 4360 R
0 -63 V
0 -4500 R
( 1200) Cshow
1.000 UL
LTb
6175 448 M
0 63 V
0 4360 R
0 -63 V
0 -4500 R
( 1400) Cshow
1.000 UL
LTb
6947 448 M
0 63 V
0 4360 R
0 -63 V
0 -4500 R
( 1600) Cshow
1.000 UL
LTb
1.000 UL
LTb
770 4871 N
770 448 L
6177 0 V
0 4423 V
-6177 0 V
Z stroke
LCb setrgbcolor
112 2659 M
currentpoint gsave translate -270 rotate 0 0 M
(Visit Count) Cshow
grestore
LTb
LCb setrgbcolor
3858 98 M
(States \(Sorted by Earliest Visit Time\)) Cshow
LTb
1.000 UP
1.000 UL
LTb
% Begin plot #1
1.000 UP
1.000 UL
LT0
LCb setrgbcolor
6296 4738 M
(p = 0.00) Rshow
LT0
770 4871 Pls
774 758 Pls
778 691 Pls
782 912 Pls
785 833 Pls
789 572 Pls
793 674 Pls
797 996 Pls
801 961 Pls
805 806 Pls
809 687 Pls
812 930 Pls
816 700 Pls
820 528 Pls
824 797 Pls
828 598 Pls
832 488 Pls
836 581 Pls
839 501 Pls
843 466 Pls
847 479 Pls
851 505 Pls
855 510 Pls
859 607 Pls
863 528 Pls
867 470 Pls
870 470 Pls
874 452 Pls
878 475 Pls
882 519 Pls
886 479 Pls
890 567 Pls
894 492 Pls
897 536 Pls
901 691 Pls
905 466 Pls
909 488 Pls
913 479 Pls
917 550 Pls
921 505 Pls
924 475 Pls
928 519 Pls
932 483 Pls
936 488 Pls
940 519 Pls
944 475 Pls
948 470 Pls
951 505 Pls
955 479 Pls
959 488 Pls
963 475 Pls
967 470 Pls
971 497 Pls
975 505 Pls
978 528 Pls
982 466 Pls
986 475 Pls
990 559 Pls
994 598 Pls
998 497 Pls
1002 466 Pls
1005 488 Pls
1009 483 Pls
1013 483 Pls
1017 536 Pls
1021 545 Pls
1025 470 Pls
1029 510 Pls
1033 497 Pls
1036 466 Pls
1040 488 Pls
1044 483 Pls
1048 457 Pls
1052 567 Pls
1056 519 Pls
1060 470 Pls
1063 466 Pls
1067 470 Pls
1071 488 Pls
1075 483 Pls
1079 479 Pls
1083 483 Pls
1087 505 Pls
1090 625 Pls
1094 550 Pls
1098 475 Pls
1102 488 Pls
1106 461 Pls
1110 470 Pls
1114 461 Pls
1117 514 Pls
1121 501 Pls
1125 488 Pls
1129 470 Pls
1133 532 Pls
1137 466 Pls
1141 572 Pls
1144 483 Pls
1148 607 Pls
1152 510 Pls
1156 488 Pls
1160 603 Pls
1164 523 Pls
1168 461 Pls
1172 505 Pls
1175 594 Pls
1179 483 Pls
1183 510 Pls
1187 466 Pls
1191 519 Pls
1195 563 Pls
1199 492 Pls
1202 576 Pls
1206 497 Pls
1210 497 Pls
1214 475 Pls
1218 501 Pls
1222 466 Pls
1226 457 Pls
1229 470 Pls
1233 466 Pls
1237 470 Pls
1241 483 Pls
1245 470 Pls
1249 488 Pls
1253 492 Pls
1256 488 Pls
1260 452 Pls
1264 461 Pls
1268 470 Pls
1272 483 Pls
1276 461 Pls
1280 470 Pls
1283 452 Pls
1287 452 Pls
1291 452 Pls
1295 452 Pls
1299 466 Pls
1303 457 Pls
1307 452 Pls
1310 461 Pls
1314 452 Pls
1318 452 Pls
1322 452 Pls
1326 452 Pls
1330 461 Pls
1334 492 Pls
1338 452 Pls
1341 470 Pls
1345 461 Pls
1349 452 Pls
1353 461 Pls
1357 452 Pls
1361 452 Pls
1365 461 Pls
1368 457 Pls
1372 452 Pls
1376 466 Pls
1380 466 Pls
1384 457 Pls
1388 475 Pls
1392 461 Pls
1395 452 Pls
1399 452 Pls
1403 457 Pls
1407 457 Pls
1411 452 Pls
1415 497 Pls
1419 475 Pls
1422 452 Pls
1426 457 Pls
1430 457 Pls
1434 452 Pls
1438 452 Pls
1442 470 Pls
1446 461 Pls
1449 457 Pls
1453 452 Pls
1457 457 Pls
1461 461 Pls
1465 452 Pls
1469 629 Pls
1473 479 Pls
1476 470 Pls
1480 452 Pls
1484 452 Pls
1488 457 Pls
1492 528 Pls
1496 492 Pls
1500 452 Pls
1504 457 Pls
1507 457 Pls
1511 466 Pls
1515 492 Pls
1519 457 Pls
1523 514 Pls
1527 488 Pls
1531 475 Pls
1534 492 Pls
1538 497 Pls
1542 470 Pls
1546 470 Pls
1550 479 Pls
1554 457 Pls
1558 501 Pls
1561 461 Pls
1565 501 Pls
1569 501 Pls
1573 466 Pls
1577 457 Pls
1581 461 Pls
1585 470 Pls
1588 457 Pls
1592 479 Pls
1596 505 Pls
1600 470 Pls
1604 497 Pls
1608 470 Pls
1612 452 Pls
1615 519 Pls
1619 483 Pls
1623 492 Pls
1627 488 Pls
1631 452 Pls
1635 461 Pls
1639 457 Pls
1643 461 Pls
1646 479 Pls
1650 475 Pls
1654 461 Pls
1658 452 Pls
1662 452 Pls
1666 457 Pls
1670 457 Pls
1673 452 Pls
1677 452 Pls
1681 461 Pls
1685 470 Pls
1689 466 Pls
1693 457 Pls
1697 457 Pls
1700 452 Pls
1704 452 Pls
1708 452 Pls
1712 470 Pls
1716 457 Pls
1720 475 Pls
1724 466 Pls
1727 457 Pls
1731 461 Pls
1735 457 Pls
1739 452 Pls
1743 452 Pls
1747 452 Pls
1751 492 Pls
1754 470 Pls
1758 470 Pls
1762 452 Pls
1766 461 Pls
1770 452 Pls
1774 452 Pls
1778 457 Pls
1781 479 Pls
1785 475 Pls
1789 457 Pls
1793 452 Pls
1797 466 Pls
1801 457 Pls
1805 475 Pls
1809 479 Pls
1812 452 Pls
1816 452 Pls
1820 457 Pls
1824 457 Pls
1828 457 Pls
1832 483 Pls
1836 457 Pls
1839 466 Pls
1843 466 Pls
1847 501 Pls
1851 452 Pls
1855 457 Pls
1859 457 Pls
1863 466 Pls
1866 461 Pls
1870 452 Pls
1874 470 Pls
1878 457 Pls
1882 457 Pls
1886 452 Pls
1890 452 Pls
1893 452 Pls
1897 452 Pls
1901 452 Pls
1905 501 Pls
1909 461 Pls
1913 457 Pls
1917 475 Pls
1920 457 Pls
1924 452 Pls
1928 457 Pls
1932 461 Pls
1936 452 Pls
1940 452 Pls
1944 466 Pls
1947 452 Pls
1951 457 Pls
1955 452 Pls
1959 492 Pls
1963 457 Pls
1967 452 Pls
1971 457 Pls
1975 461 Pls
1978 457 Pls
1982 452 Pls
1986 466 Pls
1990 461 Pls
1994 452 Pls
1998 452 Pls
2002 457 Pls
2005 479 Pls
2009 492 Pls
2013 483 Pls
2017 501 Pls
2021 457 Pls
2025 483 Pls
2029 466 Pls
2032 479 Pls
2036 466 Pls
2040 461 Pls
2044 488 Pls
2048 559 Pls
2052 554 Pls
2056 505 Pls
2059 475 Pls
2063 475 Pls
2067 475 Pls
2071 488 Pls
2075 492 Pls
2079 461 Pls
2083 457 Pls
2086 483 Pls
2090 470 Pls
2094 470 Pls
2098 461 Pls
2102 470 Pls
2106 452 Pls
2110 452 Pls
2113 461 Pls
2117 461 Pls
2121 470 Pls
2125 483 Pls
2129 470 Pls
2133 457 Pls
2137 461 Pls
2141 457 Pls
2144 452 Pls
2148 457 Pls
2152 483 Pls
2156 505 Pls
2160 475 Pls
2164 492 Pls
2168 461 Pls
2171 457 Pls
2175 479 Pls
2179 497 Pls
2183 461 Pls
2187 519 Pls
2191 457 Pls
2195 452 Pls
2198 461 Pls
2202 470 Pls
2206 461 Pls
2210 466 Pls
2214 457 Pls
2218 457 Pls
2222 452 Pls
2225 461 Pls
2229 488 Pls
2233 452 Pls
2237 470 Pls
2241 461 Pls
2245 461 Pls
2249 452 Pls
2252 488 Pls
2256 470 Pls
2260 461 Pls
2264 452 Pls
2268 457 Pls
2272 457 Pls
2276 461 Pls
2280 457 Pls
2283 452 Pls
2287 452 Pls
2291 452 Pls
2295 452 Pls
2299 466 Pls
2303 470 Pls
2307 470 Pls
2310 457 Pls
2314 461 Pls
2318 475 Pls
2322 475 Pls
2326 457 Pls
2330 470 Pls
2334 457 Pls
2337 457 Pls
2341 461 Pls
2345 461 Pls
2349 452 Pls
2353 452 Pls
2357 457 Pls
2361 452 Pls
2364 452 Pls
2368 452 Pls
2372 483 Pls
2376 457 Pls
2380 461 Pls
2384 488 Pls
2388 475 Pls
2391 470 Pls
2395 452 Pls
2399 452 Pls
2403 452 Pls
2407 452 Pls
2411 461 Pls
2415 452 Pls
2418 466 Pls
2422 452 Pls
2426 452 Pls
2430 452 Pls
2434 483 Pls
2438 452 Pls
2442 452 Pls
2446 457 Pls
2449 452 Pls
2453 457 Pls
2457 452 Pls
2461 475 Pls
2465 466 Pls
2469 452 Pls
2473 452 Pls
2476 457 Pls
2480 457 Pls
2484 452 Pls
2488 452 Pls
2492 457 Pls
2496 457 Pls
2500 466 Pls
2503 457 Pls
2507 452 Pls
2511 452 Pls
2515 461 Pls
2519 452 Pls
2523 452 Pls
2527 452 Pls
2530 452 Pls
2534 457 Pls
2538 461 Pls
2542 466 Pls
2546 457 Pls
2550 452 Pls
2554 452 Pls
2557 452 Pls
2561 457 Pls
2565 452 Pls
2569 452 Pls
2573 452 Pls
2577 461 Pls
2581 461 Pls
2584 461 Pls
2588 452 Pls
2592 497 Pls
2596 461 Pls
2600 457 Pls
2604 452 Pls
2608 452 Pls
2612 452 Pls
2615 457 Pls
2619 461 Pls
2623 475 Pls
2627 452 Pls
2631 475 Pls
2635 461 Pls
2639 452 Pls
2642 457 Pls
2646 457 Pls
2650 457 Pls
2654 457 Pls
2658 457 Pls
2662 452 Pls
2666 452 Pls
2669 457 Pls
2673 452 Pls
2677 466 Pls
2681 470 Pls
2685 457 Pls
2689 492 Pls
2693 479 Pls
2696 461 Pls
2700 475 Pls
2704 461 Pls
2708 457 Pls
2712 483 Pls
2716 501 Pls
2720 466 Pls
2723 457 Pls
2727 475 Pls
2731 461 Pls
2735 470 Pls
2739 488 Pls
2743 483 Pls
2747 488 Pls
2751 475 Pls
2754 466 Pls
2758 466 Pls
2762 470 Pls
2766 461 Pls
2770 470 Pls
2774 457 Pls
2778 452 Pls
2781 452 Pls
2785 470 Pls
2789 470 Pls
2793 470 Pls
2797 461 Pls
2801 475 Pls
2805 457 Pls
2808 452 Pls
2812 479 Pls
2816 457 Pls
2820 457 Pls
2824 461 Pls
2828 479 Pls
2832 452 Pls
2835 452 Pls
2839 470 Pls
2843 461 Pls
2847 457 Pls
2851 466 Pls
2855 466 Pls
2859 466 Pls
2862 483 Pls
2866 479 Pls
2870 483 Pls
2874 470 Pls
2878 466 Pls
2882 466 Pls
2886 457 Pls
2889 457 Pls
2893 457 Pls
2897 505 Pls
2901 479 Pls
2905 488 Pls
2909 497 Pls
2913 470 Pls
2917 466 Pls
2920 483 Pls
2924 470 Pls
2928 466 Pls
2932 479 Pls
2936 461 Pls
2940 466 Pls
2944 483 Pls
2947 475 Pls
2951 457 Pls
2955 466 Pls
2959 452 Pls
2963 461 Pls
2967 457 Pls
2971 461 Pls
2974 497 Pls
2978 457 Pls
2982 461 Pls
2986 457 Pls
2990 466 Pls
2994 452 Pls
2998 466 Pls
3001 466 Pls
3005 461 Pls
3009 457 Pls
3013 501 Pls
3017 514 Pls
3021 457 Pls
3025 461 Pls
3028 479 Pls
3032 457 Pls
3036 457 Pls
3040 457 Pls
3044 505 Pls
3048 505 Pls
3052 510 Pls
3055 475 Pls
3059 475 Pls
3063 461 Pls
3067 475 Pls
3071 452 Pls
3075 492 Pls
3079 457 Pls
3083 466 Pls
3086 452 Pls
3090 466 Pls
3094 452 Pls
3098 452 Pls
3102 457 Pls
3106 470 Pls
3110 470 Pls
3113 457 Pls
3117 461 Pls
3121 461 Pls
3125 457 Pls
3129 457 Pls
3133 475 Pls
3137 452 Pls
3140 461 Pls
3144 452 Pls
3148 452 Pls
3152 457 Pls
3156 452 Pls
3160 452 Pls
3164 452 Pls
3167 457 Pls
3171 452 Pls
3175 452 Pls
3179 452 Pls
3183 452 Pls
3187 461 Pls
3191 452 Pls
3194 475 Pls
3198 452 Pls
3202 457 Pls
3206 457 Pls
3210 479 Pls
3214 466 Pls
3218 457 Pls
3221 461 Pls
3225 466 Pls
3229 457 Pls
3233 461 Pls
3237 457 Pls
3241 452 Pls
3245 461 Pls
3249 461 Pls
3252 461 Pls
3256 457 Pls
3260 466 Pls
3264 457 Pls
3268 452 Pls
3272 452 Pls
3276 452 Pls
3279 452 Pls
3283 457 Pls
3287 466 Pls
3291 452 Pls
3295 457 Pls
3299 457 Pls
3303 461 Pls
3306 452 Pls
3310 457 Pls
3314 466 Pls
3318 475 Pls
3322 466 Pls
3326 466 Pls
3330 483 Pls
3333 475 Pls
3337 452 Pls
3341 457 Pls
3345 475 Pls
3349 505 Pls
3353 479 Pls
3357 483 Pls
3360 470 Pls
3364 488 Pls
3368 457 Pls
3372 475 Pls
3376 466 Pls
3380 461 Pls
3384 461 Pls
3388 461 Pls
3391 497 Pls
3395 466 Pls
3399 470 Pls
3403 470 Pls
3407 475 Pls
3411 457 Pls
3415 461 Pls
3418 452 Pls
3422 466 Pls
3426 501 Pls
3430 483 Pls
3434 457 Pls
3438 501 Pls
3442 466 Pls
3445 466 Pls
3449 461 Pls
3453 461 Pls
3457 457 Pls
3461 457 Pls
3465 461 Pls
3469 461 Pls
3472 452 Pls
3476 452 Pls
3480 452 Pls
3484 475 Pls
3488 452 Pls
3492 475 Pls
3496 519 Pls
3499 510 Pls
3503 505 Pls
3507 466 Pls
3511 470 Pls
3515 466 Pls
3519 461 Pls
3523 483 Pls
3526 457 Pls
3530 461 Pls
3534 457 Pls
3538 466 Pls
3542 461 Pls
3546 466 Pls
3550 479 Pls
3554 461 Pls
3557 466 Pls
3561 452 Pls
3565 452 Pls
3569 457 Pls
3573 452 Pls
3577 457 Pls
3581 466 Pls
3584 457 Pls
3588 452 Pls
3592 510 Pls
3596 514 Pls
3600 475 Pls
3604 483 Pls
3608 461 Pls
3611 466 Pls
3615 492 Pls
3619 457 Pls
3623 461 Pls
3627 492 Pls
3631 475 Pls
3635 475 Pls
3638 470 Pls
3642 452 Pls
3646 457 Pls
3650 457 Pls
3654 457 Pls
3658 457 Pls
3662 457 Pls
3665 452 Pls
3669 452 Pls
3673 452 Pls
3677 452 Pls
3681 457 Pls
3685 457 Pls
3689 475 Pls
3692 457 Pls
3696 452 Pls
3700 452 Pls
3704 470 Pls
3708 452 Pls
3712 452 Pls
3716 452 Pls
3720 452 Pls
3723 452 Pls
3727 452 Pls
3731 461 Pls
3735 461 Pls
3739 461 Pls
3743 457 Pls
3747 452 Pls
3750 452 Pls
3754 466 Pls
3758 452 Pls
3762 452 Pls
3766 461 Pls
3770 475 Pls
3774 452 Pls
3777 452 Pls
3781 452 Pls
3785 479 Pls
3789 457 Pls
3793 457 Pls
3797 457 Pls
3801 452 Pls
3804 457 Pls
3808 452 Pls
3812 452 Pls
3816 466 Pls
3820 470 Pls
3824 452 Pls
3828 452 Pls
3831 475 Pls
3835 457 Pls
3839 457 Pls
3843 452 Pls
3847 452 Pls
3851 452 Pls
3855 452 Pls
3859 452 Pls
3862 452 Pls
3866 452 Pls
3870 452 Pls
3874 457 Pls
3878 452 Pls
3882 457 Pls
3886 452 Pls
3889 452 Pls
3893 452 Pls
3897 452 Pls
3901 452 Pls
3905 452 Pls
3909 466 Pls
3913 457 Pls
3916 452 Pls
3920 452 Pls
3924 457 Pls
3928 452 Pls
3932 457 Pls
3936 457 Pls
3940 452 Pls
3943 457 Pls
3947 452 Pls
3951 452 Pls
3955 457 Pls
3959 461 Pls
3963 452 Pls
3967 461 Pls
3970 452 Pls
3974 452 Pls
3978 461 Pls
3982 452 Pls
3986 452 Pls
3990 452 Pls
3994 452 Pls
3997 452 Pls
4001 457 Pls
4005 461 Pls
4009 461 Pls
4013 457 Pls
4017 452 Pls
4021 452 Pls
4025 452 Pls
4028 466 Pls
4032 452 Pls
4036 452 Pls
4040 466 Pls
4044 461 Pls
4048 466 Pls
4052 470 Pls
4055 466 Pls
4059 466 Pls
4063 461 Pls
4067 457 Pls
4071 452 Pls
4075 510 Pls
4079 505 Pls
4082 483 Pls
4086 470 Pls
4090 470 Pls
4094 475 Pls
4098 457 Pls
4102 470 Pls
4106 466 Pls
4109 461 Pls
4113 475 Pls
4117 470 Pls
4121 461 Pls
4125 479 Pls
4129 470 Pls
4133 470 Pls
4136 461 Pls
4140 457 Pls
4144 461 Pls
4148 461 Pls
4152 470 Pls
4156 488 Pls
4160 457 Pls
4163 514 Pls
4167 461 Pls
4171 475 Pls
4175 475 Pls
4179 483 Pls
4183 466 Pls
4187 466 Pls
4191 466 Pls
4194 452 Pls
4198 457 Pls
4202 452 Pls
4206 461 Pls
4210 457 Pls
4214 461 Pls
4218 466 Pls
4221 452 Pls
4225 470 Pls
4229 475 Pls
4233 514 Pls
4237 483 Pls
4241 466 Pls
4245 457 Pls
4248 461 Pls
4252 470 Pls
4256 461 Pls
4260 452 Pls
4264 457 Pls
4268 466 Pls
4272 479 Pls
4275 475 Pls
4279 479 Pls
4283 483 Pls
4287 466 Pls
4291 452 Pls
4295 457 Pls
4299 452 Pls
4302 452 Pls
4306 452 Pls
4310 452 Pls
4314 470 Pls
4318 479 Pls
4322 466 Pls
4326 483 Pls
4329 470 Pls
4333 452 Pls
4337 461 Pls
4341 483 Pls
4345 475 Pls
4349 461 Pls
4353 461 Pls
4357 457 Pls
4360 457 Pls
4364 457 Pls
4368 457 Pls
4372 475 Pls
4376 461 Pls
4380 457 Pls
4384 457 Pls
4387 479 Pls
4391 598 Pls
4395 550 Pls
4399 536 Pls
4403 536 Pls
4407 475 Pls
4411 505 Pls
4414 475 Pls
4418 501 Pls
4422 505 Pls
4426 457 Pls
4430 528 Pls
4434 510 Pls
4438 475 Pls
4441 466 Pls
4445 479 Pls
4449 466 Pls
4453 479 Pls
4457 475 Pls
4461 452 Pls
4465 457 Pls
4468 466 Pls
4472 541 Pls
4476 470 Pls
4480 479 Pls
4484 457 Pls
4488 452 Pls
4492 457 Pls
4496 457 Pls
4499 457 Pls
4503 505 Pls
4507 501 Pls
4511 514 Pls
4515 475 Pls
4519 461 Pls
4523 470 Pls
4526 457 Pls
4530 510 Pls
4534 479 Pls
4538 505 Pls
4542 461 Pls
4546 483 Pls
4550 452 Pls
4553 466 Pls
4557 452 Pls
4561 461 Pls
4565 452 Pls
4569 452 Pls
4573 452 Pls
4577 452 Pls
4580 452 Pls
4584 457 Pls
4588 457 Pls
4592 461 Pls
4596 452 Pls
4600 461 Pls
4604 457 Pls
4607 452 Pls
4611 461 Pls
4615 461 Pls
4619 461 Pls
4623 452 Pls
4627 452 Pls
4631 457 Pls
4634 457 Pls
4638 457 Pls
4642 452 Pls
4646 457 Pls
4650 461 Pls
4654 452 Pls
4658 452 Pls
4662 452 Pls
4665 461 Pls
4669 452 Pls
4673 483 Pls
4677 452 Pls
4681 470 Pls
4685 452 Pls
4689 483 Pls
4692 461 Pls
4696 470 Pls
4700 452 Pls
4704 466 Pls
4708 457 Pls
4712 452 Pls
4716 452 Pls
4719 461 Pls
4723 452 Pls
4727 457 Pls
4731 457 Pls
4735 452 Pls
4739 452 Pls
4743 452 Pls
4746 452 Pls
4750 497 Pls
4754 470 Pls
4758 470 Pls
4762 452 Pls
4766 461 Pls
4770 479 Pls
4773 497 Pls
4777 475 Pls
4781 466 Pls
4785 457 Pls
4789 466 Pls
4793 510 Pls
4797 492 Pls
4800 519 Pls
4804 466 Pls
4808 466 Pls
4812 470 Pls
4816 452 Pls
4820 461 Pls
4824 483 Pls
4828 457 Pls
4831 475 Pls
4835 466 Pls
4839 457 Pls
4843 492 Pls
4847 483 Pls
4851 479 Pls
4855 501 Pls
4858 488 Pls
4862 470 Pls
4866 470 Pls
4870 510 Pls
4874 457 Pls
4878 452 Pls
4882 452 Pls
4885 457 Pls
4889 452 Pls
4893 457 Pls
4897 479 Pls
4901 461 Pls
4905 452 Pls
4909 457 Pls
4912 457 Pls
4916 452 Pls
4920 532 Pls
4924 466 Pls
4928 523 Pls
4932 470 Pls
4936 461 Pls
4939 475 Pls
4943 488 Pls
4947 514 Pls
4951 457 Pls
4955 461 Pls
4959 452 Pls
4963 598 Pls
4966 483 Pls
4970 461 Pls
4974 452 Pls
4978 470 Pls
4982 461 Pls
4986 457 Pls
4990 466 Pls
4994 457 Pls
4997 461 Pls
5001 452 Pls
5005 461 Pls
5009 452 Pls
5013 452 Pls
5017 452 Pls
5021 452 Pls
5024 452 Pls
5028 461 Pls
5032 452 Pls
5036 452 Pls
5040 461 Pls
5044 452 Pls
5048 452 Pls
5051 452 Pls
5055 461 Pls
5059 452 Pls
5063 452 Pls
5067 452 Pls
5071 457 Pls
5075 457 Pls
5078 452 Pls
5082 452 Pls
5086 452 Pls
5090 457 Pls
5094 452 Pls
5098 452 Pls
5102 461 Pls
5105 452 Pls
5109 452 Pls
5113 452 Pls
5117 452 Pls
5121 452 Pls
5125 452 Pls
5129 452 Pls
5133 452 Pls
5136 452 Pls
5140 452 Pls
5144 452 Pls
5148 452 Pls
5152 452 Pls
5156 452 Pls
5160 457 Pls
5163 452 Pls
5167 452 Pls
5171 457 Pls
5175 461 Pls
5179 452 Pls
5183 452 Pls
5187 457 Pls
5190 452 Pls
5194 452 Pls
5198 452 Pls
5202 457 Pls
5206 466 Pls
5210 466 Pls
5214 457 Pls
5217 457 Pls
5221 452 Pls
5225 470 Pls
5229 461 Pls
5233 475 Pls
5237 466 Pls
5241 466 Pls
5244 457 Pls
5248 461 Pls
5252 452 Pls
5256 466 Pls
5260 452 Pls
5264 452 Pls
5268 510 Pls
5271 466 Pls
5275 470 Pls
5279 475 Pls
5283 475 Pls
5287 475 Pls
5291 452 Pls
5295 510 Pls
5299 470 Pls
5302 466 Pls
5306 461 Pls
5310 457 Pls
5314 457 Pls
5318 461 Pls
5322 457 Pls
5326 470 Pls
5329 461 Pls
5333 461 Pls
5337 479 Pls
5341 452 Pls
5345 452 Pls
5349 505 Pls
5353 470 Pls
5356 501 Pls
5360 475 Pls
5364 475 Pls
5368 466 Pls
5372 501 Pls
5376 466 Pls
5380 470 Pls
5383 457 Pls
5387 452 Pls
5391 457 Pls
5395 452 Pls
5399 452 Pls
5403 452 Pls
5407 457 Pls
5410 457 Pls
5414 466 Pls
5418 452 Pls
5422 457 Pls
5426 475 Pls
5430 461 Pls
5434 452 Pls
5437 452 Pls
5441 452 Pls
5445 452 Pls
5449 510 Pls
5453 616 Pls
5457 510 Pls
5461 528 Pls
5465 528 Pls
5468 492 Pls
5472 620 Pls
5476 523 Pls
5480 501 Pls
5484 488 Pls
5488 510 Pls
5492 492 Pls
5495 497 Pls
5499 470 Pls
5503 457 Pls
5507 470 Pls
5511 488 Pls
5515 505 Pls
5519 452 Pls
5522 665 Pls
5526 488 Pls
5530 461 Pls
5534 550 Pls
5538 479 Pls
5542 452 Pls
5546 514 Pls
5549 492 Pls
5553 483 Pls
5557 470 Pls
5561 452 Pls
5565 452 Pls
5569 452 Pls
5573 678 Pls
5576 519 Pls
5580 466 Pls
5584 470 Pls
5588 497 Pls
5592 461 Pls
5596 452 Pls
5600 466 Pls
5604 452 Pls
5607 452 Pls
5611 452 Pls
5615 514 Pls
5619 475 Pls
5623 479 Pls
5627 457 Pls
5631 457 Pls
5634 452 Pls
5638 452 Pls
5642 457 Pls
5646 452 Pls
5650 452 Pls
5654 457 Pls
5658 461 Pls
5661 457 Pls
5665 452 Pls
5669 452 Pls
5673 461 Pls
5677 461 Pls
5681 461 Pls
5685 457 Pls
5688 452 Pls
5692 470 Pls
5696 457 Pls
5700 457 Pls
5704 457 Pls
5708 470 Pls
5712 505 Pls
5715 452 Pls
5719 457 Pls
5723 457 Pls
5727 497 Pls
5731 501 Pls
5735 483 Pls
5739 510 Pls
5742 479 Pls
5746 466 Pls
5750 457 Pls
5754 488 Pls
5758 452 Pls
5762 457 Pls
5766 457 Pls
5770 488 Pls
5773 475 Pls
5777 452 Pls
5781 461 Pls
5785 519 Pls
5789 461 Pls
5793 466 Pls
5797 457 Pls
5800 457 Pls
5804 452 Pls
5808 532 Pls
5812 532 Pls
5816 470 Pls
5820 466 Pls
5824 528 Pls
5827 514 Pls
5831 452 Pls
5835 479 Pls
5839 452 Pls
5843 483 Pls
5847 461 Pls
5851 461 Pls
5854 452 Pls
5858 461 Pls
5862 461 Pls
5866 452 Pls
5870 505 Pls
5874 470 Pls
5878 452 Pls
5881 457 Pls
5885 452 Pls
5889 457 Pls
5893 461 Pls
5897 452 Pls
5901 452 Pls
5905 461 Pls
5908 452 Pls
5912 461 Pls
5916 457 Pls
5920 452 Pls
5924 457 Pls
5928 452 Pls
5932 457 Pls
5936 452 Pls
5939 452 Pls
5943 452 Pls
5947 452 Pls
5951 461 Pls
5955 452 Pls
5959 452 Pls
5963 452 Pls
5966 452 Pls
5970 452 Pls
5974 452 Pls
5978 452 Pls
5982 457 Pls
5986 452 Pls
5990 457 Pls
5993 452 Pls
5997 452 Pls
6001 452 Pls
6005 452 Pls
6009 461 Pls
6013 470 Pls
6017 470 Pls
6020 452 Pls
6024 457 Pls
6028 457 Pls
6032 466 Pls
6036 461 Pls
6040 492 Pls
6044 466 Pls
6047 483 Pls
6051 457 Pls
6055 457 Pls
6059 457 Pls
6063 488 Pls
6067 457 Pls
6071 461 Pls
6074 452 Pls
6078 452 Pls
6082 510 Pls
6086 475 Pls
6090 492 Pls
6094 466 Pls
6098 470 Pls
6102 457 Pls
6105 452 Pls
6109 461 Pls
6113 452 Pls
6117 452 Pls
6121 452 Pls
6125 452 Pls
6129 457 Pls
6132 497 Pls
6136 470 Pls
6140 541 Pls
6144 603 Pls
6148 497 Pls
6152 466 Pls
6156 514 Pls
6159 497 Pls
6163 461 Pls
6167 651 Pls
6171 510 Pls
6175 607 Pls
6179 510 Pls
6183 475 Pls
6186 483 Pls
6190 457 Pls
6194 452 Pls
6198 466 Pls
6202 665 Pls
6206 519 Pls
6210 612 Pls
6213 492 Pls
6217 461 Pls
6221 501 Pls
6225 461 Pls
6229 452 Pls
6233 470 Pls
6237 457 Pls
6241 457 Pls
6244 457 Pls
6248 452 Pls
6252 452 Pls
6256 452 Pls
6260 457 Pls
6264 452 Pls
6268 470 Pls
6271 452 Pls
6275 452 Pls
6279 452 Pls
6283 510 Pls
6287 475 Pls
6291 452 Pls
6295 457 Pls
6298 479 Pls
6302 461 Pls
6306 514 Pls
6310 470 Pls
6314 452 Pls
6318 607 Pls
6322 497 Pls
6325 470 Pls
6329 457 Pls
6333 470 Pls
6337 457 Pls
6341 452 Pls
6345 452 Pls
6349 452 Pls
6352 452 Pls
6356 452 Pls
6360 452 Pls
6364 452 Pls
6368 452 Pls
6372 452 Pls
6376 457 Pls
6379 452 Pls
6383 452 Pls
6387 452 Pls
6391 452 Pls
6395 483 Pls
6399 470 Pls
6403 457 Pls
6407 452 Pls
6410 470 Pls
6414 479 Pls
6418 452 Pls
6422 457 Pls
6426 452 Pls
6430 452 Pls
6434 501 Pls
6437 452 Pls
6441 452 Pls
6445 452 Pls
6449 452 Pls
6453 452 Pls
6457 452 Pls
6461 452 Pls
6464 452 Pls
6468 457 Pls
6472 452 Pls
6476 452 Pls
6480 457 Pls
6484 452 Pls
6488 452 Pls
6491 452 Pls
6495 457 Pls
6499 452 Pls
6503 452 Pls
6579 4738 Pls
% End plot #1
1.000 UL
LTb
770 4871 N
770 448 L
6177 0 V
0 4423 V
-6177 0 V
Z stroke
1.000 UP
1.000 UL
LTb
stroke
grestore
end
showpage
%%Trailer
%%DocumentFonts: Helvetica
