%!PS-Adobe-2.0 EPSF-2.0
%%Title: ../plots/domainstats/states-sorted-by-ply-visit-count-over-avg-num-plies-minigammon-offset-0.eps
%%Creator: gnuplot 4.4 patchlevel 3
%%CreationDate: Wed Dec 14 04:42:15 2011
%%DocumentFonts: (atend)
%%BoundingBox: 50 50 410 302
%%EndComments
%%BeginProlog
/gnudict 256 dict def
gnudict begin
%
% The following true/false flags may be edited by hand if desired.
% The unit line width and grayscale image gamma correction may also be changed.
%
/Color true def
/Blacktext false def
/Solid false def
/Dashlength 1 def
/Landscape false def
/Level1 false def
/Rounded false def
/ClipToBoundingBox false def
/TransparentPatterns false def
/gnulinewidth 5.000 def
/userlinewidth gnulinewidth def
/Gamma 1.0 def
%
/vshift -46 def
/dl1 {
  10.0 Dashlength mul mul
  Rounded { currentlinewidth 0.75 mul sub dup 0 le { pop 0.01 } if } if
} def
/dl2 {
  10.0 Dashlength mul mul
  Rounded { currentlinewidth 0.75 mul add } if
} def
/hpt_ 31.5 def
/vpt_ 31.5 def
/hpt hpt_ def
/vpt vpt_ def
Level1 {} {
/SDict 10 dict def
systemdict /pdfmark known not {
  userdict /pdfmark systemdict /cleartomark get put
} if
SDict begin [
  /Title (../plots/domainstats/states-sorted-by-ply-visit-count-over-avg-num-plies-minigammon-offset-0.eps)
  /Subject (gnuplot plot)
  /Creator (gnuplot 4.4 patchlevel 3)
  /Author (reza)
%  /Producer (gnuplot)
%  /Keywords ()
  /CreationDate (Wed Dec 14 04:42:15 2011)
  /DOCINFO pdfmark
end
} ifelse
/doclip {
  ClipToBoundingBox {
    newpath 50 50 moveto 410 50 lineto 410 302 lineto 50 302 lineto closepath
    clip
  } if
} def
%
% Gnuplot Prolog Version 4.4 (August 2010)
%
%/SuppressPDFMark true def
%
/M {moveto} bind def
/L {lineto} bind def
/R {rmoveto} bind def
/V {rlineto} bind def
/N {newpath moveto} bind def
/Z {closepath} bind def
/C {setrgbcolor} bind def
/f {rlineto fill} bind def
/g {setgray} bind def
/Gshow {show} def   % May be redefined later in the file to support UTF-8
/vpt2 vpt 2 mul def
/hpt2 hpt 2 mul def
/Lshow {currentpoint stroke M 0 vshift R 
	Blacktext {gsave 0 setgray show grestore} {show} ifelse} def
/Rshow {currentpoint stroke M dup stringwidth pop neg vshift R
	Blacktext {gsave 0 setgray show grestore} {show} ifelse} def
/Cshow {currentpoint stroke M dup stringwidth pop -2 div vshift R 
	Blacktext {gsave 0 setgray show grestore} {show} ifelse} def
/UP {dup vpt_ mul /vpt exch def hpt_ mul /hpt exch def
  /hpt2 hpt 2 mul def /vpt2 vpt 2 mul def} def
/DL {Color {setrgbcolor Solid {pop []} if 0 setdash}
 {pop pop pop 0 setgray Solid {pop []} if 0 setdash} ifelse} def
/BL {stroke userlinewidth 2 mul setlinewidth
	Rounded {1 setlinejoin 1 setlinecap} if} def
/AL {stroke userlinewidth 2 div setlinewidth
	Rounded {1 setlinejoin 1 setlinecap} if} def
/UL {dup gnulinewidth mul /userlinewidth exch def
	dup 1 lt {pop 1} if 10 mul /udl exch def} def
/PL {stroke userlinewidth setlinewidth
	Rounded {1 setlinejoin 1 setlinecap} if} def
3.8 setmiterlimit
% Default Line colors
/LCw {1 1 1} def
/LCb {0 0 0} def
/LCa {0 0 0} def
/LC0 {1 0 0} def
/LC1 {0 1 0} def
/LC2 {0 0 1} def
/LC3 {1 0 1} def
/LC4 {0 1 1} def
/LC5 {1 1 0} def
/LC6 {0 0 0} def
/LC7 {1 0.3 0} def
/LC8 {0.5 0.5 0.5} def
% Default Line Types
/LTw {PL [] 1 setgray} def
/LTb {BL [] LCb DL} def
/LTa {AL [1 udl mul 2 udl mul] 0 setdash LCa setrgbcolor} def
/LT0 {PL [] LC0 DL} def
/LT1 {PL [4 dl1 2 dl2] LC1 DL} def
/LT2 {PL [2 dl1 3 dl2] LC2 DL} def
/LT3 {PL [1 dl1 1.5 dl2] LC3 DL} def
/LT4 {PL [6 dl1 2 dl2 1 dl1 2 dl2] LC4 DL} def
/LT5 {PL [3 dl1 3 dl2 1 dl1 3 dl2] LC5 DL} def
/LT6 {PL [2 dl1 2 dl2 2 dl1 6 dl2] LC6 DL} def
/LT7 {PL [1 dl1 2 dl2 6 dl1 2 dl2 1 dl1 2 dl2] LC7 DL} def
/LT8 {PL [2 dl1 2 dl2 2 dl1 2 dl2 2 dl1 2 dl2 2 dl1 4 dl2] LC8 DL} def
/Pnt {stroke [] 0 setdash gsave 1 setlinecap M 0 0 V stroke grestore} def
/Dia {stroke [] 0 setdash 2 copy vpt add M
  hpt neg vpt neg V hpt vpt neg V
  hpt vpt V hpt neg vpt V closepath stroke
  Pnt} def
/Pls {stroke [] 0 setdash vpt sub M 0 vpt2 V
  currentpoint stroke M
  hpt neg vpt neg R hpt2 0 V stroke
 } def
/Box {stroke [] 0 setdash 2 copy exch hpt sub exch vpt add M
  0 vpt2 neg V hpt2 0 V 0 vpt2 V
  hpt2 neg 0 V closepath stroke
  Pnt} def
/Crs {stroke [] 0 setdash exch hpt sub exch vpt add M
  hpt2 vpt2 neg V currentpoint stroke M
  hpt2 neg 0 R hpt2 vpt2 V stroke} def
/TriU {stroke [] 0 setdash 2 copy vpt 1.12 mul add M
  hpt neg vpt -1.62 mul V
  hpt 2 mul 0 V
  hpt neg vpt 1.62 mul V closepath stroke
  Pnt} def
/Star {2 copy Pls Crs} def
/BoxF {stroke [] 0 setdash exch hpt sub exch vpt add M
  0 vpt2 neg V hpt2 0 V 0 vpt2 V
  hpt2 neg 0 V closepath fill} def
/TriUF {stroke [] 0 setdash vpt 1.12 mul add M
  hpt neg vpt -1.62 mul V
  hpt 2 mul 0 V
  hpt neg vpt 1.62 mul V closepath fill} def
/TriD {stroke [] 0 setdash 2 copy vpt 1.12 mul sub M
  hpt neg vpt 1.62 mul V
  hpt 2 mul 0 V
  hpt neg vpt -1.62 mul V closepath stroke
  Pnt} def
/TriDF {stroke [] 0 setdash vpt 1.12 mul sub M
  hpt neg vpt 1.62 mul V
  hpt 2 mul 0 V
  hpt neg vpt -1.62 mul V closepath fill} def
/DiaF {stroke [] 0 setdash vpt add M
  hpt neg vpt neg V hpt vpt neg V
  hpt vpt V hpt neg vpt V closepath fill} def
/Pent {stroke [] 0 setdash 2 copy gsave
  translate 0 hpt M 4 {72 rotate 0 hpt L} repeat
  closepath stroke grestore Pnt} def
/PentF {stroke [] 0 setdash gsave
  translate 0 hpt M 4 {72 rotate 0 hpt L} repeat
  closepath fill grestore} def
/Circle {stroke [] 0 setdash 2 copy
  hpt 0 360 arc stroke Pnt} def
/CircleF {stroke [] 0 setdash hpt 0 360 arc fill} def
/C0 {BL [] 0 setdash 2 copy moveto vpt 90 450 arc} bind def
/C1 {BL [] 0 setdash 2 copy moveto
	2 copy vpt 0 90 arc closepath fill
	vpt 0 360 arc closepath} bind def
/C2 {BL [] 0 setdash 2 copy moveto
	2 copy vpt 90 180 arc closepath fill
	vpt 0 360 arc closepath} bind def
/C3 {BL [] 0 setdash 2 copy moveto
	2 copy vpt 0 180 arc closepath fill
	vpt 0 360 arc closepath} bind def
/C4 {BL [] 0 setdash 2 copy moveto
	2 copy vpt 180 270 arc closepath fill
	vpt 0 360 arc closepath} bind def
/C5 {BL [] 0 setdash 2 copy moveto
	2 copy vpt 0 90 arc
	2 copy moveto
	2 copy vpt 180 270 arc closepath fill
	vpt 0 360 arc} bind def
/C6 {BL [] 0 setdash 2 copy moveto
	2 copy vpt 90 270 arc closepath fill
	vpt 0 360 arc closepath} bind def
/C7 {BL [] 0 setdash 2 copy moveto
	2 copy vpt 0 270 arc closepath fill
	vpt 0 360 arc closepath} bind def
/C8 {BL [] 0 setdash 2 copy moveto
	2 copy vpt 270 360 arc closepath fill
	vpt 0 360 arc closepath} bind def
/C9 {BL [] 0 setdash 2 copy moveto
	2 copy vpt 270 450 arc closepath fill
	vpt 0 360 arc closepath} bind def
/C10 {BL [] 0 setdash 2 copy 2 copy moveto vpt 270 360 arc closepath fill
	2 copy moveto
	2 copy vpt 90 180 arc closepath fill
	vpt 0 360 arc closepath} bind def
/C11 {BL [] 0 setdash 2 copy moveto
	2 copy vpt 0 180 arc closepath fill
	2 copy moveto
	2 copy vpt 270 360 arc closepath fill
	vpt 0 360 arc closepath} bind def
/C12 {BL [] 0 setdash 2 copy moveto
	2 copy vpt 180 360 arc closepath fill
	vpt 0 360 arc closepath} bind def
/C13 {BL [] 0 setdash 2 copy moveto
	2 copy vpt 0 90 arc closepath fill
	2 copy moveto
	2 copy vpt 180 360 arc closepath fill
	vpt 0 360 arc closepath} bind def
/C14 {BL [] 0 setdash 2 copy moveto
	2 copy vpt 90 360 arc closepath fill
	vpt 0 360 arc} bind def
/C15 {BL [] 0 setdash 2 copy vpt 0 360 arc closepath fill
	vpt 0 360 arc closepath} bind def
/Rec {newpath 4 2 roll moveto 1 index 0 rlineto 0 exch rlineto
	neg 0 rlineto closepath} bind def
/Square {dup Rec} bind def
/Bsquare {vpt sub exch vpt sub exch vpt2 Square} bind def
/S0 {BL [] 0 setdash 2 copy moveto 0 vpt rlineto BL Bsquare} bind def
/S1 {BL [] 0 setdash 2 copy vpt Square fill Bsquare} bind def
/S2 {BL [] 0 setdash 2 copy exch vpt sub exch vpt Square fill Bsquare} bind def
/S3 {BL [] 0 setdash 2 copy exch vpt sub exch vpt2 vpt Rec fill Bsquare} bind def
/S4 {BL [] 0 setdash 2 copy exch vpt sub exch vpt sub vpt Square fill Bsquare} bind def
/S5 {BL [] 0 setdash 2 copy 2 copy vpt Square fill
	exch vpt sub exch vpt sub vpt Square fill Bsquare} bind def
/S6 {BL [] 0 setdash 2 copy exch vpt sub exch vpt sub vpt vpt2 Rec fill Bsquare} bind def
/S7 {BL [] 0 setdash 2 copy exch vpt sub exch vpt sub vpt vpt2 Rec fill
	2 copy vpt Square fill Bsquare} bind def
/S8 {BL [] 0 setdash 2 copy vpt sub vpt Square fill Bsquare} bind def
/S9 {BL [] 0 setdash 2 copy vpt sub vpt vpt2 Rec fill Bsquare} bind def
/S10 {BL [] 0 setdash 2 copy vpt sub vpt Square fill 2 copy exch vpt sub exch vpt Square fill
	Bsquare} bind def
/S11 {BL [] 0 setdash 2 copy vpt sub vpt Square fill 2 copy exch vpt sub exch vpt2 vpt Rec fill
	Bsquare} bind def
/S12 {BL [] 0 setdash 2 copy exch vpt sub exch vpt sub vpt2 vpt Rec fill Bsquare} bind def
/S13 {BL [] 0 setdash 2 copy exch vpt sub exch vpt sub vpt2 vpt Rec fill
	2 copy vpt Square fill Bsquare} bind def
/S14 {BL [] 0 setdash 2 copy exch vpt sub exch vpt sub vpt2 vpt Rec fill
	2 copy exch vpt sub exch vpt Square fill Bsquare} bind def
/S15 {BL [] 0 setdash 2 copy Bsquare fill Bsquare} bind def
/D0 {gsave translate 45 rotate 0 0 S0 stroke grestore} bind def
/D1 {gsave translate 45 rotate 0 0 S1 stroke grestore} bind def
/D2 {gsave translate 45 rotate 0 0 S2 stroke grestore} bind def
/D3 {gsave translate 45 rotate 0 0 S3 stroke grestore} bind def
/D4 {gsave translate 45 rotate 0 0 S4 stroke grestore} bind def
/D5 {gsave translate 45 rotate 0 0 S5 stroke grestore} bind def
/D6 {gsave translate 45 rotate 0 0 S6 stroke grestore} bind def
/D7 {gsave translate 45 rotate 0 0 S7 stroke grestore} bind def
/D8 {gsave translate 45 rotate 0 0 S8 stroke grestore} bind def
/D9 {gsave translate 45 rotate 0 0 S9 stroke grestore} bind def
/D10 {gsave translate 45 rotate 0 0 S10 stroke grestore} bind def
/D11 {gsave translate 45 rotate 0 0 S11 stroke grestore} bind def
/D12 {gsave translate 45 rotate 0 0 S12 stroke grestore} bind def
/D13 {gsave translate 45 rotate 0 0 S13 stroke grestore} bind def
/D14 {gsave translate 45 rotate 0 0 S14 stroke grestore} bind def
/D15 {gsave translate 45 rotate 0 0 S15 stroke grestore} bind def
/DiaE {stroke [] 0 setdash vpt add M
  hpt neg vpt neg V hpt vpt neg V
  hpt vpt V hpt neg vpt V closepath stroke} def
/BoxE {stroke [] 0 setdash exch hpt sub exch vpt add M
  0 vpt2 neg V hpt2 0 V 0 vpt2 V
  hpt2 neg 0 V closepath stroke} def
/TriUE {stroke [] 0 setdash vpt 1.12 mul add M
  hpt neg vpt -1.62 mul V
  hpt 2 mul 0 V
  hpt neg vpt 1.62 mul V closepath stroke} def
/TriDE {stroke [] 0 setdash vpt 1.12 mul sub M
  hpt neg vpt 1.62 mul V
  hpt 2 mul 0 V
  hpt neg vpt -1.62 mul V closepath stroke} def
/PentE {stroke [] 0 setdash gsave
  translate 0 hpt M 4 {72 rotate 0 hpt L} repeat
  closepath stroke grestore} def
/CircE {stroke [] 0 setdash 
  hpt 0 360 arc stroke} def
/Opaque {gsave closepath 1 setgray fill grestore 0 setgray closepath} def
/DiaW {stroke [] 0 setdash vpt add M
  hpt neg vpt neg V hpt vpt neg V
  hpt vpt V hpt neg vpt V Opaque stroke} def
/BoxW {stroke [] 0 setdash exch hpt sub exch vpt add M
  0 vpt2 neg V hpt2 0 V 0 vpt2 V
  hpt2 neg 0 V Opaque stroke} def
/TriUW {stroke [] 0 setdash vpt 1.12 mul add M
  hpt neg vpt -1.62 mul V
  hpt 2 mul 0 V
  hpt neg vpt 1.62 mul V Opaque stroke} def
/TriDW {stroke [] 0 setdash vpt 1.12 mul sub M
  hpt neg vpt 1.62 mul V
  hpt 2 mul 0 V
  hpt neg vpt -1.62 mul V Opaque stroke} def
/PentW {stroke [] 0 setdash gsave
  translate 0 hpt M 4 {72 rotate 0 hpt L} repeat
  Opaque stroke grestore} def
/CircW {stroke [] 0 setdash 
  hpt 0 360 arc Opaque stroke} def
/BoxFill {gsave Rec 1 setgray fill grestore} def
/Density {
  /Fillden exch def
  currentrgbcolor
  /ColB exch def /ColG exch def /ColR exch def
  /ColR ColR Fillden mul Fillden sub 1 add def
  /ColG ColG Fillden mul Fillden sub 1 add def
  /ColB ColB Fillden mul Fillden sub 1 add def
  ColR ColG ColB setrgbcolor} def
/BoxColFill {gsave Rec PolyFill} def
/PolyFill {gsave Density fill grestore grestore} def
/h {rlineto rlineto rlineto gsave closepath fill grestore} bind def
%
% PostScript Level 1 Pattern Fill routine for rectangles
% Usage: x y w h s a XX PatternFill
%	x,y = lower left corner of box to be filled
%	w,h = width and height of box
%	  a = angle in degrees between lines and x-axis
%	 XX = 0/1 for no/yes cross-hatch
%
/PatternFill {gsave /PFa [ 9 2 roll ] def
  PFa 0 get PFa 2 get 2 div add PFa 1 get PFa 3 get 2 div add translate
  PFa 2 get -2 div PFa 3 get -2 div PFa 2 get PFa 3 get Rec
  gsave 1 setgray fill grestore clip
  currentlinewidth 0.5 mul setlinewidth
  /PFs PFa 2 get dup mul PFa 3 get dup mul add sqrt def
  0 0 M PFa 5 get rotate PFs -2 div dup translate
  0 1 PFs PFa 4 get div 1 add floor cvi
	{PFa 4 get mul 0 M 0 PFs V} for
  0 PFa 6 get ne {
	0 1 PFs PFa 4 get div 1 add floor cvi
	{PFa 4 get mul 0 2 1 roll M PFs 0 V} for
 } if
  stroke grestore} def
%
/languagelevel where
 {pop languagelevel} {1} ifelse
 2 lt
	{/InterpretLevel1 true def}
	{/InterpretLevel1 Level1 def}
 ifelse
%
% PostScript level 2 pattern fill definitions
%
/Level2PatternFill {
/Tile8x8 {/PaintType 2 /PatternType 1 /TilingType 1 /BBox [0 0 8 8] /XStep 8 /YStep 8}
	bind def
/KeepColor {currentrgbcolor [/Pattern /DeviceRGB] setcolorspace} bind def
<< Tile8x8
 /PaintProc {0.5 setlinewidth pop 0 0 M 8 8 L 0 8 M 8 0 L stroke} 
>> matrix makepattern
/Pat1 exch def
<< Tile8x8
 /PaintProc {0.5 setlinewidth pop 0 0 M 8 8 L 0 8 M 8 0 L stroke
	0 4 M 4 8 L 8 4 L 4 0 L 0 4 L stroke}
>> matrix makepattern
/Pat2 exch def
<< Tile8x8
 /PaintProc {0.5 setlinewidth pop 0 0 M 0 8 L
	8 8 L 8 0 L 0 0 L fill}
>> matrix makepattern
/Pat3 exch def
<< Tile8x8
 /PaintProc {0.5 setlinewidth pop -4 8 M 8 -4 L
	0 12 M 12 0 L stroke}
>> matrix makepattern
/Pat4 exch def
<< Tile8x8
 /PaintProc {0.5 setlinewidth pop -4 0 M 8 12 L
	0 -4 M 12 8 L stroke}
>> matrix makepattern
/Pat5 exch def
<< Tile8x8
 /PaintProc {0.5 setlinewidth pop -2 8 M 4 -4 L
	0 12 M 8 -4 L 4 12 M 10 0 L stroke}
>> matrix makepattern
/Pat6 exch def
<< Tile8x8
 /PaintProc {0.5 setlinewidth pop -2 0 M 4 12 L
	0 -4 M 8 12 L 4 -4 M 10 8 L stroke}
>> matrix makepattern
/Pat7 exch def
<< Tile8x8
 /PaintProc {0.5 setlinewidth pop 8 -2 M -4 4 L
	12 0 M -4 8 L 12 4 M 0 10 L stroke}
>> matrix makepattern
/Pat8 exch def
<< Tile8x8
 /PaintProc {0.5 setlinewidth pop 0 -2 M 12 4 L
	-4 0 M 12 8 L -4 4 M 8 10 L stroke}
>> matrix makepattern
/Pat9 exch def
/Pattern1 {PatternBgnd KeepColor Pat1 setpattern} bind def
/Pattern2 {PatternBgnd KeepColor Pat2 setpattern} bind def
/Pattern3 {PatternBgnd KeepColor Pat3 setpattern} bind def
/Pattern4 {PatternBgnd KeepColor Landscape {Pat5} {Pat4} ifelse setpattern} bind def
/Pattern5 {PatternBgnd KeepColor Landscape {Pat4} {Pat5} ifelse setpattern} bind def
/Pattern6 {PatternBgnd KeepColor Landscape {Pat9} {Pat6} ifelse setpattern} bind def
/Pattern7 {PatternBgnd KeepColor Landscape {Pat8} {Pat7} ifelse setpattern} bind def
} def
%
%
%End of PostScript Level 2 code
%
/PatternBgnd {
  TransparentPatterns {} {gsave 1 setgray fill grestore} ifelse
} def
%
% Substitute for Level 2 pattern fill codes with
% grayscale if Level 2 support is not selected.
%
/Level1PatternFill {
/Pattern1 {0.250 Density} bind def
/Pattern2 {0.500 Density} bind def
/Pattern3 {0.750 Density} bind def
/Pattern4 {0.125 Density} bind def
/Pattern5 {0.375 Density} bind def
/Pattern6 {0.625 Density} bind def
/Pattern7 {0.875 Density} bind def
} def
%
% Now test for support of Level 2 code
%
Level1 {Level1PatternFill} {Level2PatternFill} ifelse
%
/Symbol-Oblique /Symbol findfont [1 0 .167 1 0 0] makefont
dup length dict begin {1 index /FID eq {pop pop} {def} ifelse} forall
currentdict end definefont pop
end
%%EndProlog
gnudict begin
gsave
doclip
50 50 translate
0.050 0.050 scale
0 setgray
newpath
(Helvetica) findfont 140 scalefont setfont
1.000 UL
LTb
602 448 M
63 0 V
6282 0 R
-63 0 V
518 448 M
( 0) Rshow
1.000 UL
LTb
602 939 M
63 0 V
6282 0 R
-63 0 V
518 939 M
( 2) Rshow
1.000 UL
LTb
602 1431 M
63 0 V
6282 0 R
-63 0 V
-6366 0 R
( 4) Rshow
1.000 UL
LTb
602 1922 M
63 0 V
6282 0 R
-63 0 V
-6366 0 R
( 6) Rshow
1.000 UL
LTb
602 2414 M
63 0 V
6282 0 R
-63 0 V
-6366 0 R
( 8) Rshow
1.000 UL
LTb
602 2905 M
63 0 V
6282 0 R
-63 0 V
-6366 0 R
( 10) Rshow
1.000 UL
LTb
602 3397 M
63 0 V
6282 0 R
-63 0 V
-6366 0 R
( 12) Rshow
1.000 UL
LTb
602 3888 M
63 0 V
6282 0 R
-63 0 V
-6366 0 R
( 14) Rshow
1.000 UL
LTb
602 4380 M
63 0 V
6282 0 R
-63 0 V
-6366 0 R
( 16) Rshow
1.000 UL
LTb
602 4871 M
63 0 V
6282 0 R
-63 0 V
-6366 0 R
( 18) Rshow
1.000 UL
LTb
602 448 M
0 63 V
0 4360 R
0 -63 V
602 308 M
( 0) Cshow
1.000 UL
LTb
1236 448 M
0 63 V
0 4360 R
0 -63 V
0 -4500 R
( 200) Cshow
1.000 UL
LTb
1871 448 M
0 63 V
0 4360 R
0 -63 V
0 -4500 R
( 400) Cshow
1.000 UL
LTb
2505 448 M
0 63 V
0 4360 R
0 -63 V
0 -4500 R
( 600) Cshow
1.000 UL
LTb
3140 448 M
0 63 V
0 4360 R
0 -63 V
0 -4500 R
( 800) Cshow
1.000 UL
LTb
3774 448 M
0 63 V
0 4360 R
0 -63 V
0 -4500 R
( 1000) Cshow
1.000 UL
LTb
4409 448 M
0 63 V
0 4360 R
0 -63 V
0 -4500 R
( 1200) Cshow
1.000 UL
LTb
5043 448 M
0 63 V
0 4360 R
0 -63 V
0 -4500 R
( 1400) Cshow
1.000 UL
LTb
5678 448 M
0 63 V
0 4360 R
0 -63 V
0 -4500 R
( 1600) Cshow
1.000 UL
LTb
6312 448 M
0 63 V
0 4360 R
0 -63 V
0 -4500 R
( 1800) Cshow
1.000 UL
LTb
6947 448 M
0 63 V
0 4360 R
0 -63 V
0 -4500 R
( 2000) Cshow
1.000 UL
LTb
1.000 UL
LTb
602 4871 N
602 448 L
6345 0 V
0 4423 V
-6345 0 V
Z stroke
LCb setrgbcolor
112 2659 M
currentpoint gsave translate -270 rotate 0 0 M
(Visit Count per 1000 Plies) Cshow
grestore
LTb
LCb setrgbcolor
3774 98 M
(States \(Sorted by Earliest Visit Time\)) Cshow
LTb
1.000 UP
1.000 UL
LTb
% Begin plot #1
1.000 UP
1.000 UL
LT0
LCb setrgbcolor
6296 4738 M
(Offset = 0) Rshow
LT0
602 4594 Pls
605 1443 Pls
608 1634 Pls
612 1572 Pls
615 1580 Pls
618 1858 Pls
621 2082 Pls
624 1874 Pls
627 1999 Pls
631 709 Pls
634 800 Pls
637 1277 Pls
640 1248 Pls
643 742 Pls
646 788 Pls
650 1020 Pls
653 892 Pls
656 1078 Pls
659 1207 Pls
662 796 Pls
665 1344 Pls
669 792 Pls
672 1169 Pls
675 912 Pls
678 763 Pls
681 1169 Pls
684 701 Pls
688 1228 Pls
691 1020 Pls
694 651 Pls
697 1004 Pls
700 680 Pls
704 825 Pls
707 705 Pls
710 850 Pls
713 1526 Pls
716 896 Pls
719 1431 Pls
723 1169 Pls
726 589 Pls
729 875 Pls
732 635 Pls
735 858 Pls
738 809 Pls
742 688 Pls
745 792 Pls
748 1161 Pls
751 751 Pls
754 709 Pls
757 635 Pls
761 846 Pls
764 1207 Pls
767 838 Pls
770 1174 Pls
773 630 Pls
776 688 Pls
780 618 Pls
783 912 Pls
786 883 Pls
789 1219 Pls
792 854 Pls
796 643 Pls
799 688 Pls
802 904 Pls
805 879 Pls
808 1294 Pls
811 896 Pls
815 1037 Pls
818 784 Pls
821 867 Pls
824 917 Pls
827 850 Pls
830 514 Pls
834 784 Pls
837 805 Pls
840 908 Pls
843 1174 Pls
846 821 Pls
849 792 Pls
853 668 Pls
856 796 Pls
859 858 Pls
862 1244 Pls
865 925 Pls
868 1157 Pls
872 1228 Pls
875 1244 Pls
878 1393 Pls
881 1190 Pls
884 809 Pls
888 900 Pls
891 796 Pls
894 846 Pls
897 842 Pls
900 568 Pls
903 622 Pls
907 514 Pls
910 622 Pls
913 639 Pls
916 763 Pls
919 751 Pls
922 614 Pls
926 647 Pls
929 572 Pls
932 742 Pls
935 730 Pls
938 543 Pls
941 1091 Pls
945 1091 Pls
948 564 Pls
951 730 Pls
954 946 Pls
957 858 Pls
960 1074 Pls
964 900 Pls
967 589 Pls
970 589 Pls
973 606 Pls
976 581 Pls
980 759 Pls
983 659 Pls
986 676 Pls
989 680 Pls
992 606 Pls
995 572 Pls
999 643 Pls
1002 718 Pls
1005 987 Pls
1008 705 Pls
1011 883 Pls
1014 908 Pls
1018 639 Pls
1021 759 Pls
1024 991 Pls
1027 805 Pls
1030 1331 Pls
1033 1402 Pls
1037 597 Pls
1040 518 Pls
1043 697 Pls
1046 788 Pls
1049 1099 Pls
1052 751 Pls
1056 871 Pls
1059 875 Pls
1062 622 Pls
1065 722 Pls
1068 941 Pls
1072 655 Pls
1075 1223 Pls
1078 1286 Pls
1081 610 Pls
1084 821 Pls
1087 672 Pls
1091 639 Pls
1094 589 Pls
1097 979 Pls
1100 539 Pls
1103 577 Pls
1106 759 Pls
1110 684 Pls
1113 614 Pls
1116 556 Pls
1119 560 Pls
1122 510 Pls
1125 722 Pls
1129 610 Pls
1132 577 Pls
1135 643 Pls
1138 651 Pls
1141 676 Pls
1144 1029 Pls
1148 954 Pls
1151 1116 Pls
1154 900 Pls
1157 908 Pls
1160 577 Pls
1164 651 Pls
1167 606 Pls
1170 610 Pls
1173 556 Pls
1176 552 Pls
1179 593 Pls
1183 742 Pls
1186 693 Pls
1189 622 Pls
1192 755 Pls
1195 705 Pls
1198 693 Pls
1202 747 Pls
1205 825 Pls
1208 676 Pls
1211 709 Pls
1214 713 Pls
1217 659 Pls
1221 572 Pls
1224 494 Pls
1227 647 Pls
1230 614 Pls
1233 630 Pls
1236 734 Pls
1240 917 Pls
1243 871 Pls
1246 1178 Pls
1249 912 Pls
1252 523 Pls
1256 647 Pls
1259 734 Pls
1262 1140 Pls
1265 585 Pls
1268 776 Pls
1271 1041 Pls
1275 514 Pls
1278 647 Pls
1281 726 Pls
1284 572 Pls
1287 572 Pls
1290 635 Pls
1294 655 Pls
1297 755 Pls
1300 1049 Pls
1303 879 Pls
1306 601 Pls
1309 846 Pls
1313 713 Pls
1316 635 Pls
1319 539 Pls
1322 643 Pls
1325 659 Pls
1329 937 Pls
1332 871 Pls
1335 892 Pls
1338 929 Pls
1341 560 Pls
1344 643 Pls
1348 601 Pls
1351 514 Pls
1354 639 Pls
1357 639 Pls
1360 722 Pls
1363 1058 Pls
1367 651 Pls
1370 809 Pls
1373 941 Pls
1376 581 Pls
1379 755 Pls
1382 618 Pls
1386 510 Pls
1389 593 Pls
1392 709 Pls
1395 601 Pls
1398 771 Pls
1401 688 Pls
1405 722 Pls
1408 693 Pls
1411 705 Pls
1414 921 Pls
1417 871 Pls
1421 589 Pls
1424 726 Pls
1427 1252 Pls
1430 950 Pls
1433 904 Pls
1436 568 Pls
1440 543 Pls
1443 543 Pls
1446 601 Pls
1449 659 Pls
1452 514 Pls
1455 552 Pls
1459 630 Pls
1462 705 Pls
1465 518 Pls
1468 527 Pls
1471 577 Pls
1474 718 Pls
1478 514 Pls
1481 510 Pls
1484 606 Pls
1487 618 Pls
1490 635 Pls
1493 697 Pls
1497 709 Pls
1500 577 Pls
1503 647 Pls
1506 950 Pls
1509 1029 Pls
1513 950 Pls
1516 589 Pls
1519 518 Pls
1522 597 Pls
1525 481 Pls
1528 647 Pls
1532 693 Pls
1535 643 Pls
1538 655 Pls
1541 539 Pls
1544 531 Pls
1547 510 Pls
1551 610 Pls
1554 593 Pls
1557 846 Pls
1560 560 Pls
1563 568 Pls
1566 514 Pls
1570 572 Pls
1573 572 Pls
1576 747 Pls
1579 730 Pls
1582 718 Pls
1585 543 Pls
1589 489 Pls
1592 564 Pls
1595 622 Pls
1598 693 Pls
1601 552 Pls
1605 912 Pls
1608 626 Pls
1611 904 Pls
1614 477 Pls
1617 896 Pls
1620 1008 Pls
1624 552 Pls
1627 606 Pls
1630 999 Pls
1633 489 Pls
1636 601 Pls
1639 639 Pls
1643 767 Pls
1646 572 Pls
1649 747 Pls
1652 606 Pls
1655 589 Pls
1658 506 Pls
1662 606 Pls
1665 514 Pls
1668 751 Pls
1671 473 Pls
1674 535 Pls
1677 548 Pls
1681 518 Pls
1684 589 Pls
1687 552 Pls
1690 548 Pls
1693 601 Pls
1697 742 Pls
1700 564 Pls
1703 614 Pls
1706 892 Pls
1709 585 Pls
1712 606 Pls
1716 548 Pls
1719 751 Pls
1722 622 Pls
1725 601 Pls
1728 780 Pls
1731 734 Pls
1735 763 Pls
1738 589 Pls
1741 892 Pls
1744 983 Pls
1747 941 Pls
1750 552 Pls
1754 560 Pls
1757 593 Pls
1760 601 Pls
1763 556 Pls
1766 606 Pls
1769 523 Pls
1773 593 Pls
1776 518 Pls
1779 473 Pls
1782 523 Pls
1785 610 Pls
1789 506 Pls
1792 635 Pls
1795 718 Pls
1798 643 Pls
1801 630 Pls
1804 937 Pls
1808 630 Pls
1811 581 Pls
1814 630 Pls
1817 655 Pls
1820 560 Pls
1823 684 Pls
1827 680 Pls
1830 577 Pls
1833 498 Pls
1836 568 Pls
1839 664 Pls
1842 680 Pls
1846 726 Pls
1849 776 Pls
1852 485 Pls
1855 552 Pls
1858 755 Pls
1861 614 Pls
1865 776 Pls
1868 622 Pls
1871 564 Pls
1874 510 Pls
1877 643 Pls
1881 610 Pls
1884 726 Pls
1887 535 Pls
1890 543 Pls
1893 539 Pls
1896 651 Pls
1900 630 Pls
1903 630 Pls
1906 606 Pls
1909 705 Pls
1912 635 Pls
1915 655 Pls
1919 788 Pls
1922 1004 Pls
1925 925 Pls
1928 883 Pls
1931 572 Pls
1934 485 Pls
1938 659 Pls
1941 630 Pls
1944 635 Pls
1947 585 Pls
1950 630 Pls
1953 622 Pls
1957 854 Pls
1960 850 Pls
1963 597 Pls
1966 688 Pls
1969 776 Pls
1973 858 Pls
1976 693 Pls
1979 485 Pls
1982 465 Pls
1985 531 Pls
1988 626 Pls
1992 568 Pls
1995 601 Pls
1998 635 Pls
2001 531 Pls
2004 635 Pls
2007 610 Pls
2011 618 Pls
2014 593 Pls
2017 494 Pls
2020 539 Pls
2023 514 Pls
2026 572 Pls
2030 485 Pls
2033 556 Pls
2036 531 Pls
2039 572 Pls
2042 651 Pls
2045 564 Pls
2049 626 Pls
2052 639 Pls
2055 622 Pls
2058 548 Pls
2061 651 Pls
2065 771 Pls
2068 655 Pls
2071 585 Pls
2074 552 Pls
2077 481 Pls
2080 589 Pls
2084 755 Pls
2087 572 Pls
2090 622 Pls
2093 726 Pls
2096 539 Pls
2099 622 Pls
2103 800 Pls
2106 875 Pls
2109 941 Pls
2112 585 Pls
2115 601 Pls
2118 709 Pls
2122 527 Pls
2125 543 Pls
2128 568 Pls
2131 531 Pls
2134 730 Pls
2137 705 Pls
2141 788 Pls
2144 813 Pls
2147 568 Pls
2150 589 Pls
2153 622 Pls
2157 639 Pls
2160 577 Pls
2163 523 Pls
2166 639 Pls
2169 676 Pls
2172 494 Pls
2176 610 Pls
2179 581 Pls
2182 568 Pls
2185 564 Pls
2188 751 Pls
2191 751 Pls
2195 838 Pls
2198 925 Pls
2201 709 Pls
2204 548 Pls
2207 523 Pls
2210 502 Pls
2214 548 Pls
2217 593 Pls
2220 518 Pls
2223 543 Pls
2226 535 Pls
2229 523 Pls
2233 535 Pls
2236 506 Pls
2239 601 Pls
2242 668 Pls
2245 805 Pls
2249 610 Pls
2252 589 Pls
2255 489 Pls
2258 610 Pls
2261 593 Pls
2264 581 Pls
2268 680 Pls
2271 647 Pls
2274 626 Pls
2277 498 Pls
2280 688 Pls
2283 788 Pls
2287 564 Pls
2290 581 Pls
2293 485 Pls
2296 523 Pls
2299 585 Pls
2302 477 Pls
2306 535 Pls
2309 568 Pls
2312 659 Pls
2315 659 Pls
2318 647 Pls
2321 572 Pls
2325 518 Pls
2328 697 Pls
2331 622 Pls
2334 543 Pls
2337 568 Pls
2341 535 Pls
2344 502 Pls
2347 531 Pls
2350 523 Pls
2353 535 Pls
2356 552 Pls
2360 572 Pls
2363 552 Pls
2366 548 Pls
2369 572 Pls
2372 548 Pls
2375 630 Pls
2379 610 Pls
2382 680 Pls
2385 568 Pls
2388 630 Pls
2391 639 Pls
2394 531 Pls
2398 510 Pls
2401 610 Pls
2404 606 Pls
2407 771 Pls
2410 751 Pls
2413 593 Pls
2417 560 Pls
2420 572 Pls
2423 635 Pls
2426 552 Pls
2429 477 Pls
2433 585 Pls
2436 572 Pls
2439 477 Pls
2442 535 Pls
2445 543 Pls
2448 693 Pls
2452 676 Pls
2455 506 Pls
2458 552 Pls
2461 527 Pls
2464 568 Pls
2467 568 Pls
2471 556 Pls
2474 539 Pls
2477 539 Pls
2480 680 Pls
2483 610 Pls
2486 543 Pls
2490 560 Pls
2493 589 Pls
2496 502 Pls
2499 597 Pls
2502 742 Pls
2505 639 Pls
2509 647 Pls
2512 548 Pls
2515 635 Pls
2518 755 Pls
2521 498 Pls
2525 518 Pls
2528 577 Pls
2531 668 Pls
2534 643 Pls
2537 747 Pls
2540 535 Pls
2544 481 Pls
2547 523 Pls
2550 494 Pls
2553 564 Pls
2556 659 Pls
2559 514 Pls
2563 626 Pls
2566 614 Pls
2569 693 Pls
2572 759 Pls
2575 593 Pls
2578 556 Pls
2582 626 Pls
2585 759 Pls
2588 585 Pls
2591 622 Pls
2594 514 Pls
2598 585 Pls
2601 527 Pls
2604 465 Pls
2607 626 Pls
2610 572 Pls
2613 684 Pls
2617 639 Pls
2620 809 Pls
2623 668 Pls
2626 664 Pls
2629 477 Pls
2632 502 Pls
2636 489 Pls
2639 494 Pls
2642 494 Pls
2645 693 Pls
2648 614 Pls
2651 564 Pls
2655 655 Pls
2658 506 Pls
2661 543 Pls
2664 494 Pls
2667 726 Pls
2670 684 Pls
2674 514 Pls
2677 514 Pls
2680 543 Pls
2683 477 Pls
2686 485 Pls
2690 527 Pls
2693 510 Pls
2696 518 Pls
2699 543 Pls
2702 473 Pls
2705 548 Pls
2709 606 Pls
2712 651 Pls
2715 572 Pls
2718 514 Pls
2721 531 Pls
2724 606 Pls
2728 863 Pls
2731 494 Pls
2734 610 Pls
2737 626 Pls
2740 539 Pls
2743 485 Pls
2747 684 Pls
2750 659 Pls
2753 556 Pls
2756 589 Pls
2759 527 Pls
2762 610 Pls
2766 523 Pls
2769 514 Pls
2772 655 Pls
2775 610 Pls
2778 647 Pls
2782 589 Pls
2785 568 Pls
2788 485 Pls
2791 506 Pls
2794 485 Pls
2797 543 Pls
2801 560 Pls
2804 498 Pls
2807 718 Pls
2810 601 Pls
2813 622 Pls
2816 568 Pls
2820 651 Pls
2823 589 Pls
2826 502 Pls
2829 668 Pls
2832 556 Pls
2835 502 Pls
2839 535 Pls
2842 568 Pls
2845 523 Pls
2848 506 Pls
2851 531 Pls
2854 531 Pls
2858 556 Pls
2861 539 Pls
2864 543 Pls
2867 560 Pls
2870 688 Pls
2874 560 Pls
2877 606 Pls
2880 560 Pls
2883 941 Pls
2886 581 Pls
2889 709 Pls
2893 473 Pls
2896 585 Pls
2899 535 Pls
2902 705 Pls
2905 531 Pls
2908 581 Pls
2912 510 Pls
2915 477 Pls
2918 518 Pls
2921 481 Pls
2924 548 Pls
2927 506 Pls
2931 506 Pls
2934 465 Pls
2937 489 Pls
2940 510 Pls
2943 477 Pls
2946 589 Pls
2950 531 Pls
2953 606 Pls
2956 518 Pls
2959 473 Pls
2962 510 Pls
2966 498 Pls
2969 498 Pls
2972 485 Pls
2975 518 Pls
2978 460 Pls
2981 622 Pls
2985 494 Pls
2988 659 Pls
2991 618 Pls
2994 523 Pls
2997 543 Pls
3000 626 Pls
3004 572 Pls
3007 527 Pls
3010 485 Pls
3013 498 Pls
3016 556 Pls
3019 489 Pls
3023 556 Pls
3026 560 Pls
3029 560 Pls
3032 564 Pls
3035 606 Pls
3038 527 Pls
3042 510 Pls
3045 523 Pls
3048 552 Pls
3051 572 Pls
3054 556 Pls
3058 635 Pls
3061 792 Pls
3064 755 Pls
3067 531 Pls
3070 514 Pls
3073 527 Pls
3077 606 Pls
3080 506 Pls
3083 601 Pls
3086 494 Pls
3089 477 Pls
3092 701 Pls
3096 548 Pls
3099 572 Pls
3102 473 Pls
3105 572 Pls
3108 593 Pls
3111 738 Pls
3115 651 Pls
3118 659 Pls
3121 535 Pls
3124 552 Pls
3127 506 Pls
3130 581 Pls
3134 564 Pls
3137 489 Pls
3140 535 Pls
3143 556 Pls
3146 639 Pls
3150 523 Pls
3153 680 Pls
3156 510 Pls
3159 539 Pls
3162 548 Pls
3165 622 Pls
3169 481 Pls
3172 489 Pls
3175 535 Pls
3178 469 Pls
3181 489 Pls
3184 527 Pls
3188 626 Pls
3191 556 Pls
3194 502 Pls
3197 518 Pls
3200 465 Pls
3203 460 Pls
3207 456 Pls
3210 535 Pls
3213 498 Pls
3216 506 Pls
3219 593 Pls
3222 465 Pls
3226 531 Pls
3229 552 Pls
3232 514 Pls
3235 469 Pls
3238 460 Pls
3242 489 Pls
3245 477 Pls
3248 465 Pls
3251 489 Pls
3254 469 Pls
3257 506 Pls
3261 535 Pls
3264 560 Pls
3267 498 Pls
3270 514 Pls
3273 527 Pls
3276 539 Pls
3280 548 Pls
3283 622 Pls
3286 680 Pls
3289 539 Pls
3292 560 Pls
3295 523 Pls
3299 556 Pls
3302 518 Pls
3305 585 Pls
3308 585 Pls
3311 527 Pls
3314 527 Pls
3318 614 Pls
3321 610 Pls
3324 581 Pls
3327 560 Pls
3330 718 Pls
3334 693 Pls
3337 647 Pls
3340 568 Pls
3343 473 Pls
3346 568 Pls
3349 527 Pls
3353 556 Pls
3356 601 Pls
3359 585 Pls
3362 514 Pls
3365 560 Pls
3368 477 Pls
3372 585 Pls
3375 560 Pls
3378 527 Pls
3381 664 Pls
3384 647 Pls
3387 531 Pls
3391 535 Pls
3394 543 Pls
3397 531 Pls
3400 523 Pls
3403 481 Pls
3406 531 Pls
3410 535 Pls
3413 531 Pls
3416 593 Pls
3419 502 Pls
3422 572 Pls
3426 481 Pls
3429 755 Pls
3432 597 Pls
3435 502 Pls
3438 527 Pls
3441 465 Pls
3445 465 Pls
3448 618 Pls
3451 593 Pls
3454 564 Pls
3457 502 Pls
3460 494 Pls
3464 560 Pls
3467 477 Pls
3470 506 Pls
3473 485 Pls
3476 473 Pls
3479 543 Pls
3483 477 Pls
3486 502 Pls
3489 510 Pls
3492 456 Pls
3495 469 Pls
3498 485 Pls
3502 502 Pls
3505 494 Pls
3508 606 Pls
3511 514 Pls
3514 552 Pls
3518 527 Pls
3521 622 Pls
3524 610 Pls
3527 581 Pls
3530 518 Pls
3533 460 Pls
3537 622 Pls
3540 489 Pls
3543 552 Pls
3546 535 Pls
3549 518 Pls
3552 548 Pls
3556 473 Pls
3559 614 Pls
3562 601 Pls
3565 622 Pls
3568 489 Pls
3571 485 Pls
3575 489 Pls
3578 531 Pls
3581 469 Pls
3584 510 Pls
3587 523 Pls
3590 489 Pls
3594 527 Pls
3597 498 Pls
3600 577 Pls
3603 527 Pls
3606 506 Pls
3610 494 Pls
3613 572 Pls
3616 548 Pls
3619 518 Pls
3622 535 Pls
3625 494 Pls
3629 494 Pls
3632 593 Pls
3635 560 Pls
3638 494 Pls
3641 485 Pls
3644 527 Pls
3648 531 Pls
3651 539 Pls
3654 572 Pls
3657 543 Pls
3660 548 Pls
3663 460 Pls
3667 552 Pls
3670 469 Pls
3673 518 Pls
3676 502 Pls
3679 556 Pls
3682 514 Pls
3686 473 Pls
3689 485 Pls
3692 572 Pls
3695 568 Pls
3698 489 Pls
3702 498 Pls
3705 481 Pls
3708 506 Pls
3711 556 Pls
3714 585 Pls
3717 527 Pls
3721 494 Pls
3724 473 Pls
3727 527 Pls
3730 510 Pls
3733 456 Pls
3736 473 Pls
3740 481 Pls
3743 527 Pls
3746 494 Pls
3749 601 Pls
3752 543 Pls
3755 518 Pls
3759 585 Pls
3762 514 Pls
3765 539 Pls
3768 552 Pls
3771 510 Pls
3774 560 Pls
3778 473 Pls
3781 473 Pls
3784 506 Pls
3787 523 Pls
3790 498 Pls
3794 527 Pls
3797 581 Pls
3800 539 Pls
3803 506 Pls
3806 502 Pls
3809 610 Pls
3813 556 Pls
3816 572 Pls
3819 481 Pls
3822 527 Pls
3825 589 Pls
3828 564 Pls
3832 577 Pls
3835 556 Pls
3838 635 Pls
3841 577 Pls
3844 469 Pls
3847 523 Pls
3851 506 Pls
3854 552 Pls
3857 498 Pls
3860 531 Pls
3863 502 Pls
3867 556 Pls
3870 469 Pls
3873 539 Pls
3876 601 Pls
3879 668 Pls
3882 485 Pls
3886 460 Pls
3889 473 Pls
3892 506 Pls
3895 531 Pls
3898 452 Pls
3901 531 Pls
3905 556 Pls
3908 477 Pls
3911 523 Pls
3914 518 Pls
3917 465 Pls
3920 465 Pls
3924 494 Pls
3927 614 Pls
3930 489 Pls
3933 523 Pls
3936 556 Pls
3939 614 Pls
3943 494 Pls
3946 502 Pls
3949 527 Pls
3952 469 Pls
3955 481 Pls
3959 572 Pls
3962 477 Pls
3965 548 Pls
3968 510 Pls
3971 485 Pls
3974 465 Pls
3978 456 Pls
3981 498 Pls
3984 477 Pls
3987 527 Pls
3990 535 Pls
3993 481 Pls
3997 510 Pls
4000 572 Pls
4003 593 Pls
4006 593 Pls
4009 502 Pls
4012 489 Pls
4016 460 Pls
4019 577 Pls
4022 518 Pls
4025 577 Pls
4028 585 Pls
4031 626 Pls
4035 510 Pls
4038 680 Pls
4041 606 Pls
4044 489 Pls
4047 523 Pls
4051 543 Pls
4054 548 Pls
4057 585 Pls
4060 535 Pls
4063 510 Pls
4066 518 Pls
4070 543 Pls
4073 535 Pls
4076 531 Pls
4079 514 Pls
4082 510 Pls
4085 510 Pls
4089 514 Pls
4092 481 Pls
4095 510 Pls
4098 514 Pls
4101 469 Pls
4104 514 Pls
4108 601 Pls
4111 502 Pls
4114 510 Pls
4117 589 Pls
4120 473 Pls
4123 473 Pls
4127 502 Pls
4130 527 Pls
4133 452 Pls
4136 494 Pls
4139 523 Pls
4143 531 Pls
4146 481 Pls
4149 465 Pls
4152 543 Pls
4155 589 Pls
4158 593 Pls
4162 502 Pls
4165 552 Pls
4168 568 Pls
4171 489 Pls
4174 535 Pls
4177 523 Pls
4181 548 Pls
4184 548 Pls
4187 518 Pls
4190 485 Pls
4193 481 Pls
4196 481 Pls
4200 535 Pls
4203 498 Pls
4206 510 Pls
4209 548 Pls
4212 518 Pls
4215 477 Pls
4219 485 Pls
4222 548 Pls
4225 531 Pls
4228 494 Pls
4231 535 Pls
4235 502 Pls
4238 510 Pls
4241 548 Pls
4244 514 Pls
4247 518 Pls
4250 498 Pls
4254 556 Pls
4257 539 Pls
4260 647 Pls
4263 535 Pls
4266 618 Pls
4269 477 Pls
4273 556 Pls
4276 539 Pls
4279 477 Pls
4282 577 Pls
4285 510 Pls
4288 543 Pls
4292 535 Pls
4295 531 Pls
4298 460 Pls
4301 581 Pls
4304 469 Pls
4307 494 Pls
4311 456 Pls
4314 469 Pls
4317 502 Pls
4320 489 Pls
4323 465 Pls
4327 498 Pls
4330 473 Pls
4333 527 Pls
4336 465 Pls
4339 481 Pls
4342 481 Pls
4346 527 Pls
4349 481 Pls
4352 518 Pls
4355 518 Pls
4358 531 Pls
4361 610 Pls
4365 597 Pls
4368 531 Pls
4371 498 Pls
4374 494 Pls
4377 572 Pls
4380 506 Pls
4384 494 Pls
4387 485 Pls
4390 481 Pls
4393 460 Pls
4396 465 Pls
4399 560 Pls
4403 481 Pls
4406 494 Pls
4409 465 Pls
4412 473 Pls
4415 556 Pls
4419 535 Pls
4422 502 Pls
4425 556 Pls
4428 523 Pls
4431 502 Pls
4434 676 Pls
4438 510 Pls
4441 518 Pls
4444 514 Pls
4447 502 Pls
4450 523 Pls
4453 527 Pls
4457 560 Pls
4460 776 Pls
4463 755 Pls
4466 498 Pls
4469 556 Pls
4472 618 Pls
4476 485 Pls
4479 535 Pls
4482 514 Pls
4485 560 Pls
4488 543 Pls
4491 543 Pls
4495 535 Pls
4498 481 Pls
4501 523 Pls
4504 481 Pls
4507 506 Pls
4511 485 Pls
4514 481 Pls
4517 494 Pls
4520 489 Pls
4523 489 Pls
4526 473 Pls
4530 518 Pls
4533 485 Pls
4536 481 Pls
4539 473 Pls
4542 502 Pls
4545 531 Pls
4549 469 Pls
4552 485 Pls
4555 485 Pls
4558 502 Pls
4561 535 Pls
4564 502 Pls
4568 606 Pls
4571 460 Pls
4574 589 Pls
4577 568 Pls
4580 552 Pls
4583 506 Pls
4587 572 Pls
4590 535 Pls
4593 589 Pls
4596 460 Pls
4599 618 Pls
4603 506 Pls
4606 469 Pls
4609 473 Pls
4612 473 Pls
4615 481 Pls
4618 494 Pls
4622 494 Pls
4625 506 Pls
4628 506 Pls
4631 481 Pls
4634 614 Pls
4637 539 Pls
4641 469 Pls
4644 510 Pls
4647 506 Pls
4650 494 Pls
4653 514 Pls
4656 601 Pls
4660 469 Pls
4663 738 Pls
4666 469 Pls
4669 481 Pls
4672 527 Pls
4675 531 Pls
4679 560 Pls
4682 481 Pls
4685 506 Pls
4688 510 Pls
4691 531 Pls
4695 518 Pls
4698 498 Pls
4701 489 Pls
4704 502 Pls
4707 502 Pls
4710 523 Pls
4714 473 Pls
4717 498 Pls
4720 489 Pls
4723 473 Pls
4726 560 Pls
4729 523 Pls
4733 481 Pls
4736 506 Pls
4739 489 Pls
4742 485 Pls
4745 481 Pls
4748 518 Pls
4752 502 Pls
4755 469 Pls
4758 502 Pls
4761 543 Pls
4764 531 Pls
4767 539 Pls
4771 477 Pls
4774 514 Pls
4777 523 Pls
4780 473 Pls
4783 477 Pls
4787 477 Pls
4790 477 Pls
4793 531 Pls
4796 456 Pls
4799 469 Pls
4802 506 Pls
4806 498 Pls
4809 481 Pls
4812 498 Pls
4815 498 Pls
4818 460 Pls
4821 543 Pls
4825 527 Pls
4828 531 Pls
4831 485 Pls
4834 510 Pls
4837 589 Pls
4840 485 Pls
4844 473 Pls
4847 510 Pls
4850 518 Pls
4853 523 Pls
4856 593 Pls
4859 630 Pls
4863 502 Pls
4866 518 Pls
4869 502 Pls
4872 514 Pls
4875 481 Pls
4879 469 Pls
4882 485 Pls
4885 485 Pls
4888 498 Pls
4891 477 Pls
4894 494 Pls
4898 456 Pls
4901 481 Pls
4904 535 Pls
4907 560 Pls
4910 481 Pls
4913 489 Pls
4917 539 Pls
4920 489 Pls
4923 568 Pls
4926 523 Pls
4929 485 Pls
4932 489 Pls
4936 481 Pls
4939 560 Pls
4942 506 Pls
4945 523 Pls
4948 473 Pls
4951 473 Pls
4955 452 Pls
4958 469 Pls
4961 494 Pls
4964 469 Pls
4967 477 Pls
4971 494 Pls
4974 502 Pls
4977 527 Pls
4980 552 Pls
4983 489 Pls
4986 597 Pls
4990 543 Pls
4993 630 Pls
4996 502 Pls
4999 489 Pls
5002 502 Pls
5005 494 Pls
5009 465 Pls
5012 502 Pls
5015 548 Pls
5018 502 Pls
5021 506 Pls
5024 460 Pls
5028 514 Pls
5031 485 Pls
5034 539 Pls
5037 460 Pls
5040 473 Pls
5043 473 Pls
5047 527 Pls
5050 481 Pls
5053 552 Pls
5056 498 Pls
5059 498 Pls
5063 460 Pls
5066 465 Pls
5069 465 Pls
5072 473 Pls
5075 465 Pls
5078 469 Pls
5082 498 Pls
5085 477 Pls
5088 465 Pls
5091 481 Pls
5094 452 Pls
5097 535 Pls
5101 469 Pls
5104 477 Pls
5107 510 Pls
5110 456 Pls
5113 477 Pls
5116 543 Pls
5120 564 Pls
5123 489 Pls
5126 481 Pls
5129 510 Pls
5132 510 Pls
5136 510 Pls
5139 502 Pls
5142 473 Pls
5145 494 Pls
5148 485 Pls
5151 481 Pls
5155 518 Pls
5158 494 Pls
5161 469 Pls
5164 485 Pls
5167 477 Pls
5170 473 Pls
5174 489 Pls
5177 469 Pls
5180 489 Pls
5183 539 Pls
5186 506 Pls
5189 510 Pls
5193 527 Pls
5196 460 Pls
5199 460 Pls
5202 460 Pls
5205 481 Pls
5208 460 Pls
5212 531 Pls
5215 489 Pls
5218 485 Pls
5221 460 Pls
5224 481 Pls
5228 506 Pls
5231 502 Pls
5234 543 Pls
5237 527 Pls
5240 473 Pls
5243 535 Pls
5247 465 Pls
5250 473 Pls
5253 473 Pls
5256 481 Pls
5259 502 Pls
5262 531 Pls
5266 485 Pls
5269 485 Pls
5272 502 Pls
5275 523 Pls
5278 473 Pls
5281 506 Pls
5285 527 Pls
5288 473 Pls
5291 485 Pls
5294 548 Pls
5297 469 Pls
5300 489 Pls
5304 485 Pls
5307 485 Pls
5310 473 Pls
5313 494 Pls
5316 535 Pls
5320 489 Pls
5323 473 Pls
5326 548 Pls
5329 481 Pls
5332 473 Pls
5335 485 Pls
5339 494 Pls
5342 535 Pls
5345 489 Pls
5348 498 Pls
5351 473 Pls
5354 494 Pls
5358 494 Pls
5361 535 Pls
5364 489 Pls
5367 477 Pls
5370 514 Pls
5373 506 Pls
5377 518 Pls
5380 494 Pls
5383 469 Pls
5386 477 Pls
5389 489 Pls
5392 510 Pls
5396 465 Pls
5399 489 Pls
5402 489 Pls
5405 502 Pls
5408 489 Pls
5412 481 Pls
5415 548 Pls
5418 527 Pls
5421 485 Pls
5424 523 Pls
5427 506 Pls
5431 514 Pls
5434 498 Pls
5437 518 Pls
5440 477 Pls
5443 494 Pls
5446 498 Pls
5450 494 Pls
5453 485 Pls
5456 485 Pls
5459 465 Pls
5462 498 Pls
5465 518 Pls
5469 514 Pls
5472 494 Pls
5475 481 Pls
5478 460 Pls
5481 469 Pls
5484 523 Pls
5488 514 Pls
5491 498 Pls
5494 465 Pls
5497 494 Pls
5500 481 Pls
5504 518 Pls
5507 531 Pls
5510 469 Pls
5513 489 Pls
5516 489 Pls
5519 489 Pls
5523 494 Pls
5526 502 Pls
5529 498 Pls
5532 518 Pls
5535 460 Pls
5538 465 Pls
5542 489 Pls
5545 502 Pls
5548 460 Pls
5551 460 Pls
5554 514 Pls
5557 477 Pls
5561 469 Pls
5564 452 Pls
5567 452 Pls
5570 456 Pls
5573 456 Pls
5576 465 Pls
5580 473 Pls
5583 469 Pls
5586 514 Pls
5589 469 Pls
5592 485 Pls
5596 489 Pls
5599 518 Pls
5602 498 Pls
5605 489 Pls
5608 494 Pls
5611 523 Pls
5615 469 Pls
5618 460 Pls
5621 481 Pls
5624 473 Pls
5627 460 Pls
5630 502 Pls
5634 473 Pls
5637 489 Pls
5640 514 Pls
5643 460 Pls
5646 489 Pls
5649 477 Pls
5653 465 Pls
5656 489 Pls
5659 506 Pls
5662 481 Pls
5665 460 Pls
5668 485 Pls
5672 481 Pls
5675 502 Pls
5678 469 Pls
5681 485 Pls
5684 481 Pls
5688 477 Pls
5691 465 Pls
5694 465 Pls
5697 465 Pls
5700 477 Pls
5703 465 Pls
5707 481 Pls
5710 494 Pls
5713 465 Pls
5716 494 Pls
5719 518 Pls
5722 481 Pls
5726 465 Pls
5729 477 Pls
5732 510 Pls
5735 485 Pls
5738 465 Pls
5741 465 Pls
5745 469 Pls
5748 518 Pls
5751 460 Pls
5754 465 Pls
5757 485 Pls
5760 477 Pls
5764 477 Pls
5767 460 Pls
5770 469 Pls
5773 456 Pls
5776 465 Pls
5780 481 Pls
5783 502 Pls
5786 460 Pls
5789 481 Pls
5792 473 Pls
5795 465 Pls
5799 456 Pls
5802 481 Pls
5805 481 Pls
5808 502 Pls
5811 498 Pls
5814 485 Pls
5818 473 Pls
5821 506 Pls
5824 477 Pls
5827 469 Pls
5830 460 Pls
5833 489 Pls
5837 477 Pls
5840 456 Pls
5843 477 Pls
5846 489 Pls
5849 489 Pls
5852 465 Pls
5856 489 Pls
5859 456 Pls
5862 469 Pls
5865 489 Pls
5868 477 Pls
5872 473 Pls
5875 460 Pls
5878 518 Pls
5881 473 Pls
5884 456 Pls
5887 469 Pls
5891 473 Pls
5894 514 Pls
5897 477 Pls
5900 498 Pls
5903 465 Pls
5906 469 Pls
5910 477 Pls
5913 469 Pls
5916 481 Pls
5919 460 Pls
5922 452 Pls
5925 489 Pls
5929 469 Pls
5932 452 Pls
5935 473 Pls
5938 460 Pls
5941 465 Pls
5944 498 Pls
5948 485 Pls
5951 481 Pls
5954 456 Pls
5957 477 Pls
5960 477 Pls
5964 477 Pls
5967 465 Pls
5970 494 Pls
5973 460 Pls
5976 452 Pls
5979 456 Pls
5983 460 Pls
5986 465 Pls
5989 477 Pls
5992 469 Pls
5995 473 Pls
5998 465 Pls
6002 506 Pls
6005 473 Pls
6008 465 Pls
6011 469 Pls
6014 456 Pls
6017 477 Pls
6021 452 Pls
6024 452 Pls
6027 460 Pls
6030 452 Pls
6033 460 Pls
6036 469 Pls
6040 465 Pls
6043 460 Pls
6046 452 Pls
6049 494 Pls
6052 460 Pls
6056 460 Pls
6059 456 Pls
6062 452 Pls
6065 456 Pls
6068 477 Pls
6071 456 Pls
6075 456 Pls
6078 469 Pls
6081 465 Pls
6084 452 Pls
6087 456 Pls
6090 460 Pls
6094 465 Pls
6097 460 Pls
6100 456 Pls
6103 465 Pls
6106 456 Pls
6109 452 Pls
6113 452 Pls
6116 456 Pls
6119 477 Pls
6122 469 Pls
6125 456 Pls
6128 465 Pls
6132 460 Pls
6135 456 Pls
6138 460 Pls
6141 465 Pls
6144 469 Pls
6148 469 Pls
6151 456 Pls
6154 452 Pls
6157 460 Pls
6160 456 Pls
6163 460 Pls
6167 469 Pls
6170 465 Pls
6173 473 Pls
6176 452 Pls
6179 452 Pls
6182 452 Pls
6186 469 Pls
6189 465 Pls
6192 469 Pls
6195 456 Pls
6198 465 Pls
6201 465 Pls
6205 456 Pls
6208 460 Pls
6211 456 Pls
6214 456 Pls
6217 452 Pls
6220 465 Pls
6224 452 Pls
6227 452 Pls
6230 456 Pls
6233 456 Pls
6236 456 Pls
6240 456 Pls
6243 456 Pls
6246 456 Pls
6249 460 Pls
6252 469 Pls
6255 452 Pls
6259 452 Pls
6262 452 Pls
6265 465 Pls
6268 452 Pls
6271 465 Pls
6274 481 Pls
6278 465 Pls
6281 452 Pls
6284 452 Pls
6287 452 Pls
6290 452 Pls
6293 456 Pls
6297 456 Pls
6300 452 Pls
6303 452 Pls
6306 469 Pls
6309 456 Pls
6312 452 Pls
6316 452 Pls
6319 452 Pls
6322 452 Pls
6325 456 Pls
6328 456 Pls
6332 452 Pls
6335 452 Pls
6338 452 Pls
6579 4738 Pls
% End plot #1
1.000 UL
LTb
602 4871 N
602 448 L
6345 0 V
0 4423 V
-6345 0 V
Z stroke
1.000 UP
1.000 UL
LTb
stroke
grestore
end
showpage
%%Trailer
%%DocumentFonts: Helvetica
