%!PS-Adobe-2.0 EPSF-2.0
%%Title: ../plots/domainstats/states-sorted-by-ply-visit-count-nannon-offset-2.eps
%%Creator: gnuplot 4.4 patchlevel 3
%%CreationDate: Wed Dec 14 04:42:16 2011
%%DocumentFonts: (atend)
%%BoundingBox: 50 50 410 302
%%EndComments
%%BeginProlog
/gnudict 256 dict def
gnudict begin
%
% The following true/false flags may be edited by hand if desired.
% The unit line width and grayscale image gamma correction may also be changed.
%
/Color true def
/Blacktext false def
/Solid false def
/Dashlength 1 def
/Landscape false def
/Level1 false def
/Rounded false def
/ClipToBoundingBox false def
/TransparentPatterns false def
/gnulinewidth 5.000 def
/userlinewidth gnulinewidth def
/Gamma 1.0 def
%
/vshift -46 def
/dl1 {
  10.0 Dashlength mul mul
  Rounded { currentlinewidth 0.75 mul sub dup 0 le { pop 0.01 } if } if
} def
/dl2 {
  10.0 Dashlength mul mul
  Rounded { currentlinewidth 0.75 mul add } if
} def
/hpt_ 31.5 def
/vpt_ 31.5 def
/hpt hpt_ def
/vpt vpt_ def
Level1 {} {
/SDict 10 dict def
systemdict /pdfmark known not {
  userdict /pdfmark systemdict /cleartomark get put
} if
SDict begin [
  /Title (../plots/domainstats/states-sorted-by-ply-visit-count-nannon-offset-2.eps)
  /Subject (gnuplot plot)
  /Creator (gnuplot 4.4 patchlevel 3)
  /Author (reza)
%  /Producer (gnuplot)
%  /Keywords ()
  /CreationDate (Wed Dec 14 04:42:16 2011)
  /DOCINFO pdfmark
end
} ifelse
/doclip {
  ClipToBoundingBox {
    newpath 50 50 moveto 410 50 lineto 410 302 lineto 50 302 lineto closepath
    clip
  } if
} def
%
% Gnuplot Prolog Version 4.4 (August 2010)
%
%/SuppressPDFMark true def
%
/M {moveto} bind def
/L {lineto} bind def
/R {rmoveto} bind def
/V {rlineto} bind def
/N {newpath moveto} bind def
/Z {closepath} bind def
/C {setrgbcolor} bind def
/f {rlineto fill} bind def
/g {setgray} bind def
/Gshow {show} def   % May be redefined later in the file to support UTF-8
/vpt2 vpt 2 mul def
/hpt2 hpt 2 mul def
/Lshow {currentpoint stroke M 0 vshift R 
	Blacktext {gsave 0 setgray show grestore} {show} ifelse} def
/Rshow {currentpoint stroke M dup stringwidth pop neg vshift R
	Blacktext {gsave 0 setgray show grestore} {show} ifelse} def
/Cshow {currentpoint stroke M dup stringwidth pop -2 div vshift R 
	Blacktext {gsave 0 setgray show grestore} {show} ifelse} def
/UP {dup vpt_ mul /vpt exch def hpt_ mul /hpt exch def
  /hpt2 hpt 2 mul def /vpt2 vpt 2 mul def} def
/DL {Color {setrgbcolor Solid {pop []} if 0 setdash}
 {pop pop pop 0 setgray Solid {pop []} if 0 setdash} ifelse} def
/BL {stroke userlinewidth 2 mul setlinewidth
	Rounded {1 setlinejoin 1 setlinecap} if} def
/AL {stroke userlinewidth 2 div setlinewidth
	Rounded {1 setlinejoin 1 setlinecap} if} def
/UL {dup gnulinewidth mul /userlinewidth exch def
	dup 1 lt {pop 1} if 10 mul /udl exch def} def
/PL {stroke userlinewidth setlinewidth
	Rounded {1 setlinejoin 1 setlinecap} if} def
3.8 setmiterlimit
% Default Line colors
/LCw {1 1 1} def
/LCb {0 0 0} def
/LCa {0 0 0} def
/LC0 {1 0 0} def
/LC1 {0 1 0} def
/LC2 {0 0 1} def
/LC3 {1 0 1} def
/LC4 {0 1 1} def
/LC5 {1 1 0} def
/LC6 {0 0 0} def
/LC7 {1 0.3 0} def
/LC8 {0.5 0.5 0.5} def
% Default Line Types
/LTw {PL [] 1 setgray} def
/LTb {BL [] LCb DL} def
/LTa {AL [1 udl mul 2 udl mul] 0 setdash LCa setrgbcolor} def
/LT0 {PL [] LC0 DL} def
/LT1 {PL [4 dl1 2 dl2] LC1 DL} def
/LT2 {PL [2 dl1 3 dl2] LC2 DL} def
/LT3 {PL [1 dl1 1.5 dl2] LC3 DL} def
/LT4 {PL [6 dl1 2 dl2 1 dl1 2 dl2] LC4 DL} def
/LT5 {PL [3 dl1 3 dl2 1 dl1 3 dl2] LC5 DL} def
/LT6 {PL [2 dl1 2 dl2 2 dl1 6 dl2] LC6 DL} def
/LT7 {PL [1 dl1 2 dl2 6 dl1 2 dl2 1 dl1 2 dl2] LC7 DL} def
/LT8 {PL [2 dl1 2 dl2 2 dl1 2 dl2 2 dl1 2 dl2 2 dl1 4 dl2] LC8 DL} def
/Pnt {stroke [] 0 setdash gsave 1 setlinecap M 0 0 V stroke grestore} def
/Dia {stroke [] 0 setdash 2 copy vpt add M
  hpt neg vpt neg V hpt vpt neg V
  hpt vpt V hpt neg vpt V closepath stroke
  Pnt} def
/Pls {stroke [] 0 setdash vpt sub M 0 vpt2 V
  currentpoint stroke M
  hpt neg vpt neg R hpt2 0 V stroke
 } def
/Box {stroke [] 0 setdash 2 copy exch hpt sub exch vpt add M
  0 vpt2 neg V hpt2 0 V 0 vpt2 V
  hpt2 neg 0 V closepath stroke
  Pnt} def
/Crs {stroke [] 0 setdash exch hpt sub exch vpt add M
  hpt2 vpt2 neg V currentpoint stroke M
  hpt2 neg 0 R hpt2 vpt2 V stroke} def
/TriU {stroke [] 0 setdash 2 copy vpt 1.12 mul add M
  hpt neg vpt -1.62 mul V
  hpt 2 mul 0 V
  hpt neg vpt 1.62 mul V closepath stroke
  Pnt} def
/Star {2 copy Pls Crs} def
/BoxF {stroke [] 0 setdash exch hpt sub exch vpt add M
  0 vpt2 neg V hpt2 0 V 0 vpt2 V
  hpt2 neg 0 V closepath fill} def
/TriUF {stroke [] 0 setdash vpt 1.12 mul add M
  hpt neg vpt -1.62 mul V
  hpt 2 mul 0 V
  hpt neg vpt 1.62 mul V closepath fill} def
/TriD {stroke [] 0 setdash 2 copy vpt 1.12 mul sub M
  hpt neg vpt 1.62 mul V
  hpt 2 mul 0 V
  hpt neg vpt -1.62 mul V closepath stroke
  Pnt} def
/TriDF {stroke [] 0 setdash vpt 1.12 mul sub M
  hpt neg vpt 1.62 mul V
  hpt 2 mul 0 V
  hpt neg vpt -1.62 mul V closepath fill} def
/DiaF {stroke [] 0 setdash vpt add M
  hpt neg vpt neg V hpt vpt neg V
  hpt vpt V hpt neg vpt V closepath fill} def
/Pent {stroke [] 0 setdash 2 copy gsave
  translate 0 hpt M 4 {72 rotate 0 hpt L} repeat
  closepath stroke grestore Pnt} def
/PentF {stroke [] 0 setdash gsave
  translate 0 hpt M 4 {72 rotate 0 hpt L} repeat
  closepath fill grestore} def
/Circle {stroke [] 0 setdash 2 copy
  hpt 0 360 arc stroke Pnt} def
/CircleF {stroke [] 0 setdash hpt 0 360 arc fill} def
/C0 {BL [] 0 setdash 2 copy moveto vpt 90 450 arc} bind def
/C1 {BL [] 0 setdash 2 copy moveto
	2 copy vpt 0 90 arc closepath fill
	vpt 0 360 arc closepath} bind def
/C2 {BL [] 0 setdash 2 copy moveto
	2 copy vpt 90 180 arc closepath fill
	vpt 0 360 arc closepath} bind def
/C3 {BL [] 0 setdash 2 copy moveto
	2 copy vpt 0 180 arc closepath fill
	vpt 0 360 arc closepath} bind def
/C4 {BL [] 0 setdash 2 copy moveto
	2 copy vpt 180 270 arc closepath fill
	vpt 0 360 arc closepath} bind def
/C5 {BL [] 0 setdash 2 copy moveto
	2 copy vpt 0 90 arc
	2 copy moveto
	2 copy vpt 180 270 arc closepath fill
	vpt 0 360 arc} bind def
/C6 {BL [] 0 setdash 2 copy moveto
	2 copy vpt 90 270 arc closepath fill
	vpt 0 360 arc closepath} bind def
/C7 {BL [] 0 setdash 2 copy moveto
	2 copy vpt 0 270 arc closepath fill
	vpt 0 360 arc closepath} bind def
/C8 {BL [] 0 setdash 2 copy moveto
	2 copy vpt 270 360 arc closepath fill
	vpt 0 360 arc closepath} bind def
/C9 {BL [] 0 setdash 2 copy moveto
	2 copy vpt 270 450 arc closepath fill
	vpt 0 360 arc closepath} bind def
/C10 {BL [] 0 setdash 2 copy 2 copy moveto vpt 270 360 arc closepath fill
	2 copy moveto
	2 copy vpt 90 180 arc closepath fill
	vpt 0 360 arc closepath} bind def
/C11 {BL [] 0 setdash 2 copy moveto
	2 copy vpt 0 180 arc closepath fill
	2 copy moveto
	2 copy vpt 270 360 arc closepath fill
	vpt 0 360 arc closepath} bind def
/C12 {BL [] 0 setdash 2 copy moveto
	2 copy vpt 180 360 arc closepath fill
	vpt 0 360 arc closepath} bind def
/C13 {BL [] 0 setdash 2 copy moveto
	2 copy vpt 0 90 arc closepath fill
	2 copy moveto
	2 copy vpt 180 360 arc closepath fill
	vpt 0 360 arc closepath} bind def
/C14 {BL [] 0 setdash 2 copy moveto
	2 copy vpt 90 360 arc closepath fill
	vpt 0 360 arc} bind def
/C15 {BL [] 0 setdash 2 copy vpt 0 360 arc closepath fill
	vpt 0 360 arc closepath} bind def
/Rec {newpath 4 2 roll moveto 1 index 0 rlineto 0 exch rlineto
	neg 0 rlineto closepath} bind def
/Square {dup Rec} bind def
/Bsquare {vpt sub exch vpt sub exch vpt2 Square} bind def
/S0 {BL [] 0 setdash 2 copy moveto 0 vpt rlineto BL Bsquare} bind def
/S1 {BL [] 0 setdash 2 copy vpt Square fill Bsquare} bind def
/S2 {BL [] 0 setdash 2 copy exch vpt sub exch vpt Square fill Bsquare} bind def
/S3 {BL [] 0 setdash 2 copy exch vpt sub exch vpt2 vpt Rec fill Bsquare} bind def
/S4 {BL [] 0 setdash 2 copy exch vpt sub exch vpt sub vpt Square fill Bsquare} bind def
/S5 {BL [] 0 setdash 2 copy 2 copy vpt Square fill
	exch vpt sub exch vpt sub vpt Square fill Bsquare} bind def
/S6 {BL [] 0 setdash 2 copy exch vpt sub exch vpt sub vpt vpt2 Rec fill Bsquare} bind def
/S7 {BL [] 0 setdash 2 copy exch vpt sub exch vpt sub vpt vpt2 Rec fill
	2 copy vpt Square fill Bsquare} bind def
/S8 {BL [] 0 setdash 2 copy vpt sub vpt Square fill Bsquare} bind def
/S9 {BL [] 0 setdash 2 copy vpt sub vpt vpt2 Rec fill Bsquare} bind def
/S10 {BL [] 0 setdash 2 copy vpt sub vpt Square fill 2 copy exch vpt sub exch vpt Square fill
	Bsquare} bind def
/S11 {BL [] 0 setdash 2 copy vpt sub vpt Square fill 2 copy exch vpt sub exch vpt2 vpt Rec fill
	Bsquare} bind def
/S12 {BL [] 0 setdash 2 copy exch vpt sub exch vpt sub vpt2 vpt Rec fill Bsquare} bind def
/S13 {BL [] 0 setdash 2 copy exch vpt sub exch vpt sub vpt2 vpt Rec fill
	2 copy vpt Square fill Bsquare} bind def
/S14 {BL [] 0 setdash 2 copy exch vpt sub exch vpt sub vpt2 vpt Rec fill
	2 copy exch vpt sub exch vpt Square fill Bsquare} bind def
/S15 {BL [] 0 setdash 2 copy Bsquare fill Bsquare} bind def
/D0 {gsave translate 45 rotate 0 0 S0 stroke grestore} bind def
/D1 {gsave translate 45 rotate 0 0 S1 stroke grestore} bind def
/D2 {gsave translate 45 rotate 0 0 S2 stroke grestore} bind def
/D3 {gsave translate 45 rotate 0 0 S3 stroke grestore} bind def
/D4 {gsave translate 45 rotate 0 0 S4 stroke grestore} bind def
/D5 {gsave translate 45 rotate 0 0 S5 stroke grestore} bind def
/D6 {gsave translate 45 rotate 0 0 S6 stroke grestore} bind def
/D7 {gsave translate 45 rotate 0 0 S7 stroke grestore} bind def
/D8 {gsave translate 45 rotate 0 0 S8 stroke grestore} bind def
/D9 {gsave translate 45 rotate 0 0 S9 stroke grestore} bind def
/D10 {gsave translate 45 rotate 0 0 S10 stroke grestore} bind def
/D11 {gsave translate 45 rotate 0 0 S11 stroke grestore} bind def
/D12 {gsave translate 45 rotate 0 0 S12 stroke grestore} bind def
/D13 {gsave translate 45 rotate 0 0 S13 stroke grestore} bind def
/D14 {gsave translate 45 rotate 0 0 S14 stroke grestore} bind def
/D15 {gsave translate 45 rotate 0 0 S15 stroke grestore} bind def
/DiaE {stroke [] 0 setdash vpt add M
  hpt neg vpt neg V hpt vpt neg V
  hpt vpt V hpt neg vpt V closepath stroke} def
/BoxE {stroke [] 0 setdash exch hpt sub exch vpt add M
  0 vpt2 neg V hpt2 0 V 0 vpt2 V
  hpt2 neg 0 V closepath stroke} def
/TriUE {stroke [] 0 setdash vpt 1.12 mul add M
  hpt neg vpt -1.62 mul V
  hpt 2 mul 0 V
  hpt neg vpt 1.62 mul V closepath stroke} def
/TriDE {stroke [] 0 setdash vpt 1.12 mul sub M
  hpt neg vpt 1.62 mul V
  hpt 2 mul 0 V
  hpt neg vpt -1.62 mul V closepath stroke} def
/PentE {stroke [] 0 setdash gsave
  translate 0 hpt M 4 {72 rotate 0 hpt L} repeat
  closepath stroke grestore} def
/CircE {stroke [] 0 setdash 
  hpt 0 360 arc stroke} def
/Opaque {gsave closepath 1 setgray fill grestore 0 setgray closepath} def
/DiaW {stroke [] 0 setdash vpt add M
  hpt neg vpt neg V hpt vpt neg V
  hpt vpt V hpt neg vpt V Opaque stroke} def
/BoxW {stroke [] 0 setdash exch hpt sub exch vpt add M
  0 vpt2 neg V hpt2 0 V 0 vpt2 V
  hpt2 neg 0 V Opaque stroke} def
/TriUW {stroke [] 0 setdash vpt 1.12 mul add M
  hpt neg vpt -1.62 mul V
  hpt 2 mul 0 V
  hpt neg vpt 1.62 mul V Opaque stroke} def
/TriDW {stroke [] 0 setdash vpt 1.12 mul sub M
  hpt neg vpt 1.62 mul V
  hpt 2 mul 0 V
  hpt neg vpt -1.62 mul V Opaque stroke} def
/PentW {stroke [] 0 setdash gsave
  translate 0 hpt M 4 {72 rotate 0 hpt L} repeat
  Opaque stroke grestore} def
/CircW {stroke [] 0 setdash 
  hpt 0 360 arc Opaque stroke} def
/BoxFill {gsave Rec 1 setgray fill grestore} def
/Density {
  /Fillden exch def
  currentrgbcolor
  /ColB exch def /ColG exch def /ColR exch def
  /ColR ColR Fillden mul Fillden sub 1 add def
  /ColG ColG Fillden mul Fillden sub 1 add def
  /ColB ColB Fillden mul Fillden sub 1 add def
  ColR ColG ColB setrgbcolor} def
/BoxColFill {gsave Rec PolyFill} def
/PolyFill {gsave Density fill grestore grestore} def
/h {rlineto rlineto rlineto gsave closepath fill grestore} bind def
%
% PostScript Level 1 Pattern Fill routine for rectangles
% Usage: x y w h s a XX PatternFill
%	x,y = lower left corner of box to be filled
%	w,h = width and height of box
%	  a = angle in degrees between lines and x-axis
%	 XX = 0/1 for no/yes cross-hatch
%
/PatternFill {gsave /PFa [ 9 2 roll ] def
  PFa 0 get PFa 2 get 2 div add PFa 1 get PFa 3 get 2 div add translate
  PFa 2 get -2 div PFa 3 get -2 div PFa 2 get PFa 3 get Rec
  gsave 1 setgray fill grestore clip
  currentlinewidth 0.5 mul setlinewidth
  /PFs PFa 2 get dup mul PFa 3 get dup mul add sqrt def
  0 0 M PFa 5 get rotate PFs -2 div dup translate
  0 1 PFs PFa 4 get div 1 add floor cvi
	{PFa 4 get mul 0 M 0 PFs V} for
  0 PFa 6 get ne {
	0 1 PFs PFa 4 get div 1 add floor cvi
	{PFa 4 get mul 0 2 1 roll M PFs 0 V} for
 } if
  stroke grestore} def
%
/languagelevel where
 {pop languagelevel} {1} ifelse
 2 lt
	{/InterpretLevel1 true def}
	{/InterpretLevel1 Level1 def}
 ifelse
%
% PostScript level 2 pattern fill definitions
%
/Level2PatternFill {
/Tile8x8 {/PaintType 2 /PatternType 1 /TilingType 1 /BBox [0 0 8 8] /XStep 8 /YStep 8}
	bind def
/KeepColor {currentrgbcolor [/Pattern /DeviceRGB] setcolorspace} bind def
<< Tile8x8
 /PaintProc {0.5 setlinewidth pop 0 0 M 8 8 L 0 8 M 8 0 L stroke} 
>> matrix makepattern
/Pat1 exch def
<< Tile8x8
 /PaintProc {0.5 setlinewidth pop 0 0 M 8 8 L 0 8 M 8 0 L stroke
	0 4 M 4 8 L 8 4 L 4 0 L 0 4 L stroke}
>> matrix makepattern
/Pat2 exch def
<< Tile8x8
 /PaintProc {0.5 setlinewidth pop 0 0 M 0 8 L
	8 8 L 8 0 L 0 0 L fill}
>> matrix makepattern
/Pat3 exch def
<< Tile8x8
 /PaintProc {0.5 setlinewidth pop -4 8 M 8 -4 L
	0 12 M 12 0 L stroke}
>> matrix makepattern
/Pat4 exch def
<< Tile8x8
 /PaintProc {0.5 setlinewidth pop -4 0 M 8 12 L
	0 -4 M 12 8 L stroke}
>> matrix makepattern
/Pat5 exch def
<< Tile8x8
 /PaintProc {0.5 setlinewidth pop -2 8 M 4 -4 L
	0 12 M 8 -4 L 4 12 M 10 0 L stroke}
>> matrix makepattern
/Pat6 exch def
<< Tile8x8
 /PaintProc {0.5 setlinewidth pop -2 0 M 4 12 L
	0 -4 M 8 12 L 4 -4 M 10 8 L stroke}
>> matrix makepattern
/Pat7 exch def
<< Tile8x8
 /PaintProc {0.5 setlinewidth pop 8 -2 M -4 4 L
	12 0 M -4 8 L 12 4 M 0 10 L stroke}
>> matrix makepattern
/Pat8 exch def
<< Tile8x8
 /PaintProc {0.5 setlinewidth pop 0 -2 M 12 4 L
	-4 0 M 12 8 L -4 4 M 8 10 L stroke}
>> matrix makepattern
/Pat9 exch def
/Pattern1 {PatternBgnd KeepColor Pat1 setpattern} bind def
/Pattern2 {PatternBgnd KeepColor Pat2 setpattern} bind def
/Pattern3 {PatternBgnd KeepColor Pat3 setpattern} bind def
/Pattern4 {PatternBgnd KeepColor Landscape {Pat5} {Pat4} ifelse setpattern} bind def
/Pattern5 {PatternBgnd KeepColor Landscape {Pat4} {Pat5} ifelse setpattern} bind def
/Pattern6 {PatternBgnd KeepColor Landscape {Pat9} {Pat6} ifelse setpattern} bind def
/Pattern7 {PatternBgnd KeepColor Landscape {Pat8} {Pat7} ifelse setpattern} bind def
} def
%
%
%End of PostScript Level 2 code
%
/PatternBgnd {
  TransparentPatterns {} {gsave 1 setgray fill grestore} ifelse
} def
%
% Substitute for Level 2 pattern fill codes with
% grayscale if Level 2 support is not selected.
%
/Level1PatternFill {
/Pattern1 {0.250 Density} bind def
/Pattern2 {0.500 Density} bind def
/Pattern3 {0.750 Density} bind def
/Pattern4 {0.125 Density} bind def
/Pattern5 {0.375 Density} bind def
/Pattern6 {0.625 Density} bind def
/Pattern7 {0.875 Density} bind def
} def
%
% Now test for support of Level 2 code
%
Level1 {Level1PatternFill} {Level2PatternFill} ifelse
%
/Symbol-Oblique /Symbol findfont [1 0 .167 1 0 0] makefont
dup length dict begin {1 index /FID eq {pop pop} {def} ifelse} forall
currentdict end definefont pop
end
%%EndProlog
gnudict begin
gsave
doclip
50 50 translate
0.050 0.050 scale
0 setgray
newpath
(Helvetica) findfont 140 scalefont setfont
1.000 UL
LTb
770 448 M
63 0 V
6114 0 R
-63 0 V
686 448 M
( 0) Rshow
1.000 UL
LTb
770 1185 M
63 0 V
6114 0 R
-63 0 V
-6198 0 R
( 200) Rshow
1.000 UL
LTb
770 1922 M
63 0 V
6114 0 R
-63 0 V
-6198 0 R
( 400) Rshow
1.000 UL
LTb
770 2660 M
63 0 V
6114 0 R
-63 0 V
-6198 0 R
( 600) Rshow
1.000 UL
LTb
770 3397 M
63 0 V
6114 0 R
-63 0 V
-6198 0 R
( 800) Rshow
1.000 UL
LTb
770 4134 M
63 0 V
6114 0 R
-63 0 V
-6198 0 R
( 1000) Rshow
1.000 UL
LTb
770 4871 M
63 0 V
6114 0 R
-63 0 V
-6198 0 R
( 1200) Rshow
1.000 UL
LTb
770 448 M
0 63 V
0 4360 R
0 -63 V
770 308 M
( 0) Cshow
1.000 UL
LTb
1456 448 M
0 63 V
0 4360 R
0 -63 V
0 -4500 R
( 200) Cshow
1.000 UL
LTb
2143 448 M
0 63 V
0 4360 R
0 -63 V
0 -4500 R
( 400) Cshow
1.000 UL
LTb
2829 448 M
0 63 V
0 4360 R
0 -63 V
0 -4500 R
( 600) Cshow
1.000 UL
LTb
3515 448 M
0 63 V
0 4360 R
0 -63 V
0 -4500 R
( 800) Cshow
1.000 UL
LTb
4202 448 M
0 63 V
0 4360 R
0 -63 V
0 -4500 R
( 1000) Cshow
1.000 UL
LTb
4888 448 M
0 63 V
0 4360 R
0 -63 V
0 -4500 R
( 1200) Cshow
1.000 UL
LTb
5574 448 M
0 63 V
0 4360 R
0 -63 V
0 -4500 R
( 1400) Cshow
1.000 UL
LTb
6261 448 M
0 63 V
0 4360 R
0 -63 V
0 -4500 R
( 1600) Cshow
1.000 UL
LTb
6947 448 M
0 63 V
0 4360 R
0 -63 V
0 -4500 R
( 1800) Cshow
1.000 UL
LTb
1.000 UL
LTb
770 4871 N
770 448 L
6177 0 V
0 4423 V
-6177 0 V
Z stroke
LCb setrgbcolor
112 2659 M
currentpoint gsave translate -270 rotate 0 0 M
(Visit Count) Cshow
grestore
LTb
LCb setrgbcolor
3858 98 M
(States \(Sorted by Earliest Visit Time\)) Cshow
LTb
1.000 UP
1.000 UL
LTb
% Begin plot #1
1.000 UP
1.000 UL
LT0
LCb setrgbcolor
6296 4738 M
(Offset = 2) Rshow
LT0
770 4786 Pls
773 592 Pls
777 695 Pls
780 750 Pls
784 809 Pls
787 643 Pls
791 573 Pls
794 702 Pls
797 927 Pls
801 883 Pls
804 658 Pls
808 787 Pls
811 647 Pls
815 835 Pls
818 669 Pls
821 584 Pls
825 584 Pls
828 514 Pls
832 492 Pls
835 477 Pls
839 496 Pls
842 466 Pls
845 455 Pls
849 492 Pls
852 500 Pls
856 459 Pls
859 533 Pls
863 489 Pls
866 474 Pls
870 466 Pls
873 466 Pls
876 477 Pls
880 518 Pls
883 474 Pls
887 452 Pls
890 489 Pls
894 492 Pls
897 548 Pls
900 503 Pls
904 559 Pls
907 511 Pls
911 562 Pls
914 477 Pls
918 518 Pls
921 459 Pls
924 492 Pls
928 477 Pls
931 477 Pls
935 466 Pls
938 489 Pls
942 507 Pls
945 463 Pls
948 481 Pls
952 466 Pls
955 466 Pls
959 500 Pls
962 492 Pls
966 459 Pls
969 474 Pls
972 514 Pls
976 477 Pls
979 466 Pls
983 466 Pls
986 477 Pls
990 518 Pls
993 492 Pls
996 466 Pls
1000 496 Pls
1003 503 Pls
1007 562 Pls
1010 536 Pls
1014 489 Pls
1017 477 Pls
1021 477 Pls
1024 481 Pls
1027 489 Pls
1031 477 Pls
1034 559 Pls
1038 470 Pls
1041 500 Pls
1045 507 Pls
1048 492 Pls
1051 466 Pls
1055 477 Pls
1058 492 Pls
1062 474 Pls
1065 551 Pls
1069 533 Pls
1072 481 Pls
1075 485 Pls
1079 452 Pls
1082 459 Pls
1086 492 Pls
1089 474 Pls
1093 489 Pls
1096 481 Pls
1099 525 Pls
1103 518 Pls
1106 522 Pls
1110 463 Pls
1113 477 Pls
1117 496 Pls
1120 466 Pls
1123 485 Pls
1127 477 Pls
1130 503 Pls
1134 500 Pls
1137 477 Pls
1141 496 Pls
1144 466 Pls
1147 511 Pls
1151 492 Pls
1154 503 Pls
1158 485 Pls
1161 503 Pls
1165 514 Pls
1168 533 Pls
1172 466 Pls
1175 562 Pls
1178 470 Pls
1182 485 Pls
1185 470 Pls
1189 492 Pls
1192 544 Pls
1196 500 Pls
1199 544 Pls
1202 466 Pls
1206 474 Pls
1209 477 Pls
1213 481 Pls
1216 500 Pls
1220 459 Pls
1223 477 Pls
1226 466 Pls
1230 485 Pls
1233 470 Pls
1237 470 Pls
1240 481 Pls
1244 485 Pls
1247 489 Pls
1250 470 Pls
1254 463 Pls
1257 470 Pls
1261 455 Pls
1264 477 Pls
1268 474 Pls
1271 459 Pls
1274 455 Pls
1278 455 Pls
1281 463 Pls
1285 452 Pls
1288 474 Pls
1292 470 Pls
1295 463 Pls
1298 525 Pls
1302 459 Pls
1305 463 Pls
1309 455 Pls
1312 481 Pls
1316 459 Pls
1319 455 Pls
1322 455 Pls
1326 466 Pls
1329 452 Pls
1333 455 Pls
1336 459 Pls
1340 459 Pls
1343 455 Pls
1347 455 Pls
1350 452 Pls
1353 477 Pls
1357 466 Pls
1360 477 Pls
1364 452 Pls
1367 459 Pls
1371 452 Pls
1374 474 Pls
1377 474 Pls
1381 455 Pls
1384 455 Pls
1388 452 Pls
1391 452 Pls
1395 452 Pls
1398 455 Pls
1401 463 Pls
1405 455 Pls
1408 459 Pls
1412 455 Pls
1415 481 Pls
1419 477 Pls
1422 463 Pls
1425 489 Pls
1429 452 Pls
1432 452 Pls
1436 459 Pls
1439 477 Pls
1443 485 Pls
1446 477 Pls
1449 474 Pls
1453 455 Pls
1456 463 Pls
1460 477 Pls
1463 489 Pls
1467 470 Pls
1470 463 Pls
1473 474 Pls
1477 489 Pls
1480 474 Pls
1484 474 Pls
1487 477 Pls
1491 481 Pls
1494 474 Pls
1498 459 Pls
1501 463 Pls
1504 452 Pls
1508 500 Pls
1511 474 Pls
1515 466 Pls
1518 459 Pls
1522 466 Pls
1525 492 Pls
1528 507 Pls
1532 477 Pls
1535 481 Pls
1539 477 Pls
1542 463 Pls
1546 489 Pls
1549 489 Pls
1552 466 Pls
1556 455 Pls
1559 455 Pls
1563 452 Pls
1566 452 Pls
1570 459 Pls
1573 452 Pls
1576 452 Pls
1580 485 Pls
1583 455 Pls
1587 466 Pls
1590 455 Pls
1594 455 Pls
1597 459 Pls
1600 474 Pls
1604 463 Pls
1607 452 Pls
1611 455 Pls
1614 455 Pls
1618 470 Pls
1621 459 Pls
1624 466 Pls
1628 459 Pls
1631 455 Pls
1635 459 Pls
1638 459 Pls
1642 455 Pls
1645 455 Pls
1649 452 Pls
1652 481 Pls
1655 496 Pls
1659 455 Pls
1662 452 Pls
1666 455 Pls
1669 463 Pls
1673 459 Pls
1676 474 Pls
1679 463 Pls
1683 466 Pls
1686 463 Pls
1690 463 Pls
1693 492 Pls
1697 463 Pls
1700 463 Pls
1703 463 Pls
1707 455 Pls
1710 477 Pls
1714 470 Pls
1717 463 Pls
1721 470 Pls
1724 463 Pls
1727 485 Pls
1731 477 Pls
1734 459 Pls
1738 452 Pls
1741 466 Pls
1745 466 Pls
1748 466 Pls
1751 455 Pls
1755 459 Pls
1758 455 Pls
1762 459 Pls
1765 452 Pls
1769 455 Pls
1772 463 Pls
1775 463 Pls
1779 481 Pls
1782 489 Pls
1786 477 Pls
1789 452 Pls
1793 452 Pls
1796 452 Pls
1799 459 Pls
1803 470 Pls
1806 455 Pls
1810 455 Pls
1813 452 Pls
1817 452 Pls
1820 463 Pls
1824 463 Pls
1827 470 Pls
1830 452 Pls
1834 459 Pls
1837 452 Pls
1841 452 Pls
1844 455 Pls
1848 459 Pls
1851 485 Pls
1854 536 Pls
1858 459 Pls
1861 481 Pls
1865 489 Pls
1868 496 Pls
1872 481 Pls
1875 485 Pls
1878 466 Pls
1882 485 Pls
1885 470 Pls
1889 459 Pls
1892 477 Pls
1896 481 Pls
1899 474 Pls
1902 489 Pls
1906 477 Pls
1909 489 Pls
1913 503 Pls
1916 466 Pls
1920 470 Pls
1923 466 Pls
1926 492 Pls
1930 474 Pls
1933 452 Pls
1937 452 Pls
1940 455 Pls
1944 455 Pls
1947 459 Pls
1950 459 Pls
1954 463 Pls
1957 463 Pls
1961 507 Pls
1964 503 Pls
1968 452 Pls
1971 466 Pls
1975 470 Pls
1978 503 Pls
1981 477 Pls
1985 500 Pls
1988 459 Pls
1992 455 Pls
1995 489 Pls
1999 485 Pls
2002 485 Pls
2005 463 Pls
2009 466 Pls
2012 459 Pls
2016 455 Pls
2019 463 Pls
2023 466 Pls
2026 470 Pls
2029 455 Pls
2033 452 Pls
2036 459 Pls
2040 470 Pls
2043 477 Pls
2047 470 Pls
2050 466 Pls
2053 466 Pls
2057 466 Pls
2060 466 Pls
2064 459 Pls
2067 455 Pls
2071 452 Pls
2074 455 Pls
2077 455 Pls
2081 459 Pls
2084 452 Pls
2088 452 Pls
2091 455 Pls
2095 463 Pls
2098 455 Pls
2101 466 Pls
2105 463 Pls
2108 455 Pls
2112 455 Pls
2115 474 Pls
2119 463 Pls
2122 459 Pls
2126 452 Pls
2129 455 Pls
2132 455 Pls
2136 452 Pls
2139 463 Pls
2143 485 Pls
2146 459 Pls
2150 463 Pls
2153 455 Pls
2156 470 Pls
2160 452 Pls
2163 477 Pls
2167 459 Pls
2170 455 Pls
2174 459 Pls
2177 452 Pls
2180 459 Pls
2184 455 Pls
2187 455 Pls
2191 463 Pls
2194 455 Pls
2198 489 Pls
2201 470 Pls
2204 463 Pls
2208 459 Pls
2211 452 Pls
2215 459 Pls
2218 455 Pls
2222 463 Pls
2225 452 Pls
2228 459 Pls
2232 452 Pls
2235 459 Pls
2239 459 Pls
2242 459 Pls
2246 452 Pls
2249 452 Pls
2252 452 Pls
2256 452 Pls
2259 459 Pls
2263 452 Pls
2266 452 Pls
2270 455 Pls
2273 455 Pls
2277 452 Pls
2280 463 Pls
2283 463 Pls
2287 455 Pls
2290 452 Pls
2294 455 Pls
2297 455 Pls
2301 455 Pls
2304 452 Pls
2307 463 Pls
2311 452 Pls
2314 466 Pls
2318 452 Pls
2321 452 Pls
2325 463 Pls
2328 459 Pls
2331 455 Pls
2335 452 Pls
2338 455 Pls
2342 455 Pls
2345 452 Pls
2349 452 Pls
2352 463 Pls
2355 455 Pls
2359 452 Pls
2362 459 Pls
2366 466 Pls
2369 455 Pls
2373 459 Pls
2376 459 Pls
2379 455 Pls
2383 459 Pls
2386 452 Pls
2390 459 Pls
2393 463 Pls
2397 452 Pls
2400 463 Pls
2403 463 Pls
2407 452 Pls
2410 474 Pls
2414 496 Pls
2417 470 Pls
2421 463 Pls
2424 459 Pls
2427 474 Pls
2431 466 Pls
2434 470 Pls
2438 463 Pls
2441 470 Pls
2445 492 Pls
2448 470 Pls
2452 459 Pls
2455 463 Pls
2458 463 Pls
2462 455 Pls
2465 455 Pls
2469 507 Pls
2472 477 Pls
2476 474 Pls
2479 489 Pls
2482 459 Pls
2486 452 Pls
2489 452 Pls
2493 463 Pls
2496 455 Pls
2500 455 Pls
2503 459 Pls
2506 463 Pls
2510 459 Pls
2513 455 Pls
2517 459 Pls
2520 452 Pls
2524 474 Pls
2527 477 Pls
2530 474 Pls
2534 463 Pls
2537 466 Pls
2541 500 Pls
2544 463 Pls
2548 485 Pls
2551 485 Pls
2554 463 Pls
2558 455 Pls
2561 481 Pls
2565 459 Pls
2568 474 Pls
2572 463 Pls
2575 485 Pls
2578 470 Pls
2582 463 Pls
2585 485 Pls
2589 455 Pls
2592 470 Pls
2596 452 Pls
2599 452 Pls
2603 455 Pls
2606 466 Pls
2609 466 Pls
2613 452 Pls
2616 496 Pls
2620 466 Pls
2623 470 Pls
2627 452 Pls
2630 477 Pls
2633 459 Pls
2637 459 Pls
2640 503 Pls
2644 481 Pls
2647 452 Pls
2651 452 Pls
2654 455 Pls
2657 452 Pls
2661 485 Pls
2664 466 Pls
2668 452 Pls
2671 452 Pls
2675 452 Pls
2678 452 Pls
2681 459 Pls
2685 452 Pls
2688 452 Pls
2692 459 Pls
2695 452 Pls
2699 455 Pls
2702 455 Pls
2705 452 Pls
2709 463 Pls
2712 474 Pls
2716 455 Pls
2719 459 Pls
2723 459 Pls
2726 455 Pls
2729 459 Pls
2733 463 Pls
2736 452 Pls
2740 459 Pls
2743 455 Pls
2747 459 Pls
2750 463 Pls
2754 466 Pls
2757 452 Pls
2760 452 Pls
2764 452 Pls
2767 452 Pls
2771 455 Pls
2774 455 Pls
2778 455 Pls
2781 459 Pls
2784 455 Pls
2788 470 Pls
2791 455 Pls
2795 452 Pls
2798 470 Pls
2802 459 Pls
2805 455 Pls
2808 452 Pls
2812 463 Pls
2815 452 Pls
2819 452 Pls
2822 463 Pls
2826 459 Pls
2829 452 Pls
2832 455 Pls
2836 459 Pls
2839 452 Pls
2843 455 Pls
2846 455 Pls
2850 455 Pls
2853 477 Pls
2856 452 Pls
2860 452 Pls
2863 455 Pls
2867 452 Pls
2870 452 Pls
2874 452 Pls
2877 459 Pls
2880 459 Pls
2884 470 Pls
2887 452 Pls
2891 477 Pls
2894 477 Pls
2898 474 Pls
2901 474 Pls
2904 477 Pls
2908 477 Pls
2911 481 Pls
2915 474 Pls
2918 466 Pls
2922 474 Pls
2925 463 Pls
2929 459 Pls
2932 466 Pls
2935 500 Pls
2939 485 Pls
2942 481 Pls
2946 474 Pls
2949 466 Pls
2953 466 Pls
2956 481 Pls
2959 455 Pls
2963 489 Pls
2966 455 Pls
2970 459 Pls
2973 481 Pls
2977 470 Pls
2980 455 Pls
2983 455 Pls
2987 463 Pls
2990 455 Pls
2994 459 Pls
2997 455 Pls
3001 459 Pls
3004 463 Pls
3007 496 Pls
3011 470 Pls
3014 463 Pls
3018 466 Pls
3021 455 Pls
3025 455 Pls
3028 455 Pls
3031 518 Pls
3035 474 Pls
3038 525 Pls
3042 477 Pls
3045 492 Pls
3049 477 Pls
3052 481 Pls
3055 452 Pls
3059 477 Pls
3062 459 Pls
3066 489 Pls
3069 455 Pls
3073 459 Pls
3076 463 Pls
3080 459 Pls
3083 485 Pls
3086 463 Pls
3090 466 Pls
3093 470 Pls
3097 455 Pls
3100 459 Pls
3104 463 Pls
3107 463 Pls
3110 455 Pls
3114 459 Pls
3117 470 Pls
3121 474 Pls
3124 463 Pls
3128 452 Pls
3131 507 Pls
3134 500 Pls
3138 470 Pls
3141 477 Pls
3145 455 Pls
3148 455 Pls
3152 455 Pls
3155 455 Pls
3158 474 Pls
3162 466 Pls
3165 466 Pls
3169 455 Pls
3172 455 Pls
3176 463 Pls
3179 463 Pls
3182 452 Pls
3186 463 Pls
3189 455 Pls
3193 455 Pls
3196 452 Pls
3200 452 Pls
3203 466 Pls
3206 463 Pls
3210 452 Pls
3213 459 Pls
3217 452 Pls
3220 452 Pls
3224 470 Pls
3227 459 Pls
3231 466 Pls
3234 459 Pls
3237 452 Pls
3241 463 Pls
3244 466 Pls
3248 470 Pls
3251 455 Pls
3255 452 Pls
3258 485 Pls
3261 452 Pls
3265 452 Pls
3268 470 Pls
3272 452 Pls
3275 455 Pls
3279 455 Pls
3282 463 Pls
3285 459 Pls
3289 455 Pls
3292 466 Pls
3296 452 Pls
3299 452 Pls
3303 455 Pls
3306 452 Pls
3309 455 Pls
3313 452 Pls
3316 466 Pls
3320 452 Pls
3323 463 Pls
3327 463 Pls
3330 455 Pls
3333 452 Pls
3337 463 Pls
3340 452 Pls
3344 452 Pls
3347 452 Pls
3351 452 Pls
3354 459 Pls
3357 455 Pls
3361 452 Pls
3364 452 Pls
3368 455 Pls
3371 452 Pls
3375 459 Pls
3378 452 Pls
3381 455 Pls
3385 455 Pls
3388 452 Pls
3392 452 Pls
3395 459 Pls
3399 455 Pls
3402 452 Pls
3406 452 Pls
3409 452 Pls
3412 452 Pls
3416 463 Pls
3419 455 Pls
3423 455 Pls
3426 455 Pls
3430 452 Pls
3433 452 Pls
3436 452 Pls
3440 455 Pls
3443 455 Pls
3447 455 Pls
3450 459 Pls
3454 452 Pls
3457 452 Pls
3460 452 Pls
3464 455 Pls
3467 452 Pls
3471 452 Pls
3474 452 Pls
3478 452 Pls
3481 452 Pls
3484 452 Pls
3488 452 Pls
3491 463 Pls
3495 463 Pls
3498 466 Pls
3502 463 Pls
3505 466 Pls
3508 474 Pls
3512 459 Pls
3515 485 Pls
3519 470 Pls
3522 463 Pls
3526 466 Pls
3529 459 Pls
3532 459 Pls
3536 455 Pls
3539 463 Pls
3543 459 Pls
3546 466 Pls
3550 459 Pls
3553 455 Pls
3557 452 Pls
3560 466 Pls
3563 459 Pls
3567 477 Pls
3570 485 Pls
3574 466 Pls
3577 459 Pls
3581 466 Pls
3584 455 Pls
3587 470 Pls
3591 459 Pls
3594 470 Pls
3598 463 Pls
3601 463 Pls
3605 489 Pls
3608 474 Pls
3611 474 Pls
3615 489 Pls
3618 477 Pls
3622 459 Pls
3625 496 Pls
3629 481 Pls
3632 477 Pls
3635 452 Pls
3639 463 Pls
3642 455 Pls
3646 466 Pls
3649 455 Pls
3653 463 Pls
3656 452 Pls
3659 455 Pls
3663 470 Pls
3666 452 Pls
3670 459 Pls
3673 452 Pls
3677 474 Pls
3680 459 Pls
3683 452 Pls
3687 470 Pls
3690 470 Pls
3694 463 Pls
3697 455 Pls
3701 466 Pls
3704 459 Pls
3708 452 Pls
3711 455 Pls
3714 459 Pls
3718 470 Pls
3721 466 Pls
3725 459 Pls
3728 470 Pls
3732 459 Pls
3735 459 Pls
3738 481 Pls
3742 459 Pls
3745 463 Pls
3749 452 Pls
3752 463 Pls
3756 466 Pls
3759 459 Pls
3762 485 Pls
3766 452 Pls
3769 555 Pls
3773 496 Pls
3776 474 Pls
3780 492 Pls
3783 470 Pls
3786 481 Pls
3790 466 Pls
3793 455 Pls
3797 481 Pls
3800 470 Pls
3804 470 Pls
3807 470 Pls
3810 503 Pls
3814 466 Pls
3817 463 Pls
3821 455 Pls
3824 481 Pls
3828 481 Pls
3831 477 Pls
3834 459 Pls
3838 459 Pls
3841 466 Pls
3845 455 Pls
3848 455 Pls
3852 455 Pls
3855 463 Pls
3858 452 Pls
3862 455 Pls
3865 452 Pls
3869 455 Pls
3872 452 Pls
3876 452 Pls
3879 452 Pls
3883 455 Pls
3886 452 Pls
3889 452 Pls
3893 452 Pls
3896 452 Pls
3900 463 Pls
3903 455 Pls
3907 459 Pls
3910 477 Pls
3913 455 Pls
3917 452 Pls
3920 455 Pls
3924 452 Pls
3927 459 Pls
3931 463 Pls
3934 459 Pls
3937 463 Pls
3941 459 Pls
3944 466 Pls
3948 459 Pls
3951 455 Pls
3955 470 Pls
3958 459 Pls
3961 470 Pls
3965 455 Pls
3968 459 Pls
3972 452 Pls
3975 452 Pls
3979 463 Pls
3982 452 Pls
3985 452 Pls
3989 455 Pls
3992 452 Pls
3996 452 Pls
3999 452 Pls
4003 452 Pls
4006 452 Pls
4009 452 Pls
4013 463 Pls
4016 492 Pls
4020 477 Pls
4023 503 Pls
4027 481 Pls
4030 463 Pls
4034 489 Pls
4037 485 Pls
4040 455 Pls
4044 459 Pls
4047 452 Pls
4051 470 Pls
4054 474 Pls
4058 452 Pls
4061 481 Pls
4064 503 Pls
4068 500 Pls
4071 496 Pls
4075 470 Pls
4078 489 Pls
4082 477 Pls
4085 452 Pls
4088 452 Pls
4092 459 Pls
4095 463 Pls
4099 455 Pls
4102 452 Pls
4106 463 Pls
4109 503 Pls
4112 459 Pls
4116 485 Pls
4119 466 Pls
4123 477 Pls
4126 452 Pls
4130 463 Pls
4133 518 Pls
4136 477 Pls
4140 466 Pls
4143 492 Pls
4147 452 Pls
4150 455 Pls
4154 463 Pls
4157 452 Pls
4160 459 Pls
4164 489 Pls
4167 452 Pls
4171 459 Pls
4174 452 Pls
4178 459 Pls
4181 452 Pls
4185 570 Pls
4188 474 Pls
4191 481 Pls
4195 463 Pls
4198 455 Pls
4202 459 Pls
4205 455 Pls
4209 489 Pls
4212 489 Pls
4215 466 Pls
4219 463 Pls
4222 481 Pls
4226 463 Pls
4229 466 Pls
4233 477 Pls
4236 477 Pls
4239 455 Pls
4243 485 Pls
4246 455 Pls
4250 459 Pls
4253 463 Pls
4257 581 Pls
4260 452 Pls
4263 481 Pls
4267 463 Pls
4270 452 Pls
4274 459 Pls
4277 452 Pls
4281 452 Pls
4284 455 Pls
4287 452 Pls
4291 452 Pls
4294 452 Pls
4298 459 Pls
4301 463 Pls
4305 455 Pls
4308 466 Pls
4311 459 Pls
4315 452 Pls
4318 452 Pls
4322 455 Pls
4325 466 Pls
4329 455 Pls
4332 452 Pls
4336 452 Pls
4339 455 Pls
4342 455 Pls
4346 474 Pls
4349 452 Pls
4353 452 Pls
4356 466 Pls
4360 463 Pls
4363 455 Pls
4366 452 Pls
4370 459 Pls
4373 452 Pls
4377 452 Pls
4380 455 Pls
4384 452 Pls
4387 452 Pls
4390 452 Pls
4394 452 Pls
4397 452 Pls
4401 452 Pls
4404 452 Pls
4408 455 Pls
4411 452 Pls
4414 452 Pls
4418 452 Pls
4421 455 Pls
4425 452 Pls
4428 455 Pls
4432 455 Pls
4435 455 Pls
4438 452 Pls
4442 455 Pls
4445 452 Pls
4449 463 Pls
4452 455 Pls
4456 466 Pls
4459 455 Pls
4462 452 Pls
4466 452 Pls
4469 452 Pls
4473 452 Pls
4476 452 Pls
4480 459 Pls
4483 452 Pls
4486 452 Pls
4490 452 Pls
4493 452 Pls
4497 455 Pls
4500 452 Pls
4504 452 Pls
4507 452 Pls
4511 452 Pls
4514 452 Pls
4517 452 Pls
4521 452 Pls
4524 455 Pls
4528 477 Pls
4531 455 Pls
4535 463 Pls
4538 455 Pls
4541 474 Pls
4545 463 Pls
4548 474 Pls
4552 489 Pls
4555 459 Pls
4559 463 Pls
4562 459 Pls
4565 455 Pls
4569 474 Pls
4572 459 Pls
4576 470 Pls
4579 455 Pls
4583 455 Pls
4586 459 Pls
4589 452 Pls
4593 492 Pls
4596 511 Pls
4600 463 Pls
4603 466 Pls
4607 477 Pls
4610 466 Pls
4613 470 Pls
4617 470 Pls
4620 459 Pls
4624 492 Pls
4627 463 Pls
4631 463 Pls
4634 481 Pls
4637 470 Pls
4641 470 Pls
4644 463 Pls
4648 452 Pls
4651 459 Pls
4655 455 Pls
4658 466 Pls
4662 481 Pls
4665 485 Pls
4668 481 Pls
4672 463 Pls
4675 511 Pls
4679 477 Pls
4682 511 Pls
4686 466 Pls
4689 470 Pls
4692 496 Pls
4696 459 Pls
4699 463 Pls
4703 489 Pls
4706 463 Pls
4710 466 Pls
4713 455 Pls
4716 474 Pls
4720 455 Pls
4723 455 Pls
4727 452 Pls
4730 459 Pls
4734 455 Pls
4737 455 Pls
4740 481 Pls
4744 466 Pls
4747 459 Pls
4751 452 Pls
4754 455 Pls
4758 452 Pls
4761 466 Pls
4764 455 Pls
4768 570 Pls
4771 606 Pls
4775 581 Pls
4778 584 Pls
4782 470 Pls
4785 489 Pls
4788 470 Pls
4792 474 Pls
4795 466 Pls
4799 529 Pls
4802 477 Pls
4806 529 Pls
4809 455 Pls
4813 481 Pls
4816 477 Pls
4819 463 Pls
4823 470 Pls
4826 514 Pls
4830 470 Pls
4833 514 Pls
4837 470 Pls
4840 470 Pls
4843 452 Pls
4847 452 Pls
4850 477 Pls
4854 452 Pls
4857 481 Pls
4861 584 Pls
4864 477 Pls
4867 455 Pls
4871 485 Pls
4874 455 Pls
4878 481 Pls
4881 470 Pls
4885 496 Pls
4888 459 Pls
4891 463 Pls
4895 503 Pls
4898 463 Pls
4902 496 Pls
4905 459 Pls
4909 455 Pls
4912 452 Pls
4915 452 Pls
4919 452 Pls
4922 452 Pls
4926 455 Pls
4929 452 Pls
4933 455 Pls
4936 452 Pls
4939 452 Pls
4943 452 Pls
4946 466 Pls
4950 455 Pls
4953 452 Pls
4957 452 Pls
4960 452 Pls
4963 452 Pls
4967 452 Pls
4970 455 Pls
4974 455 Pls
4977 452 Pls
4981 459 Pls
4984 452 Pls
4988 452 Pls
4991 452 Pls
4994 452 Pls
4998 452 Pls
5001 452 Pls
5005 452 Pls
5008 452 Pls
5012 463 Pls
5015 463 Pls
5018 518 Pls
5022 474 Pls
5025 466 Pls
5029 503 Pls
5032 470 Pls
5036 503 Pls
5039 481 Pls
5042 452 Pls
5046 463 Pls
5049 455 Pls
5053 452 Pls
5056 507 Pls
5060 474 Pls
5063 452 Pls
5066 463 Pls
5070 463 Pls
5073 477 Pls
5077 455 Pls
5080 470 Pls
5084 452 Pls
5087 455 Pls
5090 452 Pls
5094 452 Pls
5097 452 Pls
5101 452 Pls
5104 466 Pls
5108 548 Pls
5111 463 Pls
5114 588 Pls
5118 511 Pls
5121 577 Pls
5125 492 Pls
5128 566 Pls
5132 503 Pls
5135 477 Pls
5139 455 Pls
5142 466 Pls
5145 455 Pls
5149 463 Pls
5152 477 Pls
5156 503 Pls
5159 492 Pls
5163 455 Pls
5166 463 Pls
5169 466 Pls
5173 452 Pls
5176 459 Pls
5180 459 Pls
5183 452 Pls
5187 452 Pls
5190 452 Pls
5193 455 Pls
5197 452 Pls
5200 452 Pls
5204 466 Pls
5207 452 Pls
5211 452 Pls
5214 463 Pls
5217 477 Pls
5221 452 Pls
5224 463 Pls
5228 455 Pls
5231 466 Pls
5235 463 Pls
5238 452 Pls
5241 452 Pls
5245 452 Pls
5248 459 Pls
5252 452 Pls
5255 452 Pls
5259 452 Pls
5262 455 Pls
5265 452 Pls
5269 452 Pls
5272 452 Pls
5276 452 Pls
5279 452 Pls
5283 452 Pls
5286 452 Pls
5290 452 Pls
5293 455 Pls
5296 452 Pls
5300 459 Pls
5303 455 Pls
5307 452 Pls
5310 463 Pls
5314 452 Pls
5317 455 Pls
5320 459 Pls
5324 452 Pls
5327 452 Pls
5331 455 Pls
5334 452 Pls
5338 481 Pls
5341 470 Pls
5344 459 Pls
5348 452 Pls
5351 474 Pls
5355 452 Pls
5358 455 Pls
5362 481 Pls
5365 503 Pls
5368 481 Pls
5372 455 Pls
5375 455 Pls
5379 481 Pls
5382 455 Pls
5386 452 Pls
5389 459 Pls
5392 459 Pls
5396 455 Pls
5399 452 Pls
5403 463 Pls
5406 455 Pls
5410 452 Pls
5413 452 Pls
5416 489 Pls
5420 507 Pls
5423 463 Pls
5427 474 Pls
5430 455 Pls
5434 459 Pls
5437 481 Pls
5440 470 Pls
5444 459 Pls
5447 459 Pls
5451 452 Pls
5454 500 Pls
5458 470 Pls
5461 452 Pls
5465 455 Pls
5468 455 Pls
5471 466 Pls
5475 477 Pls
5478 459 Pls
5482 452 Pls
5485 459 Pls
5489 452 Pls
5492 481 Pls
5495 481 Pls
5499 500 Pls
5502 581 Pls
5506 489 Pls
5509 507 Pls
5513 551 Pls
5516 584 Pls
5519 548 Pls
5523 485 Pls
5526 481 Pls
5530 503 Pls
5533 470 Pls
5537 507 Pls
5540 647 Pls
5543 592 Pls
5547 496 Pls
5550 540 Pls
5554 474 Pls
5557 474 Pls
5561 455 Pls
5564 455 Pls
5567 466 Pls
5571 463 Pls
5574 452 Pls
5578 455 Pls
5581 654 Pls
5585 599 Pls
5588 570 Pls
5591 507 Pls
5595 492 Pls
5598 452 Pls
5602 463 Pls
5605 466 Pls
5609 477 Pls
5612 463 Pls
5616 455 Pls
5619 452 Pls
5622 452 Pls
5626 463 Pls
5629 452 Pls
5633 455 Pls
5636 452 Pls
5640 452 Pls
5643 455 Pls
5646 459 Pls
5650 452 Pls
5653 452 Pls
5657 474 Pls
5660 452 Pls
5664 452 Pls
5667 466 Pls
5670 452 Pls
5674 452 Pls
5677 455 Pls
5681 455 Pls
5684 452 Pls
5688 466 Pls
5691 452 Pls
5694 514 Pls
5698 466 Pls
5701 452 Pls
5705 455 Pls
5708 470 Pls
5712 485 Pls
5715 452 Pls
5718 452 Pls
5722 452 Pls
5725 455 Pls
5729 489 Pls
5732 477 Pls
5736 463 Pls
5739 452 Pls
5742 452 Pls
5746 452 Pls
5749 452 Pls
5753 455 Pls
5756 455 Pls
5760 452 Pls
5763 477 Pls
5767 452 Pls
5770 452 Pls
5773 452 Pls
5777 455 Pls
5780 452 Pls
5784 455 Pls
5787 452 Pls
5791 452 Pls
5794 452 Pls
5797 452 Pls
5801 452 Pls
5804 452 Pls
5808 452 Pls
5811 452 Pls
5815 455 Pls
5818 455 Pls
5821 455 Pls
5825 452 Pls
5828 452 Pls
5832 455 Pls
5835 452 Pls
5839 459 Pls
5842 455 Pls
5845 455 Pls
5849 452 Pls
5852 452 Pls
5856 452 Pls
5859 452 Pls
5863 452 Pls
5866 455 Pls
5869 459 Pls
5873 455 Pls
5876 466 Pls
5880 452 Pls
5883 455 Pls
5887 455 Pls
5890 459 Pls
5893 459 Pls
5897 452 Pls
5900 455 Pls
5904 455 Pls
5907 470 Pls
5911 459 Pls
5914 455 Pls
5917 474 Pls
5921 463 Pls
5924 459 Pls
5928 452 Pls
5931 492 Pls
5935 466 Pls
5938 477 Pls
5942 455 Pls
5945 470 Pls
5948 470 Pls
5952 455 Pls
5955 452 Pls
5959 459 Pls
5962 455 Pls
5966 452 Pls
5969 570 Pls
5972 492 Pls
5976 455 Pls
5979 470 Pls
5983 455 Pls
5986 481 Pls
5990 477 Pls
5993 466 Pls
5996 511 Pls
6000 459 Pls
6003 481 Pls
6007 481 Pls
6010 459 Pls
6014 452 Pls
6017 452 Pls
6020 452 Pls
6024 452 Pls
6027 455 Pls
6031 452 Pls
6034 452 Pls
6038 455 Pls
6041 452 Pls
6044 452 Pls
6048 459 Pls
6051 452 Pls
6055 452 Pls
6058 452 Pls
6062 455 Pls
6065 452 Pls
6068 452 Pls
6072 452 Pls
6075 452 Pls
6079 452 Pls
6082 452 Pls
6086 452 Pls
6089 455 Pls
6093 452 Pls
6096 452 Pls
6099 452 Pls
6103 452 Pls
6106 452 Pls
6110 452 Pls
6113 452 Pls
6117 455 Pls
6120 452 Pls
6123 452 Pls
6127 452 Pls
6130 459 Pls
6134 452 Pls
6137 452 Pls
6141 455 Pls
6144 459 Pls
6147 463 Pls
6151 452 Pls
6154 452 Pls
6158 455 Pls
6161 452 Pls
6165 459 Pls
6168 452 Pls
6171 452 Pls
6175 452 Pls
6178 455 Pls
6182 452 Pls
6185 452 Pls
6189 452 Pls
6192 452 Pls
6195 452 Pls
6199 455 Pls
6202 452 Pls
6206 452 Pls
6209 452 Pls
6213 452 Pls
6216 452 Pls
6219 452 Pls
6223 452 Pls
6226 455 Pls
6230 452 Pls
6233 452 Pls
6237 455 Pls
6240 452 Pls
6244 452 Pls
6247 452 Pls
6250 455 Pls
6254 452 Pls
6257 452 Pls
6261 452 Pls
6264 452 Pls
6268 452 Pls
6271 452 Pls
6274 452 Pls
6278 452 Pls
6281 452 Pls
6285 452 Pls
6288 452 Pls
6292 455 Pls
6295 452 Pls
6298 452 Pls
6302 452 Pls
6579 4738 Pls
% End plot #1
1.000 UL
LTb
770 4871 N
770 448 L
6177 0 V
0 4423 V
-6177 0 V
Z stroke
1.000 UP
1.000 UL
LTb
stroke
grestore
end
showpage
%%Trailer
%%DocumentFonts: Helvetica
