%!PS-Adobe-2.0 EPSF-2.0
%%Title: ../plots/domainstats/states-sorted-by-ply-visit-count-over-avg-num-plies-nannon-offset-0.eps
%%Creator: gnuplot 4.4 patchlevel 3
%%CreationDate: Wed Dec 14 04:42:16 2011
%%DocumentFonts: (atend)
%%BoundingBox: 50 50 410 302
%%EndComments
%%BeginProlog
/gnudict 256 dict def
gnudict begin
%
% The following true/false flags may be edited by hand if desired.
% The unit line width and grayscale image gamma correction may also be changed.
%
/Color true def
/Blacktext false def
/Solid false def
/Dashlength 1 def
/Landscape false def
/Level1 false def
/Rounded false def
/ClipToBoundingBox false def
/TransparentPatterns false def
/gnulinewidth 5.000 def
/userlinewidth gnulinewidth def
/Gamma 1.0 def
%
/vshift -46 def
/dl1 {
  10.0 Dashlength mul mul
  Rounded { currentlinewidth 0.75 mul sub dup 0 le { pop 0.01 } if } if
} def
/dl2 {
  10.0 Dashlength mul mul
  Rounded { currentlinewidth 0.75 mul add } if
} def
/hpt_ 31.5 def
/vpt_ 31.5 def
/hpt hpt_ def
/vpt vpt_ def
Level1 {} {
/SDict 10 dict def
systemdict /pdfmark known not {
  userdict /pdfmark systemdict /cleartomark get put
} if
SDict begin [
  /Title (../plots/domainstats/states-sorted-by-ply-visit-count-over-avg-num-plies-nannon-offset-0.eps)
  /Subject (gnuplot plot)
  /Creator (gnuplot 4.4 patchlevel 3)
  /Author (reza)
%  /Producer (gnuplot)
%  /Keywords ()
  /CreationDate (Wed Dec 14 04:42:16 2011)
  /DOCINFO pdfmark
end
} ifelse
/doclip {
  ClipToBoundingBox {
    newpath 50 50 moveto 410 50 lineto 410 302 lineto 50 302 lineto closepath
    clip
  } if
} def
%
% Gnuplot Prolog Version 4.4 (August 2010)
%
%/SuppressPDFMark true def
%
/M {moveto} bind def
/L {lineto} bind def
/R {rmoveto} bind def
/V {rlineto} bind def
/N {newpath moveto} bind def
/Z {closepath} bind def
/C {setrgbcolor} bind def
/f {rlineto fill} bind def
/g {setgray} bind def
/Gshow {show} def   % May be redefined later in the file to support UTF-8
/vpt2 vpt 2 mul def
/hpt2 hpt 2 mul def
/Lshow {currentpoint stroke M 0 vshift R 
	Blacktext {gsave 0 setgray show grestore} {show} ifelse} def
/Rshow {currentpoint stroke M dup stringwidth pop neg vshift R
	Blacktext {gsave 0 setgray show grestore} {show} ifelse} def
/Cshow {currentpoint stroke M dup stringwidth pop -2 div vshift R 
	Blacktext {gsave 0 setgray show grestore} {show} ifelse} def
/UP {dup vpt_ mul /vpt exch def hpt_ mul /hpt exch def
  /hpt2 hpt 2 mul def /vpt2 vpt 2 mul def} def
/DL {Color {setrgbcolor Solid {pop []} if 0 setdash}
 {pop pop pop 0 setgray Solid {pop []} if 0 setdash} ifelse} def
/BL {stroke userlinewidth 2 mul setlinewidth
	Rounded {1 setlinejoin 1 setlinecap} if} def
/AL {stroke userlinewidth 2 div setlinewidth
	Rounded {1 setlinejoin 1 setlinecap} if} def
/UL {dup gnulinewidth mul /userlinewidth exch def
	dup 1 lt {pop 1} if 10 mul /udl exch def} def
/PL {stroke userlinewidth setlinewidth
	Rounded {1 setlinejoin 1 setlinecap} if} def
3.8 setmiterlimit
% Default Line colors
/LCw {1 1 1} def
/LCb {0 0 0} def
/LCa {0 0 0} def
/LC0 {1 0 0} def
/LC1 {0 1 0} def
/LC2 {0 0 1} def
/LC3 {1 0 1} def
/LC4 {0 1 1} def
/LC5 {1 1 0} def
/LC6 {0 0 0} def
/LC7 {1 0.3 0} def
/LC8 {0.5 0.5 0.5} def
% Default Line Types
/LTw {PL [] 1 setgray} def
/LTb {BL [] LCb DL} def
/LTa {AL [1 udl mul 2 udl mul] 0 setdash LCa setrgbcolor} def
/LT0 {PL [] LC0 DL} def
/LT1 {PL [4 dl1 2 dl2] LC1 DL} def
/LT2 {PL [2 dl1 3 dl2] LC2 DL} def
/LT3 {PL [1 dl1 1.5 dl2] LC3 DL} def
/LT4 {PL [6 dl1 2 dl2 1 dl1 2 dl2] LC4 DL} def
/LT5 {PL [3 dl1 3 dl2 1 dl1 3 dl2] LC5 DL} def
/LT6 {PL [2 dl1 2 dl2 2 dl1 6 dl2] LC6 DL} def
/LT7 {PL [1 dl1 2 dl2 6 dl1 2 dl2 1 dl1 2 dl2] LC7 DL} def
/LT8 {PL [2 dl1 2 dl2 2 dl1 2 dl2 2 dl1 2 dl2 2 dl1 4 dl2] LC8 DL} def
/Pnt {stroke [] 0 setdash gsave 1 setlinecap M 0 0 V stroke grestore} def
/Dia {stroke [] 0 setdash 2 copy vpt add M
  hpt neg vpt neg V hpt vpt neg V
  hpt vpt V hpt neg vpt V closepath stroke
  Pnt} def
/Pls {stroke [] 0 setdash vpt sub M 0 vpt2 V
  currentpoint stroke M
  hpt neg vpt neg R hpt2 0 V stroke
 } def
/Box {stroke [] 0 setdash 2 copy exch hpt sub exch vpt add M
  0 vpt2 neg V hpt2 0 V 0 vpt2 V
  hpt2 neg 0 V closepath stroke
  Pnt} def
/Crs {stroke [] 0 setdash exch hpt sub exch vpt add M
  hpt2 vpt2 neg V currentpoint stroke M
  hpt2 neg 0 R hpt2 vpt2 V stroke} def
/TriU {stroke [] 0 setdash 2 copy vpt 1.12 mul add M
  hpt neg vpt -1.62 mul V
  hpt 2 mul 0 V
  hpt neg vpt 1.62 mul V closepath stroke
  Pnt} def
/Star {2 copy Pls Crs} def
/BoxF {stroke [] 0 setdash exch hpt sub exch vpt add M
  0 vpt2 neg V hpt2 0 V 0 vpt2 V
  hpt2 neg 0 V closepath fill} def
/TriUF {stroke [] 0 setdash vpt 1.12 mul add M
  hpt neg vpt -1.62 mul V
  hpt 2 mul 0 V
  hpt neg vpt 1.62 mul V closepath fill} def
/TriD {stroke [] 0 setdash 2 copy vpt 1.12 mul sub M
  hpt neg vpt 1.62 mul V
  hpt 2 mul 0 V
  hpt neg vpt -1.62 mul V closepath stroke
  Pnt} def
/TriDF {stroke [] 0 setdash vpt 1.12 mul sub M
  hpt neg vpt 1.62 mul V
  hpt 2 mul 0 V
  hpt neg vpt -1.62 mul V closepath fill} def
/DiaF {stroke [] 0 setdash vpt add M
  hpt neg vpt neg V hpt vpt neg V
  hpt vpt V hpt neg vpt V closepath fill} def
/Pent {stroke [] 0 setdash 2 copy gsave
  translate 0 hpt M 4 {72 rotate 0 hpt L} repeat
  closepath stroke grestore Pnt} def
/PentF {stroke [] 0 setdash gsave
  translate 0 hpt M 4 {72 rotate 0 hpt L} repeat
  closepath fill grestore} def
/Circle {stroke [] 0 setdash 2 copy
  hpt 0 360 arc stroke Pnt} def
/CircleF {stroke [] 0 setdash hpt 0 360 arc fill} def
/C0 {BL [] 0 setdash 2 copy moveto vpt 90 450 arc} bind def
/C1 {BL [] 0 setdash 2 copy moveto
	2 copy vpt 0 90 arc closepath fill
	vpt 0 360 arc closepath} bind def
/C2 {BL [] 0 setdash 2 copy moveto
	2 copy vpt 90 180 arc closepath fill
	vpt 0 360 arc closepath} bind def
/C3 {BL [] 0 setdash 2 copy moveto
	2 copy vpt 0 180 arc closepath fill
	vpt 0 360 arc closepath} bind def
/C4 {BL [] 0 setdash 2 copy moveto
	2 copy vpt 180 270 arc closepath fill
	vpt 0 360 arc closepath} bind def
/C5 {BL [] 0 setdash 2 copy moveto
	2 copy vpt 0 90 arc
	2 copy moveto
	2 copy vpt 180 270 arc closepath fill
	vpt 0 360 arc} bind def
/C6 {BL [] 0 setdash 2 copy moveto
	2 copy vpt 90 270 arc closepath fill
	vpt 0 360 arc closepath} bind def
/C7 {BL [] 0 setdash 2 copy moveto
	2 copy vpt 0 270 arc closepath fill
	vpt 0 360 arc closepath} bind def
/C8 {BL [] 0 setdash 2 copy moveto
	2 copy vpt 270 360 arc closepath fill
	vpt 0 360 arc closepath} bind def
/C9 {BL [] 0 setdash 2 copy moveto
	2 copy vpt 270 450 arc closepath fill
	vpt 0 360 arc closepath} bind def
/C10 {BL [] 0 setdash 2 copy 2 copy moveto vpt 270 360 arc closepath fill
	2 copy moveto
	2 copy vpt 90 180 arc closepath fill
	vpt 0 360 arc closepath} bind def
/C11 {BL [] 0 setdash 2 copy moveto
	2 copy vpt 0 180 arc closepath fill
	2 copy moveto
	2 copy vpt 270 360 arc closepath fill
	vpt 0 360 arc closepath} bind def
/C12 {BL [] 0 setdash 2 copy moveto
	2 copy vpt 180 360 arc closepath fill
	vpt 0 360 arc closepath} bind def
/C13 {BL [] 0 setdash 2 copy moveto
	2 copy vpt 0 90 arc closepath fill
	2 copy moveto
	2 copy vpt 180 360 arc closepath fill
	vpt 0 360 arc closepath} bind def
/C14 {BL [] 0 setdash 2 copy moveto
	2 copy vpt 90 360 arc closepath fill
	vpt 0 360 arc} bind def
/C15 {BL [] 0 setdash 2 copy vpt 0 360 arc closepath fill
	vpt 0 360 arc closepath} bind def
/Rec {newpath 4 2 roll moveto 1 index 0 rlineto 0 exch rlineto
	neg 0 rlineto closepath} bind def
/Square {dup Rec} bind def
/Bsquare {vpt sub exch vpt sub exch vpt2 Square} bind def
/S0 {BL [] 0 setdash 2 copy moveto 0 vpt rlineto BL Bsquare} bind def
/S1 {BL [] 0 setdash 2 copy vpt Square fill Bsquare} bind def
/S2 {BL [] 0 setdash 2 copy exch vpt sub exch vpt Square fill Bsquare} bind def
/S3 {BL [] 0 setdash 2 copy exch vpt sub exch vpt2 vpt Rec fill Bsquare} bind def
/S4 {BL [] 0 setdash 2 copy exch vpt sub exch vpt sub vpt Square fill Bsquare} bind def
/S5 {BL [] 0 setdash 2 copy 2 copy vpt Square fill
	exch vpt sub exch vpt sub vpt Square fill Bsquare} bind def
/S6 {BL [] 0 setdash 2 copy exch vpt sub exch vpt sub vpt vpt2 Rec fill Bsquare} bind def
/S7 {BL [] 0 setdash 2 copy exch vpt sub exch vpt sub vpt vpt2 Rec fill
	2 copy vpt Square fill Bsquare} bind def
/S8 {BL [] 0 setdash 2 copy vpt sub vpt Square fill Bsquare} bind def
/S9 {BL [] 0 setdash 2 copy vpt sub vpt vpt2 Rec fill Bsquare} bind def
/S10 {BL [] 0 setdash 2 copy vpt sub vpt Square fill 2 copy exch vpt sub exch vpt Square fill
	Bsquare} bind def
/S11 {BL [] 0 setdash 2 copy vpt sub vpt Square fill 2 copy exch vpt sub exch vpt2 vpt Rec fill
	Bsquare} bind def
/S12 {BL [] 0 setdash 2 copy exch vpt sub exch vpt sub vpt2 vpt Rec fill Bsquare} bind def
/S13 {BL [] 0 setdash 2 copy exch vpt sub exch vpt sub vpt2 vpt Rec fill
	2 copy vpt Square fill Bsquare} bind def
/S14 {BL [] 0 setdash 2 copy exch vpt sub exch vpt sub vpt2 vpt Rec fill
	2 copy exch vpt sub exch vpt Square fill Bsquare} bind def
/S15 {BL [] 0 setdash 2 copy Bsquare fill Bsquare} bind def
/D0 {gsave translate 45 rotate 0 0 S0 stroke grestore} bind def
/D1 {gsave translate 45 rotate 0 0 S1 stroke grestore} bind def
/D2 {gsave translate 45 rotate 0 0 S2 stroke grestore} bind def
/D3 {gsave translate 45 rotate 0 0 S3 stroke grestore} bind def
/D4 {gsave translate 45 rotate 0 0 S4 stroke grestore} bind def
/D5 {gsave translate 45 rotate 0 0 S5 stroke grestore} bind def
/D6 {gsave translate 45 rotate 0 0 S6 stroke grestore} bind def
/D7 {gsave translate 45 rotate 0 0 S7 stroke grestore} bind def
/D8 {gsave translate 45 rotate 0 0 S8 stroke grestore} bind def
/D9 {gsave translate 45 rotate 0 0 S9 stroke grestore} bind def
/D10 {gsave translate 45 rotate 0 0 S10 stroke grestore} bind def
/D11 {gsave translate 45 rotate 0 0 S11 stroke grestore} bind def
/D12 {gsave translate 45 rotate 0 0 S12 stroke grestore} bind def
/D13 {gsave translate 45 rotate 0 0 S13 stroke grestore} bind def
/D14 {gsave translate 45 rotate 0 0 S14 stroke grestore} bind def
/D15 {gsave translate 45 rotate 0 0 S15 stroke grestore} bind def
/DiaE {stroke [] 0 setdash vpt add M
  hpt neg vpt neg V hpt vpt neg V
  hpt vpt V hpt neg vpt V closepath stroke} def
/BoxE {stroke [] 0 setdash exch hpt sub exch vpt add M
  0 vpt2 neg V hpt2 0 V 0 vpt2 V
  hpt2 neg 0 V closepath stroke} def
/TriUE {stroke [] 0 setdash vpt 1.12 mul add M
  hpt neg vpt -1.62 mul V
  hpt 2 mul 0 V
  hpt neg vpt 1.62 mul V closepath stroke} def
/TriDE {stroke [] 0 setdash vpt 1.12 mul sub M
  hpt neg vpt 1.62 mul V
  hpt 2 mul 0 V
  hpt neg vpt -1.62 mul V closepath stroke} def
/PentE {stroke [] 0 setdash gsave
  translate 0 hpt M 4 {72 rotate 0 hpt L} repeat
  closepath stroke grestore} def
/CircE {stroke [] 0 setdash 
  hpt 0 360 arc stroke} def
/Opaque {gsave closepath 1 setgray fill grestore 0 setgray closepath} def
/DiaW {stroke [] 0 setdash vpt add M
  hpt neg vpt neg V hpt vpt neg V
  hpt vpt V hpt neg vpt V Opaque stroke} def
/BoxW {stroke [] 0 setdash exch hpt sub exch vpt add M
  0 vpt2 neg V hpt2 0 V 0 vpt2 V
  hpt2 neg 0 V Opaque stroke} def
/TriUW {stroke [] 0 setdash vpt 1.12 mul add M
  hpt neg vpt -1.62 mul V
  hpt 2 mul 0 V
  hpt neg vpt 1.62 mul V Opaque stroke} def
/TriDW {stroke [] 0 setdash vpt 1.12 mul sub M
  hpt neg vpt 1.62 mul V
  hpt 2 mul 0 V
  hpt neg vpt -1.62 mul V Opaque stroke} def
/PentW {stroke [] 0 setdash gsave
  translate 0 hpt M 4 {72 rotate 0 hpt L} repeat
  Opaque stroke grestore} def
/CircW {stroke [] 0 setdash 
  hpt 0 360 arc Opaque stroke} def
/BoxFill {gsave Rec 1 setgray fill grestore} def
/Density {
  /Fillden exch def
  currentrgbcolor
  /ColB exch def /ColG exch def /ColR exch def
  /ColR ColR Fillden mul Fillden sub 1 add def
  /ColG ColG Fillden mul Fillden sub 1 add def
  /ColB ColB Fillden mul Fillden sub 1 add def
  ColR ColG ColB setrgbcolor} def
/BoxColFill {gsave Rec PolyFill} def
/PolyFill {gsave Density fill grestore grestore} def
/h {rlineto rlineto rlineto gsave closepath fill grestore} bind def
%
% PostScript Level 1 Pattern Fill routine for rectangles
% Usage: x y w h s a XX PatternFill
%	x,y = lower left corner of box to be filled
%	w,h = width and height of box
%	  a = angle in degrees between lines and x-axis
%	 XX = 0/1 for no/yes cross-hatch
%
/PatternFill {gsave /PFa [ 9 2 roll ] def
  PFa 0 get PFa 2 get 2 div add PFa 1 get PFa 3 get 2 div add translate
  PFa 2 get -2 div PFa 3 get -2 div PFa 2 get PFa 3 get Rec
  gsave 1 setgray fill grestore clip
  currentlinewidth 0.5 mul setlinewidth
  /PFs PFa 2 get dup mul PFa 3 get dup mul add sqrt def
  0 0 M PFa 5 get rotate PFs -2 div dup translate
  0 1 PFs PFa 4 get div 1 add floor cvi
	{PFa 4 get mul 0 M 0 PFs V} for
  0 PFa 6 get ne {
	0 1 PFs PFa 4 get div 1 add floor cvi
	{PFa 4 get mul 0 2 1 roll M PFs 0 V} for
 } if
  stroke grestore} def
%
/languagelevel where
 {pop languagelevel} {1} ifelse
 2 lt
	{/InterpretLevel1 true def}
	{/InterpretLevel1 Level1 def}
 ifelse
%
% PostScript level 2 pattern fill definitions
%
/Level2PatternFill {
/Tile8x8 {/PaintType 2 /PatternType 1 /TilingType 1 /BBox [0 0 8 8] /XStep 8 /YStep 8}
	bind def
/KeepColor {currentrgbcolor [/Pattern /DeviceRGB] setcolorspace} bind def
<< Tile8x8
 /PaintProc {0.5 setlinewidth pop 0 0 M 8 8 L 0 8 M 8 0 L stroke} 
>> matrix makepattern
/Pat1 exch def
<< Tile8x8
 /PaintProc {0.5 setlinewidth pop 0 0 M 8 8 L 0 8 M 8 0 L stroke
	0 4 M 4 8 L 8 4 L 4 0 L 0 4 L stroke}
>> matrix makepattern
/Pat2 exch def
<< Tile8x8
 /PaintProc {0.5 setlinewidth pop 0 0 M 0 8 L
	8 8 L 8 0 L 0 0 L fill}
>> matrix makepattern
/Pat3 exch def
<< Tile8x8
 /PaintProc {0.5 setlinewidth pop -4 8 M 8 -4 L
	0 12 M 12 0 L stroke}
>> matrix makepattern
/Pat4 exch def
<< Tile8x8
 /PaintProc {0.5 setlinewidth pop -4 0 M 8 12 L
	0 -4 M 12 8 L stroke}
>> matrix makepattern
/Pat5 exch def
<< Tile8x8
 /PaintProc {0.5 setlinewidth pop -2 8 M 4 -4 L
	0 12 M 8 -4 L 4 12 M 10 0 L stroke}
>> matrix makepattern
/Pat6 exch def
<< Tile8x8
 /PaintProc {0.5 setlinewidth pop -2 0 M 4 12 L
	0 -4 M 8 12 L 4 -4 M 10 8 L stroke}
>> matrix makepattern
/Pat7 exch def
<< Tile8x8
 /PaintProc {0.5 setlinewidth pop 8 -2 M -4 4 L
	12 0 M -4 8 L 12 4 M 0 10 L stroke}
>> matrix makepattern
/Pat8 exch def
<< Tile8x8
 /PaintProc {0.5 setlinewidth pop 0 -2 M 12 4 L
	-4 0 M 12 8 L -4 4 M 8 10 L stroke}
>> matrix makepattern
/Pat9 exch def
/Pattern1 {PatternBgnd KeepColor Pat1 setpattern} bind def
/Pattern2 {PatternBgnd KeepColor Pat2 setpattern} bind def
/Pattern3 {PatternBgnd KeepColor Pat3 setpattern} bind def
/Pattern4 {PatternBgnd KeepColor Landscape {Pat5} {Pat4} ifelse setpattern} bind def
/Pattern5 {PatternBgnd KeepColor Landscape {Pat4} {Pat5} ifelse setpattern} bind def
/Pattern6 {PatternBgnd KeepColor Landscape {Pat9} {Pat6} ifelse setpattern} bind def
/Pattern7 {PatternBgnd KeepColor Landscape {Pat8} {Pat7} ifelse setpattern} bind def
} def
%
%
%End of PostScript Level 2 code
%
/PatternBgnd {
  TransparentPatterns {} {gsave 1 setgray fill grestore} ifelse
} def
%
% Substitute for Level 2 pattern fill codes with
% grayscale if Level 2 support is not selected.
%
/Level1PatternFill {
/Pattern1 {0.250 Density} bind def
/Pattern2 {0.500 Density} bind def
/Pattern3 {0.750 Density} bind def
/Pattern4 {0.125 Density} bind def
/Pattern5 {0.375 Density} bind def
/Pattern6 {0.625 Density} bind def
/Pattern7 {0.875 Density} bind def
} def
%
% Now test for support of Level 2 code
%
Level1 {Level1PatternFill} {Level2PatternFill} ifelse
%
/Symbol-Oblique /Symbol findfont [1 0 .167 1 0 0] makefont
dup length dict begin {1 index /FID eq {pop pop} {def} ifelse} forall
currentdict end definefont pop
end
%%EndProlog
gnudict begin
gsave
doclip
50 50 translate
0.050 0.050 scale
0 setgray
newpath
(Helvetica) findfont 140 scalefont setfont
1.000 UL
LTb
602 448 M
63 0 V
6282 0 R
-63 0 V
518 448 M
( 0) Rshow
1.000 UL
LTb
602 1001 M
63 0 V
6282 0 R
-63 0 V
-6366 0 R
( 10) Rshow
1.000 UL
LTb
602 1554 M
63 0 V
6282 0 R
-63 0 V
-6366 0 R
( 20) Rshow
1.000 UL
LTb
602 2107 M
63 0 V
6282 0 R
-63 0 V
-6366 0 R
( 30) Rshow
1.000 UL
LTb
602 2660 M
63 0 V
6282 0 R
-63 0 V
-6366 0 R
( 40) Rshow
1.000 UL
LTb
602 3212 M
63 0 V
6282 0 R
-63 0 V
-6366 0 R
( 50) Rshow
1.000 UL
LTb
602 3765 M
63 0 V
6282 0 R
-63 0 V
-6366 0 R
( 60) Rshow
1.000 UL
LTb
602 4318 M
63 0 V
6282 0 R
-63 0 V
-6366 0 R
( 70) Rshow
1.000 UL
LTb
602 4871 M
63 0 V
6282 0 R
-63 0 V
-6366 0 R
( 80) Rshow
1.000 UL
LTb
602 448 M
0 63 V
0 4360 R
0 -63 V
602 308 M
( 0) Cshow
1.000 UL
LTb
1307 448 M
0 63 V
0 4360 R
0 -63 V
0 -4500 R
( 200) Cshow
1.000 UL
LTb
2012 448 M
0 63 V
0 4360 R
0 -63 V
0 -4500 R
( 400) Cshow
1.000 UL
LTb
2717 448 M
0 63 V
0 4360 R
0 -63 V
0 -4500 R
( 600) Cshow
1.000 UL
LTb
3422 448 M
0 63 V
0 4360 R
0 -63 V
0 -4500 R
( 800) Cshow
1.000 UL
LTb
4127 448 M
0 63 V
0 4360 R
0 -63 V
0 -4500 R
( 1000) Cshow
1.000 UL
LTb
4832 448 M
0 63 V
0 4360 R
0 -63 V
0 -4500 R
( 1200) Cshow
1.000 UL
LTb
5537 448 M
0 63 V
0 4360 R
0 -63 V
0 -4500 R
( 1400) Cshow
1.000 UL
LTb
6242 448 M
0 63 V
0 4360 R
0 -63 V
0 -4500 R
( 1600) Cshow
1.000 UL
LTb
6947 448 M
0 63 V
0 4360 R
0 -63 V
0 -4500 R
( 1800) Cshow
1.000 UL
LTb
1.000 UL
LTb
602 4871 N
602 448 L
6345 0 V
0 4423 V
-6345 0 V
Z stroke
LCb setrgbcolor
112 2659 M
currentpoint gsave translate -270 rotate 0 0 M
(Visit Count per 1000 Plies) Cshow
grestore
LTb
LCb setrgbcolor
3774 98 M
(States \(Sorted by Earliest Visit Time\)) Cshow
LTb
1.000 UP
1.000 UL
LTb
% Begin plot #1
1.000 UP
1.000 UL
LT0
LCb setrgbcolor
6296 4738 M
(Offset = 0) Rshow
LT0
602 4685 Pls
606 719 Pls
609 808 Pls
613 630 Pls
616 910 Pls
620 643 Pls
623 647 Pls
627 1202 Pls
630 1287 Pls
634 884 Pls
637 859 Pls
641 613 Pls
644 592 Pls
648 740 Pls
651 567 Pls
655 528 Pls
658 512 Pls
662 495 Pls
665 516 Pls
669 469 Pls
672 486 Pls
676 465 Pls
680 456 Pls
683 469 Pls
687 478 Pls
690 533 Pls
694 465 Pls
697 550 Pls
701 745 Pls
704 889 Pls
708 516 Pls
711 486 Pls
715 528 Pls
718 490 Pls
722 545 Pls
725 545 Pls
729 524 Pls
732 507 Pls
736 550 Pls
739 584 Pls
743 541 Pls
747 512 Pls
750 512 Pls
754 461 Pls
757 456 Pls
761 473 Pls
764 482 Pls
768 469 Pls
771 452 Pls
775 478 Pls
778 490 Pls
782 469 Pls
785 461 Pls
789 461 Pls
792 490 Pls
796 639 Pls
799 728 Pls
803 753 Pls
806 482 Pls
810 461 Pls
813 537 Pls
817 516 Pls
821 533 Pls
824 592 Pls
828 537 Pls
831 584 Pls
835 588 Pls
838 499 Pls
842 541 Pls
845 499 Pls
849 486 Pls
852 478 Pls
856 495 Pls
859 579 Pls
863 473 Pls
866 456 Pls
870 461 Pls
873 478 Pls
877 473 Pls
880 482 Pls
884 486 Pls
888 495 Pls
891 719 Pls
895 605 Pls
898 571 Pls
902 520 Pls
905 486 Pls
909 490 Pls
912 473 Pls
916 469 Pls
919 469 Pls
923 490 Pls
926 499 Pls
930 490 Pls
933 520 Pls
937 490 Pls
940 541 Pls
944 486 Pls
947 571 Pls
951 524 Pls
954 567 Pls
958 486 Pls
962 550 Pls
965 499 Pls
969 461 Pls
972 541 Pls
976 503 Pls
979 465 Pls
983 456 Pls
986 469 Pls
990 516 Pls
993 490 Pls
997 486 Pls
1000 490 Pls
1004 541 Pls
1007 478 Pls
1011 478 Pls
1014 456 Pls
1018 503 Pls
1021 499 Pls
1025 503 Pls
1029 490 Pls
1032 478 Pls
1036 478 Pls
1039 499 Pls
1043 507 Pls
1046 520 Pls
1050 456 Pls
1053 456 Pls
1057 452 Pls
1060 452 Pls
1064 456 Pls
1067 495 Pls
1071 478 Pls
1074 456 Pls
1078 461 Pls
1081 499 Pls
1085 452 Pls
1088 456 Pls
1092 456 Pls
1095 456 Pls
1099 461 Pls
1103 465 Pls
1106 452 Pls
1110 456 Pls
1113 456 Pls
1117 452 Pls
1120 490 Pls
1124 461 Pls
1127 465 Pls
1131 499 Pls
1134 482 Pls
1138 490 Pls
1141 461 Pls
1145 456 Pls
1148 486 Pls
1152 452 Pls
1155 452 Pls
1159 452 Pls
1162 461 Pls
1166 452 Pls
1170 456 Pls
1173 465 Pls
1177 516 Pls
1180 499 Pls
1184 465 Pls
1187 461 Pls
1191 469 Pls
1194 482 Pls
1198 461 Pls
1201 456 Pls
1205 473 Pls
1208 465 Pls
1212 503 Pls
1215 473 Pls
1219 482 Pls
1222 465 Pls
1226 503 Pls
1229 465 Pls
1233 465 Pls
1236 465 Pls
1240 473 Pls
1244 490 Pls
1247 478 Pls
1251 473 Pls
1254 456 Pls
1258 461 Pls
1261 478 Pls
1265 490 Pls
1268 482 Pls
1272 499 Pls
1275 478 Pls
1279 465 Pls
1282 469 Pls
1286 486 Pls
1289 469 Pls
1293 520 Pls
1296 524 Pls
1300 473 Pls
1303 469 Pls
1307 469 Pls
1311 461 Pls
1314 478 Pls
1318 465 Pls
1321 461 Pls
1325 469 Pls
1328 452 Pls
1332 452 Pls
1335 512 Pls
1339 499 Pls
1342 473 Pls
1346 461 Pls
1349 461 Pls
1353 461 Pls
1356 456 Pls
1360 456 Pls
1363 469 Pls
1367 461 Pls
1370 465 Pls
1374 486 Pls
1377 473 Pls
1381 465 Pls
1385 469 Pls
1388 461 Pls
1392 461 Pls
1395 473 Pls
1399 452 Pls
1402 452 Pls
1406 473 Pls
1409 465 Pls
1413 461 Pls
1416 482 Pls
1420 478 Pls
1423 473 Pls
1427 473 Pls
1430 461 Pls
1434 461 Pls
1437 473 Pls
1441 469 Pls
1444 490 Pls
1448 473 Pls
1452 478 Pls
1455 495 Pls
1459 503 Pls
1462 465 Pls
1466 461 Pls
1469 469 Pls
1473 478 Pls
1476 490 Pls
1480 486 Pls
1483 469 Pls
1487 465 Pls
1490 486 Pls
1494 473 Pls
1497 461 Pls
1501 461 Pls
1504 452 Pls
1508 452 Pls
1511 465 Pls
1515 456 Pls
1518 452 Pls
1522 482 Pls
1526 473 Pls
1529 456 Pls
1533 469 Pls
1536 516 Pls
1540 482 Pls
1543 469 Pls
1547 456 Pls
1550 469 Pls
1554 461 Pls
1557 465 Pls
1561 456 Pls
1564 495 Pls
1568 495 Pls
1571 478 Pls
1575 478 Pls
1578 461 Pls
1582 452 Pls
1585 486 Pls
1589 478 Pls
1593 456 Pls
1596 452 Pls
1600 456 Pls
1603 461 Pls
1607 456 Pls
1610 461 Pls
1614 456 Pls
1617 499 Pls
1621 495 Pls
1624 516 Pls
1628 503 Pls
1631 486 Pls
1635 533 Pls
1638 473 Pls
1642 478 Pls
1645 490 Pls
1649 507 Pls
1652 495 Pls
1656 524 Pls
1659 482 Pls
1663 490 Pls
1667 528 Pls
1670 499 Pls
1674 499 Pls
1677 533 Pls
1681 503 Pls
1684 482 Pls
1688 452 Pls
1691 541 Pls
1695 499 Pls
1698 456 Pls
1702 478 Pls
1705 469 Pls
1709 456 Pls
1712 456 Pls
1716 456 Pls
1719 503 Pls
1723 490 Pls
1726 478 Pls
1730 456 Pls
1734 512 Pls
1737 456 Pls
1741 456 Pls
1744 482 Pls
1748 507 Pls
1751 495 Pls
1755 473 Pls
1758 503 Pls
1762 456 Pls
1765 469 Pls
1769 520 Pls
1772 507 Pls
1776 486 Pls
1779 465 Pls
1783 461 Pls
1786 452 Pls
1790 469 Pls
1793 503 Pls
1797 469 Pls
1800 465 Pls
1804 452 Pls
1808 469 Pls
1811 461 Pls
1815 469 Pls
1818 452 Pls
1822 452 Pls
1825 456 Pls
1829 473 Pls
1832 452 Pls
1836 465 Pls
1839 465 Pls
1843 461 Pls
1846 452 Pls
1850 456 Pls
1853 461 Pls
1857 465 Pls
1860 456 Pls
1864 452 Pls
1867 456 Pls
1871 469 Pls
1875 465 Pls
1878 478 Pls
1882 456 Pls
1885 490 Pls
1889 478 Pls
1892 456 Pls
1896 461 Pls
1899 473 Pls
1903 452 Pls
1906 456 Pls
1910 452 Pls
1913 461 Pls
1917 461 Pls
1920 465 Pls
1924 461 Pls
1927 473 Pls
1931 478 Pls
1934 478 Pls
1938 469 Pls
1941 456 Pls
1945 465 Pls
1949 482 Pls
1952 490 Pls
1956 478 Pls
1959 461 Pls
1963 452 Pls
1966 456 Pls
1970 486 Pls
1973 465 Pls
1977 473 Pls
1980 465 Pls
1984 456 Pls
1987 452 Pls
1991 456 Pls
1994 456 Pls
1998 465 Pls
2001 473 Pls
2005 452 Pls
2008 473 Pls
2012 478 Pls
2016 469 Pls
2019 452 Pls
2023 452 Pls
2026 465 Pls
2030 456 Pls
2033 452 Pls
2037 452 Pls
2040 503 Pls
2044 452 Pls
2047 452 Pls
2051 452 Pls
2054 461 Pls
2058 456 Pls
2061 465 Pls
2065 456 Pls
2068 469 Pls
2072 452 Pls
2075 456 Pls
2079 452 Pls
2082 456 Pls
2086 465 Pls
2090 452 Pls
2093 461 Pls
2097 469 Pls
2100 456 Pls
2104 465 Pls
2107 461 Pls
2111 456 Pls
2114 461 Pls
2118 456 Pls
2121 452 Pls
2125 456 Pls
2128 452 Pls
2132 456 Pls
2135 452 Pls
2139 469 Pls
2142 456 Pls
2146 456 Pls
2149 456 Pls
2153 456 Pls
2157 456 Pls
2160 516 Pls
2164 541 Pls
2167 495 Pls
2171 456 Pls
2174 469 Pls
2178 473 Pls
2181 469 Pls
2185 456 Pls
2188 465 Pls
2192 507 Pls
2195 486 Pls
2199 461 Pls
2202 469 Pls
2206 473 Pls
2209 499 Pls
2213 452 Pls
2216 486 Pls
2220 478 Pls
2223 482 Pls
2227 495 Pls
2231 465 Pls
2234 495 Pls
2238 469 Pls
2241 520 Pls
2245 486 Pls
2248 469 Pls
2252 461 Pls
2255 478 Pls
2259 490 Pls
2262 516 Pls
2266 473 Pls
2269 452 Pls
2273 456 Pls
2276 478 Pls
2280 473 Pls
2283 469 Pls
2287 461 Pls
2290 469 Pls
2294 507 Pls
2298 545 Pls
2301 516 Pls
2305 503 Pls
2308 461 Pls
2312 461 Pls
2315 503 Pls
2319 465 Pls
2322 478 Pls
2326 456 Pls
2329 486 Pls
2333 486 Pls
2336 461 Pls
2340 469 Pls
2343 469 Pls
2347 486 Pls
2350 533 Pls
2354 461 Pls
2357 452 Pls
2361 461 Pls
2364 456 Pls
2368 478 Pls
2372 461 Pls
2375 461 Pls
2379 456 Pls
2382 452 Pls
2386 456 Pls
2389 452 Pls
2393 461 Pls
2396 461 Pls
2400 452 Pls
2403 465 Pls
2407 482 Pls
2410 473 Pls
2414 461 Pls
2417 465 Pls
2421 473 Pls
2424 456 Pls
2428 456 Pls
2431 499 Pls
2435 452 Pls
2439 456 Pls
2442 465 Pls
2446 469 Pls
2449 456 Pls
2453 456 Pls
2456 469 Pls
2460 452 Pls
2463 456 Pls
2467 452 Pls
2470 456 Pls
2474 465 Pls
2477 452 Pls
2481 452 Pls
2484 486 Pls
2488 461 Pls
2491 452 Pls
2495 461 Pls
2498 473 Pls
2502 465 Pls
2505 495 Pls
2509 461 Pls
2513 452 Pls
2516 456 Pls
2520 456 Pls
2523 478 Pls
2527 456 Pls
2530 456 Pls
2534 456 Pls
2537 469 Pls
2541 452 Pls
2544 456 Pls
2548 490 Pls
2551 486 Pls
2555 461 Pls
2558 461 Pls
2562 456 Pls
2565 461 Pls
2569 461 Pls
2572 469 Pls
2576 456 Pls
2580 456 Pls
2583 456 Pls
2587 452 Pls
2590 452 Pls
2594 495 Pls
2597 473 Pls
2601 469 Pls
2604 456 Pls
2608 465 Pls
2611 456 Pls
2615 452 Pls
2618 461 Pls
2622 452 Pls
2625 452 Pls
2629 482 Pls
2632 465 Pls
2636 456 Pls
2639 452 Pls
2643 473 Pls
2646 452 Pls
2650 461 Pls
2654 465 Pls
2657 456 Pls
2661 482 Pls
2664 512 Pls
2668 495 Pls
2671 499 Pls
2675 486 Pls
2678 482 Pls
2682 550 Pls
2685 469 Pls
2689 486 Pls
2692 503 Pls
2696 541 Pls
2699 482 Pls
2703 473 Pls
2706 469 Pls
2710 469 Pls
2713 499 Pls
2717 486 Pls
2721 486 Pls
2724 495 Pls
2728 482 Pls
2731 456 Pls
2735 473 Pls
2738 499 Pls
2742 554 Pls
2745 499 Pls
2749 469 Pls
2752 486 Pls
2756 469 Pls
2759 461 Pls
2763 452 Pls
2766 473 Pls
2770 461 Pls
2773 456 Pls
2777 452 Pls
2780 469 Pls
2784 473 Pls
2787 465 Pls
2791 482 Pls
2795 486 Pls
2798 465 Pls
2802 524 Pls
2805 486 Pls
2809 495 Pls
2812 495 Pls
2816 456 Pls
2819 465 Pls
2823 478 Pls
2826 456 Pls
2830 469 Pls
2833 456 Pls
2837 461 Pls
2840 482 Pls
2844 465 Pls
2847 465 Pls
2851 461 Pls
2854 465 Pls
2858 516 Pls
2862 473 Pls
2865 520 Pls
2869 465 Pls
2872 452 Pls
2876 452 Pls
2879 456 Pls
2883 461 Pls
2886 456 Pls
2890 490 Pls
2893 465 Pls
2897 465 Pls
2900 469 Pls
2904 461 Pls
2907 469 Pls
2911 473 Pls
2914 452 Pls
2918 452 Pls
2921 461 Pls
2925 469 Pls
2928 452 Pls
2932 478 Pls
2936 452 Pls
2939 456 Pls
2943 452 Pls
2946 452 Pls
2950 456 Pls
2953 452 Pls
2957 452 Pls
2960 456 Pls
2964 482 Pls
2967 456 Pls
2971 486 Pls
2974 469 Pls
2978 461 Pls
2981 490 Pls
2985 452 Pls
2988 456 Pls
2992 490 Pls
2995 503 Pls
2999 465 Pls
3003 461 Pls
3006 452 Pls
3010 482 Pls
3013 486 Pls
3017 456 Pls
3020 495 Pls
3024 452 Pls
3027 452 Pls
3031 461 Pls
3034 452 Pls
3038 452 Pls
3041 452 Pls
3045 452 Pls
3048 452 Pls
3052 456 Pls
3055 461 Pls
3059 452 Pls
3062 452 Pls
3066 452 Pls
3069 465 Pls
3073 465 Pls
3077 461 Pls
3080 452 Pls
3084 456 Pls
3087 452 Pls
3091 456 Pls
3094 452 Pls
3098 456 Pls
3101 456 Pls
3105 452 Pls
3108 452 Pls
3112 456 Pls
3115 452 Pls
3119 461 Pls
3122 452 Pls
3126 456 Pls
3129 456 Pls
3133 452 Pls
3136 461 Pls
3140 456 Pls
3144 452 Pls
3147 461 Pls
3151 452 Pls
3154 461 Pls
3158 452 Pls
3161 452 Pls
3165 452 Pls
3168 456 Pls
3172 456 Pls
3175 456 Pls
3179 456 Pls
3182 465 Pls
3186 473 Pls
3189 461 Pls
3193 452 Pls
3196 452 Pls
3200 452 Pls
3203 452 Pls
3207 452 Pls
3210 469 Pls
3214 473 Pls
3218 465 Pls
3221 461 Pls
3225 473 Pls
3228 482 Pls
3232 507 Pls
3235 461 Pls
3239 461 Pls
3242 473 Pls
3246 503 Pls
3249 490 Pls
3253 456 Pls
3256 478 Pls
3260 512 Pls
3263 478 Pls
3267 465 Pls
3270 478 Pls
3274 482 Pls
3277 473 Pls
3281 473 Pls
3285 478 Pls
3288 495 Pls
3292 456 Pls
3295 452 Pls
3299 533 Pls
3302 473 Pls
3306 452 Pls
3309 461 Pls
3313 465 Pls
3316 486 Pls
3320 473 Pls
3323 473 Pls
3327 478 Pls
3330 473 Pls
3334 478 Pls
3337 456 Pls
3341 456 Pls
3344 473 Pls
3348 507 Pls
3351 516 Pls
3355 473 Pls
3359 478 Pls
3362 456 Pls
3366 495 Pls
3369 490 Pls
3373 456 Pls
3376 461 Pls
3380 465 Pls
3383 465 Pls
3387 478 Pls
3390 461 Pls
3394 482 Pls
3397 452 Pls
3401 490 Pls
3404 452 Pls
3408 456 Pls
3411 545 Pls
3415 516 Pls
3418 507 Pls
3422 545 Pls
3426 465 Pls
3429 545 Pls
3433 469 Pls
3436 473 Pls
3440 495 Pls
3443 456 Pls
3447 456 Pls
3450 465 Pls
3454 478 Pls
3457 499 Pls
3461 461 Pls
3464 456 Pls
3468 456 Pls
3471 465 Pls
3475 452 Pls
3478 456 Pls
3482 452 Pls
3485 469 Pls
3489 452 Pls
3492 456 Pls
3496 465 Pls
3500 452 Pls
3503 452 Pls
3507 456 Pls
3510 461 Pls
3514 461 Pls
3517 456 Pls
3521 456 Pls
3524 456 Pls
3528 465 Pls
3531 465 Pls
3535 452 Pls
3538 473 Pls
3542 461 Pls
3545 456 Pls
3549 456 Pls
3552 478 Pls
3556 465 Pls
3559 461 Pls
3563 469 Pls
3567 469 Pls
3570 473 Pls
3574 482 Pls
3577 465 Pls
3581 452 Pls
3584 456 Pls
3588 456 Pls
3591 465 Pls
3595 456 Pls
3598 456 Pls
3602 465 Pls
3605 452 Pls
3609 452 Pls
3612 465 Pls
3616 452 Pls
3619 461 Pls
3623 490 Pls
3626 503 Pls
3630 503 Pls
3633 486 Pls
3637 503 Pls
3641 473 Pls
3644 512 Pls
3648 461 Pls
3651 465 Pls
3655 478 Pls
3658 469 Pls
3662 452 Pls
3665 512 Pls
3669 503 Pls
3672 478 Pls
3676 516 Pls
3679 461 Pls
3683 473 Pls
3686 465 Pls
3690 490 Pls
3693 486 Pls
3697 456 Pls
3700 541 Pls
3704 452 Pls
3708 486 Pls
3711 461 Pls
3715 537 Pls
3718 558 Pls
3722 541 Pls
3725 456 Pls
3729 465 Pls
3732 473 Pls
3736 452 Pls
3739 512 Pls
3743 473 Pls
3746 516 Pls
3750 461 Pls
3753 461 Pls
3757 456 Pls
3760 465 Pls
3764 495 Pls
3767 469 Pls
3771 456 Pls
3774 490 Pls
3778 452 Pls
3782 461 Pls
3785 456 Pls
3789 478 Pls
3792 456 Pls
3796 469 Pls
3799 456 Pls
3803 469 Pls
3806 452 Pls
3810 456 Pls
3813 558 Pls
3817 486 Pls
3820 495 Pls
3824 465 Pls
3827 482 Pls
3831 452 Pls
3834 473 Pls
3838 456 Pls
3841 452 Pls
3845 478 Pls
3849 478 Pls
3852 452 Pls
3856 452 Pls
3859 452 Pls
3863 452 Pls
3866 465 Pls
3870 452 Pls
3873 452 Pls
3877 452 Pls
3880 452 Pls
3884 456 Pls
3887 456 Pls
3891 456 Pls
3894 482 Pls
3898 461 Pls
3901 452 Pls
3905 452 Pls
3908 490 Pls
3912 461 Pls
3915 465 Pls
3919 452 Pls
3923 456 Pls
3926 452 Pls
3930 465 Pls
3933 469 Pls
3937 473 Pls
3940 461 Pls
3944 452 Pls
3947 465 Pls
3951 452 Pls
3954 473 Pls
3958 456 Pls
3961 456 Pls
3965 452 Pls
3968 452 Pls
3972 461 Pls
3975 461 Pls
3979 452 Pls
3982 452 Pls
3986 452 Pls
3990 452 Pls
3993 461 Pls
3997 452 Pls
4000 469 Pls
4004 452 Pls
4007 456 Pls
4011 452 Pls
4014 452 Pls
4018 452 Pls
4021 452 Pls
4025 452 Pls
4028 456 Pls
4032 461 Pls
4035 461 Pls
4039 469 Pls
4042 456 Pls
4046 452 Pls
4049 456 Pls
4053 452 Pls
4056 456 Pls
4060 461 Pls
4064 452 Pls
4067 461 Pls
4071 461 Pls
4074 452 Pls
4078 452 Pls
4081 469 Pls
4085 486 Pls
4088 486 Pls
4092 469 Pls
4095 482 Pls
4099 469 Pls
4102 469 Pls
4106 482 Pls
4109 456 Pls
4113 503 Pls
4116 456 Pls
4120 495 Pls
4123 495 Pls
4127 507 Pls
4131 465 Pls
4134 469 Pls
4138 469 Pls
4141 473 Pls
4145 465 Pls
4148 461 Pls
4152 469 Pls
4155 469 Pls
4159 461 Pls
4162 486 Pls
4166 465 Pls
4169 469 Pls
4173 456 Pls
4176 482 Pls
4180 478 Pls
4183 495 Pls
4187 461 Pls
4190 465 Pls
4194 486 Pls
4197 503 Pls
4201 503 Pls
4205 461 Pls
4208 499 Pls
4212 486 Pls
4215 478 Pls
4219 456 Pls
4222 473 Pls
4226 452 Pls
4229 486 Pls
4233 537 Pls
4236 499 Pls
4240 473 Pls
4243 482 Pls
4247 461 Pls
4250 486 Pls
4254 461 Pls
4257 452 Pls
4261 482 Pls
4264 478 Pls
4268 490 Pls
4272 456 Pls
4275 461 Pls
4279 507 Pls
4282 465 Pls
4286 482 Pls
4289 482 Pls
4293 473 Pls
4296 461 Pls
4300 461 Pls
4303 456 Pls
4307 533 Pls
4310 473 Pls
4314 473 Pls
4317 461 Pls
4321 452 Pls
4324 456 Pls
4328 456 Pls
4331 503 Pls
4335 630 Pls
4338 562 Pls
4342 486 Pls
4346 490 Pls
4349 550 Pls
4353 482 Pls
4356 516 Pls
4360 482 Pls
4363 571 Pls
4367 520 Pls
4370 465 Pls
4374 503 Pls
4377 452 Pls
4381 554 Pls
4384 473 Pls
4388 499 Pls
4391 461 Pls
4395 456 Pls
4398 461 Pls
4402 490 Pls
4405 499 Pls
4409 486 Pls
4413 465 Pls
4416 469 Pls
4420 461 Pls
4423 478 Pls
4427 456 Pls
4430 465 Pls
4434 478 Pls
4437 461 Pls
4441 452 Pls
4444 452 Pls
4448 452 Pls
4451 452 Pls
4455 456 Pls
4458 452 Pls
4462 452 Pls
4465 461 Pls
4469 456 Pls
4472 469 Pls
4476 456 Pls
4479 465 Pls
4483 478 Pls
4487 452 Pls
4490 456 Pls
4494 452 Pls
4497 452 Pls
4501 456 Pls
4504 456 Pls
4508 452 Pls
4511 456 Pls
4515 452 Pls
4518 465 Pls
4522 465 Pls
4525 473 Pls
4529 452 Pls
4532 465 Pls
4536 456 Pls
4539 452 Pls
4543 461 Pls
4546 486 Pls
4550 482 Pls
4554 456 Pls
4557 452 Pls
4561 456 Pls
4564 452 Pls
4568 461 Pls
4571 461 Pls
4575 452 Pls
4578 452 Pls
4582 478 Pls
4585 520 Pls
4589 469 Pls
4592 473 Pls
4596 478 Pls
4599 490 Pls
4603 456 Pls
4606 486 Pls
4610 461 Pls
4613 584 Pls
4617 465 Pls
4620 456 Pls
4624 592 Pls
4628 490 Pls
4631 528 Pls
4635 473 Pls
4638 592 Pls
4642 490 Pls
4645 562 Pls
4649 499 Pls
4652 465 Pls
4656 469 Pls
4659 456 Pls
4663 456 Pls
4666 452 Pls
4670 503 Pls
4673 469 Pls
4677 452 Pls
4680 452 Pls
4684 452 Pls
4687 452 Pls
4691 452 Pls
4695 592 Pls
4698 512 Pls
4702 541 Pls
4705 605 Pls
4709 478 Pls
4712 490 Pls
4716 473 Pls
4719 499 Pls
4723 456 Pls
4726 469 Pls
4730 499 Pls
4733 482 Pls
4737 456 Pls
4740 473 Pls
4744 495 Pls
4747 486 Pls
4751 452 Pls
4754 452 Pls
4758 473 Pls
4761 452 Pls
4765 456 Pls
4769 452 Pls
4772 461 Pls
4776 452 Pls
4779 452 Pls
4783 456 Pls
4786 452 Pls
4790 465 Pls
4793 456 Pls
4797 452 Pls
4800 465 Pls
4804 465 Pls
4807 456 Pls
4811 495 Pls
4814 452 Pls
4818 456 Pls
4821 482 Pls
4825 452 Pls
4828 461 Pls
4832 456 Pls
4836 452 Pls
4839 456 Pls
4843 452 Pls
4846 452 Pls
4850 456 Pls
4853 452 Pls
4857 452 Pls
4860 461 Pls
4864 456 Pls
4867 452 Pls
4871 452 Pls
4874 465 Pls
4878 452 Pls
4881 452 Pls
4885 452 Pls
4888 456 Pls
4892 461 Pls
4895 452 Pls
4899 456 Pls
4902 452 Pls
4906 456 Pls
4910 456 Pls
4913 456 Pls
4917 452 Pls
4920 461 Pls
4924 452 Pls
4927 452 Pls
4931 452 Pls
4934 452 Pls
4938 452 Pls
4941 452 Pls
4945 461 Pls
4948 461 Pls
4952 452 Pls
4955 452 Pls
4959 456 Pls
4962 452 Pls
4966 461 Pls
4969 456 Pls
4973 452 Pls
4977 452 Pls
4980 452 Pls
4984 452 Pls
4987 456 Pls
4991 465 Pls
4994 473 Pls
4998 469 Pls
5001 478 Pls
5005 507 Pls
5008 473 Pls
5012 473 Pls
5015 473 Pls
5019 495 Pls
5022 482 Pls
5026 478 Pls
5029 465 Pls
5033 482 Pls
5036 461 Pls
5040 473 Pls
5043 465 Pls
5047 461 Pls
5051 456 Pls
5054 465 Pls
5058 482 Pls
5061 482 Pls
5065 478 Pls
5068 473 Pls
5072 495 Pls
5075 461 Pls
5079 478 Pls
5082 473 Pls
5086 456 Pls
5089 507 Pls
5093 456 Pls
5096 469 Pls
5100 473 Pls
5103 473 Pls
5107 461 Pls
5110 478 Pls
5114 537 Pls
5118 507 Pls
5121 528 Pls
5125 512 Pls
5128 490 Pls
5132 482 Pls
5135 507 Pls
5139 503 Pls
5142 482 Pls
5146 469 Pls
5149 469 Pls
5153 452 Pls
5156 452 Pls
5160 452 Pls
5163 516 Pls
5167 473 Pls
5170 456 Pls
5174 452 Pls
5177 465 Pls
5181 452 Pls
5184 478 Pls
5188 456 Pls
5192 482 Pls
5195 465 Pls
5199 486 Pls
5202 452 Pls
5206 482 Pls
5209 465 Pls
5213 465 Pls
5216 461 Pls
5220 452 Pls
5223 677 Pls
5227 575 Pls
5230 656 Pls
5234 588 Pls
5237 626 Pls
5241 609 Pls
5244 486 Pls
5248 617 Pls
5251 528 Pls
5255 554 Pls
5259 507 Pls
5262 473 Pls
5266 499 Pls
5269 490 Pls
5273 533 Pls
5276 478 Pls
5280 469 Pls
5283 499 Pls
5287 486 Pls
5290 452 Pls
5294 495 Pls
5297 473 Pls
5301 452 Pls
5304 456 Pls
5308 482 Pls
5311 452 Pls
5315 490 Pls
5318 473 Pls
5322 452 Pls
5325 452 Pls
5329 554 Pls
5333 503 Pls
5336 478 Pls
5340 520 Pls
5343 482 Pls
5347 490 Pls
5350 456 Pls
5354 482 Pls
5357 461 Pls
5361 473 Pls
5364 456 Pls
5368 545 Pls
5371 478 Pls
5375 456 Pls
5378 452 Pls
5382 452 Pls
5385 452 Pls
5389 456 Pls
5392 456 Pls
5396 473 Pls
5400 456 Pls
5403 469 Pls
5407 469 Pls
5410 452 Pls
5414 452 Pls
5417 452 Pls
5421 456 Pls
5424 452 Pls
5428 452 Pls
5431 469 Pls
5435 503 Pls
5438 512 Pls
5442 452 Pls
5445 465 Pls
5449 452 Pls
5452 469 Pls
5456 503 Pls
5459 490 Pls
5463 482 Pls
5466 512 Pls
5470 507 Pls
5474 482 Pls
5477 456 Pls
5481 465 Pls
5484 452 Pls
5488 490 Pls
5491 495 Pls
5495 452 Pls
5498 452 Pls
5502 562 Pls
5505 465 Pls
5509 516 Pls
5512 478 Pls
5516 469 Pls
5519 668 Pls
5523 516 Pls
5526 507 Pls
5530 465 Pls
5533 452 Pls
5537 668 Pls
5541 452 Pls
5544 456 Pls
5548 452 Pls
5551 452 Pls
5555 465 Pls
5558 456 Pls
5562 452 Pls
5565 452 Pls
5569 456 Pls
5572 452 Pls
5576 461 Pls
5579 478 Pls
5583 452 Pls
5586 452 Pls
5590 490 Pls
5593 456 Pls
5597 452 Pls
5600 452 Pls
5604 478 Pls
5607 452 Pls
5611 452 Pls
5615 452 Pls
5618 456 Pls
5622 452 Pls
5625 452 Pls
5629 452 Pls
5632 452 Pls
5636 452 Pls
5639 452 Pls
5643 452 Pls
5646 456 Pls
5650 452 Pls
5653 452 Pls
5657 452 Pls
5660 452 Pls
5664 452 Pls
5667 456 Pls
5671 456 Pls
5674 461 Pls
5678 456 Pls
5682 456 Pls
5685 456 Pls
5689 452 Pls
5692 456 Pls
5696 473 Pls
5699 490 Pls
5703 482 Pls
5706 461 Pls
5710 461 Pls
5713 478 Pls
5717 490 Pls
5720 482 Pls
5724 490 Pls
5727 452 Pls
5731 490 Pls
5734 486 Pls
5738 473 Pls
5741 456 Pls
5745 452 Pls
5748 456 Pls
5752 461 Pls
5756 465 Pls
5759 486 Pls
5763 495 Pls
5766 465 Pls
5770 490 Pls
5773 482 Pls
5777 456 Pls
5780 456 Pls
5784 461 Pls
5787 452 Pls
5791 482 Pls
5794 469 Pls
5798 456 Pls
5801 456 Pls
5805 473 Pls
5808 456 Pls
5812 482 Pls
5815 465 Pls
5819 461 Pls
5823 499 Pls
5826 456 Pls
5830 452 Pls
5833 452 Pls
5837 465 Pls
5840 478 Pls
5844 461 Pls
5847 482 Pls
5851 461 Pls
5854 562 Pls
5858 554 Pls
5861 588 Pls
5865 579 Pls
5868 490 Pls
5872 537 Pls
5875 601 Pls
5879 478 Pls
5882 512 Pls
5886 558 Pls
5889 490 Pls
5893 465 Pls
5897 584 Pls
5900 490 Pls
5904 507 Pls
5907 465 Pls
5911 596 Pls
5914 495 Pls
5918 575 Pls
5921 516 Pls
5925 499 Pls
5928 452 Pls
5932 486 Pls
5935 723 Pls
5939 524 Pls
5942 486 Pls
5946 452 Pls
5949 579 Pls
5953 575 Pls
5956 503 Pls
5960 465 Pls
5964 465 Pls
5967 562 Pls
5971 452 Pls
5974 452 Pls
5978 452 Pls
5981 452 Pls
5985 452 Pls
5988 452 Pls
5992 452 Pls
5995 461 Pls
5999 465 Pls
6002 452 Pls
6006 452 Pls
6009 452 Pls
6013 469 Pls
6016 452 Pls
6020 452 Pls
6023 456 Pls
6027 452 Pls
6030 482 Pls
6034 452 Pls
6038 465 Pls
6041 452 Pls
6045 503 Pls
6048 512 Pls
6052 452 Pls
6055 643 Pls
6059 524 Pls
6062 490 Pls
6066 461 Pls
6069 452 Pls
6073 473 Pls
6076 452 Pls
6080 482 Pls
6083 465 Pls
6087 486 Pls
6090 452 Pls
6094 452 Pls
6097 461 Pls
6101 452 Pls
6105 456 Pls
6108 456 Pls
6112 452 Pls
6115 452 Pls
6119 452 Pls
6122 452 Pls
6126 452 Pls
6129 452 Pls
6133 452 Pls
6136 452 Pls
6140 452 Pls
6143 452 Pls
6147 452 Pls
6150 456 Pls
6154 452 Pls
6157 452 Pls
6161 452 Pls
6164 452 Pls
6168 452 Pls
6171 456 Pls
6175 456 Pls
6179 452 Pls
6182 456 Pls
6186 452 Pls
6189 452 Pls
6193 456 Pls
6196 452 Pls
6200 452 Pls
6203 452 Pls
6207 452 Pls
6210 452 Pls
6214 461 Pls
6217 465 Pls
6221 465 Pls
6224 469 Pls
6228 456 Pls
6231 495 Pls
6235 461 Pls
6238 456 Pls
6242 473 Pls
6246 456 Pls
6249 473 Pls
6253 456 Pls
6256 465 Pls
6260 482 Pls
6263 461 Pls
6267 482 Pls
6270 490 Pls
6274 461 Pls
6277 456 Pls
6281 452 Pls
6284 537 Pls
6288 499 Pls
6291 478 Pls
6295 490 Pls
6298 456 Pls
6302 452 Pls
6305 452 Pls
6309 469 Pls
6312 461 Pls
6316 601 Pls
6320 452 Pls
6323 617 Pls
6327 605 Pls
6330 520 Pls
6334 452 Pls
6337 456 Pls
6341 634 Pls
6344 512 Pls
6348 596 Pls
6351 499 Pls
6355 465 Pls
6358 456 Pls
6362 452 Pls
6365 469 Pls
6369 456 Pls
6372 461 Pls
6376 456 Pls
6379 452 Pls
6383 452 Pls
6387 452 Pls
6390 456 Pls
6394 461 Pls
6397 469 Pls
6401 456 Pls
6404 452 Pls
6408 452 Pls
6411 452 Pls
6415 452 Pls
6418 461 Pls
6422 452 Pls
6425 452 Pls
6429 452 Pls
6432 452 Pls
6436 452 Pls
6439 461 Pls
6443 452 Pls
6446 452 Pls
6450 461 Pls
6453 452 Pls
6457 461 Pls
6461 452 Pls
6464 452 Pls
6468 456 Pls
6471 452 Pls
6475 461 Pls
6478 465 Pls
6482 478 Pls
6485 452 Pls
6489 478 Pls
6492 482 Pls
6496 456 Pls
6499 461 Pls
6503 452 Pls
6506 452 Pls
6510 486 Pls
6513 452 Pls
6517 469 Pls
6520 469 Pls
6524 461 Pls
6528 452 Pls
6531 456 Pls
6535 452 Pls
6538 452 Pls
6542 452 Pls
6545 456 Pls
6549 452 Pls
6552 452 Pls
6556 452 Pls
6559 452 Pls
6563 452 Pls
6566 452 Pls
6570 456 Pls
6573 456 Pls
6577 456 Pls
6580 452 Pls
6584 452 Pls
6587 456 Pls
6591 452 Pls
6594 452 Pls
6598 452 Pls
6602 452 Pls
6605 452 Pls
6609 456 Pls
6612 452 Pls
6616 452 Pls
6619 461 Pls
6623 452 Pls
6626 452 Pls
6630 452 Pls
6633 452 Pls
6637 452 Pls
6640 452 Pls
6644 452 Pls
6647 452 Pls
6651 482 Pls
6654 461 Pls
6658 452 Pls
6661 452 Pls
6665 452 Pls
6669 452 Pls
6672 456 Pls
6676 452 Pls
6679 452 Pls
6683 452 Pls
6686 452 Pls
6690 452 Pls
6693 456 Pls
6697 452 Pls
6700 452 Pls
6704 452 Pls
6707 452 Pls
6711 452 Pls
6714 452 Pls
6718 452 Pls
6721 452 Pls
6725 452 Pls
6728 452 Pls
6732 452 Pls
6735 452 Pls
6739 452 Pls
6579 4738 Pls
% End plot #1
1.000 UL
LTb
602 4871 N
602 448 L
6345 0 V
0 4423 V
-6345 0 V
Z stroke
1.000 UP
1.000 UL
LTb
stroke
grestore
end
showpage
%%Trailer
%%DocumentFonts: Helvetica
