%!PS-Adobe-2.0 EPSF-2.0
%%Title: ../plots/domainstats/states-sorted-by-ply-visit-count-over-avg-num-plies-nannon-p-0.50.eps
%%Creator: gnuplot 4.4 patchlevel 3
%%CreationDate: Wed Dec 14 04:42:17 2011
%%DocumentFonts: (atend)
%%BoundingBox: 50 50 410 302
%%EndComments
%%BeginProlog
/gnudict 256 dict def
gnudict begin
%
% The following true/false flags may be edited by hand if desired.
% The unit line width and grayscale image gamma correction may also be changed.
%
/Color true def
/Blacktext false def
/Solid false def
/Dashlength 1 def
/Landscape false def
/Level1 false def
/Rounded false def
/ClipToBoundingBox false def
/TransparentPatterns false def
/gnulinewidth 5.000 def
/userlinewidth gnulinewidth def
/Gamma 1.0 def
%
/vshift -46 def
/dl1 {
  10.0 Dashlength mul mul
  Rounded { currentlinewidth 0.75 mul sub dup 0 le { pop 0.01 } if } if
} def
/dl2 {
  10.0 Dashlength mul mul
  Rounded { currentlinewidth 0.75 mul add } if
} def
/hpt_ 31.5 def
/vpt_ 31.5 def
/hpt hpt_ def
/vpt vpt_ def
Level1 {} {
/SDict 10 dict def
systemdict /pdfmark known not {
  userdict /pdfmark systemdict /cleartomark get put
} if
SDict begin [
  /Title (../plots/domainstats/states-sorted-by-ply-visit-count-over-avg-num-plies-nannon-p-0.50.eps)
  /Subject (gnuplot plot)
  /Creator (gnuplot 4.4 patchlevel 3)
  /Author (reza)
%  /Producer (gnuplot)
%  /Keywords ()
  /CreationDate (Wed Dec 14 04:42:17 2011)
  /DOCINFO pdfmark
end
} ifelse
/doclip {
  ClipToBoundingBox {
    newpath 50 50 moveto 410 50 lineto 410 302 lineto 50 302 lineto closepath
    clip
  } if
} def
%
% Gnuplot Prolog Version 4.4 (August 2010)
%
%/SuppressPDFMark true def
%
/M {moveto} bind def
/L {lineto} bind def
/R {rmoveto} bind def
/V {rlineto} bind def
/N {newpath moveto} bind def
/Z {closepath} bind def
/C {setrgbcolor} bind def
/f {rlineto fill} bind def
/g {setgray} bind def
/Gshow {show} def   % May be redefined later in the file to support UTF-8
/vpt2 vpt 2 mul def
/hpt2 hpt 2 mul def
/Lshow {currentpoint stroke M 0 vshift R 
	Blacktext {gsave 0 setgray show grestore} {show} ifelse} def
/Rshow {currentpoint stroke M dup stringwidth pop neg vshift R
	Blacktext {gsave 0 setgray show grestore} {show} ifelse} def
/Cshow {currentpoint stroke M dup stringwidth pop -2 div vshift R 
	Blacktext {gsave 0 setgray show grestore} {show} ifelse} def
/UP {dup vpt_ mul /vpt exch def hpt_ mul /hpt exch def
  /hpt2 hpt 2 mul def /vpt2 vpt 2 mul def} def
/DL {Color {setrgbcolor Solid {pop []} if 0 setdash}
 {pop pop pop 0 setgray Solid {pop []} if 0 setdash} ifelse} def
/BL {stroke userlinewidth 2 mul setlinewidth
	Rounded {1 setlinejoin 1 setlinecap} if} def
/AL {stroke userlinewidth 2 div setlinewidth
	Rounded {1 setlinejoin 1 setlinecap} if} def
/UL {dup gnulinewidth mul /userlinewidth exch def
	dup 1 lt {pop 1} if 10 mul /udl exch def} def
/PL {stroke userlinewidth setlinewidth
	Rounded {1 setlinejoin 1 setlinecap} if} def
3.8 setmiterlimit
% Default Line colors
/LCw {1 1 1} def
/LCb {0 0 0} def
/LCa {0 0 0} def
/LC0 {1 0 0} def
/LC1 {0 1 0} def
/LC2 {0 0 1} def
/LC3 {1 0 1} def
/LC4 {0 1 1} def
/LC5 {1 1 0} def
/LC6 {0 0 0} def
/LC7 {1 0.3 0} def
/LC8 {0.5 0.5 0.5} def
% Default Line Types
/LTw {PL [] 1 setgray} def
/LTb {BL [] LCb DL} def
/LTa {AL [1 udl mul 2 udl mul] 0 setdash LCa setrgbcolor} def
/LT0 {PL [] LC0 DL} def
/LT1 {PL [4 dl1 2 dl2] LC1 DL} def
/LT2 {PL [2 dl1 3 dl2] LC2 DL} def
/LT3 {PL [1 dl1 1.5 dl2] LC3 DL} def
/LT4 {PL [6 dl1 2 dl2 1 dl1 2 dl2] LC4 DL} def
/LT5 {PL [3 dl1 3 dl2 1 dl1 3 dl2] LC5 DL} def
/LT6 {PL [2 dl1 2 dl2 2 dl1 6 dl2] LC6 DL} def
/LT7 {PL [1 dl1 2 dl2 6 dl1 2 dl2 1 dl1 2 dl2] LC7 DL} def
/LT8 {PL [2 dl1 2 dl2 2 dl1 2 dl2 2 dl1 2 dl2 2 dl1 4 dl2] LC8 DL} def
/Pnt {stroke [] 0 setdash gsave 1 setlinecap M 0 0 V stroke grestore} def
/Dia {stroke [] 0 setdash 2 copy vpt add M
  hpt neg vpt neg V hpt vpt neg V
  hpt vpt V hpt neg vpt V closepath stroke
  Pnt} def
/Pls {stroke [] 0 setdash vpt sub M 0 vpt2 V
  currentpoint stroke M
  hpt neg vpt neg R hpt2 0 V stroke
 } def
/Box {stroke [] 0 setdash 2 copy exch hpt sub exch vpt add M
  0 vpt2 neg V hpt2 0 V 0 vpt2 V
  hpt2 neg 0 V closepath stroke
  Pnt} def
/Crs {stroke [] 0 setdash exch hpt sub exch vpt add M
  hpt2 vpt2 neg V currentpoint stroke M
  hpt2 neg 0 R hpt2 vpt2 V stroke} def
/TriU {stroke [] 0 setdash 2 copy vpt 1.12 mul add M
  hpt neg vpt -1.62 mul V
  hpt 2 mul 0 V
  hpt neg vpt 1.62 mul V closepath stroke
  Pnt} def
/Star {2 copy Pls Crs} def
/BoxF {stroke [] 0 setdash exch hpt sub exch vpt add M
  0 vpt2 neg V hpt2 0 V 0 vpt2 V
  hpt2 neg 0 V closepath fill} def
/TriUF {stroke [] 0 setdash vpt 1.12 mul add M
  hpt neg vpt -1.62 mul V
  hpt 2 mul 0 V
  hpt neg vpt 1.62 mul V closepath fill} def
/TriD {stroke [] 0 setdash 2 copy vpt 1.12 mul sub M
  hpt neg vpt 1.62 mul V
  hpt 2 mul 0 V
  hpt neg vpt -1.62 mul V closepath stroke
  Pnt} def
/TriDF {stroke [] 0 setdash vpt 1.12 mul sub M
  hpt neg vpt 1.62 mul V
  hpt 2 mul 0 V
  hpt neg vpt -1.62 mul V closepath fill} def
/DiaF {stroke [] 0 setdash vpt add M
  hpt neg vpt neg V hpt vpt neg V
  hpt vpt V hpt neg vpt V closepath fill} def
/Pent {stroke [] 0 setdash 2 copy gsave
  translate 0 hpt M 4 {72 rotate 0 hpt L} repeat
  closepath stroke grestore Pnt} def
/PentF {stroke [] 0 setdash gsave
  translate 0 hpt M 4 {72 rotate 0 hpt L} repeat
  closepath fill grestore} def
/Circle {stroke [] 0 setdash 2 copy
  hpt 0 360 arc stroke Pnt} def
/CircleF {stroke [] 0 setdash hpt 0 360 arc fill} def
/C0 {BL [] 0 setdash 2 copy moveto vpt 90 450 arc} bind def
/C1 {BL [] 0 setdash 2 copy moveto
	2 copy vpt 0 90 arc closepath fill
	vpt 0 360 arc closepath} bind def
/C2 {BL [] 0 setdash 2 copy moveto
	2 copy vpt 90 180 arc closepath fill
	vpt 0 360 arc closepath} bind def
/C3 {BL [] 0 setdash 2 copy moveto
	2 copy vpt 0 180 arc closepath fill
	vpt 0 360 arc closepath} bind def
/C4 {BL [] 0 setdash 2 copy moveto
	2 copy vpt 180 270 arc closepath fill
	vpt 0 360 arc closepath} bind def
/C5 {BL [] 0 setdash 2 copy moveto
	2 copy vpt 0 90 arc
	2 copy moveto
	2 copy vpt 180 270 arc closepath fill
	vpt 0 360 arc} bind def
/C6 {BL [] 0 setdash 2 copy moveto
	2 copy vpt 90 270 arc closepath fill
	vpt 0 360 arc closepath} bind def
/C7 {BL [] 0 setdash 2 copy moveto
	2 copy vpt 0 270 arc closepath fill
	vpt 0 360 arc closepath} bind def
/C8 {BL [] 0 setdash 2 copy moveto
	2 copy vpt 270 360 arc closepath fill
	vpt 0 360 arc closepath} bind def
/C9 {BL [] 0 setdash 2 copy moveto
	2 copy vpt 270 450 arc closepath fill
	vpt 0 360 arc closepath} bind def
/C10 {BL [] 0 setdash 2 copy 2 copy moveto vpt 270 360 arc closepath fill
	2 copy moveto
	2 copy vpt 90 180 arc closepath fill
	vpt 0 360 arc closepath} bind def
/C11 {BL [] 0 setdash 2 copy moveto
	2 copy vpt 0 180 arc closepath fill
	2 copy moveto
	2 copy vpt 270 360 arc closepath fill
	vpt 0 360 arc closepath} bind def
/C12 {BL [] 0 setdash 2 copy moveto
	2 copy vpt 180 360 arc closepath fill
	vpt 0 360 arc closepath} bind def
/C13 {BL [] 0 setdash 2 copy moveto
	2 copy vpt 0 90 arc closepath fill
	2 copy moveto
	2 copy vpt 180 360 arc closepath fill
	vpt 0 360 arc closepath} bind def
/C14 {BL [] 0 setdash 2 copy moveto
	2 copy vpt 90 360 arc closepath fill
	vpt 0 360 arc} bind def
/C15 {BL [] 0 setdash 2 copy vpt 0 360 arc closepath fill
	vpt 0 360 arc closepath} bind def
/Rec {newpath 4 2 roll moveto 1 index 0 rlineto 0 exch rlineto
	neg 0 rlineto closepath} bind def
/Square {dup Rec} bind def
/Bsquare {vpt sub exch vpt sub exch vpt2 Square} bind def
/S0 {BL [] 0 setdash 2 copy moveto 0 vpt rlineto BL Bsquare} bind def
/S1 {BL [] 0 setdash 2 copy vpt Square fill Bsquare} bind def
/S2 {BL [] 0 setdash 2 copy exch vpt sub exch vpt Square fill Bsquare} bind def
/S3 {BL [] 0 setdash 2 copy exch vpt sub exch vpt2 vpt Rec fill Bsquare} bind def
/S4 {BL [] 0 setdash 2 copy exch vpt sub exch vpt sub vpt Square fill Bsquare} bind def
/S5 {BL [] 0 setdash 2 copy 2 copy vpt Square fill
	exch vpt sub exch vpt sub vpt Square fill Bsquare} bind def
/S6 {BL [] 0 setdash 2 copy exch vpt sub exch vpt sub vpt vpt2 Rec fill Bsquare} bind def
/S7 {BL [] 0 setdash 2 copy exch vpt sub exch vpt sub vpt vpt2 Rec fill
	2 copy vpt Square fill Bsquare} bind def
/S8 {BL [] 0 setdash 2 copy vpt sub vpt Square fill Bsquare} bind def
/S9 {BL [] 0 setdash 2 copy vpt sub vpt vpt2 Rec fill Bsquare} bind def
/S10 {BL [] 0 setdash 2 copy vpt sub vpt Square fill 2 copy exch vpt sub exch vpt Square fill
	Bsquare} bind def
/S11 {BL [] 0 setdash 2 copy vpt sub vpt Square fill 2 copy exch vpt sub exch vpt2 vpt Rec fill
	Bsquare} bind def
/S12 {BL [] 0 setdash 2 copy exch vpt sub exch vpt sub vpt2 vpt Rec fill Bsquare} bind def
/S13 {BL [] 0 setdash 2 copy exch vpt sub exch vpt sub vpt2 vpt Rec fill
	2 copy vpt Square fill Bsquare} bind def
/S14 {BL [] 0 setdash 2 copy exch vpt sub exch vpt sub vpt2 vpt Rec fill
	2 copy exch vpt sub exch vpt Square fill Bsquare} bind def
/S15 {BL [] 0 setdash 2 copy Bsquare fill Bsquare} bind def
/D0 {gsave translate 45 rotate 0 0 S0 stroke grestore} bind def
/D1 {gsave translate 45 rotate 0 0 S1 stroke grestore} bind def
/D2 {gsave translate 45 rotate 0 0 S2 stroke grestore} bind def
/D3 {gsave translate 45 rotate 0 0 S3 stroke grestore} bind def
/D4 {gsave translate 45 rotate 0 0 S4 stroke grestore} bind def
/D5 {gsave translate 45 rotate 0 0 S5 stroke grestore} bind def
/D6 {gsave translate 45 rotate 0 0 S6 stroke grestore} bind def
/D7 {gsave translate 45 rotate 0 0 S7 stroke grestore} bind def
/D8 {gsave translate 45 rotate 0 0 S8 stroke grestore} bind def
/D9 {gsave translate 45 rotate 0 0 S9 stroke grestore} bind def
/D10 {gsave translate 45 rotate 0 0 S10 stroke grestore} bind def
/D11 {gsave translate 45 rotate 0 0 S11 stroke grestore} bind def
/D12 {gsave translate 45 rotate 0 0 S12 stroke grestore} bind def
/D13 {gsave translate 45 rotate 0 0 S13 stroke grestore} bind def
/D14 {gsave translate 45 rotate 0 0 S14 stroke grestore} bind def
/D15 {gsave translate 45 rotate 0 0 S15 stroke grestore} bind def
/DiaE {stroke [] 0 setdash vpt add M
  hpt neg vpt neg V hpt vpt neg V
  hpt vpt V hpt neg vpt V closepath stroke} def
/BoxE {stroke [] 0 setdash exch hpt sub exch vpt add M
  0 vpt2 neg V hpt2 0 V 0 vpt2 V
  hpt2 neg 0 V closepath stroke} def
/TriUE {stroke [] 0 setdash vpt 1.12 mul add M
  hpt neg vpt -1.62 mul V
  hpt 2 mul 0 V
  hpt neg vpt 1.62 mul V closepath stroke} def
/TriDE {stroke [] 0 setdash vpt 1.12 mul sub M
  hpt neg vpt 1.62 mul V
  hpt 2 mul 0 V
  hpt neg vpt -1.62 mul V closepath stroke} def
/PentE {stroke [] 0 setdash gsave
  translate 0 hpt M 4 {72 rotate 0 hpt L} repeat
  closepath stroke grestore} def
/CircE {stroke [] 0 setdash 
  hpt 0 360 arc stroke} def
/Opaque {gsave closepath 1 setgray fill grestore 0 setgray closepath} def
/DiaW {stroke [] 0 setdash vpt add M
  hpt neg vpt neg V hpt vpt neg V
  hpt vpt V hpt neg vpt V Opaque stroke} def
/BoxW {stroke [] 0 setdash exch hpt sub exch vpt add M
  0 vpt2 neg V hpt2 0 V 0 vpt2 V
  hpt2 neg 0 V Opaque stroke} def
/TriUW {stroke [] 0 setdash vpt 1.12 mul add M
  hpt neg vpt -1.62 mul V
  hpt 2 mul 0 V
  hpt neg vpt 1.62 mul V Opaque stroke} def
/TriDW {stroke [] 0 setdash vpt 1.12 mul sub M
  hpt neg vpt 1.62 mul V
  hpt 2 mul 0 V
  hpt neg vpt -1.62 mul V Opaque stroke} def
/PentW {stroke [] 0 setdash gsave
  translate 0 hpt M 4 {72 rotate 0 hpt L} repeat
  Opaque stroke grestore} def
/CircW {stroke [] 0 setdash 
  hpt 0 360 arc Opaque stroke} def
/BoxFill {gsave Rec 1 setgray fill grestore} def
/Density {
  /Fillden exch def
  currentrgbcolor
  /ColB exch def /ColG exch def /ColR exch def
  /ColR ColR Fillden mul Fillden sub 1 add def
  /ColG ColG Fillden mul Fillden sub 1 add def
  /ColB ColB Fillden mul Fillden sub 1 add def
  ColR ColG ColB setrgbcolor} def
/BoxColFill {gsave Rec PolyFill} def
/PolyFill {gsave Density fill grestore grestore} def
/h {rlineto rlineto rlineto gsave closepath fill grestore} bind def
%
% PostScript Level 1 Pattern Fill routine for rectangles
% Usage: x y w h s a XX PatternFill
%	x,y = lower left corner of box to be filled
%	w,h = width and height of box
%	  a = angle in degrees between lines and x-axis
%	 XX = 0/1 for no/yes cross-hatch
%
/PatternFill {gsave /PFa [ 9 2 roll ] def
  PFa 0 get PFa 2 get 2 div add PFa 1 get PFa 3 get 2 div add translate
  PFa 2 get -2 div PFa 3 get -2 div PFa 2 get PFa 3 get Rec
  gsave 1 setgray fill grestore clip
  currentlinewidth 0.5 mul setlinewidth
  /PFs PFa 2 get dup mul PFa 3 get dup mul add sqrt def
  0 0 M PFa 5 get rotate PFs -2 div dup translate
  0 1 PFs PFa 4 get div 1 add floor cvi
	{PFa 4 get mul 0 M 0 PFs V} for
  0 PFa 6 get ne {
	0 1 PFs PFa 4 get div 1 add floor cvi
	{PFa 4 get mul 0 2 1 roll M PFs 0 V} for
 } if
  stroke grestore} def
%
/languagelevel where
 {pop languagelevel} {1} ifelse
 2 lt
	{/InterpretLevel1 true def}
	{/InterpretLevel1 Level1 def}
 ifelse
%
% PostScript level 2 pattern fill definitions
%
/Level2PatternFill {
/Tile8x8 {/PaintType 2 /PatternType 1 /TilingType 1 /BBox [0 0 8 8] /XStep 8 /YStep 8}
	bind def
/KeepColor {currentrgbcolor [/Pattern /DeviceRGB] setcolorspace} bind def
<< Tile8x8
 /PaintProc {0.5 setlinewidth pop 0 0 M 8 8 L 0 8 M 8 0 L stroke} 
>> matrix makepattern
/Pat1 exch def
<< Tile8x8
 /PaintProc {0.5 setlinewidth pop 0 0 M 8 8 L 0 8 M 8 0 L stroke
	0 4 M 4 8 L 8 4 L 4 0 L 0 4 L stroke}
>> matrix makepattern
/Pat2 exch def
<< Tile8x8
 /PaintProc {0.5 setlinewidth pop 0 0 M 0 8 L
	8 8 L 8 0 L 0 0 L fill}
>> matrix makepattern
/Pat3 exch def
<< Tile8x8
 /PaintProc {0.5 setlinewidth pop -4 8 M 8 -4 L
	0 12 M 12 0 L stroke}
>> matrix makepattern
/Pat4 exch def
<< Tile8x8
 /PaintProc {0.5 setlinewidth pop -4 0 M 8 12 L
	0 -4 M 12 8 L stroke}
>> matrix makepattern
/Pat5 exch def
<< Tile8x8
 /PaintProc {0.5 setlinewidth pop -2 8 M 4 -4 L
	0 12 M 8 -4 L 4 12 M 10 0 L stroke}
>> matrix makepattern
/Pat6 exch def
<< Tile8x8
 /PaintProc {0.5 setlinewidth pop -2 0 M 4 12 L
	0 -4 M 8 12 L 4 -4 M 10 8 L stroke}
>> matrix makepattern
/Pat7 exch def
<< Tile8x8
 /PaintProc {0.5 setlinewidth pop 8 -2 M -4 4 L
	12 0 M -4 8 L 12 4 M 0 10 L stroke}
>> matrix makepattern
/Pat8 exch def
<< Tile8x8
 /PaintProc {0.5 setlinewidth pop 0 -2 M 12 4 L
	-4 0 M 12 8 L -4 4 M 8 10 L stroke}
>> matrix makepattern
/Pat9 exch def
/Pattern1 {PatternBgnd KeepColor Pat1 setpattern} bind def
/Pattern2 {PatternBgnd KeepColor Pat2 setpattern} bind def
/Pattern3 {PatternBgnd KeepColor Pat3 setpattern} bind def
/Pattern4 {PatternBgnd KeepColor Landscape {Pat5} {Pat4} ifelse setpattern} bind def
/Pattern5 {PatternBgnd KeepColor Landscape {Pat4} {Pat5} ifelse setpattern} bind def
/Pattern6 {PatternBgnd KeepColor Landscape {Pat9} {Pat6} ifelse setpattern} bind def
/Pattern7 {PatternBgnd KeepColor Landscape {Pat8} {Pat7} ifelse setpattern} bind def
} def
%
%
%End of PostScript Level 2 code
%
/PatternBgnd {
  TransparentPatterns {} {gsave 1 setgray fill grestore} ifelse
} def
%
% Substitute for Level 2 pattern fill codes with
% grayscale if Level 2 support is not selected.
%
/Level1PatternFill {
/Pattern1 {0.250 Density} bind def
/Pattern2 {0.500 Density} bind def
/Pattern3 {0.750 Density} bind def
/Pattern4 {0.125 Density} bind def
/Pattern5 {0.375 Density} bind def
/Pattern6 {0.625 Density} bind def
/Pattern7 {0.875 Density} bind def
} def
%
% Now test for support of Level 2 code
%
Level1 {Level1PatternFill} {Level2PatternFill} ifelse
%
/Symbol-Oblique /Symbol findfont [1 0 .167 1 0 0] makefont
dup length dict begin {1 index /FID eq {pop pop} {def} ifelse} forall
currentdict end definefont pop
end
%%EndProlog
gnudict begin
gsave
doclip
50 50 translate
0.050 0.050 scale
0 setgray
newpath
(Helvetica) findfont 140 scalefont setfont
1.000 UL
LTb
686 448 M
63 0 V
6198 0 R
-63 0 V
602 448 M
( 0) Rshow
1.000 UL
LTb
686 890 M
63 0 V
6198 0 R
-63 0 V
602 890 M
( 10) Rshow
1.000 UL
LTb
686 1333 M
63 0 V
6198 0 R
-63 0 V
-6282 0 R
( 20) Rshow
1.000 UL
LTb
686 1775 M
63 0 V
6198 0 R
-63 0 V
-6282 0 R
( 30) Rshow
1.000 UL
LTb
686 2217 M
63 0 V
6198 0 R
-63 0 V
-6282 0 R
( 40) Rshow
1.000 UL
LTb
686 2659 M
63 0 V
6198 0 R
-63 0 V
-6282 0 R
( 50) Rshow
1.000 UL
LTb
686 3102 M
63 0 V
6198 0 R
-63 0 V
-6282 0 R
( 60) Rshow
1.000 UL
LTb
686 3544 M
63 0 V
6198 0 R
-63 0 V
-6282 0 R
( 70) Rshow
1.000 UL
LTb
686 3986 M
63 0 V
6198 0 R
-63 0 V
-6282 0 R
( 80) Rshow
1.000 UL
LTb
686 4429 M
63 0 V
6198 0 R
-63 0 V
-6282 0 R
( 90) Rshow
1.000 UL
LTb
686 4871 M
63 0 V
6198 0 R
-63 0 V
-6282 0 R
( 100) Rshow
1.000 UL
LTb
686 448 M
0 63 V
0 4360 R
0 -63 V
686 308 M
( 0) Cshow
1.000 UL
LTb
1382 448 M
0 63 V
0 4360 R
0 -63 V
0 -4500 R
( 200) Cshow
1.000 UL
LTb
2077 448 M
0 63 V
0 4360 R
0 -63 V
0 -4500 R
( 400) Cshow
1.000 UL
LTb
2773 448 M
0 63 V
0 4360 R
0 -63 V
0 -4500 R
( 600) Cshow
1.000 UL
LTb
3469 448 M
0 63 V
0 4360 R
0 -63 V
0 -4500 R
( 800) Cshow
1.000 UL
LTb
4164 448 M
0 63 V
0 4360 R
0 -63 V
0 -4500 R
( 1000) Cshow
1.000 UL
LTb
4860 448 M
0 63 V
0 4360 R
0 -63 V
0 -4500 R
( 1200) Cshow
1.000 UL
LTb
5556 448 M
0 63 V
0 4360 R
0 -63 V
0 -4500 R
( 1400) Cshow
1.000 UL
LTb
6251 448 M
0 63 V
0 4360 R
0 -63 V
0 -4500 R
( 1600) Cshow
1.000 UL
LTb
6947 448 M
0 63 V
0 4360 R
0 -63 V
0 -4500 R
( 1800) Cshow
1.000 UL
LTb
1.000 UL
LTb
686 4871 N
686 448 L
6261 0 V
0 4423 V
-6261 0 V
Z stroke
LCb setrgbcolor
112 2659 M
currentpoint gsave translate -270 rotate 0 0 M
(Visit Count per 1000 Plies) Cshow
grestore
LTb
LCb setrgbcolor
3816 98 M
(States \(Sorted by Earliest Visit Time\)) Cshow
LTb
1.000 UP
1.000 UL
LTb
% Begin plot #1
1.000 UP
1.000 UL
LT0
LCb setrgbcolor
6296 4738 M
(p = 0.50) Rshow
LT0
686 4675 Pls
689 611 Pls
693 667 Pls
696 607 Pls
700 743 Pls
703 878 Pls
707 540 Pls
710 679 Pls
714 1077 Pls
717 1053 Pls
721 882 Pls
724 559 Pls
728 635 Pls
731 735 Pls
735 671 Pls
738 579 Pls
742 655 Pls
745 540 Pls
749 480 Pls
752 508 Pls
756 464 Pls
759 532 Pls
763 472 Pls
766 484 Pls
769 484 Pls
773 472 Pls
776 524 Pls
780 472 Pls
783 488 Pls
787 464 Pls
790 456 Pls
794 464 Pls
797 488 Pls
801 484 Pls
804 460 Pls
808 468 Pls
811 484 Pls
815 555 Pls
818 492 Pls
822 603 Pls
825 492 Pls
829 548 Pls
832 544 Pls
836 476 Pls
839 508 Pls
843 476 Pls
846 516 Pls
849 536 Pls
853 488 Pls
856 480 Pls
860 468 Pls
863 508 Pls
867 500 Pls
870 496 Pls
874 504 Pls
877 496 Pls
881 484 Pls
884 492 Pls
888 484 Pls
891 476 Pls
895 492 Pls
898 500 Pls
902 476 Pls
905 464 Pls
909 460 Pls
912 492 Pls
916 484 Pls
919 484 Pls
923 484 Pls
926 508 Pls
929 619 Pls
933 699 Pls
936 615 Pls
940 476 Pls
943 472 Pls
947 468 Pls
950 551 Pls
954 508 Pls
957 516 Pls
961 544 Pls
964 512 Pls
968 528 Pls
971 488 Pls
975 520 Pls
978 512 Pls
982 496 Pls
985 480 Pls
989 476 Pls
992 532 Pls
996 532 Pls
999 504 Pls
1003 480 Pls
1006 464 Pls
1009 468 Pls
1013 496 Pls
1016 480 Pls
1020 472 Pls
1023 472 Pls
1027 611 Pls
1030 659 Pls
1034 500 Pls
1037 496 Pls
1041 504 Pls
1044 460 Pls
1048 476 Pls
1051 480 Pls
1055 504 Pls
1058 488 Pls
1062 484 Pls
1065 520 Pls
1069 500 Pls
1072 536 Pls
1076 476 Pls
1079 536 Pls
1083 500 Pls
1086 528 Pls
1089 520 Pls
1093 516 Pls
1096 512 Pls
1100 544 Pls
1103 496 Pls
1107 587 Pls
1110 496 Pls
1114 472 Pls
1117 472 Pls
1121 492 Pls
1124 548 Pls
1128 544 Pls
1131 551 Pls
1135 468 Pls
1138 468 Pls
1142 484 Pls
1145 476 Pls
1149 508 Pls
1152 464 Pls
1156 468 Pls
1159 472 Pls
1163 456 Pls
1166 464 Pls
1169 480 Pls
1173 484 Pls
1176 528 Pls
1180 488 Pls
1183 508 Pls
1187 460 Pls
1190 508 Pls
1194 528 Pls
1197 492 Pls
1201 472 Pls
1204 456 Pls
1208 452 Pls
1211 452 Pls
1215 460 Pls
1218 456 Pls
1222 452 Pls
1225 452 Pls
1229 456 Pls
1232 460 Pls
1236 464 Pls
1239 508 Pls
1243 456 Pls
1246 452 Pls
1249 468 Pls
1253 464 Pls
1256 452 Pls
1260 452 Pls
1263 468 Pls
1267 460 Pls
1270 460 Pls
1274 460 Pls
1277 468 Pls
1281 456 Pls
1284 456 Pls
1288 464 Pls
1291 468 Pls
1295 452 Pls
1298 460 Pls
1302 452 Pls
1305 456 Pls
1309 456 Pls
1312 452 Pls
1316 456 Pls
1319 460 Pls
1323 464 Pls
1326 472 Pls
1329 468 Pls
1333 456 Pls
1336 452 Pls
1340 452 Pls
1343 452 Pls
1347 452 Pls
1350 460 Pls
1354 452 Pls
1357 452 Pls
1361 456 Pls
1364 492 Pls
1368 464 Pls
1371 476 Pls
1375 464 Pls
1378 456 Pls
1382 452 Pls
1385 452 Pls
1389 500 Pls
1392 492 Pls
1396 476 Pls
1399 472 Pls
1403 492 Pls
1406 472 Pls
1409 476 Pls
1413 460 Pls
1416 472 Pls
1420 488 Pls
1423 496 Pls
1427 484 Pls
1430 484 Pls
1434 500 Pls
1437 480 Pls
1441 472 Pls
1444 468 Pls
1448 484 Pls
1451 512 Pls
1455 512 Pls
1458 484 Pls
1462 460 Pls
1465 476 Pls
1469 496 Pls
1472 464 Pls
1476 488 Pls
1479 468 Pls
1483 496 Pls
1486 476 Pls
1489 472 Pls
1493 452 Pls
1496 452 Pls
1500 456 Pls
1503 512 Pls
1507 468 Pls
1510 480 Pls
1514 452 Pls
1517 452 Pls
1521 456 Pls
1524 468 Pls
1528 492 Pls
1531 460 Pls
1535 460 Pls
1538 468 Pls
1542 452 Pls
1545 456 Pls
1549 456 Pls
1552 452 Pls
1556 468 Pls
1559 452 Pls
1563 456 Pls
1566 472 Pls
1569 480 Pls
1573 456 Pls
1576 452 Pls
1580 456 Pls
1583 468 Pls
1587 464 Pls
1590 456 Pls
1594 468 Pls
1597 464 Pls
1601 460 Pls
1604 452 Pls
1608 464 Pls
1611 464 Pls
1615 452 Pls
1618 468 Pls
1622 492 Pls
1625 496 Pls
1629 468 Pls
1632 468 Pls
1636 460 Pls
1639 460 Pls
1643 464 Pls
1646 464 Pls
1649 472 Pls
1653 476 Pls
1656 456 Pls
1660 476 Pls
1663 460 Pls
1667 460 Pls
1670 460 Pls
1674 476 Pls
1677 480 Pls
1681 480 Pls
1684 472 Pls
1688 460 Pls
1691 472 Pls
1695 460 Pls
1698 460 Pls
1702 460 Pls
1705 472 Pls
1709 460 Pls
1712 468 Pls
1716 460 Pls
1719 452 Pls
1723 452 Pls
1726 460 Pls
1730 456 Pls
1733 452 Pls
1736 472 Pls
1740 468 Pls
1743 480 Pls
1747 464 Pls
1750 460 Pls
1754 484 Pls
1757 460 Pls
1761 456 Pls
1764 460 Pls
1768 476 Pls
1771 468 Pls
1775 464 Pls
1778 456 Pls
1782 456 Pls
1785 468 Pls
1789 456 Pls
1792 464 Pls
1796 456 Pls
1799 476 Pls
1803 452 Pls
1806 456 Pls
1810 472 Pls
1813 476 Pls
1816 484 Pls
1820 516 Pls
1823 484 Pls
1827 512 Pls
1830 516 Pls
1834 488 Pls
1837 472 Pls
1841 472 Pls
1844 520 Pls
1848 512 Pls
1851 472 Pls
1855 464 Pls
1858 504 Pls
1862 472 Pls
1865 460 Pls
1869 476 Pls
1872 496 Pls
1876 468 Pls
1879 452 Pls
1883 452 Pls
1886 456 Pls
1890 460 Pls
1893 464 Pls
1896 472 Pls
1900 472 Pls
1903 488 Pls
1907 484 Pls
1910 456 Pls
1914 464 Pls
1917 544 Pls
1921 500 Pls
1924 460 Pls
1928 492 Pls
1931 516 Pls
1935 468 Pls
1938 504 Pls
1942 460 Pls
1945 456 Pls
1949 464 Pls
1952 516 Pls
1956 464 Pls
1959 524 Pls
1963 452 Pls
1966 464 Pls
1970 468 Pls
1973 492 Pls
1976 488 Pls
1980 452 Pls
1983 452 Pls
1987 464 Pls
1990 488 Pls
1994 472 Pls
1997 460 Pls
2001 464 Pls
2004 484 Pls
2008 460 Pls
2011 452 Pls
2015 456 Pls
2018 452 Pls
2022 452 Pls
2025 456 Pls
2029 464 Pls
2032 452 Pls
2036 460 Pls
2039 452 Pls
2043 460 Pls
2046 456 Pls
2050 452 Pls
2053 456 Pls
2056 452 Pls
2060 456 Pls
2063 468 Pls
2067 464 Pls
2070 472 Pls
2074 468 Pls
2077 456 Pls
2081 452 Pls
2084 472 Pls
2088 492 Pls
2091 468 Pls
2095 484 Pls
2098 452 Pls
2102 460 Pls
2105 460 Pls
2109 452 Pls
2112 452 Pls
2116 460 Pls
2119 468 Pls
2123 456 Pls
2126 460 Pls
2130 488 Pls
2133 492 Pls
2136 468 Pls
2140 456 Pls
2143 464 Pls
2147 468 Pls
2150 468 Pls
2154 460 Pls
2157 452 Pls
2161 456 Pls
2164 476 Pls
2168 460 Pls
2171 456 Pls
2175 452 Pls
2178 460 Pls
2182 460 Pls
2185 464 Pls
2189 480 Pls
2192 492 Pls
2196 460 Pls
2199 464 Pls
2203 476 Pls
2206 456 Pls
2210 452 Pls
2213 456 Pls
2216 468 Pls
2220 456 Pls
2223 476 Pls
2227 456 Pls
2230 456 Pls
2234 468 Pls
2237 452 Pls
2241 456 Pls
2244 460 Pls
2248 456 Pls
2251 456 Pls
2255 452 Pls
2258 452 Pls
2262 456 Pls
2265 452 Pls
2269 460 Pls
2272 456 Pls
2276 452 Pls
2279 452 Pls
2283 452 Pls
2286 452 Pls
2290 460 Pls
2293 464 Pls
2296 468 Pls
2300 456 Pls
2303 452 Pls
2307 452 Pls
2310 452 Pls
2314 464 Pls
2317 452 Pls
2321 452 Pls
2324 452 Pls
2328 468 Pls
2331 452 Pls
2335 464 Pls
2338 456 Pls
2342 456 Pls
2345 472 Pls
2349 464 Pls
2352 452 Pls
2356 460 Pls
2359 456 Pls
2363 456 Pls
2366 452 Pls
2370 452 Pls
2373 452 Pls
2376 456 Pls
2380 456 Pls
2383 464 Pls
2387 456 Pls
2390 480 Pls
2394 468 Pls
2397 496 Pls
2401 472 Pls
2404 460 Pls
2408 488 Pls
2411 472 Pls
2415 472 Pls
2418 468 Pls
2422 476 Pls
2425 516 Pls
2429 472 Pls
2432 452 Pls
2436 476 Pls
2439 464 Pls
2443 508 Pls
2446 472 Pls
2450 460 Pls
2453 480 Pls
2456 468 Pls
2460 456 Pls
2463 460 Pls
2467 460 Pls
2470 460 Pls
2474 464 Pls
2477 480 Pls
2481 472 Pls
2484 456 Pls
2488 476 Pls
2491 480 Pls
2495 488 Pls
2498 468 Pls
2502 476 Pls
2505 460 Pls
2509 456 Pls
2512 460 Pls
2516 488 Pls
2519 468 Pls
2523 456 Pls
2526 464 Pls
2530 452 Pls
2533 472 Pls
2536 464 Pls
2540 464 Pls
2543 456 Pls
2547 488 Pls
2550 456 Pls
2554 452 Pls
2557 468 Pls
2561 452 Pls
2564 456 Pls
2568 460 Pls
2571 452 Pls
2575 472 Pls
2578 464 Pls
2582 452 Pls
2585 468 Pls
2589 488 Pls
2592 456 Pls
2596 496 Pls
2599 512 Pls
2603 524 Pls
2606 492 Pls
2610 452 Pls
2613 460 Pls
2616 488 Pls
2620 516 Pls
2623 456 Pls
2627 464 Pls
2630 488 Pls
2634 504 Pls
2637 472 Pls
2641 468 Pls
2644 472 Pls
2648 476 Pls
2651 456 Pls
2655 452 Pls
2658 452 Pls
2662 456 Pls
2665 468 Pls
2669 452 Pls
2672 460 Pls
2676 452 Pls
2679 452 Pls
2683 456 Pls
2686 452 Pls
2690 456 Pls
2693 456 Pls
2696 460 Pls
2700 452 Pls
2703 468 Pls
2707 460 Pls
2710 456 Pls
2714 476 Pls
2717 472 Pls
2721 456 Pls
2724 464 Pls
2728 456 Pls
2731 464 Pls
2735 452 Pls
2738 452 Pls
2742 452 Pls
2745 464 Pls
2749 464 Pls
2752 464 Pls
2756 464 Pls
2759 464 Pls
2763 480 Pls
2766 456 Pls
2770 484 Pls
2773 456 Pls
2776 468 Pls
2780 464 Pls
2783 464 Pls
2787 468 Pls
2790 464 Pls
2794 456 Pls
2797 456 Pls
2801 472 Pls
2804 452 Pls
2808 464 Pls
2811 460 Pls
2815 468 Pls
2818 464 Pls
2822 468 Pls
2825 456 Pls
2829 452 Pls
2832 456 Pls
2836 452 Pls
2839 460 Pls
2843 452 Pls
2846 456 Pls
2850 460 Pls
2853 456 Pls
2856 452 Pls
2860 468 Pls
2863 456 Pls
2867 452 Pls
2870 456 Pls
2874 504 Pls
2877 468 Pls
2881 512 Pls
2884 472 Pls
2888 484 Pls
2891 484 Pls
2895 480 Pls
2898 516 Pls
2902 472 Pls
2905 496 Pls
2909 480 Pls
2912 472 Pls
2916 476 Pls
2919 464 Pls
2923 504 Pls
2926 476 Pls
2930 464 Pls
2933 472 Pls
2936 476 Pls
2940 480 Pls
2943 464 Pls
2947 464 Pls
2950 472 Pls
2954 488 Pls
2957 468 Pls
2961 512 Pls
2964 468 Pls
2968 480 Pls
2971 452 Pls
2975 480 Pls
2978 464 Pls
2982 472 Pls
2985 468 Pls
2989 472 Pls
2992 480 Pls
2996 484 Pls
2999 460 Pls
3003 452 Pls
3006 452 Pls
3010 516 Pls
3013 472 Pls
3016 452 Pls
3020 488 Pls
3023 488 Pls
3027 464 Pls
3030 472 Pls
3034 480 Pls
3037 460 Pls
3041 468 Pls
3044 476 Pls
3048 452 Pls
3051 472 Pls
3055 456 Pls
3058 452 Pls
3062 452 Pls
3065 452 Pls
3069 532 Pls
3072 496 Pls
3076 464 Pls
3079 492 Pls
3083 500 Pls
3086 464 Pls
3090 468 Pls
3093 464 Pls
3096 492 Pls
3100 500 Pls
3103 460 Pls
3107 460 Pls
3110 488 Pls
3114 488 Pls
3117 456 Pls
3121 456 Pls
3124 452 Pls
3128 452 Pls
3131 456 Pls
3135 456 Pls
3138 456 Pls
3142 456 Pls
3145 456 Pls
3149 452 Pls
3152 452 Pls
3156 468 Pls
3159 452 Pls
3163 452 Pls
3166 452 Pls
3170 452 Pls
3173 460 Pls
3176 460 Pls
3180 456 Pls
3183 488 Pls
3187 468 Pls
3190 468 Pls
3194 452 Pls
3197 452 Pls
3201 452 Pls
3204 456 Pls
3208 468 Pls
3211 460 Pls
3215 464 Pls
3218 464 Pls
3222 480 Pls
3225 496 Pls
3229 456 Pls
3232 456 Pls
3236 468 Pls
3239 484 Pls
3243 460 Pls
3246 456 Pls
3250 460 Pls
3253 452 Pls
3256 456 Pls
3260 452 Pls
3263 468 Pls
3267 460 Pls
3270 456 Pls
3274 468 Pls
3277 460 Pls
3281 452 Pls
3284 452 Pls
3288 452 Pls
3291 488 Pls
3295 492 Pls
3298 452 Pls
3302 452 Pls
3305 460 Pls
3309 460 Pls
3312 452 Pls
3316 452 Pls
3319 452 Pls
3323 452 Pls
3326 460 Pls
3330 456 Pls
3333 456 Pls
3336 460 Pls
3340 452 Pls
3343 456 Pls
3347 452 Pls
3350 456 Pls
3354 460 Pls
3357 452 Pls
3361 452 Pls
3364 452 Pls
3368 452 Pls
3371 460 Pls
3375 452 Pls
3378 452 Pls
3382 452 Pls
3385 456 Pls
3389 456 Pls
3392 452 Pls
3396 460 Pls
3399 464 Pls
3403 452 Pls
3406 456 Pls
3410 452 Pls
3413 460 Pls
3416 452 Pls
3420 452 Pls
3423 452 Pls
3427 456 Pls
3430 460 Pls
3434 452 Pls
3437 476 Pls
3441 476 Pls
3444 460 Pls
3448 460 Pls
3451 468 Pls
3455 460 Pls
3458 456 Pls
3462 460 Pls
3465 484 Pls
3469 468 Pls
3472 464 Pls
3476 460 Pls
3479 468 Pls
3483 452 Pls
3486 464 Pls
3490 504 Pls
3493 460 Pls
3496 452 Pls
3500 476 Pls
3503 464 Pls
3507 480 Pls
3510 456 Pls
3514 460 Pls
3517 464 Pls
3521 456 Pls
3524 452 Pls
3528 496 Pls
3531 460 Pls
3535 452 Pls
3538 480 Pls
3542 484 Pls
3545 480 Pls
3549 460 Pls
3552 452 Pls
3556 460 Pls
3559 472 Pls
3563 464 Pls
3566 456 Pls
3570 464 Pls
3573 456 Pls
3576 476 Pls
3580 460 Pls
3583 456 Pls
3587 452 Pls
3590 460 Pls
3594 456 Pls
3597 456 Pls
3601 452 Pls
3604 484 Pls
3608 480 Pls
3611 476 Pls
3615 492 Pls
3618 452 Pls
3622 468 Pls
3625 476 Pls
3629 456 Pls
3632 452 Pls
3636 456 Pls
3639 452 Pls
3643 452 Pls
3646 468 Pls
3650 468 Pls
3653 456 Pls
3656 464 Pls
3660 456 Pls
3663 468 Pls
3667 452 Pls
3670 468 Pls
3674 460 Pls
3677 456 Pls
3681 460 Pls
3684 452 Pls
3688 452 Pls
3691 460 Pls
3695 452 Pls
3698 544 Pls
3702 563 Pls
3705 544 Pls
3709 480 Pls
3712 500 Pls
3716 484 Pls
3719 567 Pls
3723 468 Pls
3726 508 Pls
3730 508 Pls
3733 472 Pls
3736 464 Pls
3740 480 Pls
3743 456 Pls
3747 460 Pls
3750 508 Pls
3754 484 Pls
3757 468 Pls
3761 508 Pls
3764 464 Pls
3768 476 Pls
3771 464 Pls
3775 456 Pls
3778 476 Pls
3782 476 Pls
3785 460 Pls
3789 460 Pls
3792 460 Pls
3796 452 Pls
3799 456 Pls
3803 452 Pls
3806 452 Pls
3810 456 Pls
3813 452 Pls
3817 452 Pls
3820 452 Pls
3823 464 Pls
3827 472 Pls
3830 452 Pls
3834 452 Pls
3837 460 Pls
3841 464 Pls
3844 456 Pls
3848 452 Pls
3851 452 Pls
3855 452 Pls
3858 456 Pls
3862 452 Pls
3865 452 Pls
3869 456 Pls
3872 464 Pls
3876 464 Pls
3879 468 Pls
3883 456 Pls
3886 460 Pls
3890 456 Pls
3893 464 Pls
3897 464 Pls
3900 460 Pls
3903 456 Pls
3907 460 Pls
3910 452 Pls
3914 456 Pls
3917 464 Pls
3921 468 Pls
3924 472 Pls
3928 460 Pls
3931 456 Pls
3935 456 Pls
3938 452 Pls
3942 452 Pls
3945 456 Pls
3949 452 Pls
3952 452 Pls
3956 456 Pls
3959 480 Pls
3963 488 Pls
3966 480 Pls
3970 472 Pls
3973 500 Pls
3977 500 Pls
3980 520 Pls
3983 500 Pls
3987 496 Pls
3990 468 Pls
3994 492 Pls
3997 460 Pls
4001 472 Pls
4004 484 Pls
4008 488 Pls
4011 516 Pls
4015 492 Pls
4018 532 Pls
4022 484 Pls
4025 520 Pls
4029 456 Pls
4032 472 Pls
4036 464 Pls
4039 460 Pls
4043 464 Pls
4046 484 Pls
4050 512 Pls
4053 476 Pls
4057 484 Pls
4060 512 Pls
4063 484 Pls
4067 460 Pls
4070 551 Pls
4074 496 Pls
4077 464 Pls
4081 492 Pls
4084 456 Pls
4088 460 Pls
4091 468 Pls
4095 472 Pls
4098 452 Pls
4102 540 Pls
4105 468 Pls
4109 468 Pls
4112 456 Pls
4116 452 Pls
4119 456 Pls
4123 452 Pls
4126 452 Pls
4130 464 Pls
4133 460 Pls
4137 464 Pls
4140 460 Pls
4143 551 Pls
4147 536 Pls
4150 468 Pls
4154 520 Pls
4157 492 Pls
4161 468 Pls
4164 460 Pls
4168 480 Pls
4171 464 Pls
4175 456 Pls
4178 464 Pls
4182 460 Pls
4185 452 Pls
4189 468 Pls
4192 456 Pls
4196 460 Pls
4199 456 Pls
4203 460 Pls
4206 452 Pls
4210 452 Pls
4213 456 Pls
4217 452 Pls
4220 452 Pls
4223 452 Pls
4227 456 Pls
4230 452 Pls
4234 452 Pls
4237 452 Pls
4241 452 Pls
4244 452 Pls
4248 456 Pls
4251 452 Pls
4255 452 Pls
4258 468 Pls
4262 452 Pls
4265 456 Pls
4269 460 Pls
4272 480 Pls
4276 464 Pls
4279 456 Pls
4283 464 Pls
4286 460 Pls
4290 456 Pls
4293 452 Pls
4297 456 Pls
4300 456 Pls
4303 456 Pls
4307 464 Pls
4310 456 Pls
4314 468 Pls
4317 452 Pls
4321 472 Pls
4324 456 Pls
4328 452 Pls
4331 452 Pls
4335 452 Pls
4338 452 Pls
4342 452 Pls
4345 452 Pls
4349 452 Pls
4352 452 Pls
4356 452 Pls
4359 456 Pls
4363 452 Pls
4366 460 Pls
4370 452 Pls
4373 452 Pls
4377 452 Pls
4380 452 Pls
4383 460 Pls
4387 460 Pls
4390 456 Pls
4394 452 Pls
4397 452 Pls
4401 452 Pls
4404 456 Pls
4408 452 Pls
4411 452 Pls
4415 460 Pls
4418 452 Pls
4422 456 Pls
4425 468 Pls
4429 452 Pls
4432 452 Pls
4436 452 Pls
4439 468 Pls
4443 480 Pls
4446 472 Pls
4450 460 Pls
4453 456 Pls
4457 472 Pls
4460 484 Pls
4463 456 Pls
4467 496 Pls
4470 460 Pls
4474 476 Pls
4477 460 Pls
4481 484 Pls
4484 456 Pls
4488 468 Pls
4491 460 Pls
4495 484 Pls
4498 456 Pls
4502 464 Pls
4505 452 Pls
4509 488 Pls
4512 528 Pls
4516 484 Pls
4519 480 Pls
4523 468 Pls
4526 476 Pls
4530 464 Pls
4533 456 Pls
4537 476 Pls
4540 468 Pls
4543 452 Pls
4547 464 Pls
4550 496 Pls
4554 456 Pls
4557 468 Pls
4561 484 Pls
4564 452 Pls
4568 456 Pls
4571 452 Pls
4575 516 Pls
4578 460 Pls
4582 472 Pls
4585 480 Pls
4589 480 Pls
4592 472 Pls
4596 460 Pls
4599 456 Pls
4603 460 Pls
4606 460 Pls
4610 452 Pls
4613 456 Pls
4617 452 Pls
4620 472 Pls
4623 484 Pls
4627 480 Pls
4630 460 Pls
4634 452 Pls
4637 460 Pls
4641 464 Pls
4644 452 Pls
4648 468 Pls
4651 460 Pls
4655 460 Pls
4658 452 Pls
4662 468 Pls
4665 452 Pls
4669 464 Pls
4672 456 Pls
4676 460 Pls
4679 452 Pls
4683 456 Pls
4686 516 Pls
4690 595 Pls
4693 532 Pls
4697 488 Pls
4700 492 Pls
4703 468 Pls
4707 472 Pls
4710 472 Pls
4714 476 Pls
4717 524 Pls
4721 460 Pls
4724 476 Pls
4728 472 Pls
4731 504 Pls
4735 464 Pls
4738 464 Pls
4742 496 Pls
4745 460 Pls
4749 476 Pls
4752 468 Pls
4756 468 Pls
4759 456 Pls
4763 512 Pls
4766 492 Pls
4770 468 Pls
4773 464 Pls
4777 504 Pls
4780 472 Pls
4783 468 Pls
4787 460 Pls
4790 492 Pls
4794 472 Pls
4797 532 Pls
4801 460 Pls
4804 456 Pls
4808 452 Pls
4811 452 Pls
4815 452 Pls
4818 464 Pls
4822 460 Pls
4825 456 Pls
4829 452 Pls
4832 456 Pls
4836 456 Pls
4839 468 Pls
4843 456 Pls
4846 460 Pls
4850 484 Pls
4853 452 Pls
4857 460 Pls
4860 452 Pls
4863 452 Pls
4867 452 Pls
4870 460 Pls
4874 468 Pls
4877 468 Pls
4881 496 Pls
4884 464 Pls
4888 468 Pls
4891 460 Pls
4895 520 Pls
4898 452 Pls
4902 452 Pls
4905 452 Pls
4909 512 Pls
4912 480 Pls
4916 464 Pls
4919 456 Pls
4923 476 Pls
4926 452 Pls
4930 452 Pls
4933 524 Pls
4937 500 Pls
4940 472 Pls
4943 508 Pls
4947 500 Pls
4950 464 Pls
4954 484 Pls
4957 452 Pls
4961 452 Pls
4964 500 Pls
4968 468 Pls
4971 452 Pls
4975 456 Pls
4978 452 Pls
4982 595 Pls
4985 540 Pls
4989 492 Pls
4992 484 Pls
4996 480 Pls
4999 456 Pls
5003 627 Pls
5006 476 Pls
5010 476 Pls
5013 452 Pls
5017 472 Pls
5020 464 Pls
5023 639 Pls
5027 484 Pls
5030 468 Pls
5034 456 Pls
5037 456 Pls
5041 504 Pls
5044 480 Pls
5048 484 Pls
5051 472 Pls
5055 452 Pls
5058 452 Pls
5062 452 Pls
5065 456 Pls
5069 456 Pls
5072 468 Pls
5076 460 Pls
5079 464 Pls
5083 452 Pls
5086 452 Pls
5090 480 Pls
5093 452 Pls
5097 456 Pls
5100 460 Pls
5103 452 Pls
5107 456 Pls
5110 456 Pls
5114 452 Pls
5117 452 Pls
5121 456 Pls
5124 452 Pls
5128 452 Pls
5131 456 Pls
5135 452 Pls
5138 452 Pls
5142 452 Pls
5145 452 Pls
5149 452 Pls
5152 460 Pls
5156 452 Pls
5159 456 Pls
5163 452 Pls
5166 452 Pls
5170 460 Pls
5173 452 Pls
5177 464 Pls
5180 452 Pls
5183 452 Pls
5187 452 Pls
5190 452 Pls
5194 452 Pls
5197 452 Pls
5201 456 Pls
5204 452 Pls
5208 460 Pls
5211 456 Pls
5215 452 Pls
5218 452 Pls
5222 452 Pls
5225 460 Pls
5229 468 Pls
5232 484 Pls
5236 456 Pls
5239 468 Pls
5243 460 Pls
5246 464 Pls
5250 488 Pls
5253 456 Pls
5257 464 Pls
5260 464 Pls
5263 452 Pls
5267 464 Pls
5270 456 Pls
5274 468 Pls
5277 512 Pls
5281 476 Pls
5284 460 Pls
5288 476 Pls
5291 464 Pls
5295 476 Pls
5298 456 Pls
5302 488 Pls
5305 476 Pls
5309 472 Pls
5312 460 Pls
5316 468 Pls
5319 456 Pls
5323 452 Pls
5326 488 Pls
5330 460 Pls
5333 460 Pls
5337 456 Pls
5340 464 Pls
5343 456 Pls
5347 464 Pls
5350 452 Pls
5354 456 Pls
5357 452 Pls
5361 452 Pls
5364 456 Pls
5368 464 Pls
5371 627 Pls
5375 512 Pls
5378 512 Pls
5382 583 Pls
5385 488 Pls
5389 548 Pls
5392 472 Pls
5396 587 Pls
5399 555 Pls
5403 587 Pls
5406 480 Pls
5410 512 Pls
5413 488 Pls
5417 468 Pls
5420 452 Pls
5423 456 Pls
5427 651 Pls
5430 508 Pls
5434 583 Pls
5437 504 Pls
5441 476 Pls
5444 472 Pls
5448 452 Pls
5451 500 Pls
5455 472 Pls
5458 595 Pls
5462 500 Pls
5465 619 Pls
5469 528 Pls
5472 488 Pls
5476 540 Pls
5479 460 Pls
5483 452 Pls
5486 452 Pls
5490 452 Pls
5493 452 Pls
5497 456 Pls
5500 460 Pls
5503 456 Pls
5507 452 Pls
5510 456 Pls
5514 456 Pls
5517 456 Pls
5521 452 Pls
5524 452 Pls
5528 452 Pls
5531 460 Pls
5535 452 Pls
5538 460 Pls
5542 452 Pls
5545 464 Pls
5549 452 Pls
5552 452 Pls
5556 452 Pls
5559 460 Pls
5563 476 Pls
5566 452 Pls
5570 508 Pls
5573 528 Pls
5577 456 Pls
5580 452 Pls
5583 452 Pls
5587 456 Pls
5590 476 Pls
5594 456 Pls
5597 452 Pls
5601 480 Pls
5604 460 Pls
5608 456 Pls
5611 452 Pls
5615 559 Pls
5618 484 Pls
5622 452 Pls
5625 484 Pls
5629 492 Pls
5632 452 Pls
5636 500 Pls
5639 512 Pls
5643 464 Pls
5646 623 Pls
5650 460 Pls
5653 456 Pls
5657 452 Pls
5660 452 Pls
5663 452 Pls
5667 460 Pls
5670 452 Pls
5674 464 Pls
5677 452 Pls
5681 468 Pls
5684 452 Pls
5688 452 Pls
5691 452 Pls
5695 452 Pls
5698 456 Pls
5702 456 Pls
5705 452 Pls
5709 452 Pls
5712 452 Pls
5716 452 Pls
5719 452 Pls
5723 452 Pls
5726 452 Pls
5730 452 Pls
5733 452 Pls
5737 460 Pls
5740 456 Pls
5743 464 Pls
5747 472 Pls
5750 476 Pls
5754 456 Pls
5757 452 Pls
5761 484 Pls
5764 460 Pls
5768 452 Pls
5771 480 Pls
5775 464 Pls
5778 452 Pls
5782 488 Pls
5785 492 Pls
5789 480 Pls
5792 468 Pls
5796 464 Pls
5799 452 Pls
5803 452 Pls
5806 452 Pls
5810 492 Pls
5813 452 Pls
5817 452 Pls
5820 480 Pls
5823 468 Pls
5827 464 Pls
5830 460 Pls
5834 460 Pls
5837 456 Pls
5841 456 Pls
5844 452 Pls
5848 528 Pls
5851 472 Pls
5855 480 Pls
5858 504 Pls
5862 504 Pls
5865 472 Pls
5869 452 Pls
5872 611 Pls
5876 516 Pls
5879 480 Pls
5883 460 Pls
5886 456 Pls
5890 460 Pls
5893 452 Pls
5897 452 Pls
5900 472 Pls
5904 456 Pls
5907 643 Pls
5910 492 Pls
5914 484 Pls
5917 468 Pls
5921 456 Pls
5924 456 Pls
5928 456 Pls
5931 464 Pls
5935 468 Pls
5938 452 Pls
5942 452 Pls
5945 460 Pls
5949 452 Pls
5952 452 Pls
5956 472 Pls
5959 456 Pls
5963 452 Pls
5966 452 Pls
5970 456 Pls
5973 452 Pls
5977 472 Pls
5980 456 Pls
5984 460 Pls
5987 460 Pls
5990 452 Pls
5994 468 Pls
5997 452 Pls
6001 452 Pls
6004 452 Pls
6008 452 Pls
6011 452 Pls
6015 452 Pls
6018 512 Pls
6022 456 Pls
6025 460 Pls
6029 452 Pls
6032 452 Pls
6036 452 Pls
6039 452 Pls
6043 452 Pls
6046 452 Pls
6050 452 Pls
6053 452 Pls
6057 452 Pls
6060 456 Pls
6064 452 Pls
6067 452 Pls
6070 452 Pls
6074 456 Pls
6077 456 Pls
6081 452 Pls
6084 452 Pls
6088 464 Pls
6091 452 Pls
6095 452 Pls
6098 456 Pls
6102 452 Pls
6105 460 Pls
6109 464 Pls
6112 460 Pls
6116 452 Pls
6119 452 Pls
6123 456 Pls
6126 456 Pls
6130 452 Pls
6133 452 Pls
6137 456 Pls
6140 452 Pls
6144 460 Pls
6147 452 Pls
6150 456 Pls
6154 452 Pls
6157 452 Pls
6161 452 Pls
6164 452 Pls
6168 452 Pls
6171 452 Pls
6175 452 Pls
6178 452 Pls
6182 460 Pls
6185 456 Pls
6189 456 Pls
6192 456 Pls
6196 452 Pls
6199 460 Pls
6203 452 Pls
6206 452 Pls
6210 456 Pls
6213 452 Pls
6217 452 Pls
6220 456 Pls
6224 452 Pls
6227 452 Pls
6230 452 Pls
6234 452 Pls
6237 452 Pls
6241 452 Pls
6244 452 Pls
6248 452 Pls
6251 452 Pls
6255 456 Pls
6258 452 Pls
6262 452 Pls
6265 452 Pls
6269 452 Pls
6272 456 Pls
6276 452 Pls
6279 452 Pls
6283 452 Pls
6286 452 Pls
6290 452 Pls
6293 452 Pls
6297 452 Pls
6300 452 Pls
6304 452 Pls
6307 452 Pls
6310 452 Pls
6314 452 Pls
6579 4738 Pls
% End plot #1
1.000 UL
LTb
686 4871 N
686 448 L
6261 0 V
0 4423 V
-6261 0 V
Z stroke
1.000 UP
1.000 UL
LTb
stroke
grestore
end
showpage
%%Trailer
%%DocumentFonts: Helvetica
