%!PS-Adobe-2.0 EPSF-2.0
%%Title: ../plots/hc-challenge/hc-challenge-minigammon-offset-0.eps
%%Creator: gnuplot 4.4 patchlevel 3
%%CreationDate: Tue Dec 13 22:57:21 2011
%%DocumentFonts: (atend)
%%BoundingBox: 50 50 410 302
%%EndComments
%%BeginProlog
/gnudict 256 dict def
gnudict begin
%
% The following true/false flags may be edited by hand if desired.
% The unit line width and grayscale image gamma correction may also be changed.
%
/Color true def
/Blacktext false def
/Solid false def
/Dashlength 1 def
/Landscape false def
/Level1 false def
/Rounded false def
/ClipToBoundingBox false def
/TransparentPatterns false def
/gnulinewidth 5.000 def
/userlinewidth gnulinewidth def
/Gamma 1.0 def
%
/vshift -46 def
/dl1 {
  10.0 Dashlength mul mul
  Rounded { currentlinewidth 0.75 mul sub dup 0 le { pop 0.01 } if } if
} def
/dl2 {
  10.0 Dashlength mul mul
  Rounded { currentlinewidth 0.75 mul add } if
} def
/hpt_ 31.5 def
/vpt_ 31.5 def
/hpt hpt_ def
/vpt vpt_ def
Level1 {} {
/SDict 10 dict def
systemdict /pdfmark known not {
  userdict /pdfmark systemdict /cleartomark get put
} if
SDict begin [
  /Title (../plots/hc-challenge/hc-challenge-minigammon-offset-0.eps)
  /Subject (gnuplot plot)
  /Creator (gnuplot 4.4 patchlevel 3)
  /Author (reza)
%  /Producer (gnuplot)
%  /Keywords ()
  /CreationDate (Tue Dec 13 22:57:21 2011)
  /DOCINFO pdfmark
end
} ifelse
/doclip {
  ClipToBoundingBox {
    newpath 50 50 moveto 410 50 lineto 410 302 lineto 50 302 lineto closepath
    clip
  } if
} def
%
% Gnuplot Prolog Version 4.4 (August 2010)
%
%/SuppressPDFMark true def
%
/M {moveto} bind def
/L {lineto} bind def
/R {rmoveto} bind def
/V {rlineto} bind def
/N {newpath moveto} bind def
/Z {closepath} bind def
/C {setrgbcolor} bind def
/f {rlineto fill} bind def
/g {setgray} bind def
/Gshow {show} def   % May be redefined later in the file to support UTF-8
/vpt2 vpt 2 mul def
/hpt2 hpt 2 mul def
/Lshow {currentpoint stroke M 0 vshift R 
	Blacktext {gsave 0 setgray show grestore} {show} ifelse} def
/Rshow {currentpoint stroke M dup stringwidth pop neg vshift R
	Blacktext {gsave 0 setgray show grestore} {show} ifelse} def
/Cshow {currentpoint stroke M dup stringwidth pop -2 div vshift R 
	Blacktext {gsave 0 setgray show grestore} {show} ifelse} def
/UP {dup vpt_ mul /vpt exch def hpt_ mul /hpt exch def
  /hpt2 hpt 2 mul def /vpt2 vpt 2 mul def} def
/DL {Color {setrgbcolor Solid {pop []} if 0 setdash}
 {pop pop pop 0 setgray Solid {pop []} if 0 setdash} ifelse} def
/BL {stroke userlinewidth 2 mul setlinewidth
	Rounded {1 setlinejoin 1 setlinecap} if} def
/AL {stroke userlinewidth 2 div setlinewidth
	Rounded {1 setlinejoin 1 setlinecap} if} def
/UL {dup gnulinewidth mul /userlinewidth exch def
	dup 1 lt {pop 1} if 10 mul /udl exch def} def
/PL {stroke userlinewidth setlinewidth
	Rounded {1 setlinejoin 1 setlinecap} if} def
3.8 setmiterlimit
% Default Line colors
/LCw {1 1 1} def
/LCb {0 0 0} def
/LCa {0 0 0} def
/LC0 {1 0 0} def
/LC1 {0 1 0} def
/LC2 {0 0 1} def
/LC3 {1 0 1} def
/LC4 {0 1 1} def
/LC5 {1 1 0} def
/LC6 {0 0 0} def
/LC7 {1 0.3 0} def
/LC8 {0.5 0.5 0.5} def
% Default Line Types
/LTw {PL [] 1 setgray} def
/LTb {BL [] LCb DL} def
/LTa {AL [1 udl mul 2 udl mul] 0 setdash LCa setrgbcolor} def
/LT0 {PL [] LC0 DL} def
/LT1 {PL [4 dl1 2 dl2] LC1 DL} def
/LT2 {PL [2 dl1 3 dl2] LC2 DL} def
/LT3 {PL [1 dl1 1.5 dl2] LC3 DL} def
/LT4 {PL [6 dl1 2 dl2 1 dl1 2 dl2] LC4 DL} def
/LT5 {PL [3 dl1 3 dl2 1 dl1 3 dl2] LC5 DL} def
/LT6 {PL [2 dl1 2 dl2 2 dl1 6 dl2] LC6 DL} def
/LT7 {PL [1 dl1 2 dl2 6 dl1 2 dl2 1 dl1 2 dl2] LC7 DL} def
/LT8 {PL [2 dl1 2 dl2 2 dl1 2 dl2 2 dl1 2 dl2 2 dl1 4 dl2] LC8 DL} def
/Pnt {stroke [] 0 setdash gsave 1 setlinecap M 0 0 V stroke grestore} def
/Dia {stroke [] 0 setdash 2 copy vpt add M
  hpt neg vpt neg V hpt vpt neg V
  hpt vpt V hpt neg vpt V closepath stroke
  Pnt} def
/Pls {stroke [] 0 setdash vpt sub M 0 vpt2 V
  currentpoint stroke M
  hpt neg vpt neg R hpt2 0 V stroke
 } def
/Box {stroke [] 0 setdash 2 copy exch hpt sub exch vpt add M
  0 vpt2 neg V hpt2 0 V 0 vpt2 V
  hpt2 neg 0 V closepath stroke
  Pnt} def
/Crs {stroke [] 0 setdash exch hpt sub exch vpt add M
  hpt2 vpt2 neg V currentpoint stroke M
  hpt2 neg 0 R hpt2 vpt2 V stroke} def
/TriU {stroke [] 0 setdash 2 copy vpt 1.12 mul add M
  hpt neg vpt -1.62 mul V
  hpt 2 mul 0 V
  hpt neg vpt 1.62 mul V closepath stroke
  Pnt} def
/Star {2 copy Pls Crs} def
/BoxF {stroke [] 0 setdash exch hpt sub exch vpt add M
  0 vpt2 neg V hpt2 0 V 0 vpt2 V
  hpt2 neg 0 V closepath fill} def
/TriUF {stroke [] 0 setdash vpt 1.12 mul add M
  hpt neg vpt -1.62 mul V
  hpt 2 mul 0 V
  hpt neg vpt 1.62 mul V closepath fill} def
/TriD {stroke [] 0 setdash 2 copy vpt 1.12 mul sub M
  hpt neg vpt 1.62 mul V
  hpt 2 mul 0 V
  hpt neg vpt -1.62 mul V closepath stroke
  Pnt} def
/TriDF {stroke [] 0 setdash vpt 1.12 mul sub M
  hpt neg vpt 1.62 mul V
  hpt 2 mul 0 V
  hpt neg vpt -1.62 mul V closepath fill} def
/DiaF {stroke [] 0 setdash vpt add M
  hpt neg vpt neg V hpt vpt neg V
  hpt vpt V hpt neg vpt V closepath fill} def
/Pent {stroke [] 0 setdash 2 copy gsave
  translate 0 hpt M 4 {72 rotate 0 hpt L} repeat
  closepath stroke grestore Pnt} def
/PentF {stroke [] 0 setdash gsave
  translate 0 hpt M 4 {72 rotate 0 hpt L} repeat
  closepath fill grestore} def
/Circle {stroke [] 0 setdash 2 copy
  hpt 0 360 arc stroke Pnt} def
/CircleF {stroke [] 0 setdash hpt 0 360 arc fill} def
/C0 {BL [] 0 setdash 2 copy moveto vpt 90 450 arc} bind def
/C1 {BL [] 0 setdash 2 copy moveto
	2 copy vpt 0 90 arc closepath fill
	vpt 0 360 arc closepath} bind def
/C2 {BL [] 0 setdash 2 copy moveto
	2 copy vpt 90 180 arc closepath fill
	vpt 0 360 arc closepath} bind def
/C3 {BL [] 0 setdash 2 copy moveto
	2 copy vpt 0 180 arc closepath fill
	vpt 0 360 arc closepath} bind def
/C4 {BL [] 0 setdash 2 copy moveto
	2 copy vpt 180 270 arc closepath fill
	vpt 0 360 arc closepath} bind def
/C5 {BL [] 0 setdash 2 copy moveto
	2 copy vpt 0 90 arc
	2 copy moveto
	2 copy vpt 180 270 arc closepath fill
	vpt 0 360 arc} bind def
/C6 {BL [] 0 setdash 2 copy moveto
	2 copy vpt 90 270 arc closepath fill
	vpt 0 360 arc closepath} bind def
/C7 {BL [] 0 setdash 2 copy moveto
	2 copy vpt 0 270 arc closepath fill
	vpt 0 360 arc closepath} bind def
/C8 {BL [] 0 setdash 2 copy moveto
	2 copy vpt 270 360 arc closepath fill
	vpt 0 360 arc closepath} bind def
/C9 {BL [] 0 setdash 2 copy moveto
	2 copy vpt 270 450 arc closepath fill
	vpt 0 360 arc closepath} bind def
/C10 {BL [] 0 setdash 2 copy 2 copy moveto vpt 270 360 arc closepath fill
	2 copy moveto
	2 copy vpt 90 180 arc closepath fill
	vpt 0 360 arc closepath} bind def
/C11 {BL [] 0 setdash 2 copy moveto
	2 copy vpt 0 180 arc closepath fill
	2 copy moveto
	2 copy vpt 270 360 arc closepath fill
	vpt 0 360 arc closepath} bind def
/C12 {BL [] 0 setdash 2 copy moveto
	2 copy vpt 180 360 arc closepath fill
	vpt 0 360 arc closepath} bind def
/C13 {BL [] 0 setdash 2 copy moveto
	2 copy vpt 0 90 arc closepath fill
	2 copy moveto
	2 copy vpt 180 360 arc closepath fill
	vpt 0 360 arc closepath} bind def
/C14 {BL [] 0 setdash 2 copy moveto
	2 copy vpt 90 360 arc closepath fill
	vpt 0 360 arc} bind def
/C15 {BL [] 0 setdash 2 copy vpt 0 360 arc closepath fill
	vpt 0 360 arc closepath} bind def
/Rec {newpath 4 2 roll moveto 1 index 0 rlineto 0 exch rlineto
	neg 0 rlineto closepath} bind def
/Square {dup Rec} bind def
/Bsquare {vpt sub exch vpt sub exch vpt2 Square} bind def
/S0 {BL [] 0 setdash 2 copy moveto 0 vpt rlineto BL Bsquare} bind def
/S1 {BL [] 0 setdash 2 copy vpt Square fill Bsquare} bind def
/S2 {BL [] 0 setdash 2 copy exch vpt sub exch vpt Square fill Bsquare} bind def
/S3 {BL [] 0 setdash 2 copy exch vpt sub exch vpt2 vpt Rec fill Bsquare} bind def
/S4 {BL [] 0 setdash 2 copy exch vpt sub exch vpt sub vpt Square fill Bsquare} bind def
/S5 {BL [] 0 setdash 2 copy 2 copy vpt Square fill
	exch vpt sub exch vpt sub vpt Square fill Bsquare} bind def
/S6 {BL [] 0 setdash 2 copy exch vpt sub exch vpt sub vpt vpt2 Rec fill Bsquare} bind def
/S7 {BL [] 0 setdash 2 copy exch vpt sub exch vpt sub vpt vpt2 Rec fill
	2 copy vpt Square fill Bsquare} bind def
/S8 {BL [] 0 setdash 2 copy vpt sub vpt Square fill Bsquare} bind def
/S9 {BL [] 0 setdash 2 copy vpt sub vpt vpt2 Rec fill Bsquare} bind def
/S10 {BL [] 0 setdash 2 copy vpt sub vpt Square fill 2 copy exch vpt sub exch vpt Square fill
	Bsquare} bind def
/S11 {BL [] 0 setdash 2 copy vpt sub vpt Square fill 2 copy exch vpt sub exch vpt2 vpt Rec fill
	Bsquare} bind def
/S12 {BL [] 0 setdash 2 copy exch vpt sub exch vpt sub vpt2 vpt Rec fill Bsquare} bind def
/S13 {BL [] 0 setdash 2 copy exch vpt sub exch vpt sub vpt2 vpt Rec fill
	2 copy vpt Square fill Bsquare} bind def
/S14 {BL [] 0 setdash 2 copy exch vpt sub exch vpt sub vpt2 vpt Rec fill
	2 copy exch vpt sub exch vpt Square fill Bsquare} bind def
/S15 {BL [] 0 setdash 2 copy Bsquare fill Bsquare} bind def
/D0 {gsave translate 45 rotate 0 0 S0 stroke grestore} bind def
/D1 {gsave translate 45 rotate 0 0 S1 stroke grestore} bind def
/D2 {gsave translate 45 rotate 0 0 S2 stroke grestore} bind def
/D3 {gsave translate 45 rotate 0 0 S3 stroke grestore} bind def
/D4 {gsave translate 45 rotate 0 0 S4 stroke grestore} bind def
/D5 {gsave translate 45 rotate 0 0 S5 stroke grestore} bind def
/D6 {gsave translate 45 rotate 0 0 S6 stroke grestore} bind def
/D7 {gsave translate 45 rotate 0 0 S7 stroke grestore} bind def
/D8 {gsave translate 45 rotate 0 0 S8 stroke grestore} bind def
/D9 {gsave translate 45 rotate 0 0 S9 stroke grestore} bind def
/D10 {gsave translate 45 rotate 0 0 S10 stroke grestore} bind def
/D11 {gsave translate 45 rotate 0 0 S11 stroke grestore} bind def
/D12 {gsave translate 45 rotate 0 0 S12 stroke grestore} bind def
/D13 {gsave translate 45 rotate 0 0 S13 stroke grestore} bind def
/D14 {gsave translate 45 rotate 0 0 S14 stroke grestore} bind def
/D15 {gsave translate 45 rotate 0 0 S15 stroke grestore} bind def
/DiaE {stroke [] 0 setdash vpt add M
  hpt neg vpt neg V hpt vpt neg V
  hpt vpt V hpt neg vpt V closepath stroke} def
/BoxE {stroke [] 0 setdash exch hpt sub exch vpt add M
  0 vpt2 neg V hpt2 0 V 0 vpt2 V
  hpt2 neg 0 V closepath stroke} def
/TriUE {stroke [] 0 setdash vpt 1.12 mul add M
  hpt neg vpt -1.62 mul V
  hpt 2 mul 0 V
  hpt neg vpt 1.62 mul V closepath stroke} def
/TriDE {stroke [] 0 setdash vpt 1.12 mul sub M
  hpt neg vpt 1.62 mul V
  hpt 2 mul 0 V
  hpt neg vpt -1.62 mul V closepath stroke} def
/PentE {stroke [] 0 setdash gsave
  translate 0 hpt M 4 {72 rotate 0 hpt L} repeat
  closepath stroke grestore} def
/CircE {stroke [] 0 setdash 
  hpt 0 360 arc stroke} def
/Opaque {gsave closepath 1 setgray fill grestore 0 setgray closepath} def
/DiaW {stroke [] 0 setdash vpt add M
  hpt neg vpt neg V hpt vpt neg V
  hpt vpt V hpt neg vpt V Opaque stroke} def
/BoxW {stroke [] 0 setdash exch hpt sub exch vpt add M
  0 vpt2 neg V hpt2 0 V 0 vpt2 V
  hpt2 neg 0 V Opaque stroke} def
/TriUW {stroke [] 0 setdash vpt 1.12 mul add M
  hpt neg vpt -1.62 mul V
  hpt 2 mul 0 V
  hpt neg vpt 1.62 mul V Opaque stroke} def
/TriDW {stroke [] 0 setdash vpt 1.12 mul sub M
  hpt neg vpt 1.62 mul V
  hpt 2 mul 0 V
  hpt neg vpt -1.62 mul V Opaque stroke} def
/PentW {stroke [] 0 setdash gsave
  translate 0 hpt M 4 {72 rotate 0 hpt L} repeat
  Opaque stroke grestore} def
/CircW {stroke [] 0 setdash 
  hpt 0 360 arc Opaque stroke} def
/BoxFill {gsave Rec 1 setgray fill grestore} def
/Density {
  /Fillden exch def
  currentrgbcolor
  /ColB exch def /ColG exch def /ColR exch def
  /ColR ColR Fillden mul Fillden sub 1 add def
  /ColG ColG Fillden mul Fillden sub 1 add def
  /ColB ColB Fillden mul Fillden sub 1 add def
  ColR ColG ColB setrgbcolor} def
/BoxColFill {gsave Rec PolyFill} def
/PolyFill {gsave Density fill grestore grestore} def
/h {rlineto rlineto rlineto gsave closepath fill grestore} bind def
%
% PostScript Level 1 Pattern Fill routine for rectangles
% Usage: x y w h s a XX PatternFill
%	x,y = lower left corner of box to be filled
%	w,h = width and height of box
%	  a = angle in degrees between lines and x-axis
%	 XX = 0/1 for no/yes cross-hatch
%
/PatternFill {gsave /PFa [ 9 2 roll ] def
  PFa 0 get PFa 2 get 2 div add PFa 1 get PFa 3 get 2 div add translate
  PFa 2 get -2 div PFa 3 get -2 div PFa 2 get PFa 3 get Rec
  gsave 1 setgray fill grestore clip
  currentlinewidth 0.5 mul setlinewidth
  /PFs PFa 2 get dup mul PFa 3 get dup mul add sqrt def
  0 0 M PFa 5 get rotate PFs -2 div dup translate
  0 1 PFs PFa 4 get div 1 add floor cvi
	{PFa 4 get mul 0 M 0 PFs V} for
  0 PFa 6 get ne {
	0 1 PFs PFa 4 get div 1 add floor cvi
	{PFa 4 get mul 0 2 1 roll M PFs 0 V} for
 } if
  stroke grestore} def
%
/languagelevel where
 {pop languagelevel} {1} ifelse
 2 lt
	{/InterpretLevel1 true def}
	{/InterpretLevel1 Level1 def}
 ifelse
%
% PostScript level 2 pattern fill definitions
%
/Level2PatternFill {
/Tile8x8 {/PaintType 2 /PatternType 1 /TilingType 1 /BBox [0 0 8 8] /XStep 8 /YStep 8}
	bind def
/KeepColor {currentrgbcolor [/Pattern /DeviceRGB] setcolorspace} bind def
<< Tile8x8
 /PaintProc {0.5 setlinewidth pop 0 0 M 8 8 L 0 8 M 8 0 L stroke} 
>> matrix makepattern
/Pat1 exch def
<< Tile8x8
 /PaintProc {0.5 setlinewidth pop 0 0 M 8 8 L 0 8 M 8 0 L stroke
	0 4 M 4 8 L 8 4 L 4 0 L 0 4 L stroke}
>> matrix makepattern
/Pat2 exch def
<< Tile8x8
 /PaintProc {0.5 setlinewidth pop 0 0 M 0 8 L
	8 8 L 8 0 L 0 0 L fill}
>> matrix makepattern
/Pat3 exch def
<< Tile8x8
 /PaintProc {0.5 setlinewidth pop -4 8 M 8 -4 L
	0 12 M 12 0 L stroke}
>> matrix makepattern
/Pat4 exch def
<< Tile8x8
 /PaintProc {0.5 setlinewidth pop -4 0 M 8 12 L
	0 -4 M 12 8 L stroke}
>> matrix makepattern
/Pat5 exch def
<< Tile8x8
 /PaintProc {0.5 setlinewidth pop -2 8 M 4 -4 L
	0 12 M 8 -4 L 4 12 M 10 0 L stroke}
>> matrix makepattern
/Pat6 exch def
<< Tile8x8
 /PaintProc {0.5 setlinewidth pop -2 0 M 4 12 L
	0 -4 M 8 12 L 4 -4 M 10 8 L stroke}
>> matrix makepattern
/Pat7 exch def
<< Tile8x8
 /PaintProc {0.5 setlinewidth pop 8 -2 M -4 4 L
	12 0 M -4 8 L 12 4 M 0 10 L stroke}
>> matrix makepattern
/Pat8 exch def
<< Tile8x8
 /PaintProc {0.5 setlinewidth pop 0 -2 M 12 4 L
	-4 0 M 12 8 L -4 4 M 8 10 L stroke}
>> matrix makepattern
/Pat9 exch def
/Pattern1 {PatternBgnd KeepColor Pat1 setpattern} bind def
/Pattern2 {PatternBgnd KeepColor Pat2 setpattern} bind def
/Pattern3 {PatternBgnd KeepColor Pat3 setpattern} bind def
/Pattern4 {PatternBgnd KeepColor Landscape {Pat5} {Pat4} ifelse setpattern} bind def
/Pattern5 {PatternBgnd KeepColor Landscape {Pat4} {Pat5} ifelse setpattern} bind def
/Pattern6 {PatternBgnd KeepColor Landscape {Pat9} {Pat6} ifelse setpattern} bind def
/Pattern7 {PatternBgnd KeepColor Landscape {Pat8} {Pat7} ifelse setpattern} bind def
} def
%
%
%End of PostScript Level 2 code
%
/PatternBgnd {
  TransparentPatterns {} {gsave 1 setgray fill grestore} ifelse
} def
%
% Substitute for Level 2 pattern fill codes with
% grayscale if Level 2 support is not selected.
%
/Level1PatternFill {
/Pattern1 {0.250 Density} bind def
/Pattern2 {0.500 Density} bind def
/Pattern3 {0.750 Density} bind def
/Pattern4 {0.125 Density} bind def
/Pattern5 {0.375 Density} bind def
/Pattern6 {0.625 Density} bind def
/Pattern7 {0.875 Density} bind def
} def
%
% Now test for support of Level 2 code
%
Level1 {Level1PatternFill} {Level2PatternFill} ifelse
%
/Symbol-Oblique /Symbol findfont [1 0 .167 1 0 0] makefont
dup length dict begin {1 index /FID eq {pop pop} {def} ifelse} forall
currentdict end definefont pop
end
%%EndProlog
gnudict begin
gsave
doclip
50 50 translate
0.050 0.050 scale
0 setgray
newpath
(Helvetica) findfont 140 scalefont setfont
1.000 UL
LTb
686 448 M
63 0 V
6198 0 R
-63 0 V
602 448 M
( 20) Rshow
1.000 UL
LTb
686 1001 M
63 0 V
6198 0 R
-63 0 V
-6282 0 R
( 40) Rshow
1.000 UL
LTb
686 1554 M
63 0 V
6198 0 R
-63 0 V
-6282 0 R
( 60) Rshow
1.000 UL
LTb
686 2107 M
63 0 V
6198 0 R
-63 0 V
-6282 0 R
( 80) Rshow
1.000 UL
LTb
686 2660 M
63 0 V
6198 0 R
-63 0 V
-6282 0 R
( 100) Rshow
1.000 UL
LTb
686 3212 M
63 0 V
6198 0 R
-63 0 V
-6282 0 R
( 120) Rshow
1.000 UL
LTb
686 3765 M
63 0 V
6198 0 R
-63 0 V
-6282 0 R
( 140) Rshow
1.000 UL
LTb
686 4318 M
63 0 V
6198 0 R
-63 0 V
-6282 0 R
( 160) Rshow
1.000 UL
LTb
686 4871 M
63 0 V
6198 0 R
-63 0 V
-6282 0 R
( 180) Rshow
1.000 UL
LTb
686 448 M
0 63 V
0 4360 R
0 -63 V
686 308 M
( 0) Cshow
1.000 UL
LTb
1312 448 M
0 63 V
0 4360 R
0 -63 V
0 -4500 R
( 200) Cshow
1.000 UL
LTb
1938 448 M
0 63 V
0 4360 R
0 -63 V
0 -4500 R
( 400) Cshow
1.000 UL
LTb
2564 448 M
0 63 V
0 4360 R
0 -63 V
0 -4500 R
( 600) Cshow
1.000 UL
LTb
3190 448 M
0 63 V
0 4360 R
0 -63 V
0 -4500 R
( 800) Cshow
1.000 UL
LTb
3817 448 M
0 63 V
0 4360 R
0 -63 V
0 -4500 R
( 1000) Cshow
1.000 UL
LTb
4443 448 M
0 63 V
0 4360 R
0 -63 V
0 -4500 R
( 1200) Cshow
1.000 UL
LTb
5069 448 M
0 63 V
0 4360 R
0 -63 V
0 -4500 R
( 1400) Cshow
1.000 UL
LTb
5695 448 M
0 63 V
0 4360 R
0 -63 V
0 -4500 R
( 1600) Cshow
1.000 UL
LTb
6321 448 M
0 63 V
0 4360 R
0 -63 V
0 -4500 R
( 1800) Cshow
1.000 UL
LTb
6947 448 M
0 63 V
0 4360 R
0 -63 V
0 -4500 R
( 2000) Cshow
1.000 UL
LTb
1.000 UL
LTb
686 4871 N
686 448 L
6261 0 V
0 4423 V
-6261 0 V
Z stroke
LCb setrgbcolor
112 2659 M
currentpoint gsave translate -270 rotate 0 0 M
(Number of 8-game trials used to find a successful challenger) Cshow
grestore
LTb
LCb setrgbcolor
3816 98 M
(Generation) Cshow
LTb
1.000 UP
1.000 UL
LTb
% Begin plot #1
1.000 UP
1.000 UL
LT0
LCb setrgbcolor
6296 4738 M
(HC-minigammon) Rshow
LT0
686 608 Pls
689 1247 Pls
692 653 Pls
695 1001 Pls
699 863 Pls
702 843 Pls
705 1750 Pls
708 608 Pls
711 1451 Pls
714 2245 Pls
717 1092 Pls
720 1064 Pls
724 794 Pls
727 1134 Pls
730 2322 Pls
733 1664 Pls
736 904 Pls
739 1360 Pls
742 462 Pls
745 918 Pls
749 1244 Pls
752 1731 Pls
755 1590 Pls
758 1322 Pls
761 976 Pls
764 1916 Pls
767 1029 Pls
771 2742 Pls
774 1316 Pls
777 4382 Pls
780 1416 Pls
783 3284 Pls
786 1277 Pls
789 1789 Pls
792 2242 Pls
796 2339 Pls
799 2519 Pls
802 1059 Pls
805 2176 Pls
808 3337 Pls
811 2624 Pls
814 1330 Pls
817 1883 Pls
821 1885 Pls
824 1172 Pls
827 1463 Pls
830 1651 Pls
833 741 Pls
836 2336 Pls
839 879 Pls
843 970 Pls
846 2875 Pls
849 1357 Pls
852 1352 Pls
855 1460 Pls
858 2914 Pls
861 2225 Pls
864 1642 Pls
868 2046 Pls
871 1557 Pls
874 1885 Pls
877 1106 Pls
880 1767 Pls
883 2419 Pls
886 2447 Pls
889 1532 Pls
893 1673 Pls
896 1236 Pls
899 1957 Pls
902 2239 Pls
905 1073 Pls
908 2038 Pls
911 1554 Pls
915 2903 Pls
918 1775 Pls
921 2839 Pls
924 2850 Pls
927 1501 Pls
930 1573 Pls
933 2861 Pls
936 1175 Pls
940 2460 Pls
943 2184 Pls
946 2394 Pls
949 2134 Pls
952 827 Pls
955 2082 Pls
958 2317 Pls
961 1941 Pls
965 3525 Pls
968 1634 Pls
971 2878 Pls
974 3381 Pls
977 2872 Pls
980 2317 Pls
983 3660 Pls
987 2455 Pls
990 2347 Pls
993 1418 Pls
996 2046 Pls
999 3428 Pls
1002 2975 Pls
1005 1930 Pls
1008 3251 Pls
1012 2355 Pls
1015 2405 Pls
1018 2140 Pls
1021 1277 Pls
1024 1576 Pls
1027 3273 Pls
1030 3105 Pls
1033 2256 Pls
1037 1540 Pls
1040 2485 Pls
1043 2051 Pls
1046 3768 Pls
1049 2317 Pls
1052 2419 Pls
1055 4791 Pls
1059 2831 Pls
1062 1700 Pls
1065 1651 Pls
1068 3525 Pls
1071 2073 Pls
1074 4221 Pls
1077 4266 Pls
1080 1606 Pls
1084 3378 Pls
1087 2789 Pls
1090 1930 Pls
1093 2040 Pls
1096 1991 Pls
1099 1814 Pls
1102 1838 Pls
1105 3635 Pls
1109 2759 Pls
1112 2032 Pls
1115 2961 Pls
1118 1888 Pls
1121 987 Pls
1124 4191 Pls
1127 2270 Pls
1131 2411 Pls
1134 2043 Pls
1137 3259 Pls
1140 3024 Pls
1143 2613 Pls
1146 1979 Pls
1149 2112 Pls
1152 1485 Pls
1156 4069 Pls
1159 3464 Pls
1162 2046 Pls
1165 3950 Pls
1168 1944 Pls
1171 1416 Pls
1174 1803 Pls
1177 2154 Pls
1181 1239 Pls
1184 2980 Pls
1187 1299 Pls
1190 1902 Pls
1193 3085 Pls
1196 3138 Pls
1199 2712 Pls
1203 2806 Pls
1206 2295 Pls
1209 1584 Pls
1212 2488 Pls
1215 1515 Pls
1218 1993 Pls
1221 1250 Pls
1224 1592 Pls
1228 2444 Pls
1231 1377 Pls
1234 1946 Pls
1237 1244 Pls
1240 1725 Pls
1243 1791 Pls
1246 1615 Pls
1249 1604 Pls
1253 2894 Pls
1256 2242 Pls
1259 791 Pls
1262 1181 Pls
1265 2524 Pls
1268 2546 Pls
1271 2416 Pls
1275 1291 Pls
1278 1905 Pls
1281 2209 Pls
1284 697 Pls
1287 2892 Pls
1290 1932 Pls
1293 2579 Pls
1296 2582 Pls
1300 2098 Pls
1303 1935 Pls
1306 4053 Pls
1309 1794 Pls
1312 3616 Pls
1315 3071 Pls
1318 2375 Pls
1321 2115 Pls
1325 1656 Pls
1328 1551 Pls
1331 2358 Pls
1334 2494 Pls
1337 1786 Pls
1340 2494 Pls
1343 2488 Pls
1347 2405 Pls
1350 2546 Pls
1353 1363 Pls
1356 1100 Pls
1359 1496 Pls
1362 2314 Pls
1365 2803 Pls
1368 2762 Pls
1372 1637 Pls
1375 2339 Pls
1378 2765 Pls
1381 3290 Pls
1384 1410 Pls
1387 1241 Pls
1390 2991 Pls
1393 3179 Pls
1397 2671 Pls
1400 1197 Pls
1403 882 Pls
1406 1855 Pls
1409 2626 Pls
1412 2101 Pls
1415 2615 Pls
1419 2601 Pls
1422 1280 Pls
1425 2151 Pls
1428 1410 Pls
1431 2286 Pls
1434 3356 Pls
1437 2361 Pls
1440 3223 Pls
1444 1753 Pls
1447 2988 Pls
1450 2610 Pls
1453 3027 Pls
1456 1634 Pls
1459 2554 Pls
1462 2245 Pls
1465 1659 Pls
1469 2823 Pls
1472 2098 Pls
1475 2875 Pls
1478 2530 Pls
1481 962 Pls
1484 2452 Pls
1487 1822 Pls
1491 2773 Pls
1494 1377 Pls
1497 4020 Pls
1500 1905 Pls
1503 1659 Pls
1506 1684 Pls
1509 2190 Pls
1512 3304 Pls
1516 1451 Pls
1519 2049 Pls
1522 1725 Pls
1525 2496 Pls
1528 1548 Pls
1531 1294 Pls
1534 2286 Pls
1537 1164 Pls
1541 3002 Pls
1544 2007 Pls
1547 1540 Pls
1550 2018 Pls
1553 1529 Pls
1556 1968 Pls
1559 1482 Pls
1563 2859 Pls
1566 2621 Pls
1569 1145 Pls
1572 1460 Pls
1575 2532 Pls
1578 4346 Pls
1581 2742 Pls
1584 1363 Pls
1588 1595 Pls
1591 2405 Pls
1594 1758 Pls
1597 1816 Pls
1600 1659 Pls
1603 1161 Pls
1606 1194 Pls
1609 2306 Pls
1613 755 Pls
1616 487 Pls
1619 1305 Pls
1622 3149 Pls
1625 2383 Pls
1628 1277 Pls
1631 3320 Pls
1635 1822 Pls
1638 3088 Pls
1641 1410 Pls
1644 2123 Pls
1647 2375 Pls
1650 1098 Pls
1653 1615 Pls
1656 1822 Pls
1660 2156 Pls
1663 2253 Pls
1666 1944 Pls
1669 2143 Pls
1672 1888 Pls
1675 3345 Pls
1678 1949 Pls
1681 2101 Pls
1685 2278 Pls
1688 849 Pls
1691 2566 Pls
1694 2928 Pls
1697 3196 Pls
1700 1109 Pls
1703 1172 Pls
1707 2532 Pls
1710 1717 Pls
1713 2624 Pls
1716 2259 Pls
1719 1814 Pls
1722 1081 Pls
1725 1341 Pls
1728 1783 Pls
1732 1966 Pls
1735 1424 Pls
1738 821 Pls
1741 2682 Pls
1744 1203 Pls
1747 1584 Pls
1750 1504 Pls
1754 1266 Pls
1757 2519 Pls
1760 1996 Pls
1763 1485 Pls
1766 2541 Pls
1769 2129 Pls
1772 1167 Pls
1775 882 Pls
1779 1255 Pls
1782 2480 Pls
1785 1518 Pls
1788 1678 Pls
1791 1565 Pls
1794 2422 Pls
1797 1380 Pls
1800 2051 Pls
1804 1960 Pls
1807 1949 Pls
1810 915 Pls
1813 2386 Pls
1816 2684 Pls
1819 1410 Pls
1822 2134 Pls
1826 1388 Pls
1829 1020 Pls
1832 1601 Pls
1835 2519 Pls
1838 2389 Pls
1841 1919 Pls
1844 1850 Pls
1847 1662 Pls
1851 1543 Pls
1854 2560 Pls
1857 2237 Pls
1860 2054 Pls
1863 2145 Pls
1866 1537 Pls
1869 1783 Pls
1872 1200 Pls
1876 1208 Pls
1879 1255 Pls
1882 1664 Pls
1885 2049 Pls
1888 1410 Pls
1891 2530 Pls
1894 2800 Pls
1898 1529 Pls
1901 1523 Pls
1904 2032 Pls
1907 2126 Pls
1910 1216 Pls
1913 1562 Pls
1916 2275 Pls
1919 755 Pls
1923 1816 Pls
1926 1993 Pls
1929 1570 Pls
1932 1949 Pls
1935 1733 Pls
1938 2488 Pls
1941 1145 Pls
1944 2358 Pls
1948 899 Pls
1951 3417 Pls
1954 1557 Pls
1957 1053 Pls
1960 1294 Pls
1963 1170 Pls
1966 2740 Pls
1970 1949 Pls
1973 1714 Pls
1976 959 Pls
1979 2054 Pls
1982 2040 Pls
1985 1888 Pls
1988 1601 Pls
1991 2339 Pls
1995 1310 Pls
1998 2062 Pls
2001 1451 Pls
2004 1584 Pls
2007 1106 Pls
2010 940 Pls
2013 2413 Pls
2016 2353 Pls
2020 2038 Pls
2023 1681 Pls
2026 2397 Pls
2029 2474 Pls
2032 1932 Pls
2035 1460 Pls
2038 1747 Pls
2042 1454 Pls
2045 1988 Pls
2048 2383 Pls
2051 644 Pls
2054 1338 Pls
2057 1689 Pls
2060 1084 Pls
2063 1874 Pls
2067 1637 Pls
2070 1451 Pls
2073 1731 Pls
2076 2065 Pls
2079 1098 Pls
2082 2151 Pls
2085 2057 Pls
2088 1407 Pls
2092 2588 Pls
2095 1902 Pls
2098 2640 Pls
2101 1952 Pls
2104 2071 Pls
2107 1814 Pls
2110 2386 Pls
2114 2339 Pls
2117 2726 Pls
2120 2181 Pls
2123 1294 Pls
2126 4337 Pls
2129 1684 Pls
2132 1866 Pls
2135 2549 Pls
2139 2234 Pls
2142 2040 Pls
2145 2024 Pls
2148 1675 Pls
2151 2181 Pls
2154 1537 Pls
2157 1084 Pls
2160 1639 Pls
2164 741 Pls
2167 1673 Pls
2170 1438 Pls
2173 943 Pls
2176 2372 Pls
2179 1971 Pls
2182 1739 Pls
2186 1761 Pls
2189 1847 Pls
2192 1778 Pls
2195 2165 Pls
2198 1850 Pls
2201 1421 Pls
2204 1200 Pls
2207 2405 Pls
2211 2013 Pls
2214 2256 Pls
2217 912 Pls
2220 1416 Pls
2223 2187 Pls
2226 1410 Pls
2229 2350 Pls
2232 1095 Pls
2236 1905 Pls
2239 1615 Pls
2242 1446 Pls
2245 2787 Pls
2248 1910 Pls
2251 1460 Pls
2254 1219 Pls
2258 1863 Pls
2261 1153 Pls
2264 1512 Pls
2267 1780 Pls
2270 1355 Pls
2273 1626 Pls
2276 1410 Pls
2279 2425 Pls
2283 2148 Pls
2286 1203 Pls
2289 993 Pls
2292 1443 Pls
2295 1877 Pls
2298 1991 Pls
2301 1761 Pls
2304 2046 Pls
2308 2579 Pls
2311 1142 Pls
2314 1949 Pls
2317 1518 Pls
2320 1460 Pls
2323 1465 Pls
2326 2010 Pls
2330 1463 Pls
2333 2242 Pls
2336 1482 Pls
2339 990 Pls
2342 1042 Pls
2345 1847 Pls
2348 1532 Pls
2351 1767 Pls
2355 1769 Pls
2358 2021 Pls
2361 2068 Pls
2364 1170 Pls
2367 1330 Pls
2370 3445 Pls
2373 1023 Pls
2376 1507 Pls
2380 3221 Pls
2383 1935 Pls
2386 2137 Pls
2389 2275 Pls
2392 2601 Pls
2395 1681 Pls
2398 1432 Pls
2402 2126 Pls
2405 2015 Pls
2408 2889 Pls
2411 3071 Pls
2414 1017 Pls
2417 1609 Pls
2420 575 Pls
2423 1944 Pls
2427 1604 Pls
2430 2308 Pls
2433 1493 Pls
2436 976 Pls
2439 1709 Pls
2442 3160 Pls
2445 2029 Pls
2448 1355 Pls
2452 1803 Pls
2455 1966 Pls
2458 1662 Pls
2461 890 Pls
2464 1117 Pls
2467 1955 Pls
2470 1435 Pls
2474 1134 Pls
2477 1662 Pls
2480 1675 Pls
2483 1844 Pls
2486 1377 Pls
2489 1722 Pls
2492 3478 Pls
2495 1468 Pls
2499 1374 Pls
2502 1908 Pls
2505 1971 Pls
2508 2217 Pls
2511 1396 Pls
2514 1717 Pls
2517 1421 Pls
2520 1697 Pls
2524 2308 Pls
2527 1684 Pls
2530 2085 Pls
2533 1208 Pls
2536 2765 Pls
2539 1744 Pls
2542 2049 Pls
2546 854 Pls
2549 1592 Pls
2552 556 Pls
2555 564 Pls
2558 1960 Pls
2561 2380 Pls
2564 1150 Pls
2567 2762 Pls
2571 1510 Pls
2574 1515 Pls
2577 2303 Pls
2580 1695 Pls
2583 1454 Pls
2586 2289 Pls
2589 1686 Pls
2592 1316 Pls
2596 1117 Pls
2599 614 Pls
2602 2881 Pls
2605 2173 Pls
2608 1269 Pls
2611 1670 Pls
2614 1949 Pls
2618 1722 Pls
2621 1106 Pls
2624 2502 Pls
2627 2624 Pls
2630 1211 Pls
2633 1827 Pls
2636 1720 Pls
2639 1974 Pls
2643 2043 Pls
2646 2682 Pls
2649 2549 Pls
2652 1435 Pls
2655 1930 Pls
2658 2394 Pls
2661 1009 Pls
2664 2173 Pls
2668 525 Pls
2671 1167 Pls
2674 1205 Pls
2677 2427 Pls
2680 1098 Pls
2683 1551 Pls
2686 1316 Pls
2690 1714 Pls
2693 1667 Pls
2696 1446 Pls
2699 1454 Pls
2702 2322 Pls
2705 3066 Pls
2708 2015 Pls
2711 2087 Pls
2715 1416 Pls
2718 2709 Pls
2721 1145 Pls
2724 2021 Pls
2727 1335 Pls
2730 1800 Pls
2733 2322 Pls
2736 1606 Pls
2740 2267 Pls
2743 818 Pls
2746 2093 Pls
2749 2527 Pls
2752 2140 Pls
2755 1675 Pls
2758 843 Pls
2762 2212 Pls
2765 2648 Pls
2768 1695 Pls
2771 2665 Pls
2774 951 Pls
2777 946 Pls
2780 1974 Pls
2783 1974 Pls
2787 2494 Pls
2790 1551 Pls
2793 625 Pls
2796 1573 Pls
2799 1269 Pls
2802 1944 Pls
2805 1333 Pls
2808 968 Pls
2812 1866 Pls
2815 2109 Pls
2818 1908 Pls
2821 1587 Pls
2824 1081 Pls
2827 1485 Pls
2830 1960 Pls
2834 1084 Pls
2837 1393 Pls
2840 1709 Pls
2843 2530 Pls
2846 1684 Pls
2849 1858 Pls
2852 760 Pls
2855 1554 Pls
2859 1894 Pls
2862 1183 Pls
2865 2239 Pls
2868 1344 Pls
2871 1664 Pls
2874 630 Pls
2877 2281 Pls
2880 1626 Pls
2884 1706 Pls
2887 2563 Pls
2890 1404 Pls
2893 1532 Pls
2896 2582 Pls
2899 1847 Pls
2902 1255 Pls
2906 1233 Pls
2909 1429 Pls
2912 1897 Pls
2915 1684 Pls
2918 2347 Pls
2921 1941 Pls
2924 1769 Pls
2927 1369 Pls
2931 1675 Pls
2934 1709 Pls
2937 1393 Pls
2940 2223 Pls
2943 2488 Pls
2946 2521 Pls
2949 1733 Pls
2952 1283 Pls
2956 702 Pls
2959 1620 Pls
2962 979 Pls
2965 1241 Pls
2968 907 Pls
2971 1120 Pls
2974 1722 Pls
2978 2745 Pls
2981 987 Pls
2984 1164 Pls
2987 650 Pls
2990 1474 Pls
2993 1377 Pls
2996 1322 Pls
2999 2378 Pls
3003 1222 Pls
3006 2201 Pls
3009 752 Pls
3012 1377 Pls
3015 1518 Pls
3018 1203 Pls
3021 1236 Pls
3024 1197 Pls
3028 1800 Pls
3031 1847 Pls
3034 1269 Pls
3037 1026 Pls
3040 1095 Pls
3043 1275 Pls
3046 719 Pls
3050 1543 Pls
3053 2778 Pls
3056 2057 Pls
3059 1178 Pls
3062 1894 Pls
3065 1424 Pls
3068 1346 Pls
3071 2405 Pls
3075 1537 Pls
3078 1369 Pls
3081 1626 Pls
3084 2002 Pls
3087 2057 Pls
3090 1286 Pls
3093 1590 Pls
3096 647 Pls
3100 1076 Pls
3103 1532 Pls
3106 1399 Pls
3109 1858 Pls
3112 2004 Pls
3115 1073 Pls
3118 1631 Pls
3122 1811 Pls
3125 2411 Pls
3128 1037 Pls
3131 2004 Pls
3134 2358 Pls
3137 2082 Pls
3140 1648 Pls
3143 1825 Pls
3147 2154 Pls
3150 2378 Pls
3153 1369 Pls
3156 1051 Pls
3159 2734 Pls
3162 2156 Pls
3165 1529 Pls
3168 1465 Pls
3172 2657 Pls
3175 1031 Pls
3178 1703 Pls
3181 1114 Pls
3184 3834 Pls
3187 2035 Pls
3190 1507 Pls
3194 1789 Pls
3197 2513 Pls
3200 1288 Pls
3203 1203 Pls
3206 630 Pls
3209 1543 Pls
3212 1407 Pls
3215 1670 Pls
3219 1728 Pls
3222 1902 Pls
3225 824 Pls
3228 935 Pls
3231 1385 Pls
3234 2759 Pls
3237 1863 Pls
3240 1006 Pls
3244 990 Pls
3247 1645 Pls
3250 1333 Pls
3253 1966 Pls
3256 1775 Pls
3259 2225 Pls
3262 1941 Pls
3266 1673 Pls
3269 1543 Pls
3272 1493 Pls
3275 1205 Pls
3278 1125 Pls
3281 2115 Pls
3284 1114 Pls
3287 2386 Pls
3291 1355 Pls
3294 650 Pls
3297 1346 Pls
3300 1728 Pls
3303 1100 Pls
3306 1244 Pls
3309 1731 Pls
3312 2231 Pls
3316 2126 Pls
3319 1139 Pls
3322 1194 Pls
3325 957 Pls
3328 1924 Pls
3331 1537 Pls
3334 1219 Pls
3338 1720 Pls
3341 2557 Pls
3344 2098 Pls
3347 1681 Pls
3350 2192 Pls
3353 700 Pls
3356 1258 Pls
3359 1040 Pls
3363 1427 Pls
3366 910 Pls
3369 1280 Pls
3372 2032 Pls
3375 1269 Pls
3378 832 Pls
3381 1216 Pls
3384 1620 Pls
3388 611 Pls
3391 1833 Pls
3394 1349 Pls
3397 1266 Pls
3400 1078 Pls
3403 1435 Pls
3406 2480 Pls
3410 1277 Pls
3413 1269 Pls
3416 1568 Pls
3419 1960 Pls
3422 1899 Pls
3425 1579 Pls
3428 1772 Pls
3431 1117 Pls
3435 2245 Pls
3438 2933 Pls
3441 990 Pls
3444 1197 Pls
3447 664 Pls
3450 1186 Pls
3453 1247 Pls
3456 1145 Pls
3460 3138 Pls
3463 2306 Pls
3466 1451 Pls
3469 1852 Pls
3472 2378 Pls
3475 1288 Pls
3478 741 Pls
3482 3787 Pls
3485 1761 Pls
3488 1440 Pls
3491 1651 Pls
3494 1322 Pls
3497 2748 Pls
3500 1523 Pls
3503 1709 Pls
3507 1786 Pls
3510 2071 Pls
3513 2336 Pls
3516 1468 Pls
3519 1269 Pls
3522 940 Pls
3525 1963 Pls
3528 1780 Pls
3532 536 Pls
3535 1570 Pls
3538 1029 Pls
3541 1476 Pls
3544 1487 Pls
3547 1454 Pls
3550 1985 Pls
3554 2038 Pls
3557 1048 Pls
3560 1015 Pls
3563 1471 Pls
3566 1308 Pls
3569 1617 Pls
3572 959 Pls
3575 1012 Pls
3579 1211 Pls
3582 1919 Pls
3585 1366 Pls
3588 785 Pls
3591 2375 Pls
3594 2148 Pls
3597 1999 Pls
3600 1673 Pls
3604 3168 Pls
3607 680 Pls
3610 1385 Pls
3613 1897 Pls
3616 2013 Pls
3619 1391 Pls
3622 1681 Pls
3626 2532 Pls
3629 2604 Pls
3632 1299 Pls
3635 1684 Pls
3638 970 Pls
3641 1584 Pls
3644 1534 Pls
3647 841 Pls
3651 1554 Pls
3654 1474 Pls
3657 1269 Pls
3660 1410 Pls
3663 1744 Pls
3666 1244 Pls
3669 868 Pls
3672 1601 Pls
3676 1280 Pls
3679 2671 Pls
3682 1847 Pls
3685 3171 Pls
3688 1487 Pls
3691 1916 Pls
3694 1609 Pls
3698 1803 Pls
3701 2684 Pls
3704 1515 Pls
3707 1120 Pls
3710 1562 Pls
3713 1051 Pls
3716 1822 Pls
3719 1568 Pls
3723 1476 Pls
3726 1465 Pls
3729 1808 Pls
3732 1275 Pls
3735 1410 Pls
3738 719 Pls
3741 998 Pls
3744 3544 Pls
3748 1230 Pls
3751 1463 Pls
3754 655 Pls
3757 2151 Pls
3760 2156 Pls
3763 2745 Pls
3766 1236 Pls
3770 1363 Pls
3773 1620 Pls
3776 821 Pls
3779 1305 Pls
3782 1338 Pls
3785 1615 Pls
3788 1852 Pls
3791 796 Pls
3795 1714 Pls
3798 1150 Pls
3801 2134 Pls
3804 1399 Pls
3807 1081 Pls
3810 1288 Pls
3813 2073 Pls
3817 2322 Pls
3820 1440 Pls
3823 1852 Pls
3826 1263 Pls
3829 2436 Pls
3832 921 Pls
3835 1568 Pls
3838 1587 Pls
3842 3000 Pls
3845 2455 Pls
3848 760 Pls
3851 1266 Pls
3854 3091 Pls
3857 1963 Pls
3860 1029 Pls
3863 926 Pls
3867 1139 Pls
3870 2856 Pls
3873 1855 Pls
3876 846 Pls
3879 1706 Pls
3882 1214 Pls
3885 2112 Pls
3889 2148 Pls
3892 1493 Pls
3895 1985 Pls
3898 2936 Pls
3901 1291 Pls
3904 727 Pls
3907 1952 Pls
3910 1744 Pls
3914 1581 Pls
3917 1095 Pls
3920 1449 Pls
3923 1418 Pls
3926 1026 Pls
3929 1070 Pls
3932 863 Pls
3935 863 Pls
3939 1291 Pls
3942 1722 Pls
3945 2068 Pls
3948 2093 Pls
3951 1161 Pls
3954 1181 Pls
3957 1272 Pls
3961 1700 Pls
3964 1382 Pls
3967 1421 Pls
3970 2043 Pls
3973 1921 Pls
3976 1233 Pls
3979 2225 Pls
3982 2137 Pls
3986 899 Pls
3989 2187 Pls
3992 2181 Pls
3995 1067 Pls
3998 926 Pls
4001 774 Pls
4004 1432 Pls
4007 1838 Pls
4011 655 Pls
4014 1410 Pls
4017 1388 Pls
4020 1800 Pls
4023 2242 Pls
4026 1667 Pls
4029 2524 Pls
4033 749 Pls
4036 1789 Pls
4039 1573 Pls
4042 973 Pls
4045 1913 Pls
4048 642 Pls
4051 1263 Pls
4054 1501 Pls
4058 1360 Pls
4061 2792 Pls
4064 1769 Pls
4067 1769 Pls
4070 1084 Pls
4073 1479 Pls
4076 1852 Pls
4079 1247 Pls
4083 1916 Pls
4086 1800 Pls
4089 1720 Pls
4092 1700 Pls
4095 1609 Pls
4098 1977 Pls
4101 2729 Pls
4105 1847 Pls
4108 2046 Pls
4111 763 Pls
4114 854 Pls
4117 1211 Pls
4120 984 Pls
4123 2560 Pls
4126 2436 Pls
4130 2538 Pls
4133 2466 Pls
4136 1308 Pls
4139 1877 Pls
4142 780 Pls
4145 1653 Pls
4148 1695 Pls
4151 1485 Pls
4155 1559 Pls
4158 1612 Pls
4161 1142 Pls
4164 1675 Pls
4167 1797 Pls
4170 2350 Pls
4173 1042 Pls
4177 1935 Pls
4180 2154 Pls
4183 1369 Pls
4186 1697 Pls
4189 1728 Pls
4192 1474 Pls
4195 2311 Pls
4198 918 Pls
4202 1617 Pls
4205 3622 Pls
4208 1955 Pls
4211 1767 Pls
4214 1073 Pls
4217 1327 Pls
4220 1675 Pls
4223 1510 Pls
4227 1064 Pls
4230 1971 Pls
4233 1968 Pls
4236 1908 Pls
4239 1031 Pls
4242 1786 Pls
4245 1200 Pls
4249 2380 Pls
4252 1568 Pls
4255 1399 Pls
4258 1380 Pls
4261 1125 Pls
4264 1460 Pls
4267 1916 Pls
4270 752 Pls
4274 1471 Pls
4277 2015 Pls
4280 910 Pls
4283 993 Pls
4286 1087 Pls
4289 982 Pls
4292 630 Pls
4295 2228 Pls
4299 1449 Pls
4302 1266 Pls
4305 1114 Pls
4308 1830 Pls
4311 1283 Pls
4314 2259 Pls
4317 1504 Pls
4321 1377 Pls
4324 1808 Pls
4327 1283 Pls
4330 2046 Pls
4333 1825 Pls
4336 2331 Pls
4339 1302 Pls
4342 1087 Pls
4346 1604 Pls
4349 2389 Pls
4352 1076 Pls
4355 1380 Pls
4358 2438 Pls
4361 711 Pls
4364 2651 Pls
4367 1711 Pls
4371 1391 Pls
4374 2579 Pls
4377 2190 Pls
4380 2496 Pls
4383 1656 Pls
4386 1147 Pls
4389 597 Pls
4393 1623 Pls
4396 1703 Pls
4399 1208 Pls
4402 1136 Pls
4405 1883 Pls
4408 1427 Pls
4411 807 Pls
4414 1501 Pls
4418 1761 Pls
4421 868 Pls
4424 2325 Pls
4427 1214 Pls
4430 2029 Pls
4433 1739 Pls
4436 1399 Pls
4439 816 Pls
4443 2361 Pls
4446 2242 Pls
4449 2024 Pls
4452 1991 Pls
4455 1360 Pls
4458 1288 Pls
4461 2933 Pls
4465 1302 Pls
4468 1797 Pls
4471 948 Pls
4474 899 Pls
4477 1814 Pls
4480 1791 Pls
4483 1449 Pls
4486 2018 Pls
4490 722 Pls
4493 1051 Pls
4496 1156 Pls
4499 1216 Pls
4502 1938 Pls
4505 1175 Pls
4508 1045 Pls
4511 1515 Pls
4515 689 Pls
4518 937 Pls
4521 1742 Pls
4524 1474 Pls
4527 1283 Pls
4530 2870 Pls
4533 1985 Pls
4537 1006 Pls
4540 1460 Pls
4543 1034 Pls
4546 1761 Pls
4549 1750 Pls
4552 827 Pls
4555 2447 Pls
4558 1681 Pls
4562 2090 Pls
4565 1548 Pls
4568 2361 Pls
4571 1413 Pls
4574 2082 Pls
4577 1070 Pls
4580 2173 Pls
4583 2314 Pls
4587 2751 Pls
4590 1686 Pls
4593 1280 Pls
4596 1407 Pls
4599 852 Pls
4602 1507 Pls
4605 1783 Pls
4609 912 Pls
4612 1548 Pls
4615 1153 Pls
4618 1620 Pls
4621 1435 Pls
4624 1601 Pls
4627 2148 Pls
4630 1913 Pls
4634 1587 Pls
4637 1767 Pls
4640 1192 Pls
4643 1117 Pls
4646 1402 Pls
4649 1009 Pls
4652 1501 Pls
4655 998 Pls
4659 1153 Pls
4662 686 Pls
4665 1584 Pls
4668 752 Pls
4671 915 Pls
4674 1211 Pls
4677 1305 Pls
4681 1490 Pls
4684 1178 Pls
4687 1040 Pls
4690 802 Pls
4693 987 Pls
4696 1261 Pls
4699 1214 Pls
4702 1559 Pls
4706 2980 Pls
4709 1523 Pls
4712 2452 Pls
4715 1620 Pls
4718 1540 Pls
4721 1626 Pls
4724 1471 Pls
4727 1250 Pls
4731 2834 Pls
4734 1374 Pls
4737 1518 Pls
4740 1081 Pls
4743 2378 Pls
4746 1283 Pls
4749 879 Pls
4753 1344 Pls
4756 1778 Pls
4759 1416 Pls
4762 1626 Pls
4765 1228 Pls
4768 1211 Pls
4771 1858 Pls
4774 1872 Pls
4778 1474 Pls
4781 1733 Pls
4784 2032 Pls
4787 1891 Pls
4790 1825 Pls
4793 2062 Pls
4796 1048 Pls
4799 1454 Pls
4803 2383 Pls
4806 1767 Pls
4809 1363 Pls
4812 1612 Pls
4815 1838 Pls
4818 1557 Pls
4821 1385 Pls
4825 1244 Pls
4828 1913 Pls
4831 2085 Pls
4834 1493 Pls
4837 1219 Pls
4840 948 Pls
4843 923 Pls
4846 1244 Pls
4850 1684 Pls
4853 2447 Pls
4856 1172 Pls
4859 1584 Pls
4862 1534 Pls
4865 968 Pls
4868 1548 Pls
4871 2657 Pls
4875 1709 Pls
4878 2477 Pls
4881 1714 Pls
4884 2145 Pls
4887 700 Pls
4890 1728 Pls
4893 1128 Pls
4897 1280 Pls
4900 1496 Pls
4903 2118 Pls
4906 1888 Pls
4909 2018 Pls
4912 1029 Pls
4915 896 Pls
4918 1844 Pls
4922 1731 Pls
4925 1366 Pls
4928 694 Pls
4931 1333 Pls
4934 2010 Pls
4937 1291 Pls
4940 832 Pls
4943 1836 Pls
4947 2618 Pls
4950 1548 Pls
4953 1457 Pls
4956 647 Pls
4959 1753 Pls
4962 2344 Pls
4965 1468 Pls
4969 1736 Pls
4972 2881 Pls
4975 2563 Pls
4978 1532 Pls
4981 1363 Pls
4984 1902 Pls
4987 1841 Pls
4990 1706 Pls
4994 1051 Pls
4997 1045 Pls
5000 1847 Pls
5003 1048 Pls
5006 1880 Pls
5009 1322 Pls
5012 1673 Pls
5015 874 Pls
5019 2549 Pls
5022 1313 Pls
5025 1612 Pls
5028 1894 Pls
5031 1156 Pls
5034 1833 Pls
5037 2292 Pls
5041 1181 Pls
5044 2485 Pls
5047 2499 Pls
5050 2049 Pls
5053 2731 Pls
5056 1747 Pls
5059 1744 Pls
5062 2281 Pls
5066 1020 Pls
5069 1139 Pls
5072 1291 Pls
5075 570 Pls
5078 1006 Pls
5081 1261 Pls
5084 1357 Pls
5087 2455 Pls
5091 1040 Pls
5094 1885 Pls
5097 2460 Pls
5100 2731 Pls
5103 1393 Pls
5106 1020 Pls
5109 2159 Pls
5113 2303 Pls
5116 1620 Pls
5119 2527 Pls
5122 874 Pls
5125 1634 Pls
5128 1913 Pls
5131 1142 Pls
5134 2723 Pls
5138 841 Pls
5141 874 Pls
5144 1346 Pls
5147 1244 Pls
5150 1515 Pls
5153 1443 Pls
5156 1316 Pls
5159 1924 Pls
5163 854 Pls
5166 782 Pls
5169 1308 Pls
5172 1684 Pls
5175 1200 Pls
5178 2073 Pls
5181 1720 Pls
5185 1651 Pls
5188 1056 Pls
5191 1626 Pls
5194 2618 Pls
5197 1850 Pls
5200 1706 Pls
5203 2477 Pls
5206 1960 Pls
5210 2491 Pls
5213 1825 Pls
5216 2339 Pls
5219 1344 Pls
5222 2488 Pls
5225 1932 Pls
5228 1117 Pls
5231 816 Pls
5235 907 Pls
5238 1971 Pls
5241 1324 Pls
5244 2413 Pls
5247 1479 Pls
5250 1192 Pls
5253 1850 Pls
5257 2621 Pls
5260 1816 Pls
5263 3035 Pls
5266 677 Pls
5269 2126 Pls
5272 2250 Pls
5275 1239 Pls
5278 1236 Pls
5282 1241 Pls
5285 1393 Pls
5288 1695 Pls
5291 1692 Pls
5294 2154 Pls
5297 1053 Pls
5300 1877 Pls
5303 2554 Pls
5307 824 Pls
5310 1656 Pls
5313 4484 Pls
5316 2201 Pls
5319 923 Pls
5322 1739 Pls
5325 1089 Pls
5329 1930 Pls
5332 1153 Pls
5335 1673 Pls
5338 874 Pls
5341 1128 Pls
5344 2132 Pls
5347 716 Pls
5350 1874 Pls
5354 2571 Pls
5357 2148 Pls
5360 1885 Pls
5363 1460 Pls
5366 1963 Pls
5369 1725 Pls
5372 1299 Pls
5375 1170 Pls
5379 2789 Pls
5382 1554 Pls
5385 1440 Pls
5388 2104 Pls
5391 669 Pls
5394 2137 Pls
5397 841 Pls
5401 1863 Pls
5404 1335 Pls
5407 1899 Pls
5410 1722 Pls
5413 1761 Pls
5416 843 Pls
5419 1587 Pls
5422 2549 Pls
5426 1778 Pls
5429 2109 Pls
5432 1532 Pls
5435 2657 Pls
5438 1703 Pls
5441 1664 Pls
5444 1449 Pls
5447 2519 Pls
5451 1147 Pls
5454 890 Pls
5457 2068 Pls
5460 1172 Pls
5463 1595 Pls
5466 2245 Pls
5469 730 Pls
5473 2297 Pls
5476 1617 Pls
5479 1357 Pls
5482 1313 Pls
5485 1850 Pls
5488 2212 Pls
5491 1230 Pls
5494 2087 Pls
5498 2593 Pls
5501 998 Pls
5504 2120 Pls
5507 2076 Pls
5510 984 Pls
5513 1562 Pls
5516 1178 Pls
5519 1957 Pls
5523 1216 Pls
5526 1100 Pls
5529 1263 Pls
5532 1717 Pls
5535 2129 Pls
5538 1319 Pls
5541 2178 Pls
5545 1391 Pls
5548 763 Pls
5551 1382 Pls
5554 2184 Pls
5557 1490 Pls
5560 1974 Pls
5563 2151 Pls
5566 1753 Pls
5570 818 Pls
5573 1833 Pls
5576 1996 Pls
5579 2176 Pls
5582 1609 Pls
5585 3370 Pls
5588 1637 Pls
5591 1595 Pls
5595 1255 Pls
5598 1476 Pls
5601 2151 Pls
5604 1305 Pls
5607 984 Pls
5610 1783 Pls
5613 2228 Pls
5617 1172 Pls
5620 1496 Pls
5623 1814 Pls
5626 1653 Pls
5629 1631 Pls
5632 1675 Pls
5635 3085 Pls
5638 1192 Pls
5642 1073 Pls
5645 733 Pls
5648 2118 Pls
5651 2839 Pls
5654 2015 Pls
5657 1764 Pls
5660 655 Pls
5663 1620 Pls
5667 976 Pls
5670 2151 Pls
5673 827 Pls
5676 1109 Pls
5679 1772 Pls
5682 561 Pls
5685 1620 Pls
5689 1432 Pls
5692 1808 Pls
5695 451 Pls
5698 1814 Pls
5701 514 Pls
5704 1048 Pls
5707 1736 Pls
5710 1396 Pls
5714 1053 Pls
5717 3030 Pls
5720 1664 Pls
5723 1324 Pls
5726 1744 Pls
5729 2737 Pls
5732 1037 Pls
5735 1606 Pls
5739 1568 Pls
5742 1783 Pls
5745 2947 Pls
5748 1651 Pls
5751 1446 Pls
5754 1728 Pls
5757 2118 Pls
5761 1946 Pls
5764 1369 Pls
5767 1946 Pls
5770 2104 Pls
5773 1579 Pls
5776 2242 Pls
5779 968 Pls
5782 1678 Pls
5786 2002 Pls
5789 1051 Pls
5792 1534 Pls
5795 1070 Pls
5798 606 Pls
5801 1349 Pls
5804 1518 Pls
5807 2256 Pls
5811 810 Pls
5814 1219 Pls
5817 1557 Pls
5820 2494 Pls
5823 1327 Pls
5826 1670 Pls
5829 1468 Pls
5833 1570 Pls
5836 973 Pls
5839 1440 Pls
5842 984 Pls
5845 984 Pls
5848 2259 Pls
5851 973 Pls
5854 1709 Pls
5858 2021 Pls
5861 1407 Pls
5864 1305 Pls
5867 2049 Pls
5870 1134 Pls
5873 2256 Pls
5876 1877 Pls
5879 1631 Pls
5883 1518 Pls
5886 2397 Pls
5889 1161 Pls
5892 2065 Pls
5895 805 Pls
5898 1250 Pls
5901 973 Pls
5905 1344 Pls
5908 1833 Pls
5911 1029 Pls
5914 1905 Pls
5917 1410 Pls
5920 2430 Pls
5923 1089 Pls
5926 2637 Pls
5930 2966 Pls
5933 1346 Pls
5936 1573 Pls
5939 2361 Pls
5942 2400 Pls
5945 1847 Pls
5948 1382 Pls
5952 1963 Pls
5955 1512 Pls
5958 1255 Pls
5961 1120 Pls
5964 1944 Pls
5967 1568 Pls
5970 1313 Pls
5973 1482 Pls
5977 1963 Pls
5980 2742 Pls
5983 1081 Pls
5986 2331 Pls
5989 1076 Pls
5992 1424 Pls
5995 642 Pls
5998 2132 Pls
6002 1360 Pls
6005 1236 Pls
6008 1432 Pls
6011 1543 Pls
6014 923 Pls
6017 976 Pls
6020 1626 Pls
6024 1786 Pls
6027 1366 Pls
6030 1838 Pls
6033 841 Pls
6036 1756 Pls
6039 2372 Pls
6042 2239 Pls
6045 2126 Pls
6049 1263 Pls
6052 2178 Pls
6055 1910 Pls
6058 2991 Pls
6061 1946 Pls
6064 1830 Pls
6067 1791 Pls
6070 1313 Pls
6074 1570 Pls
6077 1158 Pls
6080 2237 Pls
6083 1841 Pls
6086 1269 Pls
6089 1667 Pls
6092 1338 Pls
6096 888 Pls
6099 2800 Pls
6102 2319 Pls
6105 724 Pls
6108 1250 Pls
6111 2112 Pls
6114 959 Pls
6117 1570 Pls
6121 2961 Pls
6124 1565 Pls
6127 1070 Pls
6130 1081 Pls
6133 1034 Pls
6136 520 Pls
6139 1391 Pls
6142 2347 Pls
6146 1040 Pls
6149 1850 Pls
6152 1313 Pls
6155 1529 Pls
6158 2120 Pls
6161 1313 Pls
6164 1684 Pls
6168 1891 Pls
6171 2140 Pls
6174 1722 Pls
6177 1396 Pls
6180 782 Pls
6183 940 Pls
6186 636 Pls
6189 1897 Pls
6193 1559 Pls
6196 1496 Pls
6199 1490 Pls
6202 1689 Pls
6205 968 Pls
6208 2314 Pls
6211 1523 Pls
6214 1498 Pls
6218 1772 Pls
6221 849 Pls
6224 1357 Pls
6227 2729 Pls
6230 1670 Pls
6233 2032 Pls
6236 1756 Pls
6240 1374 Pls
6243 982 Pls
6246 915 Pls
6249 896 Pls
6252 1474 Pls
6255 1673 Pls
6258 655 Pls
6261 901 Pls
6265 1247 Pls
6268 2021 Pls
6271 2715 Pls
6274 3041 Pls
6277 2176 Pls
6280 1960 Pls
6283 1291 Pls
6286 923 Pls
6290 2336 Pls
6293 791 Pls
6296 2765 Pls
6299 1631 Pls
6302 1031 Pls
6305 2557 Pls
6308 1615 Pls
6312 2090 Pls
6315 1626 Pls
6318 2480 Pls
6321 1639 Pls
6324 1659 Pls
6327 1581 Pls
6330 1883 Pls
6333 1175 Pls
6337 2192 Pls
6340 1968 Pls
6343 796 Pls
6346 2319 Pls
6349 3533 Pls
6352 1200 Pls
6355 1294 Pls
6358 1559 Pls
6362 1714 Pls
6365 2248 Pls
6368 2062 Pls
6371 2458 Pls
6374 2250 Pls
6377 760 Pls
6380 1463 Pls
6384 2776 Pls
6387 2427 Pls
6390 2718 Pls
6393 2015 Pls
6396 1595 Pls
6399 2521 Pls
6402 1858 Pls
6405 2458 Pls
6409 3389 Pls
6412 1991 Pls
6415 1208 Pls
6418 954 Pls
6421 1493 Pls
6424 987 Pls
6427 1236 Pls
6430 995 Pls
6434 1291 Pls
6437 1534 Pls
6440 1783 Pls
6443 1653 Pls
6446 907 Pls
6449 1565 Pls
6452 1153 Pls
6456 1037 Pls
6459 2378 Pls
6462 959 Pls
6465 1532 Pls
6468 2289 Pls
6471 2126 Pls
6474 2234 Pls
6477 1675 Pls
6481 1418 Pls
6484 1639 Pls
6487 1615 Pls
6490 2751 Pls
6493 1117 Pls
6496 1241 Pls
6499 539 Pls
6502 2015 Pls
6506 702 Pls
6509 1811 Pls
6512 1089 Pls
6515 1601 Pls
6518 1521 Pls
6521 1355 Pls
6524 1067 Pls
6528 2087 Pls
6531 1211 Pls
6534 1711 Pls
6537 1537 Pls
6540 1731 Pls
6543 2469 Pls
6546 954 Pls
6549 1706 Pls
6553 1482 Pls
6556 2228 Pls
6559 1626 Pls
6562 816 Pls
6565 1120 Pls
6568 1938 Pls
6571 1631 Pls
6574 625 Pls
6578 1429 Pls
6581 1938 Pls
6584 990 Pls
6587 1515 Pls
6590 904 Pls
6593 708 Pls
6596 865 Pls
6600 1413 Pls
6603 628 Pls
6606 1009 Pls
6609 1432 Pls
6612 962 Pls
6615 1783 Pls
6618 1382 Pls
6621 2004 Pls
6625 2568 Pls
6628 1930 Pls
6631 1570 Pls
6634 1775 Pls
6637 1294 Pls
6640 1537 Pls
6643 2524 Pls
6646 1717 Pls
6650 1360 Pls
6653 1446 Pls
6656 1266 Pls
6659 559 Pls
6662 1772 Pls
6665 1725 Pls
6668 982 Pls
6672 1523 Pls
6675 1252 Pls
6678 1952 Pls
6681 1100 Pls
6684 2588 Pls
6687 1048 Pls
6690 1612 Pls
6693 1786 Pls
6697 1662 Pls
6700 818 Pls
6703 2436 Pls
6706 2347 Pls
6709 1335 Pls
6712 896 Pls
6715 1324 Pls
6718 1722 Pls
6722 1775 Pls
6725 2024 Pls
6728 901 Pls
6731 1601 Pls
6734 1294 Pls
6737 1037 Pls
6740 1324 Pls
6744 2062 Pls
6747 1841 Pls
6750 1709 Pls
6753 1064 Pls
6756 1639 Pls
6759 1045 Pls
6762 2436 Pls
6765 1117 Pls
6769 794 Pls
6772 802 Pls
6775 1847 Pls
6778 1299 Pls
6781 536 Pls
6784 2582 Pls
6787 2806 Pls
6790 1062 Pls
6794 1366 Pls
6797 838 Pls
6800 1026 Pls
6803 3016 Pls
6806 1460 Pls
6809 1769 Pls
6812 752 Pls
6816 2076 Pls
6819 2013 Pls
6822 733 Pls
6825 1357 Pls
6828 1722 Pls
6831 1993 Pls
6834 2140 Pls
6837 810 Pls
6841 2759 Pls
6844 760 Pls
6847 1791 Pls
6850 2491 Pls
6853 1852 Pls
6856 1612 Pls
6859 1183 Pls
6862 2082 Pls
6866 1482 Pls
6869 1537 Pls
6872 818 Pls
6875 2228 Pls
6878 1756 Pls
6881 1579 Pls
6884 1479 Pls
6888 1498 Pls
6891 1352 Pls
6894 1272 Pls
6897 1200 Pls
6900 2375 Pls
6903 1797 Pls
6906 1310 Pls
6909 1662 Pls
6913 1252 Pls
6916 1225 Pls
6919 1631 Pls
6922 1239 Pls
6925 1689 Pls
6928 1927 Pls
6931 1518 Pls
6934 1587 Pls
6938 1280 Pls
6941 2483 Pls
6944 2386 Pls
6579 4738 Pls
% End plot #1
1.000 UL
LTb
686 4871 N
686 448 L
6261 0 V
0 4423 V
-6261 0 V
Z stroke
1.000 UP
1.000 UL
LTb
stroke
grestore
end
showpage
%%Trailer
%%DocumentFonts: Helvetica
