%!PS-Adobe-2.0 EPSF-2.0
%%Title: ../plots/hc-challenge/hc-challenge-nannon-offset-0.eps
%%Creator: gnuplot 4.4 patchlevel 3
%%CreationDate: Tue Dec 13 22:57:21 2011
%%DocumentFonts: (atend)
%%BoundingBox: 50 50 410 302
%%EndComments
%%BeginProlog
/gnudict 256 dict def
gnudict begin
%
% The following true/false flags may be edited by hand if desired.
% The unit line width and grayscale image gamma correction may also be changed.
%
/Color true def
/Blacktext false def
/Solid false def
/Dashlength 1 def
/Landscape false def
/Level1 false def
/Rounded false def
/ClipToBoundingBox false def
/TransparentPatterns false def
/gnulinewidth 5.000 def
/userlinewidth gnulinewidth def
/Gamma 1.0 def
%
/vshift -46 def
/dl1 {
  10.0 Dashlength mul mul
  Rounded { currentlinewidth 0.75 mul sub dup 0 le { pop 0.01 } if } if
} def
/dl2 {
  10.0 Dashlength mul mul
  Rounded { currentlinewidth 0.75 mul add } if
} def
/hpt_ 31.5 def
/vpt_ 31.5 def
/hpt hpt_ def
/vpt vpt_ def
Level1 {} {
/SDict 10 dict def
systemdict /pdfmark known not {
  userdict /pdfmark systemdict /cleartomark get put
} if
SDict begin [
  /Title (../plots/hc-challenge/hc-challenge-nannon-offset-0.eps)
  /Subject (gnuplot plot)
  /Creator (gnuplot 4.4 patchlevel 3)
  /Author (reza)
%  /Producer (gnuplot)
%  /Keywords ()
  /CreationDate (Tue Dec 13 22:57:21 2011)
  /DOCINFO pdfmark
end
} ifelse
/doclip {
  ClipToBoundingBox {
    newpath 50 50 moveto 410 50 lineto 410 302 lineto 50 302 lineto closepath
    clip
  } if
} def
%
% Gnuplot Prolog Version 4.4 (August 2010)
%
%/SuppressPDFMark true def
%
/M {moveto} bind def
/L {lineto} bind def
/R {rmoveto} bind def
/V {rlineto} bind def
/N {newpath moveto} bind def
/Z {closepath} bind def
/C {setrgbcolor} bind def
/f {rlineto fill} bind def
/g {setgray} bind def
/Gshow {show} def   % May be redefined later in the file to support UTF-8
/vpt2 vpt 2 mul def
/hpt2 hpt 2 mul def
/Lshow {currentpoint stroke M 0 vshift R 
	Blacktext {gsave 0 setgray show grestore} {show} ifelse} def
/Rshow {currentpoint stroke M dup stringwidth pop neg vshift R
	Blacktext {gsave 0 setgray show grestore} {show} ifelse} def
/Cshow {currentpoint stroke M dup stringwidth pop -2 div vshift R 
	Blacktext {gsave 0 setgray show grestore} {show} ifelse} def
/UP {dup vpt_ mul /vpt exch def hpt_ mul /hpt exch def
  /hpt2 hpt 2 mul def /vpt2 vpt 2 mul def} def
/DL {Color {setrgbcolor Solid {pop []} if 0 setdash}
 {pop pop pop 0 setgray Solid {pop []} if 0 setdash} ifelse} def
/BL {stroke userlinewidth 2 mul setlinewidth
	Rounded {1 setlinejoin 1 setlinecap} if} def
/AL {stroke userlinewidth 2 div setlinewidth
	Rounded {1 setlinejoin 1 setlinecap} if} def
/UL {dup gnulinewidth mul /userlinewidth exch def
	dup 1 lt {pop 1} if 10 mul /udl exch def} def
/PL {stroke userlinewidth setlinewidth
	Rounded {1 setlinejoin 1 setlinecap} if} def
3.8 setmiterlimit
% Default Line colors
/LCw {1 1 1} def
/LCb {0 0 0} def
/LCa {0 0 0} def
/LC0 {1 0 0} def
/LC1 {0 1 0} def
/LC2 {0 0 1} def
/LC3 {1 0 1} def
/LC4 {0 1 1} def
/LC5 {1 1 0} def
/LC6 {0 0 0} def
/LC7 {1 0.3 0} def
/LC8 {0.5 0.5 0.5} def
% Default Line Types
/LTw {PL [] 1 setgray} def
/LTb {BL [] LCb DL} def
/LTa {AL [1 udl mul 2 udl mul] 0 setdash LCa setrgbcolor} def
/LT0 {PL [] LC0 DL} def
/LT1 {PL [4 dl1 2 dl2] LC1 DL} def
/LT2 {PL [2 dl1 3 dl2] LC2 DL} def
/LT3 {PL [1 dl1 1.5 dl2] LC3 DL} def
/LT4 {PL [6 dl1 2 dl2 1 dl1 2 dl2] LC4 DL} def
/LT5 {PL [3 dl1 3 dl2 1 dl1 3 dl2] LC5 DL} def
/LT6 {PL [2 dl1 2 dl2 2 dl1 6 dl2] LC6 DL} def
/LT7 {PL [1 dl1 2 dl2 6 dl1 2 dl2 1 dl1 2 dl2] LC7 DL} def
/LT8 {PL [2 dl1 2 dl2 2 dl1 2 dl2 2 dl1 2 dl2 2 dl1 4 dl2] LC8 DL} def
/Pnt {stroke [] 0 setdash gsave 1 setlinecap M 0 0 V stroke grestore} def
/Dia {stroke [] 0 setdash 2 copy vpt add M
  hpt neg vpt neg V hpt vpt neg V
  hpt vpt V hpt neg vpt V closepath stroke
  Pnt} def
/Pls {stroke [] 0 setdash vpt sub M 0 vpt2 V
  currentpoint stroke M
  hpt neg vpt neg R hpt2 0 V stroke
 } def
/Box {stroke [] 0 setdash 2 copy exch hpt sub exch vpt add M
  0 vpt2 neg V hpt2 0 V 0 vpt2 V
  hpt2 neg 0 V closepath stroke
  Pnt} def
/Crs {stroke [] 0 setdash exch hpt sub exch vpt add M
  hpt2 vpt2 neg V currentpoint stroke M
  hpt2 neg 0 R hpt2 vpt2 V stroke} def
/TriU {stroke [] 0 setdash 2 copy vpt 1.12 mul add M
  hpt neg vpt -1.62 mul V
  hpt 2 mul 0 V
  hpt neg vpt 1.62 mul V closepath stroke
  Pnt} def
/Star {2 copy Pls Crs} def
/BoxF {stroke [] 0 setdash exch hpt sub exch vpt add M
  0 vpt2 neg V hpt2 0 V 0 vpt2 V
  hpt2 neg 0 V closepath fill} def
/TriUF {stroke [] 0 setdash vpt 1.12 mul add M
  hpt neg vpt -1.62 mul V
  hpt 2 mul 0 V
  hpt neg vpt 1.62 mul V closepath fill} def
/TriD {stroke [] 0 setdash 2 copy vpt 1.12 mul sub M
  hpt neg vpt 1.62 mul V
  hpt 2 mul 0 V
  hpt neg vpt -1.62 mul V closepath stroke
  Pnt} def
/TriDF {stroke [] 0 setdash vpt 1.12 mul sub M
  hpt neg vpt 1.62 mul V
  hpt 2 mul 0 V
  hpt neg vpt -1.62 mul V closepath fill} def
/DiaF {stroke [] 0 setdash vpt add M
  hpt neg vpt neg V hpt vpt neg V
  hpt vpt V hpt neg vpt V closepath fill} def
/Pent {stroke [] 0 setdash 2 copy gsave
  translate 0 hpt M 4 {72 rotate 0 hpt L} repeat
  closepath stroke grestore Pnt} def
/PentF {stroke [] 0 setdash gsave
  translate 0 hpt M 4 {72 rotate 0 hpt L} repeat
  closepath fill grestore} def
/Circle {stroke [] 0 setdash 2 copy
  hpt 0 360 arc stroke Pnt} def
/CircleF {stroke [] 0 setdash hpt 0 360 arc fill} def
/C0 {BL [] 0 setdash 2 copy moveto vpt 90 450 arc} bind def
/C1 {BL [] 0 setdash 2 copy moveto
	2 copy vpt 0 90 arc closepath fill
	vpt 0 360 arc closepath} bind def
/C2 {BL [] 0 setdash 2 copy moveto
	2 copy vpt 90 180 arc closepath fill
	vpt 0 360 arc closepath} bind def
/C3 {BL [] 0 setdash 2 copy moveto
	2 copy vpt 0 180 arc closepath fill
	vpt 0 360 arc closepath} bind def
/C4 {BL [] 0 setdash 2 copy moveto
	2 copy vpt 180 270 arc closepath fill
	vpt 0 360 arc closepath} bind def
/C5 {BL [] 0 setdash 2 copy moveto
	2 copy vpt 0 90 arc
	2 copy moveto
	2 copy vpt 180 270 arc closepath fill
	vpt 0 360 arc} bind def
/C6 {BL [] 0 setdash 2 copy moveto
	2 copy vpt 90 270 arc closepath fill
	vpt 0 360 arc closepath} bind def
/C7 {BL [] 0 setdash 2 copy moveto
	2 copy vpt 0 270 arc closepath fill
	vpt 0 360 arc closepath} bind def
/C8 {BL [] 0 setdash 2 copy moveto
	2 copy vpt 270 360 arc closepath fill
	vpt 0 360 arc closepath} bind def
/C9 {BL [] 0 setdash 2 copy moveto
	2 copy vpt 270 450 arc closepath fill
	vpt 0 360 arc closepath} bind def
/C10 {BL [] 0 setdash 2 copy 2 copy moveto vpt 270 360 arc closepath fill
	2 copy moveto
	2 copy vpt 90 180 arc closepath fill
	vpt 0 360 arc closepath} bind def
/C11 {BL [] 0 setdash 2 copy moveto
	2 copy vpt 0 180 arc closepath fill
	2 copy moveto
	2 copy vpt 270 360 arc closepath fill
	vpt 0 360 arc closepath} bind def
/C12 {BL [] 0 setdash 2 copy moveto
	2 copy vpt 180 360 arc closepath fill
	vpt 0 360 arc closepath} bind def
/C13 {BL [] 0 setdash 2 copy moveto
	2 copy vpt 0 90 arc closepath fill
	2 copy moveto
	2 copy vpt 180 360 arc closepath fill
	vpt 0 360 arc closepath} bind def
/C14 {BL [] 0 setdash 2 copy moveto
	2 copy vpt 90 360 arc closepath fill
	vpt 0 360 arc} bind def
/C15 {BL [] 0 setdash 2 copy vpt 0 360 arc closepath fill
	vpt 0 360 arc closepath} bind def
/Rec {newpath 4 2 roll moveto 1 index 0 rlineto 0 exch rlineto
	neg 0 rlineto closepath} bind def
/Square {dup Rec} bind def
/Bsquare {vpt sub exch vpt sub exch vpt2 Square} bind def
/S0 {BL [] 0 setdash 2 copy moveto 0 vpt rlineto BL Bsquare} bind def
/S1 {BL [] 0 setdash 2 copy vpt Square fill Bsquare} bind def
/S2 {BL [] 0 setdash 2 copy exch vpt sub exch vpt Square fill Bsquare} bind def
/S3 {BL [] 0 setdash 2 copy exch vpt sub exch vpt2 vpt Rec fill Bsquare} bind def
/S4 {BL [] 0 setdash 2 copy exch vpt sub exch vpt sub vpt Square fill Bsquare} bind def
/S5 {BL [] 0 setdash 2 copy 2 copy vpt Square fill
	exch vpt sub exch vpt sub vpt Square fill Bsquare} bind def
/S6 {BL [] 0 setdash 2 copy exch vpt sub exch vpt sub vpt vpt2 Rec fill Bsquare} bind def
/S7 {BL [] 0 setdash 2 copy exch vpt sub exch vpt sub vpt vpt2 Rec fill
	2 copy vpt Square fill Bsquare} bind def
/S8 {BL [] 0 setdash 2 copy vpt sub vpt Square fill Bsquare} bind def
/S9 {BL [] 0 setdash 2 copy vpt sub vpt vpt2 Rec fill Bsquare} bind def
/S10 {BL [] 0 setdash 2 copy vpt sub vpt Square fill 2 copy exch vpt sub exch vpt Square fill
	Bsquare} bind def
/S11 {BL [] 0 setdash 2 copy vpt sub vpt Square fill 2 copy exch vpt sub exch vpt2 vpt Rec fill
	Bsquare} bind def
/S12 {BL [] 0 setdash 2 copy exch vpt sub exch vpt sub vpt2 vpt Rec fill Bsquare} bind def
/S13 {BL [] 0 setdash 2 copy exch vpt sub exch vpt sub vpt2 vpt Rec fill
	2 copy vpt Square fill Bsquare} bind def
/S14 {BL [] 0 setdash 2 copy exch vpt sub exch vpt sub vpt2 vpt Rec fill
	2 copy exch vpt sub exch vpt Square fill Bsquare} bind def
/S15 {BL [] 0 setdash 2 copy Bsquare fill Bsquare} bind def
/D0 {gsave translate 45 rotate 0 0 S0 stroke grestore} bind def
/D1 {gsave translate 45 rotate 0 0 S1 stroke grestore} bind def
/D2 {gsave translate 45 rotate 0 0 S2 stroke grestore} bind def
/D3 {gsave translate 45 rotate 0 0 S3 stroke grestore} bind def
/D4 {gsave translate 45 rotate 0 0 S4 stroke grestore} bind def
/D5 {gsave translate 45 rotate 0 0 S5 stroke grestore} bind def
/D6 {gsave translate 45 rotate 0 0 S6 stroke grestore} bind def
/D7 {gsave translate 45 rotate 0 0 S7 stroke grestore} bind def
/D8 {gsave translate 45 rotate 0 0 S8 stroke grestore} bind def
/D9 {gsave translate 45 rotate 0 0 S9 stroke grestore} bind def
/D10 {gsave translate 45 rotate 0 0 S10 stroke grestore} bind def
/D11 {gsave translate 45 rotate 0 0 S11 stroke grestore} bind def
/D12 {gsave translate 45 rotate 0 0 S12 stroke grestore} bind def
/D13 {gsave translate 45 rotate 0 0 S13 stroke grestore} bind def
/D14 {gsave translate 45 rotate 0 0 S14 stroke grestore} bind def
/D15 {gsave translate 45 rotate 0 0 S15 stroke grestore} bind def
/DiaE {stroke [] 0 setdash vpt add M
  hpt neg vpt neg V hpt vpt neg V
  hpt vpt V hpt neg vpt V closepath stroke} def
/BoxE {stroke [] 0 setdash exch hpt sub exch vpt add M
  0 vpt2 neg V hpt2 0 V 0 vpt2 V
  hpt2 neg 0 V closepath stroke} def
/TriUE {stroke [] 0 setdash vpt 1.12 mul add M
  hpt neg vpt -1.62 mul V
  hpt 2 mul 0 V
  hpt neg vpt 1.62 mul V closepath stroke} def
/TriDE {stroke [] 0 setdash vpt 1.12 mul sub M
  hpt neg vpt 1.62 mul V
  hpt 2 mul 0 V
  hpt neg vpt -1.62 mul V closepath stroke} def
/PentE {stroke [] 0 setdash gsave
  translate 0 hpt M 4 {72 rotate 0 hpt L} repeat
  closepath stroke grestore} def
/CircE {stroke [] 0 setdash 
  hpt 0 360 arc stroke} def
/Opaque {gsave closepath 1 setgray fill grestore 0 setgray closepath} def
/DiaW {stroke [] 0 setdash vpt add M
  hpt neg vpt neg V hpt vpt neg V
  hpt vpt V hpt neg vpt V Opaque stroke} def
/BoxW {stroke [] 0 setdash exch hpt sub exch vpt add M
  0 vpt2 neg V hpt2 0 V 0 vpt2 V
  hpt2 neg 0 V Opaque stroke} def
/TriUW {stroke [] 0 setdash vpt 1.12 mul add M
  hpt neg vpt -1.62 mul V
  hpt 2 mul 0 V
  hpt neg vpt 1.62 mul V Opaque stroke} def
/TriDW {stroke [] 0 setdash vpt 1.12 mul sub M
  hpt neg vpt 1.62 mul V
  hpt 2 mul 0 V
  hpt neg vpt -1.62 mul V Opaque stroke} def
/PentW {stroke [] 0 setdash gsave
  translate 0 hpt M 4 {72 rotate 0 hpt L} repeat
  Opaque stroke grestore} def
/CircW {stroke [] 0 setdash 
  hpt 0 360 arc Opaque stroke} def
/BoxFill {gsave Rec 1 setgray fill grestore} def
/Density {
  /Fillden exch def
  currentrgbcolor
  /ColB exch def /ColG exch def /ColR exch def
  /ColR ColR Fillden mul Fillden sub 1 add def
  /ColG ColG Fillden mul Fillden sub 1 add def
  /ColB ColB Fillden mul Fillden sub 1 add def
  ColR ColG ColB setrgbcolor} def
/BoxColFill {gsave Rec PolyFill} def
/PolyFill {gsave Density fill grestore grestore} def
/h {rlineto rlineto rlineto gsave closepath fill grestore} bind def
%
% PostScript Level 1 Pattern Fill routine for rectangles
% Usage: x y w h s a XX PatternFill
%	x,y = lower left corner of box to be filled
%	w,h = width and height of box
%	  a = angle in degrees between lines and x-axis
%	 XX = 0/1 for no/yes cross-hatch
%
/PatternFill {gsave /PFa [ 9 2 roll ] def
  PFa 0 get PFa 2 get 2 div add PFa 1 get PFa 3 get 2 div add translate
  PFa 2 get -2 div PFa 3 get -2 div PFa 2 get PFa 3 get Rec
  gsave 1 setgray fill grestore clip
  currentlinewidth 0.5 mul setlinewidth
  /PFs PFa 2 get dup mul PFa 3 get dup mul add sqrt def
  0 0 M PFa 5 get rotate PFs -2 div dup translate
  0 1 PFs PFa 4 get div 1 add floor cvi
	{PFa 4 get mul 0 M 0 PFs V} for
  0 PFa 6 get ne {
	0 1 PFs PFa 4 get div 1 add floor cvi
	{PFa 4 get mul 0 2 1 roll M PFs 0 V} for
 } if
  stroke grestore} def
%
/languagelevel where
 {pop languagelevel} {1} ifelse
 2 lt
	{/InterpretLevel1 true def}
	{/InterpretLevel1 Level1 def}
 ifelse
%
% PostScript level 2 pattern fill definitions
%
/Level2PatternFill {
/Tile8x8 {/PaintType 2 /PatternType 1 /TilingType 1 /BBox [0 0 8 8] /XStep 8 /YStep 8}
	bind def
/KeepColor {currentrgbcolor [/Pattern /DeviceRGB] setcolorspace} bind def
<< Tile8x8
 /PaintProc {0.5 setlinewidth pop 0 0 M 8 8 L 0 8 M 8 0 L stroke} 
>> matrix makepattern
/Pat1 exch def
<< Tile8x8
 /PaintProc {0.5 setlinewidth pop 0 0 M 8 8 L 0 8 M 8 0 L stroke
	0 4 M 4 8 L 8 4 L 4 0 L 0 4 L stroke}
>> matrix makepattern
/Pat2 exch def
<< Tile8x8
 /PaintProc {0.5 setlinewidth pop 0 0 M 0 8 L
	8 8 L 8 0 L 0 0 L fill}
>> matrix makepattern
/Pat3 exch def
<< Tile8x8
 /PaintProc {0.5 setlinewidth pop -4 8 M 8 -4 L
	0 12 M 12 0 L stroke}
>> matrix makepattern
/Pat4 exch def
<< Tile8x8
 /PaintProc {0.5 setlinewidth pop -4 0 M 8 12 L
	0 -4 M 12 8 L stroke}
>> matrix makepattern
/Pat5 exch def
<< Tile8x8
 /PaintProc {0.5 setlinewidth pop -2 8 M 4 -4 L
	0 12 M 8 -4 L 4 12 M 10 0 L stroke}
>> matrix makepattern
/Pat6 exch def
<< Tile8x8
 /PaintProc {0.5 setlinewidth pop -2 0 M 4 12 L
	0 -4 M 8 12 L 4 -4 M 10 8 L stroke}
>> matrix makepattern
/Pat7 exch def
<< Tile8x8
 /PaintProc {0.5 setlinewidth pop 8 -2 M -4 4 L
	12 0 M -4 8 L 12 4 M 0 10 L stroke}
>> matrix makepattern
/Pat8 exch def
<< Tile8x8
 /PaintProc {0.5 setlinewidth pop 0 -2 M 12 4 L
	-4 0 M 12 8 L -4 4 M 8 10 L stroke}
>> matrix makepattern
/Pat9 exch def
/Pattern1 {PatternBgnd KeepColor Pat1 setpattern} bind def
/Pattern2 {PatternBgnd KeepColor Pat2 setpattern} bind def
/Pattern3 {PatternBgnd KeepColor Pat3 setpattern} bind def
/Pattern4 {PatternBgnd KeepColor Landscape {Pat5} {Pat4} ifelse setpattern} bind def
/Pattern5 {PatternBgnd KeepColor Landscape {Pat4} {Pat5} ifelse setpattern} bind def
/Pattern6 {PatternBgnd KeepColor Landscape {Pat9} {Pat6} ifelse setpattern} bind def
/Pattern7 {PatternBgnd KeepColor Landscape {Pat8} {Pat7} ifelse setpattern} bind def
} def
%
%
%End of PostScript Level 2 code
%
/PatternBgnd {
  TransparentPatterns {} {gsave 1 setgray fill grestore} ifelse
} def
%
% Substitute for Level 2 pattern fill codes with
% grayscale if Level 2 support is not selected.
%
/Level1PatternFill {
/Pattern1 {0.250 Density} bind def
/Pattern2 {0.500 Density} bind def
/Pattern3 {0.750 Density} bind def
/Pattern4 {0.125 Density} bind def
/Pattern5 {0.375 Density} bind def
/Pattern6 {0.625 Density} bind def
/Pattern7 {0.875 Density} bind def
} def
%
% Now test for support of Level 2 code
%
Level1 {Level1PatternFill} {Level2PatternFill} ifelse
%
/Symbol-Oblique /Symbol findfont [1 0 .167 1 0 0] makefont
dup length dict begin {1 index /FID eq {pop pop} {def} ifelse} forall
currentdict end definefont pop
end
%%EndProlog
gnudict begin
gsave
doclip
50 50 translate
0.050 0.050 scale
0 setgray
newpath
(Helvetica) findfont 140 scalefont setfont
1.000 UL
LTb
686 448 M
63 0 V
6198 0 R
-63 0 V
602 448 M
( 0) Rshow
1.000 UL
LTb
686 1001 M
63 0 V
6198 0 R
-63 0 V
-6282 0 R
( 50) Rshow
1.000 UL
LTb
686 1554 M
63 0 V
6198 0 R
-63 0 V
-6282 0 R
( 100) Rshow
1.000 UL
LTb
686 2107 M
63 0 V
6198 0 R
-63 0 V
-6282 0 R
( 150) Rshow
1.000 UL
LTb
686 2659 M
63 0 V
6198 0 R
-63 0 V
-6282 0 R
( 200) Rshow
1.000 UL
LTb
686 3212 M
63 0 V
6198 0 R
-63 0 V
-6282 0 R
( 250) Rshow
1.000 UL
LTb
686 3765 M
63 0 V
6198 0 R
-63 0 V
-6282 0 R
( 300) Rshow
1.000 UL
LTb
686 4318 M
63 0 V
6198 0 R
-63 0 V
-6282 0 R
( 350) Rshow
1.000 UL
LTb
686 4871 M
63 0 V
6198 0 R
-63 0 V
-6282 0 R
( 400) Rshow
1.000 UL
LTb
686 448 M
0 63 V
0 4360 R
0 -63 V
686 308 M
( 0) Cshow
1.000 UL
LTb
1312 448 M
0 63 V
0 4360 R
0 -63 V
0 -4500 R
( 200) Cshow
1.000 UL
LTb
1938 448 M
0 63 V
0 4360 R
0 -63 V
0 -4500 R
( 400) Cshow
1.000 UL
LTb
2564 448 M
0 63 V
0 4360 R
0 -63 V
0 -4500 R
( 600) Cshow
1.000 UL
LTb
3190 448 M
0 63 V
0 4360 R
0 -63 V
0 -4500 R
( 800) Cshow
1.000 UL
LTb
3817 448 M
0 63 V
0 4360 R
0 -63 V
0 -4500 R
( 1000) Cshow
1.000 UL
LTb
4443 448 M
0 63 V
0 4360 R
0 -63 V
0 -4500 R
( 1200) Cshow
1.000 UL
LTb
5069 448 M
0 63 V
0 4360 R
0 -63 V
0 -4500 R
( 1400) Cshow
1.000 UL
LTb
5695 448 M
0 63 V
0 4360 R
0 -63 V
0 -4500 R
( 1600) Cshow
1.000 UL
LTb
6321 448 M
0 63 V
0 4360 R
0 -63 V
0 -4500 R
( 1800) Cshow
1.000 UL
LTb
6947 448 M
0 63 V
0 4360 R
0 -63 V
0 -4500 R
( 2000) Cshow
1.000 UL
LTb
1.000 UL
LTb
686 4871 N
686 448 L
6261 0 V
0 4423 V
-6261 0 V
Z stroke
LCb setrgbcolor
112 2659 M
currentpoint gsave translate -270 rotate 0 0 M
(Number of 8-game trials used to find a successful challenger) Cshow
grestore
LTb
LCb setrgbcolor
3816 98 M
(Generation) Cshow
LTb
1.000 UP
1.000 UL
LTb
% Begin plot #1
1.000 UP
1.000 UL
LT0
LCb setrgbcolor
6296 4738 M
(HC-nannon) Rshow
LT0
686 634 Pls
689 1000 Pls
692 864 Pls
695 1027 Pls
699 1059 Pls
702 1155 Pls
705 724 Pls
708 1037 Pls
711 894 Pls
714 881 Pls
717 1048 Pls
720 1008 Pls
724 1146 Pls
727 909 Pls
730 1009 Pls
733 1051 Pls
736 929 Pls
739 880 Pls
742 1153 Pls
745 1024 Pls
749 1507 Pls
752 1653 Pls
755 1155 Pls
758 829 Pls
761 1214 Pls
764 1308 Pls
767 1099 Pls
771 1062 Pls
774 791 Pls
777 1170 Pls
780 1089 Pls
783 1569 Pls
786 1452 Pls
789 1309 Pls
792 946 Pls
796 958 Pls
799 1166 Pls
802 1183 Pls
805 940 Pls
808 857 Pls
811 923 Pls
814 1182 Pls
817 1090 Pls
821 783 Pls
824 949 Pls
827 616 Pls
830 771 Pls
833 1256 Pls
836 921 Pls
839 1376 Pls
843 1275 Pls
846 1203 Pls
849 1163 Pls
852 1372 Pls
855 906 Pls
858 933 Pls
861 911 Pls
864 1383 Pls
868 1307 Pls
871 1147 Pls
874 1207 Pls
877 1020 Pls
880 1595 Pls
883 1281 Pls
886 967 Pls
889 749 Pls
893 1076 Pls
896 1283 Pls
899 1040 Pls
902 970 Pls
905 947 Pls
908 1376 Pls
911 950 Pls
915 1235 Pls
918 923 Pls
921 1126 Pls
924 1006 Pls
927 857 Pls
930 935 Pls
933 1048 Pls
936 1052 Pls
940 960 Pls
943 1142 Pls
946 1249 Pls
949 1136 Pls
952 1318 Pls
955 1137 Pls
958 954 Pls
961 1052 Pls
965 1412 Pls
968 1358 Pls
971 1293 Pls
974 1072 Pls
977 931 Pls
980 1036 Pls
983 1356 Pls
987 1170 Pls
990 1420 Pls
993 1199 Pls
996 884 Pls
999 1215 Pls
1002 1030 Pls
1005 757 Pls
1008 1317 Pls
1012 2289 Pls
1015 2641 Pls
1018 1421 Pls
1021 1912 Pls
1024 1285 Pls
1027 846 Pls
1030 1041 Pls
1033 1266 Pls
1037 1153 Pls
1040 979 Pls
1043 1116 Pls
1046 1388 Pls
1049 846 Pls
1052 1427 Pls
1055 1061 Pls
1059 1026 Pls
1062 941 Pls
1065 1758 Pls
1068 1061 Pls
1071 1376 Pls
1074 1041 Pls
1077 958 Pls
1080 1389 Pls
1084 973 Pls
1087 1316 Pls
1090 1350 Pls
1093 1611 Pls
1096 1209 Pls
1099 1011 Pls
1102 1057 Pls
1105 1069 Pls
1109 1589 Pls
1112 1307 Pls
1115 977 Pls
1118 1062 Pls
1121 1298 Pls
1124 1403 Pls
1127 1356 Pls
1131 1198 Pls
1134 1442 Pls
1137 1078 Pls
1140 1397 Pls
1143 1769 Pls
1146 1182 Pls
1149 1242 Pls
1152 995 Pls
1156 975 Pls
1159 970 Pls
1162 1309 Pls
1165 1791 Pls
1168 1742 Pls
1171 1276 Pls
1174 1897 Pls
1177 1630 Pls
1181 1174 Pls
1184 1371 Pls
1187 1565 Pls
1190 887 Pls
1193 1709 Pls
1196 1138 Pls
1199 1324 Pls
1203 1142 Pls
1206 1095 Pls
1209 1088 Pls
1212 1411 Pls
1215 1141 Pls
1218 1367 Pls
1221 1276 Pls
1224 1241 Pls
1228 1368 Pls
1231 1250 Pls
1234 1226 Pls
1237 1067 Pls
1240 1089 Pls
1243 1347 Pls
1246 1699 Pls
1249 1068 Pls
1253 1115 Pls
1256 1636 Pls
1259 1331 Pls
1262 1174 Pls
1265 1826 Pls
1268 1383 Pls
1271 902 Pls
1275 1171 Pls
1278 1930 Pls
1281 1437 Pls
1284 1294 Pls
1287 1256 Pls
1290 1398 Pls
1293 941 Pls
1296 1662 Pls
1300 1177 Pls
1303 1371 Pls
1306 1472 Pls
1309 1232 Pls
1312 1176 Pls
1315 1020 Pls
1318 1329 Pls
1321 1423 Pls
1325 920 Pls
1328 982 Pls
1331 1053 Pls
1334 1132 Pls
1337 982 Pls
1340 1615 Pls
1343 1731 Pls
1347 1322 Pls
1350 1518 Pls
1353 1430 Pls
1356 1187 Pls
1359 1191 Pls
1362 1027 Pls
1365 1362 Pls
1368 1349 Pls
1372 1246 Pls
1375 1062 Pls
1378 1101 Pls
1381 1355 Pls
1384 1301 Pls
1387 1810 Pls
1390 1964 Pls
1393 1213 Pls
1397 1876 Pls
1400 1473 Pls
1403 1424 Pls
1406 1545 Pls
1409 1556 Pls
1412 1753 Pls
1415 1584 Pls
1419 1047 Pls
1422 927 Pls
1425 2121 Pls
1428 1898 Pls
1431 2156 Pls
1434 1246 Pls
1437 2089 Pls
1440 1221 Pls
1444 1402 Pls
1447 1076 Pls
1450 1466 Pls
1453 1521 Pls
1456 1537 Pls
1459 1160 Pls
1462 1709 Pls
1465 1559 Pls
1469 1535 Pls
1472 1634 Pls
1475 1153 Pls
1478 1166 Pls
1481 1358 Pls
1484 2244 Pls
1487 1456 Pls
1491 1557 Pls
1494 1182 Pls
1497 1216 Pls
1500 1531 Pls
1503 937 Pls
1506 999 Pls
1509 2030 Pls
1512 1033 Pls
1516 1454 Pls
1519 1505 Pls
1522 1304 Pls
1525 1032 Pls
1528 1182 Pls
1531 941 Pls
1534 1216 Pls
1537 1309 Pls
1541 1266 Pls
1544 1448 Pls
1547 926 Pls
1550 1182 Pls
1553 1504 Pls
1556 1197 Pls
1559 1209 Pls
1563 1281 Pls
1566 1265 Pls
1569 1205 Pls
1572 1152 Pls
1575 1255 Pls
1578 1252 Pls
1581 1513 Pls
1584 1330 Pls
1588 1506 Pls
1591 1566 Pls
1594 881 Pls
1597 984 Pls
1600 1450 Pls
1603 2087 Pls
1606 936 Pls
1609 2005 Pls
1613 1661 Pls
1616 1821 Pls
1619 1059 Pls
1622 1271 Pls
1625 1982 Pls
1628 1264 Pls
1631 1577 Pls
1635 1221 Pls
1638 1559 Pls
1641 1770 Pls
1644 1117 Pls
1647 1554 Pls
1650 1761 Pls
1653 1627 Pls
1656 1241 Pls
1660 1031 Pls
1663 1427 Pls
1666 1266 Pls
1669 897 Pls
1672 1881 Pls
1675 1642 Pls
1678 1543 Pls
1681 1390 Pls
1685 1392 Pls
1688 1433 Pls
1691 1566 Pls
1694 1320 Pls
1697 1086 Pls
1700 1554 Pls
1703 2404 Pls
1707 1764 Pls
1710 1177 Pls
1713 1740 Pls
1716 1628 Pls
1719 1837 Pls
1722 1953 Pls
1725 1310 Pls
1728 2140 Pls
1732 1957 Pls
1735 1717 Pls
1738 1302 Pls
1741 1495 Pls
1744 1789 Pls
1747 1693 Pls
1750 1971 Pls
1754 2140 Pls
1757 1398 Pls
1760 1981 Pls
1763 1420 Pls
1766 1640 Pls
1769 1199 Pls
1772 1939 Pls
1775 1396 Pls
1779 1431 Pls
1782 2543 Pls
1785 1140 Pls
1788 1891 Pls
1791 1706 Pls
1794 1752 Pls
1797 1780 Pls
1800 1706 Pls
1804 1510 Pls
1807 1582 Pls
1810 1244 Pls
1813 1178 Pls
1816 780 Pls
1819 1503 Pls
1822 1525 Pls
1826 1673 Pls
1829 2638 Pls
1832 2050 Pls
1835 1257 Pls
1838 1773 Pls
1841 1497 Pls
1844 1443 Pls
1847 1633 Pls
1851 1568 Pls
1854 2405 Pls
1857 1487 Pls
1860 1532 Pls
1863 1345 Pls
1866 1417 Pls
1869 1079 Pls
1872 1816 Pls
1876 1952 Pls
1879 1637 Pls
1882 1994 Pls
1885 1318 Pls
1888 1879 Pls
1891 2284 Pls
1894 1997 Pls
1898 1856 Pls
1901 1642 Pls
1904 1947 Pls
1907 1251 Pls
1910 2102 Pls
1913 931 Pls
1916 2557 Pls
1919 2120 Pls
1923 1719 Pls
1926 1547 Pls
1929 1679 Pls
1932 1774 Pls
1935 1725 Pls
1938 1267 Pls
1941 1591 Pls
1944 1391 Pls
1948 1273 Pls
1951 1801 Pls
1954 1361 Pls
1957 1605 Pls
1960 1500 Pls
1963 1484 Pls
1966 1100 Pls
1970 1477 Pls
1973 1740 Pls
1976 1847 Pls
1979 1628 Pls
1982 2090 Pls
1985 1598 Pls
1988 1330 Pls
1991 2066 Pls
1995 1895 Pls
1998 1859 Pls
2001 1618 Pls
2004 1709 Pls
2007 1774 Pls
2010 1669 Pls
2013 1556 Pls
2016 1451 Pls
2020 2768 Pls
2023 1634 Pls
2026 1932 Pls
2029 1612 Pls
2032 1762 Pls
2035 1296 Pls
2038 1831 Pls
2042 1482 Pls
2045 1163 Pls
2048 1689 Pls
2051 1770 Pls
2054 1303 Pls
2057 1401 Pls
2060 1934 Pls
2063 2160 Pls
2067 1471 Pls
2070 1834 Pls
2073 1374 Pls
2076 1111 Pls
2079 905 Pls
2082 1657 Pls
2085 2012 Pls
2088 1481 Pls
2092 1380 Pls
2095 1986 Pls
2098 1493 Pls
2101 1130 Pls
2104 1647 Pls
2107 1556 Pls
2110 1501 Pls
2114 1992 Pls
2117 1678 Pls
2120 1418 Pls
2123 1984 Pls
2126 1351 Pls
2129 1550 Pls
2132 1216 Pls
2135 1450 Pls
2139 1418 Pls
2142 1178 Pls
2145 1676 Pls
2148 1159 Pls
2151 1362 Pls
2154 1463 Pls
2157 1348 Pls
2160 1965 Pls
2164 2094 Pls
2167 1668 Pls
2170 1338 Pls
2173 1421 Pls
2176 2078 Pls
2179 1738 Pls
2182 1845 Pls
2186 2044 Pls
2189 1634 Pls
2192 2275 Pls
2195 1830 Pls
2198 2054 Pls
2201 1061 Pls
2204 2558 Pls
2207 1843 Pls
2211 1800 Pls
2214 2505 Pls
2217 1971 Pls
2220 1491 Pls
2223 1289 Pls
2226 1458 Pls
2229 1828 Pls
2232 1180 Pls
2236 2320 Pls
2239 1316 Pls
2242 3212 Pls
2245 1339 Pls
2248 1673 Pls
2251 1891 Pls
2254 1233 Pls
2258 965 Pls
2261 1617 Pls
2264 1393 Pls
2267 1634 Pls
2270 2160 Pls
2273 1080 Pls
2276 1846 Pls
2279 1170 Pls
2283 1943 Pls
2286 1678 Pls
2289 1529 Pls
2292 1885 Pls
2295 2432 Pls
2298 2068 Pls
2301 1214 Pls
2304 1553 Pls
2308 1686 Pls
2311 2192 Pls
2314 1983 Pls
2317 2821 Pls
2320 1716 Pls
2323 1334 Pls
2326 1527 Pls
2330 2414 Pls
2333 1699 Pls
2336 1307 Pls
2339 1245 Pls
2342 1288 Pls
2345 2166 Pls
2348 878 Pls
2351 2331 Pls
2355 1984 Pls
2358 1783 Pls
2361 1585 Pls
2364 1540 Pls
2367 2599 Pls
2370 1168 Pls
2373 1623 Pls
2376 1377 Pls
2380 1679 Pls
2383 1313 Pls
2386 1683 Pls
2389 1982 Pls
2392 1453 Pls
2395 1866 Pls
2398 2667 Pls
2402 2003 Pls
2405 2228 Pls
2408 1385 Pls
2411 2376 Pls
2414 1705 Pls
2417 1471 Pls
2420 1859 Pls
2423 1481 Pls
2427 1964 Pls
2430 1369 Pls
2433 2662 Pls
2436 1544 Pls
2439 2083 Pls
2442 1313 Pls
2445 1295 Pls
2448 1884 Pls
2452 1947 Pls
2455 1515 Pls
2458 1993 Pls
2461 1892 Pls
2464 1968 Pls
2467 1756 Pls
2470 1579 Pls
2474 2453 Pls
2477 1720 Pls
2480 1556 Pls
2483 2359 Pls
2486 2656 Pls
2489 1612 Pls
2492 2613 Pls
2495 2364 Pls
2499 1991 Pls
2502 2193 Pls
2505 1483 Pls
2508 2426 Pls
2511 2380 Pls
2514 1751 Pls
2517 2196 Pls
2520 1956 Pls
2524 1413 Pls
2527 1838 Pls
2530 1712 Pls
2533 1387 Pls
2536 1949 Pls
2539 1245 Pls
2542 1800 Pls
2546 1197 Pls
2549 1470 Pls
2552 1605 Pls
2555 1479 Pls
2558 1950 Pls
2561 1885 Pls
2564 1965 Pls
2567 1772 Pls
2571 1954 Pls
2574 1581 Pls
2577 1204 Pls
2580 1898 Pls
2583 1096 Pls
2586 1676 Pls
2589 2145 Pls
2592 1712 Pls
2596 1930 Pls
2599 1850 Pls
2602 1409 Pls
2605 1992 Pls
2608 2067 Pls
2611 2734 Pls
2614 1797 Pls
2618 1588 Pls
2621 1841 Pls
2624 2621 Pls
2627 1315 Pls
2630 1367 Pls
2633 1885 Pls
2636 2091 Pls
2639 1830 Pls
2643 3004 Pls
2646 2186 Pls
2649 2433 Pls
2652 1429 Pls
2655 2839 Pls
2658 2225 Pls
2661 2319 Pls
2664 1511 Pls
2668 1318 Pls
2671 2029 Pls
2674 1972 Pls
2677 2290 Pls
2680 1639 Pls
2683 2058 Pls
2686 1855 Pls
2690 1767 Pls
2693 2081 Pls
2696 1638 Pls
2699 2089 Pls
2702 2384 Pls
2705 2656 Pls
2708 1919 Pls
2711 1272 Pls
2715 1932 Pls
2718 1385 Pls
2721 1324 Pls
2724 2365 Pls
2727 2504 Pls
2730 1224 Pls
2733 1315 Pls
2736 2020 Pls
2740 1683 Pls
2743 1858 Pls
2746 1804 Pls
2749 1829 Pls
2752 2045 Pls
2755 1606 Pls
2758 1859 Pls
2762 2926 Pls
2765 1820 Pls
2768 1891 Pls
2771 1716 Pls
2774 2146 Pls
2777 1336 Pls
2780 1709 Pls
2783 2773 Pls
2787 2580 Pls
2790 1913 Pls
2793 2228 Pls
2796 2724 Pls
2799 1284 Pls
2802 1974 Pls
2805 1662 Pls
2808 2256 Pls
2812 2541 Pls
2815 1294 Pls
2818 2044 Pls
2821 1986 Pls
2824 2525 Pls
2827 1617 Pls
2830 1544 Pls
2834 2778 Pls
2837 1305 Pls
2840 1218 Pls
2843 1944 Pls
2846 1561 Pls
2849 1408 Pls
2852 1139 Pls
2855 1737 Pls
2859 2050 Pls
2862 2383 Pls
2865 1982 Pls
2868 1483 Pls
2871 1232 Pls
2874 1868 Pls
2877 1623 Pls
2880 1749 Pls
2884 2155 Pls
2887 1581 Pls
2890 1810 Pls
2893 2287 Pls
2896 1866 Pls
2899 2561 Pls
2902 1785 Pls
2906 2326 Pls
2909 1528 Pls
2912 1383 Pls
2915 2786 Pls
2918 4118 Pls
2921 1996 Pls
2924 2150 Pls
2927 2144 Pls
2931 1736 Pls
2934 1690 Pls
2937 1548 Pls
2940 1999 Pls
2943 1545 Pls
2946 2594 Pls
2949 1359 Pls
2952 2286 Pls
2956 2073 Pls
2959 2225 Pls
2962 1284 Pls
2965 1496 Pls
2968 1667 Pls
2971 1874 Pls
2974 1697 Pls
2978 2010 Pls
2981 2205 Pls
2984 3625 Pls
2987 2165 Pls
2990 1511 Pls
2993 2245 Pls
2996 1306 Pls
2999 1581 Pls
3003 1106 Pls
3006 1774 Pls
3009 1330 Pls
3012 2745 Pls
3015 1768 Pls
3018 2087 Pls
3021 1686 Pls
3024 2026 Pls
3028 2566 Pls
3031 2178 Pls
3034 1902 Pls
3037 2456 Pls
3040 1740 Pls
3043 2979 Pls
3046 1888 Pls
3050 1627 Pls
3053 2288 Pls
3056 2319 Pls
3059 1430 Pls
3062 1977 Pls
3065 2250 Pls
3068 1744 Pls
3071 1210 Pls
3075 1721 Pls
3078 1464 Pls
3081 1922 Pls
3084 944 Pls
3087 2114 Pls
3090 1595 Pls
3093 1689 Pls
3096 1674 Pls
3100 1642 Pls
3103 1716 Pls
3106 1843 Pls
3109 2433 Pls
3112 1701 Pls
3115 1440 Pls
3118 1868 Pls
3122 1711 Pls
3125 2276 Pls
3128 1953 Pls
3131 1830 Pls
3134 1968 Pls
3137 1516 Pls
3140 2375 Pls
3143 1777 Pls
3147 2161 Pls
3150 2087 Pls
3153 1837 Pls
3156 2088 Pls
3159 1798 Pls
3162 1489 Pls
3165 2296 Pls
3168 2113 Pls
3172 2072 Pls
3175 2522 Pls
3178 1556 Pls
3181 2804 Pls
3184 1900 Pls
3187 1895 Pls
3190 2007 Pls
3194 1366 Pls
3197 1577 Pls
3200 2242 Pls
3203 2020 Pls
3206 1281 Pls
3209 1610 Pls
3212 1842 Pls
3215 1322 Pls
3219 1459 Pls
3222 2038 Pls
3225 1911 Pls
3228 1957 Pls
3231 2510 Pls
3234 2082 Pls
3237 1707 Pls
3240 2792 Pls
3244 2269 Pls
3247 2962 Pls
3250 1799 Pls
3253 2611 Pls
3256 2072 Pls
3259 1247 Pls
3262 1599 Pls
3266 2441 Pls
3269 1712 Pls
3272 1620 Pls
3275 1727 Pls
3278 2223 Pls
3281 2003 Pls
3284 2204 Pls
3287 1700 Pls
3291 2065 Pls
3294 1805 Pls
3297 2426 Pls
3300 2408 Pls
3303 2510 Pls
3306 2500 Pls
3309 2054 Pls
3312 1592 Pls
3316 1560 Pls
3319 1305 Pls
3322 1806 Pls
3325 1905 Pls
3328 2310 Pls
3331 2516 Pls
3334 2170 Pls
3338 2686 Pls
3341 1560 Pls
3344 1532 Pls
3347 2150 Pls
3350 1772 Pls
3353 1841 Pls
3356 2122 Pls
3359 1218 Pls
3363 1856 Pls
3366 2003 Pls
3369 1940 Pls
3372 1997 Pls
3375 1417 Pls
3378 2143 Pls
3381 2264 Pls
3384 2195 Pls
3388 1410 Pls
3391 2148 Pls
3394 2309 Pls
3397 1993 Pls
3400 1502 Pls
3403 2036 Pls
3406 1606 Pls
3410 1784 Pls
3413 2477 Pls
3416 1831 Pls
3419 1409 Pls
3422 1721 Pls
3425 1697 Pls
3428 1040 Pls
3431 1194 Pls
3435 1826 Pls
3438 2036 Pls
3441 1899 Pls
3444 2265 Pls
3447 1879 Pls
3450 1857 Pls
3453 2642 Pls
3456 2330 Pls
3460 1323 Pls
3463 2519 Pls
3466 1616 Pls
3469 1024 Pls
3472 1484 Pls
3475 1591 Pls
3478 1023 Pls
3482 2221 Pls
3485 2194 Pls
3488 1536 Pls
3491 1879 Pls
3494 996 Pls
3497 1726 Pls
3500 1172 Pls
3503 2130 Pls
3507 2259 Pls
3510 2598 Pls
3513 2176 Pls
3516 2205 Pls
3519 1681 Pls
3522 1818 Pls
3525 1550 Pls
3528 1889 Pls
3532 1568 Pls
3535 2588 Pls
3538 1913 Pls
3541 2115 Pls
3544 1149 Pls
3547 1631 Pls
3550 2426 Pls
3554 2432 Pls
3557 2235 Pls
3560 2073 Pls
3563 1245 Pls
3566 2891 Pls
3569 1894 Pls
3572 1358 Pls
3575 1727 Pls
3579 1398 Pls
3582 1979 Pls
3585 1741 Pls
3588 1752 Pls
3591 2229 Pls
3594 2548 Pls
3597 2316 Pls
3600 1592 Pls
3604 1895 Pls
3607 2270 Pls
3610 1711 Pls
3613 1684 Pls
3616 1580 Pls
3619 1569 Pls
3622 2843 Pls
3626 2214 Pls
3629 1468 Pls
3632 1850 Pls
3635 1653 Pls
3638 1425 Pls
3641 2542 Pls
3644 1973 Pls
3647 2035 Pls
3651 2103 Pls
3654 1821 Pls
3657 1600 Pls
3660 2525 Pls
3663 1542 Pls
3666 1602 Pls
3669 1971 Pls
3672 2443 Pls
3676 1884 Pls
3679 1940 Pls
3682 1531 Pls
3685 1625 Pls
3688 2849 Pls
3691 3068 Pls
3694 2214 Pls
3698 2161 Pls
3701 3758 Pls
3704 1921 Pls
3707 2184 Pls
3710 1952 Pls
3713 1339 Pls
3716 1205 Pls
3719 1404 Pls
3723 1674 Pls
3726 2341 Pls
3729 3315 Pls
3732 1817 Pls
3735 1613 Pls
3738 1835 Pls
3741 1675 Pls
3744 1177 Pls
3748 1874 Pls
3751 1876 Pls
3754 1291 Pls
3757 1557 Pls
3760 1582 Pls
3763 2687 Pls
3766 1338 Pls
3770 2108 Pls
3773 1961 Pls
3776 2553 Pls
3779 1804 Pls
3782 2351 Pls
3785 1454 Pls
3788 1897 Pls
3791 1417 Pls
3795 1251 Pls
3798 2115 Pls
3801 1997 Pls
3804 1711 Pls
3807 2083 Pls
3810 1266 Pls
3813 2140 Pls
3817 2284 Pls
3820 2067 Pls
3823 2732 Pls
3826 1916 Pls
3829 2130 Pls
3832 1472 Pls
3835 1578 Pls
3838 2859 Pls
3842 1272 Pls
3845 1994 Pls
3848 3307 Pls
3851 1517 Pls
3854 2132 Pls
3857 1960 Pls
3860 1786 Pls
3863 1799 Pls
3867 2014 Pls
3870 854 Pls
3873 1585 Pls
3876 1516 Pls
3879 1516 Pls
3882 1416 Pls
3885 2234 Pls
3889 1513 Pls
3892 1617 Pls
3895 1856 Pls
3898 2363 Pls
3901 1569 Pls
3904 2069 Pls
3907 1191 Pls
3910 1752 Pls
3914 2920 Pls
3917 1548 Pls
3920 1946 Pls
3923 1353 Pls
3926 1989 Pls
3929 1184 Pls
3932 1552 Pls
3935 2862 Pls
3939 1417 Pls
3942 1809 Pls
3945 1564 Pls
3948 1247 Pls
3951 1699 Pls
3954 1785 Pls
3957 3372 Pls
3961 1511 Pls
3964 1827 Pls
3967 1480 Pls
3970 1985 Pls
3973 1489 Pls
3976 1864 Pls
3979 1912 Pls
3982 1462 Pls
3986 2182 Pls
3989 1452 Pls
3992 2207 Pls
3995 3389 Pls
3998 1872 Pls
4001 1922 Pls
4004 2358 Pls
4007 1883 Pls
4011 2108 Pls
4014 1791 Pls
4017 2674 Pls
4020 2589 Pls
4023 1903 Pls
4026 1786 Pls
4029 1872 Pls
4033 2449 Pls
4036 2814 Pls
4039 1983 Pls
4042 1972 Pls
4045 1960 Pls
4048 2207 Pls
4051 2832 Pls
4054 1510 Pls
4058 1993 Pls
4061 1297 Pls
4064 1636 Pls
4067 2365 Pls
4070 1810 Pls
4073 2498 Pls
4076 1709 Pls
4079 1758 Pls
4083 2154 Pls
4086 1433 Pls
4089 2170 Pls
4092 1251 Pls
4095 2228 Pls
4098 2383 Pls
4101 1262 Pls
4105 1601 Pls
4108 1564 Pls
4111 1333 Pls
4114 1631 Pls
4117 2196 Pls
4120 1599 Pls
4123 1902 Pls
4126 1471 Pls
4130 3097 Pls
4133 1702 Pls
4136 2402 Pls
4139 2523 Pls
4142 1625 Pls
4145 1674 Pls
4148 1560 Pls
4151 1294 Pls
4155 2386 Pls
4158 2646 Pls
4161 2211 Pls
4164 3502 Pls
4167 1600 Pls
4170 2079 Pls
4173 2687 Pls
4177 1496 Pls
4180 1675 Pls
4183 2054 Pls
4186 1878 Pls
4189 2351 Pls
4192 1326 Pls
4195 2392 Pls
4198 1849 Pls
4202 1887 Pls
4205 1888 Pls
4208 1920 Pls
4211 1889 Pls
4214 2020 Pls
4217 3265 Pls
4220 2069 Pls
4223 1489 Pls
4227 2577 Pls
4230 1849 Pls
4233 1889 Pls
4236 2272 Pls
4239 2352 Pls
4242 2453 Pls
4245 1814 Pls
4249 2075 Pls
4252 2258 Pls
4255 1955 Pls
4258 2099 Pls
4261 1663 Pls
4264 1702 Pls
4267 2023 Pls
4270 1291 Pls
4274 1621 Pls
4277 3441 Pls
4280 1745 Pls
4283 2699 Pls
4286 1808 Pls
4289 2018 Pls
4292 2361 Pls
4295 1822 Pls
4299 2223 Pls
4302 2924 Pls
4305 2868 Pls
4308 2357 Pls
4311 1575 Pls
4314 1873 Pls
4317 1651 Pls
4321 1558 Pls
4324 1435 Pls
4327 1632 Pls
4330 1835 Pls
4333 2664 Pls
4336 1721 Pls
4339 1682 Pls
4342 1866 Pls
4346 2136 Pls
4349 3282 Pls
4352 2464 Pls
4355 2120 Pls
4358 1822 Pls
4361 1845 Pls
4364 2144 Pls
4367 2191 Pls
4371 1640 Pls
4374 1558 Pls
4377 1506 Pls
4380 1379 Pls
4383 2554 Pls
4386 2092 Pls
4389 1115 Pls
4393 1982 Pls
4396 2425 Pls
4399 1679 Pls
4402 2163 Pls
4405 2141 Pls
4408 2089 Pls
4411 2085 Pls
4414 1963 Pls
4418 1387 Pls
4421 2286 Pls
4424 1756 Pls
4427 1538 Pls
4430 1537 Pls
4433 1515 Pls
4436 2161 Pls
4439 1611 Pls
4443 1508 Pls
4446 2379 Pls
4449 2697 Pls
4452 2079 Pls
4455 2206 Pls
4458 1567 Pls
4461 2305 Pls
4465 1714 Pls
4468 1159 Pls
4471 1569 Pls
4474 2486 Pls
4477 2403 Pls
4480 2305 Pls
4483 2659 Pls
4486 2329 Pls
4490 1716 Pls
4493 1795 Pls
4496 2658 Pls
4499 1648 Pls
4502 2662 Pls
4505 2253 Pls
4508 2725 Pls
4511 2371 Pls
4515 2256 Pls
4518 1450 Pls
4521 1251 Pls
4524 1667 Pls
4527 1473 Pls
4530 1613 Pls
4533 1600 Pls
4537 1684 Pls
4540 1992 Pls
4543 1627 Pls
4546 2705 Pls
4549 2307 Pls
4552 1522 Pls
4555 1586 Pls
4558 1464 Pls
4562 1694 Pls
4565 1814 Pls
4568 1901 Pls
4571 2631 Pls
4574 1586 Pls
4577 2374 Pls
4580 2151 Pls
4583 1936 Pls
4587 2014 Pls
4590 1627 Pls
4593 1976 Pls
4596 1006 Pls
4599 2015 Pls
4602 1317 Pls
4605 1777 Pls
4609 1898 Pls
4612 1800 Pls
4615 1454 Pls
4618 2635 Pls
4621 1744 Pls
4624 1623 Pls
4627 1209 Pls
4630 1471 Pls
4634 1788 Pls
4637 2233 Pls
4640 1612 Pls
4643 1893 Pls
4646 1874 Pls
4649 1822 Pls
4652 2103 Pls
4655 1669 Pls
4659 1772 Pls
4662 1790 Pls
4665 2708 Pls
4668 1960 Pls
4671 2412 Pls
4674 1703 Pls
4677 1506 Pls
4681 1481 Pls
4684 1804 Pls
4687 1581 Pls
4690 2176 Pls
4693 1827 Pls
4696 1716 Pls
4699 1905 Pls
4702 2249 Pls
4706 1735 Pls
4709 1340 Pls
4712 2301 Pls
4715 2584 Pls
4718 1795 Pls
4721 2161 Pls
4724 3817 Pls
4727 1607 Pls
4731 2228 Pls
4734 1511 Pls
4737 2605 Pls
4740 1495 Pls
4743 1867 Pls
4746 1575 Pls
4749 2128 Pls
4753 1417 Pls
4756 1580 Pls
4759 2013 Pls
4762 1815 Pls
4765 2458 Pls
4768 2258 Pls
4771 1382 Pls
4774 2080 Pls
4778 1891 Pls
4781 2448 Pls
4784 2003 Pls
4787 2978 Pls
4790 1986 Pls
4793 1774 Pls
4796 1358 Pls
4799 1929 Pls
4803 2947 Pls
4806 1701 Pls
4809 2265 Pls
4812 1494 Pls
4815 1598 Pls
4818 2128 Pls
4821 1296 Pls
4825 1749 Pls
4828 1776 Pls
4831 2088 Pls
4834 3277 Pls
4837 1913 Pls
4840 3131 Pls
4843 1964 Pls
4846 1976 Pls
4850 1840 Pls
4853 1787 Pls
4856 2107 Pls
4859 2414 Pls
4862 2366 Pls
4865 1779 Pls
4868 2025 Pls
4871 1605 Pls
4875 1235 Pls
4878 1375 Pls
4881 1926 Pls
4884 1852 Pls
4887 1762 Pls
4890 2453 Pls
4893 1452 Pls
4897 1526 Pls
4900 3275 Pls
4903 1460 Pls
4906 1574 Pls
4909 2186 Pls
4912 1733 Pls
4915 2097 Pls
4918 1558 Pls
4922 1178 Pls
4925 1418 Pls
4928 2248 Pls
4931 1879 Pls
4934 2866 Pls
4937 1893 Pls
4940 2047 Pls
4943 2061 Pls
4947 1756 Pls
4950 1389 Pls
4953 2347 Pls
4956 1623 Pls
4959 2149 Pls
4962 2423 Pls
4965 2091 Pls
4969 2396 Pls
4972 1738 Pls
4975 1189 Pls
4978 2269 Pls
4981 1418 Pls
4984 1968 Pls
4987 2694 Pls
4990 1674 Pls
4994 1921 Pls
4997 2703 Pls
5000 2162 Pls
5003 2411 Pls
5006 1035 Pls
5009 2349 Pls
5012 1715 Pls
5015 2266 Pls
5019 1724 Pls
5022 1785 Pls
5025 2007 Pls
5028 2315 Pls
5031 2615 Pls
5034 2972 Pls
5037 1662 Pls
5041 1986 Pls
5044 2122 Pls
5047 1901 Pls
5050 2823 Pls
5053 1238 Pls
5056 2345 Pls
5059 2458 Pls
5062 1481 Pls
5066 1456 Pls
5069 1200 Pls
5072 2005 Pls
5075 1595 Pls
5078 1747 Pls
5081 1443 Pls
5084 1592 Pls
5087 2596 Pls
5091 1845 Pls
5094 1872 Pls
5097 2127 Pls
5100 1934 Pls
5103 1885 Pls
5106 2192 Pls
5109 2222 Pls
5113 1482 Pls
5116 1725 Pls
5119 4181 Pls
5122 1870 Pls
5125 2602 Pls
5128 2166 Pls
5131 2239 Pls
5134 3408 Pls
5138 2906 Pls
5141 2951 Pls
5144 2138 Pls
5147 1926 Pls
5150 2945 Pls
5153 1637 Pls
5156 2167 Pls
5159 1855 Pls
5163 1987 Pls
5166 1549 Pls
5169 1460 Pls
5172 2000 Pls
5175 2034 Pls
5178 2540 Pls
5181 2020 Pls
5185 1512 Pls
5188 1690 Pls
5191 1695 Pls
5194 1501 Pls
5197 1623 Pls
5200 2529 Pls
5203 1466 Pls
5206 1899 Pls
5210 1566 Pls
5213 1679 Pls
5216 1866 Pls
5219 2263 Pls
5222 1715 Pls
5225 1487 Pls
5228 1031 Pls
5231 1319 Pls
5235 1936 Pls
5238 1207 Pls
5241 1856 Pls
5244 1470 Pls
5247 1517 Pls
5250 2523 Pls
5253 1885 Pls
5257 1508 Pls
5260 1346 Pls
5263 2172 Pls
5266 1380 Pls
5269 1322 Pls
5272 2547 Pls
5275 1840 Pls
5278 1628 Pls
5282 2352 Pls
5285 2481 Pls
5288 1115 Pls
5291 1330 Pls
5294 1885 Pls
5297 2292 Pls
5300 1581 Pls
5303 1713 Pls
5307 1899 Pls
5310 2151 Pls
5313 1800 Pls
5316 2765 Pls
5319 1942 Pls
5322 2525 Pls
5325 1880 Pls
5329 1730 Pls
5332 2197 Pls
5335 2186 Pls
5338 3227 Pls
5341 2334 Pls
5344 1764 Pls
5347 1532 Pls
5350 1494 Pls
5354 3456 Pls
5357 2018 Pls
5360 1498 Pls
5363 1777 Pls
5366 1859 Pls
5369 1490 Pls
5372 1719 Pls
5375 1711 Pls
5379 1815 Pls
5382 1461 Pls
5385 2755 Pls
5388 2863 Pls
5391 2591 Pls
5394 1010 Pls
5397 2020 Pls
5401 2436 Pls
5404 1640 Pls
5407 2132 Pls
5410 2611 Pls
5413 3362 Pls
5416 2425 Pls
5419 2985 Pls
5422 1702 Pls
5426 1936 Pls
5429 1334 Pls
5432 1741 Pls
5435 2867 Pls
5438 2223 Pls
5441 1736 Pls
5444 1315 Pls
5447 2441 Pls
5451 1941 Pls
5454 1831 Pls
5457 1922 Pls
5460 1504 Pls
5463 1977 Pls
5466 1107 Pls
5469 1921 Pls
5473 2017 Pls
5476 2072 Pls
5479 2239 Pls
5482 1836 Pls
5485 1425 Pls
5488 1362 Pls
5491 1791 Pls
5494 1505 Pls
5498 2982 Pls
5501 2051 Pls
5504 1423 Pls
5507 2313 Pls
5510 2184 Pls
5513 2265 Pls
5516 1868 Pls
5519 1636 Pls
5523 2598 Pls
5526 2329 Pls
5529 2068 Pls
5532 1937 Pls
5535 2757 Pls
5538 2713 Pls
5541 2483 Pls
5545 2131 Pls
5548 1433 Pls
5551 2120 Pls
5554 1345 Pls
5557 1684 Pls
5560 2342 Pls
5563 2212 Pls
5566 2692 Pls
5570 2462 Pls
5573 3040 Pls
5576 1991 Pls
5579 1764 Pls
5582 1399 Pls
5585 1688 Pls
5588 2469 Pls
5591 2296 Pls
5595 2265 Pls
5598 2744 Pls
5601 2337 Pls
5604 2781 Pls
5607 2159 Pls
5610 1605 Pls
5613 1360 Pls
5617 1843 Pls
5620 2399 Pls
5623 1732 Pls
5626 2259 Pls
5629 2120 Pls
5632 2452 Pls
5635 2218 Pls
5638 2221 Pls
5642 2523 Pls
5645 2432 Pls
5648 2208 Pls
5651 2943 Pls
5654 2439 Pls
5657 2045 Pls
5660 2962 Pls
5663 1937 Pls
5667 2030 Pls
5670 1853 Pls
5673 2136 Pls
5676 2035 Pls
5679 1851 Pls
5682 1921 Pls
5685 2268 Pls
5689 2436 Pls
5692 1867 Pls
5695 2903 Pls
5698 2145 Pls
5701 1811 Pls
5704 2313 Pls
5707 2000 Pls
5710 1996 Pls
5714 2523 Pls
5717 2108 Pls
5720 1652 Pls
5723 2349 Pls
5726 1920 Pls
5729 2589 Pls
5732 2039 Pls
5735 1848 Pls
5739 2421 Pls
5742 1961 Pls
5745 2512 Pls
5748 1205 Pls
5751 1744 Pls
5754 1416 Pls
5757 2378 Pls
5761 2478 Pls
5764 869 Pls
5767 1894 Pls
5770 2347 Pls
5773 1850 Pls
5776 1811 Pls
5779 1473 Pls
5782 3035 Pls
5786 2338 Pls
5789 1121 Pls
5792 1657 Pls
5795 1945 Pls
5798 1987 Pls
5801 2190 Pls
5804 1508 Pls
5807 2390 Pls
5811 1662 Pls
5814 1325 Pls
5817 1919 Pls
5820 3035 Pls
5823 2000 Pls
5826 1961 Pls
5829 1380 Pls
5833 1661 Pls
5836 1383 Pls
5839 2048 Pls
5842 1581 Pls
5845 1638 Pls
5848 2023 Pls
5851 1132 Pls
5854 1451 Pls
5858 2246 Pls
5861 1431 Pls
5864 1387 Pls
5867 1507 Pls
5870 1595 Pls
5873 2415 Pls
5876 2157 Pls
5879 1127 Pls
5883 1404 Pls
5886 1297 Pls
5889 2194 Pls
5892 2312 Pls
5895 1456 Pls
5898 2228 Pls
5901 1345 Pls
5905 1908 Pls
5908 1392 Pls
5911 2010 Pls
5914 2128 Pls
5917 3452 Pls
5920 1709 Pls
5923 2428 Pls
5926 1508 Pls
5930 2048 Pls
5933 2663 Pls
5936 2626 Pls
5939 1834 Pls
5942 1680 Pls
5945 2040 Pls
5948 1674 Pls
5952 1703 Pls
5955 1691 Pls
5958 2170 Pls
5961 1626 Pls
5964 1664 Pls
5967 2672 Pls
5970 1322 Pls
5973 1383 Pls
5977 2951 Pls
5980 2481 Pls
5983 1251 Pls
5986 1435 Pls
5989 1905 Pls
5992 2024 Pls
5995 2433 Pls
5998 1722 Pls
6002 1263 Pls
6005 2394 Pls
6008 2351 Pls
6011 1404 Pls
6014 2025 Pls
6017 2735 Pls
6020 1197 Pls
6024 2254 Pls
6027 2512 Pls
6030 1942 Pls
6033 1578 Pls
6036 2086 Pls
6039 1641 Pls
6042 2174 Pls
6045 1128 Pls
6049 1569 Pls
6052 1534 Pls
6055 2491 Pls
6058 2056 Pls
6061 1940 Pls
6064 1953 Pls
6067 1652 Pls
6070 1866 Pls
6074 1832 Pls
6077 1602 Pls
6080 1336 Pls
6083 1911 Pls
6086 1926 Pls
6089 1262 Pls
6092 2333 Pls
6096 1787 Pls
6099 2110 Pls
6102 2181 Pls
6105 1561 Pls
6108 1667 Pls
6111 2723 Pls
6114 2584 Pls
6117 1957 Pls
6121 3241 Pls
6124 1219 Pls
6127 1986 Pls
6130 2019 Pls
6133 1785 Pls
6136 1761 Pls
6139 2113 Pls
6142 1410 Pls
6146 2024 Pls
6149 1818 Pls
6152 2529 Pls
6155 1850 Pls
6158 2121 Pls
6161 1067 Pls
6164 1918 Pls
6168 2082 Pls
6171 2641 Pls
6174 1891 Pls
6177 1284 Pls
6180 2246 Pls
6183 1770 Pls
6186 1540 Pls
6189 2378 Pls
6193 1881 Pls
6196 3141 Pls
6199 1600 Pls
6202 1780 Pls
6205 1906 Pls
6208 2779 Pls
6211 2799 Pls
6214 2519 Pls
6218 1568 Pls
6221 1663 Pls
6224 2645 Pls
6227 1921 Pls
6230 1407 Pls
6233 1758 Pls
6236 1728 Pls
6240 2829 Pls
6243 2420 Pls
6246 1782 Pls
6249 2542 Pls
6252 1752 Pls
6255 1807 Pls
6258 1745 Pls
6261 1913 Pls
6265 1704 Pls
6268 1806 Pls
6271 1752 Pls
6274 2725 Pls
6277 1355 Pls
6280 1849 Pls
6283 1912 Pls
6286 1177 Pls
6290 1471 Pls
6293 1501 Pls
6296 2093 Pls
6299 2328 Pls
6302 1223 Pls
6305 2626 Pls
6308 2824 Pls
6312 1678 Pls
6315 2822 Pls
6318 2405 Pls
6321 1609 Pls
6324 2298 Pls
6327 1835 Pls
6330 1579 Pls
6333 1951 Pls
6337 1587 Pls
6340 2193 Pls
6343 1855 Pls
6346 2272 Pls
6349 2442 Pls
6352 1874 Pls
6355 2812 Pls
6358 2205 Pls
6362 1600 Pls
6365 2876 Pls
6368 1874 Pls
6371 1229 Pls
6374 1931 Pls
6377 1883 Pls
6380 1631 Pls
6384 1552 Pls
6387 2488 Pls
6390 3011 Pls
6393 2476 Pls
6396 1402 Pls
6399 2610 Pls
6402 1458 Pls
6405 2017 Pls
6409 2521 Pls
6412 1715 Pls
6415 2145 Pls
6418 2664 Pls
6421 2235 Pls
6424 1522 Pls
6427 1758 Pls
6430 1605 Pls
6434 2378 Pls
6437 1889 Pls
6440 2625 Pls
6443 2564 Pls
6446 2213 Pls
6449 2454 Pls
6452 2041 Pls
6456 2177 Pls
6459 1941 Pls
6462 2902 Pls
6465 1732 Pls
6468 1695 Pls
6471 1702 Pls
6474 1934 Pls
6477 1861 Pls
6481 2024 Pls
6484 2456 Pls
6487 2209 Pls
6490 2685 Pls
6493 1836 Pls
6496 1942 Pls
6499 2364 Pls
6502 2711 Pls
6506 1264 Pls
6509 1245 Pls
6512 2410 Pls
6515 2301 Pls
6518 2560 Pls
6521 3396 Pls
6524 2486 Pls
6528 1644 Pls
6531 2187 Pls
6534 1441 Pls
6537 2259 Pls
6540 2345 Pls
6543 1731 Pls
6546 1758 Pls
6549 2646 Pls
6553 1772 Pls
6556 2634 Pls
6559 1679 Pls
6562 2536 Pls
6565 2031 Pls
6568 3405 Pls
6571 2047 Pls
6574 2422 Pls
6578 2115 Pls
6581 2412 Pls
6584 1902 Pls
6587 2626 Pls
6590 2663 Pls
6593 1798 Pls
6596 4398 Pls
6600 1683 Pls
6603 1561 Pls
6606 1921 Pls
6609 2912 Pls
6612 1121 Pls
6615 1681 Pls
6618 1294 Pls
6621 1626 Pls
6625 2298 Pls
6628 1945 Pls
6631 1933 Pls
6634 1770 Pls
6637 2541 Pls
6640 2431 Pls
6643 1589 Pls
6646 1685 Pls
6650 2214 Pls
6653 1601 Pls
6656 1684 Pls
6659 3482 Pls
6662 1487 Pls
6665 2872 Pls
6668 1864 Pls
6672 2080 Pls
6675 2025 Pls
6678 1361 Pls
6681 1526 Pls
6684 1461 Pls
6687 1283 Pls
6690 2407 Pls
6693 1925 Pls
6697 2543 Pls
6700 1680 Pls
6703 1742 Pls
6706 1797 Pls
6709 1953 Pls
6712 3069 Pls
6715 1514 Pls
6718 1287 Pls
6722 2969 Pls
6725 1723 Pls
6728 1780 Pls
6731 1519 Pls
6734 2025 Pls
6737 1481 Pls
6740 1738 Pls
6744 2394 Pls
6747 1310 Pls
6750 2478 Pls
6753 2180 Pls
6756 1824 Pls
6759 1895 Pls
6762 2238 Pls
6765 2535 Pls
6769 2466 Pls
6772 2010 Pls
6775 1633 Pls
6778 2736 Pls
6781 2027 Pls
6784 1795 Pls
6787 2305 Pls
6790 1564 Pls
6794 2483 Pls
6797 1937 Pls
6800 2334 Pls
6803 2828 Pls
6806 1652 Pls
6809 2026 Pls
6812 2287 Pls
6816 2124 Pls
6819 2713 Pls
6822 1755 Pls
6825 2162 Pls
6828 1772 Pls
6831 1636 Pls
6834 3092 Pls
6837 3295 Pls
6841 2090 Pls
6844 2553 Pls
6847 1778 Pls
6850 1465 Pls
6853 1704 Pls
6856 2039 Pls
6859 1782 Pls
6862 1108 Pls
6866 2312 Pls
6869 1752 Pls
6872 2170 Pls
6875 2523 Pls
6878 2264 Pls
6881 1655 Pls
6884 2614 Pls
6888 2171 Pls
6891 1941 Pls
6894 1950 Pls
6897 1557 Pls
6900 1531 Pls
6903 1423 Pls
6906 1672 Pls
6909 2906 Pls
6913 1630 Pls
6916 2625 Pls
6919 1899 Pls
6922 2187 Pls
6925 1576 Pls
6928 1244 Pls
6931 2428 Pls
6934 2117 Pls
6938 2501 Pls
6941 2306 Pls
6944 2375 Pls
6579 4738 Pls
% End plot #1
1.000 UL
LTb
686 4871 N
686 448 L
6261 0 V
0 4423 V
-6261 0 V
Z stroke
1.000 UP
1.000 UL
LTb
stroke
grestore
end
showpage
%%Trailer
%%DocumentFonts: Helvetica
